19
Coordinates from ORCA-job mol E -1152.664853927777
  C       0.086993      0.113241     -0.101669
  C       1.080149      1.065933     -0.236896
  C       0.410869     -1.118125      0.459142
  C       2.387635      0.779872      0.182815
  C       2.690054     -0.466396      0.742775
  C       1.695918     -1.423194      0.883749
  H       0.855053      2.035440     -0.667758
  C       3.430849      1.789628      0.040034
  H      -0.930084      0.308619     -0.419497
  N      -0.650753     -2.136590      0.607595
  H       3.702008     -0.686001      1.063541
  H       1.904602     -2.395458      1.313554
  N       3.262564      2.916203     -0.553593
  O       4.443266      3.654984     -0.497456
  O       4.660098      1.519136      0.577971
  S       5.804636      2.670805     -0.020665
  O       6.417194      2.103263     -1.222202
  O      -1.773788     -1.839392      0.222704
  O      -0.336923     -3.209576      1.105654
19
Coordinates from ORCA-job mol E -1152.664853897831
  C       0.086903      0.113279     -0.101513
  C       1.080053      1.065982     -0.236813
  C       0.410792     -1.118104      0.459281
  C       2.387586      0.779908      0.182783
  C       2.690019     -0.466372      0.742736
  C       1.695889     -1.423169      0.883802
  H       0.854920      2.035491     -0.667648
  C       3.430855      1.789625      0.039938
  H      -0.930217      0.308614     -0.419241
  N      -0.650779     -2.136537      0.607793
  H       3.701995     -0.685964      1.063427
  H       1.904540     -2.395442      1.313600
  N       3.262651      2.916109     -0.553902
  O       4.443351      3.654949     -0.497804
  O       4.660090      1.519207      0.578051
  S       5.804699      2.670890     -0.020561
  O       6.417500      2.103201     -1.221920
  O      -1.773798     -1.839462      0.222575
  O      -0.336709     -3.209816      1.105216
