! wB97X-D3BJ def2-TZVP TightSCF Opt Freq CPCM(THF)  # OptTS VeryTightOpt Freq SP NMR

* xyz 0 1
 C   -4.22985769   0.44682400  -0.02305560
 C   -3.32552774   1.50187792   0.06592686
 C   -3.77199477  -0.86781057  -0.15514560
 C   -1.93774924   1.24910819   0.02263578
 C   -1.48067716  -0.08000820  -0.11057461
 C   -2.39797883  -1.12392914  -0.19795502
 H   -3.67868846   2.53017619   0.16905134
 C   -1.00771309   2.31955307   0.11178003
 H   -5.30258864   0.65312489   0.01094287
 H   -4.48619539  -1.69202812  -0.22466179
 H   -0.40749075  -0.27985259  -0.14317037
 H   -2.03310705  -2.14900646  -0.30071154
 N   -0.18511716   3.15563238   0.17417208
 O    0.65080289   4.02591679   0.24076502
 N    2.95765089   1.29072129   0.98638806
 S    3.46774928   2.55511249   0.22545330
 O    3.65139328   2.53808288  -1.26619011
 C    2.59150435   0.03937664   0.49663526
 C    2.60191964  -0.32200590  -0.87126010
 C    2.18341745  -0.91267776   1.45649826
 C    2.21101019  -1.60420817  -1.24987880
 C    1.79820231  -2.19073687   1.06401828
 C    1.81011499  -2.54189004  -0.29093361
 H    2.92028354   0.41724371  -1.60761313
 H    2.18077211  -0.61475168   2.50767057
 H    2.22172337  -1.87760225  -2.30836430
 H    1.48720447  -2.91926401   1.81719771
 H    1.51093720  -3.54697872  -0.59962083
*
