21
m-B ES at r2SCAN-3c in the benzene
C -0.117254 0.269226 -0.129611
C 0.922516 1.190665 -0.253302
C 0.132865 -1.007844 0.386361
C 2.213376 0.829688 0.130763
C 2.475516 -0.445544 0.649358
C 1.428148 -1.346879 0.769897
H 0.711750 2.179863 -0.645688
C 3.299601 1.795647 -0.010406
O -1.338064 0.710654 -0.532033
H -0.662953 -1.735307 0.494428
H 3.480651 -0.723336 0.944007
H 1.618162 -2.338743 1.169046
N 3.222981 2.888024 -0.682004
O 4.439350 3.588577 -0.567413
O 4.481582 1.512572 0.623970
S 5.705462 2.578755 0.046950
O 6.366715 1.911580 -1.080729
C -2.441587 -0.193888 -0.426607
H -3.307488 0.354213 -0.799789
H -2.614600 -0.486986 0.616468
H -2.280269 -1.087796 -1.041986
