! r2SCAN-3c D4 CPCM(benzene) tightSCF
! Hirshfeld

%maxcore 10000

%pal
nprocs 18    # parallel execution
end

%output
   Print[ P_BondOrder_M ] 1
   Print[ P_BondOrder_L ] 1
end

* xyzfile 0 1  ini.xyz
