18
Coordinates from ORCA-job mol
  C   0.04449307001364     -0.19465500424751      0.36053299522281
  C   0.92484047666329      0.88300361950569      0.42430595812317
  C   0.53591941159425     -1.49739653329449      0.41760128494666
  C   2.31675658141186      0.64582339431585      0.54669865336787
  C   2.78333892921977     -0.67349955322996      0.60195702613250
  C   1.89933914100739     -1.74154638330307      0.53794362161640
  O   0.56117063762999      2.18617479385343      0.37940660601205
  C   3.20413766464877      1.74303209344550      0.61190994517184
  H   -1.02257174773988     -0.03058109505591      0.26698869197301
  H   -0.16314176186458     -2.32675549966397      0.36682875845345
  H   3.85114835086531     -0.84129394961748      0.69648619998372
  H   2.27416149041739     -2.75863509882819      0.58197301184347
  N   3.74510951879706      2.77607935641929      0.64422731150763
  O   4.35934330749827      3.81053352460088      0.68490839398560
  C   -0.82872789948612      2.48900378005149      0.26877430187016
  H   -0.89132950973567      3.57770443081366      0.25405954184247
  H   -1.38817868675519      2.10077730525884      1.12957458160109
  H   -1.25055897418554      2.08537081897595     -0.66073688365391
