17
Coordinates from ORCA-job mol
  C   -2.30733051868966     -0.77283945343509     -0.12731817838943
  C   -1.56383597721517      0.36514171606071     -0.43660801725881
  C   -1.67771022267666     -1.89975463859483      0.41748675436148
  C   -0.17208682279451      0.38379579431183     -0.20070493109978
  C   0.45625852064508     -0.74871478857205      0.34541867450493
  C   -0.29799388975959     -1.88298093009990      0.65119716891463
  H   -2.04920226895093      1.23914551238795     -0.85782491006312
  C   0.59154848462597      1.56682932621118     -0.52524168528953
  H   -3.37637603190457     -0.78079015805568     -0.31058544395092
  H   -2.25920487521071     -2.78353342497892      0.65732642455687
  H   1.52156954170198     -0.73360121158488      0.52337013029134
  H   0.19324561847351     -2.75352095674333      1.07204110893960
  N   0.44057245671537      2.66658135680994     -1.00242441786496
  O   0.48083380194790      3.81242759212138     -1.45709152088533
  N   4.05435462666476     -0.07047848343024      0.95627460725914
  N   3.60507383863806      0.83864063375457      0.44179595498002
  O   2.36028471778918      1.55365411383735     -0.14711071900612
