21
Coordinates from ORCA-job mol
  C   -2.41088522794116     -0.78187446442056     -0.45716591954847
  C   -1.52082351719365      0.28246385329148     -0.61001246178309
  C   -1.96957965383333     -1.99064228592413      0.09250368522139
  C   -0.18387305119019      0.11477596658182     -0.23640229381030
  C   0.27083723602462     -1.09376997851442      0.31641708401835
  C   -0.63567872635730     -2.12790214588033      0.47596564216665
  H   -1.87202182151623      1.22155185778467     -1.02407201121183
  C   0.72470064830210      1.19221198686464     -0.41626482803693
  O   -3.68279685413526     -0.53703249883722     -0.86220934942918
  H   -2.64893410594917     -2.82388415083935      0.22807050231283
  H   1.30810336795439     -1.19582465683512      0.61245009391673
  H   -0.30409268759077     -3.06906221767420      0.90386714564224
  N   1.10413294199684      2.13548215483143     -1.06059071209926
  O   1.95383920705352      3.05395061434493     -0.97434529212234
  O   1.97888088687968      1.41245276046658      1.17225413917351
  S   3.14136899343152      2.32814239208712      0.80747609393456
  O   4.26365965297454      1.63310483111452      0.14078952410688
  C   -4.64356921345926     -1.58889065785412     -0.71784767021370
  H   -5.58148115058711     -1.18342438980571     -1.09864883012390
  H   -4.76569305321320     -1.87007134890703      0.33542685646557
  H   -4.35703387165056     -2.46829962187501     -1.30765339857973
