!DLPNO-CCSD(T) Extrapolate(3/4,cc) cc-pVQZ/C TightPNO TightSCF 
!CPCM(THF)
%geom maxiter 300 end
%maxcore 4000 
%pal nprocs 36
end

*xyz 0 1
6        1.543423000      1.264137000     -2.522246000
6        1.580193000      1.269661000     -1.140108000
6        0.386763000      1.672184000     -3.187439000
6        0.430415000      1.658850000     -0.445750000
6       -0.721911000      2.099298000     -1.101134000
6       -0.740496000      2.091361000     -2.485150000
1        2.466757000      0.969072000     -0.594164000
6        0.363647000      1.415721000      1.062040000
1        2.414758000      0.953489000     -3.086213000
1        0.369639000      1.674665000     -4.271914000
1       -1.576292000      2.431407000     -0.523456000
1       -1.624821000      2.421273000     -3.016874000
7        0.722385000      2.593253000      1.237950000
8        0.447892000      2.177017000      3.427001000
7        0.053307000      0.362871000      1.767971000
16       0.320687000      0.710963000      3.616944000
8        1.591404000      0.043553000      3.872352000
6       -0.308117000     -0.903827000      1.233389000
6        0.524413000     -1.996469000      1.454119000
6       -1.501941000     -1.047696000      0.533878000
6        0.152030000     -3.244181000      0.970427000
6       -1.855793000     -2.295014000      0.036039000
6       -1.033230000     -3.394212000      0.258290000
1        1.448563000     -1.859956000      2.002339000
1       -2.148070000     -0.188624000      0.393141000
1        0.795314000     -4.099765000      1.143922000
1       -2.783176000     -2.409641000     -0.514143000
1       -1.317742000     -4.369390000     -0.121210000

*
