14
Coordinates from ORCA-job ./PhCNO E -399.939071195933
  C      -3.966835      0.520783      0.402211
  C      -2.983455      1.455459      0.115944
  C      -3.680075     -0.838761      0.335300
  C      -1.706510      1.019793     -0.244289
  C      -1.416596     -0.343885     -0.319255
  C      -2.407623     -1.268046     -0.024943
  H      -3.195297      2.516866      0.168750
  C      -0.672106      1.974854     -0.531209
  H      -4.960008      0.854688      0.680323
  H      -4.451707     -1.565705      0.563837
  H      -0.422858     -0.667942     -0.600371
  H      -2.183083     -2.327455     -0.076611
  N       0.184294      2.707222     -0.758081
  O       1.105465      3.471818     -0.984627
14
Coordinates from ORCA-job ./PhCNO E -399.939109859374
  C      -3.965579      0.521545      0.402554
  C      -2.980307      1.455076      0.117492
  C      -3.681735     -0.838655      0.333423
  C      -1.703184      1.017702     -0.240014
  C      -1.415230     -0.347085     -0.314042
  C      -2.409323     -1.270283     -0.025522
  H      -3.190873      2.516869      0.169674
  C      -0.669343      1.973265     -0.530256
  H      -4.958477      0.857107      0.679855
  H      -4.455322     -1.564364      0.559189
  H      -0.420501     -0.672996     -0.594648
  H      -2.187673     -2.330173     -0.080135
  N       0.184055      2.709036     -0.759300
  O       1.097099      3.482645     -0.991291
14
Coordinates from ORCA-job ./PhCNO E -399.939145554341
  C      -3.962588      0.523471      0.401688
  C      -2.973554      1.453937      0.118124
  C      -3.684085     -0.837696      0.331137
  C      -1.697427      1.012417     -0.237426
  C      -1.414077     -0.353930     -0.310208
  C      -2.412158     -1.274260     -0.025555
  H      -3.180698      2.516451      0.170127
  C      -0.663782      1.968557     -0.529069
  H      -4.954250      0.862760      0.678955
  H      -4.460858     -1.560685      0.554596
  H      -0.418947     -0.683307     -0.588159
  H      -2.195424     -2.335029     -0.081754
  N       0.183048      2.712141     -0.757919
  O       1.078404      3.504860     -0.997557
14
Coordinates from ORCA-job ./PhCNO E -399.939148041427
  C      -3.961886      0.524012      0.401234
  C      -2.972250      1.453590      0.117233
  C      -3.684070     -0.837227      0.331678
  C      -1.696550      1.010976     -0.238624
  C      -1.414280     -0.355331     -0.311505
  C      -2.412591     -1.274683     -0.025340
  H      -3.178552      2.516243      0.169134
  C      -0.662545      1.966798     -0.528952
  H      -4.953282      0.864115      0.678423
  H      -4.461145     -1.559676      0.555874
  H      -0.419790     -0.685358     -0.589455
  H      -2.196438     -2.335622     -0.080423
  N       0.183023      2.712096     -0.756468
  O       1.073964      3.509755     -0.995829
14
Coordinates from ORCA-job ./PhCNO E -399.939149167065
  C      -3.961162      0.524581      0.400698
  C      -2.971059      1.453166      0.115849
  C      -3.683737     -0.836684      0.332757
  C      -1.695862      1.009409     -0.240795
  C      -1.414604     -0.356647     -0.313844
  C      -2.412880     -1.274847     -0.024967
  H      -3.176511      2.515948      0.167517
  C      -0.661677      1.965054     -0.529186
  H      -4.952314      0.865482      0.677698
  H      -4.460825     -1.558666      0.558489
  H      -0.421156     -0.687298     -0.592388
  H      -2.197044     -2.335955     -0.078179
  N       0.181695      2.713179     -0.754770
  O       1.070741      3.512967     -0.991899
14
Coordinates from ORCA-job ./PhCNO E -399.939150644491
  C      -3.960321      0.525214      0.400398
  C      -2.969289      1.452759      0.115495
  C      -3.684084     -0.836334      0.332771
  C      -1.694391      1.007745     -0.241035
  C      -1.414379     -0.358501     -0.313855
  C      -2.413616     -1.275650     -0.024777
  H      -3.173717      2.515746      0.166927
  C      -0.660078      1.963282     -0.529212
  H      -4.951195      0.867149      0.677119
  H      -4.461767     -1.557621      0.558719
  H      -0.421305     -0.690185     -0.592519
  H      -2.198837     -2.337007     -0.077650
  N       0.180598      2.714638     -0.754187
  O       1.065988      3.518456     -0.991215
14
Coordinates from ORCA-job ./PhCNO E -399.939154317161
  C      -3.958603      0.526476      0.399891
  C      -2.965771      1.451934      0.114753
  C      -3.684811     -0.835723      0.332765
  C      -1.691413      1.004452     -0.241425
  C      -1.413870     -0.362236     -0.313631
  C      -2.415149     -1.277354     -0.024422
  H      -3.168112      2.515346      0.165709
  C      -0.656723      1.959662     -0.529654
  H      -4.948868      0.870463      0.676247
  H      -4.463717     -1.555585      0.559019
  H      -0.421400     -0.696085     -0.592336
  H      -2.202499     -2.339174     -0.076888
  N       0.177091      2.718982     -0.753569
  O       1.057453      3.528531     -0.989481
14
Coordinates from ORCA-job ./PhCNO E -399.939156072241
  C      -3.957968      0.526897      0.399828
  C      -2.964529      1.451703      0.114681
  C      -3.685188     -0.835577      0.332539
  C      -1.690351      1.003413     -0.241213
  C      -1.413666     -0.363540     -0.313023
  C      -2.415748     -1.278102     -0.024360
  H      -3.166153      2.515274      0.165467
  C      -0.655159      1.958100     -0.530022
  H      -4.947988      0.871549      0.676248
  H      -4.464672     -1.554886      0.558513
  H      -0.421182     -0.698182     -0.591356
  H      -2.203874     -2.340054     -0.077150
  N       0.175345      2.721107     -0.753840
  O       1.054738      3.531986     -0.989331
14
Coordinates from ORCA-job ./PhCNO E -399.939156607171
  C      -3.957852      0.526933      0.399867
  C      -2.964392      1.451751      0.114744
  C      -3.685288     -0.835577      0.332408
  C      -1.690275      1.003395     -0.241027
  C      -1.413708     -0.363670     -0.312708
  C      -2.415840     -1.278297     -0.024398
  H      -3.165966      2.515342      0.165506
  C      -0.654539      1.957472     -0.530213
  H      -4.947824      0.871591      0.676460
  H      -4.464951     -1.554759      0.558151
  H      -0.421092     -0.698391     -0.590721
  H      -2.204010     -2.340231     -0.077468
  N       0.174843      2.721677     -0.754117
  O       1.054501      3.532453     -0.989504
