! wB97X-D3BJ def2-TZVP TightSCF Opt Freq CPCM(THF)  # OptTS VeryTightOpt Freq SP NMR

* xyz 0 1
 C    1.80621400   2.33453500  -2.39178000
 C    1.06144900   1.69086200  -1.41201300
 C    1.26473000   3.40521100  -3.10218000
 C   -0.24115900   2.12264900  -1.13733500
 C   -0.78768200   3.19346000  -1.84662700
 C   -0.03217900   3.83012700  -2.82522500
 H    1.48119700   0.85589800  -0.85640200
 C   -0.77501600   0.57598600   0.58332300
 H    2.81699800   1.99661900  -2.60244800
 H    1.85180500   3.90402400  -3.86735500
 H   -1.79940900   3.51591500  -1.62083300
 H   -0.46133400   4.66357500  -3.37387100
 N   -1.04251200   1.51210900  -0.15386200
 N   -0.58254200  -0.24008700   1.47138900
 C   -0.77497000  -1.63438700   1.45426400
 C   -0.47039100  -2.34556100   2.61620300
 C   -1.25436000  -2.30780600   0.32484200
 C   -0.64628300  -3.72464600   2.64696200
 C   -1.42599500  -3.68538100   0.36773100
 C   -1.12326700  -4.39973500   1.52625100
 H   -0.10005200  -1.80776800   3.48348900
 H   -1.48951900  -1.74834200  -0.57723800
 H   -0.40853000  -4.27366900   3.55352200
 H   -1.79846700  -4.20486800  -0.51069900
 H   -1.25912500  -5.47665600   1.55354000
*
