28
Coordinates from ORCA-job ./Products_b E -1160.115747255354
  C      -2.881417     -1.135140     -1.700638
  C      -2.354108     -0.179090     -0.833541
  C      -3.593060     -2.232874     -1.206533
  C      -2.541164     -0.323249      0.551878
  C      -3.253948     -1.423176      1.051323
  C      -3.775853     -2.371162      0.171826
  H      -1.793127      0.677658     -1.217846
  C      -1.406003      1.639456      1.468943
  H      -2.733606     -1.017192     -2.777430
  H      -4.003927     -2.976381     -1.893861
  H      -3.390544     -1.518720      2.130807
  H      -4.331170     -3.224661      0.569277
  N      -2.034450      0.603482      1.463175
  O      -0.125158      2.267504     -1.745910
  O      -0.806358      2.643123      1.621379
  S       0.922534      3.284290     -1.368727
  N       2.226161      2.867521     -0.623504
  C       2.657802      1.623949     -0.176122
  C       1.953369      0.413384     -0.373395
  C       2.478021     -0.778000      0.118657
  C       3.696665     -0.789135      0.807133
  C       4.399682      0.404920      1.004063
  C       3.887995      1.602502      0.516861
  H       1.006081      0.434854     -0.912993
  H       1.928757     -1.710406     -0.034993
  H       4.098890     -1.730268      1.190681
  H       5.351462      0.398779      1.541129
  H       4.416473      2.548034      0.658362
28
Coordinates from ORCA-job ./Products_b E -1160.122455892774
  C      -2.861521     -1.126015     -1.696685
  C      -2.317040     -0.179648     -0.839300
  C      -3.570587     -2.213004     -1.192094
  C      -2.469363     -0.331377      0.538890
  C      -3.179553     -1.415222      1.051704
  C      -3.729829     -2.350255      0.183722
  H      -1.770578      0.675371     -1.217699
  C      -1.219843      1.568440      1.408049
  H      -2.735842     -1.006244     -2.767554
  H      -3.997914     -2.946152     -1.867134
  H      -3.286490     -1.515386      2.125962
  H      -4.280699     -3.192979      0.587256
  N      -1.894166      0.576635      1.435883
  O      -0.110902      2.276142     -1.748271
  O      -0.569232      2.534829      1.522643
  S       0.901633      3.290022     -1.372346
  N       2.162716      2.873784     -0.617630
  C       2.585726      1.622022     -0.167031
  C       1.887652      0.421931     -0.380319
  C       2.400905     -0.767149      0.114861
  C       3.601312     -0.780049      0.820340
  C       4.297660      0.407901      1.032427
  C       3.795515      1.601791      0.541788
  H       0.957402      0.440795     -0.928049
  H       1.858341     -1.691594     -0.050182
  H       3.993719     -1.714999      1.204779
  H       5.232631      0.400896      1.581589
  H       4.318347      2.539516      0.694403
28
Coordinates from ORCA-job ./Products_b E -1160.124084094526
  C      -2.832972     -1.107932     -1.693999
  C      -2.280837     -0.162914     -0.843179
  C      -3.505794     -2.210060     -1.178485
  C      -2.396559     -0.328799      0.533220
  C      -3.073464     -1.422298      1.058321
  C      -3.627349     -2.360010      0.197778
  H      -1.752955      0.702242     -1.220817
  C      -1.178085      1.606020      1.373842
  H      -2.733694     -0.981011     -2.765446
  H      -3.934104     -2.947288     -1.846461
  H      -3.156691     -1.529308      2.132659
  H      -4.154273     -3.213228      0.607711
  N      -1.829011      0.602920      1.421239
  O      -0.094871      2.331401     -1.754014
  O      -0.547578      2.585684      1.462581
  S       0.903443      3.317722     -1.360989
  N       2.130655      2.872443     -0.621368
  C       2.533448      1.605744     -0.164833
  C       1.818091      0.423301     -0.381784
  C       2.308674     -0.773371      0.117279
  C       3.502810     -0.805822      0.826433
  C       4.216783      0.368504      1.039741
  C       3.735718      1.568806      0.546198
  H       0.894504      0.448504     -0.937651
  H       1.753106     -1.687856     -0.051906
  H       3.878053     -1.746090      1.211912
  H       5.148557      0.347115      1.591624
  H       4.274395      2.495584      0.700395
28
Coordinates from ORCA-job ./Products_b E -1160.124382265283
  C      -2.813121     -1.094724     -1.693616
  C      -2.253888     -0.147099     -0.849018
  C      -3.468553     -2.204266     -1.169514
  C      -2.342489     -0.321346      0.529975
  C      -2.997864     -1.424534      1.063666
  C      -3.560953     -2.362929      0.208488
  H      -1.739694      0.724771     -1.234479
  C      -1.105619      1.608448      1.362900
  H      -2.737083     -0.961902     -2.767189
  H      -3.905317     -2.942045     -1.833033
  H      -3.057317     -1.539761      2.139611
  H      -4.072193     -3.224089      0.624254
  N      -1.759052      0.605542      1.414075
  O      -0.112670      2.356417     -1.787098
  O      -0.470658      2.587215      1.446059
  S       0.895177      3.329286     -1.388934
  N       2.104561      2.872624     -0.629079
  C       2.494458      1.601536     -0.167293
  C       1.768944      0.426732     -0.393039
  C       2.243091     -0.775825      0.111533
  C       3.428420     -0.819970      0.836020
  C       4.150195      0.348571      1.060491
  C       3.686295      1.554462      0.561105
  H       0.849038      0.457792     -0.958368
  H       1.679404     -1.685331     -0.064020
  H       3.790025     -1.764731      1.226357
  H       5.074849      0.318581      1.625713
  H       4.232014      2.476574      0.724431
28
Coordinates from ORCA-job ./Products_b E -1160.124844769871
  C      -2.783088     -1.066006     -1.689144
  C      -2.213819     -0.113014     -0.855012
  C      -3.386063     -2.201304     -1.154077
  C      -2.244218     -0.310308      0.526564
  C      -2.841922     -1.442048      1.070791
  C      -3.412760     -2.385226      0.223894
  H      -1.733913      0.773882     -1.257579
  C      -1.057613      1.654091      1.366125
  H      -2.757624     -0.916796     -2.764028
  H      -3.832551     -2.941319     -1.810578
  H      -2.855666     -1.575379      2.147139
  H      -3.881394     -3.268485      0.646504
  N      -1.670815      0.624115      1.410666
  O      -0.131398      2.449268     -1.862769
  O      -0.458155      2.656779      1.453156
  S       0.919449      3.367836     -1.446356
  N       2.094972      2.863571     -0.663695
  C       2.441836      1.584583     -0.179916
  C       1.683631      0.430843     -0.408224
  C       2.115648     -0.782560      0.114137
  C       3.287753     -0.855807      0.859052
  C       4.039675      0.294479      1.087117
  C       3.619232      1.510643      0.569663
  H       0.772115      0.473136     -0.988921
  H       1.526248     -1.676726     -0.063244
  H       3.615452     -1.808578      1.262752
  H       4.954148      0.242905      1.669207
  H       4.190842      2.417427      0.736774
28
Coordinates from ORCA-job ./Products_b E -1160.125158295559
  C      -2.750644     -1.036346     -1.677194
  C      -2.165094     -0.079846     -0.858139
  C      -3.297695     -2.194573     -1.131185
  C      -2.125790     -0.297208      0.519955
  C      -2.666394     -1.451916      1.075580
  C      -3.252070     -2.399140      0.243065
  H      -1.723424      0.819867     -1.275841
  C      -0.966899      1.691234      1.342519
  H      -2.780934     -0.872608     -2.749661
  H      -3.757018     -2.936280     -1.776606
  H      -2.625113     -1.600747      2.148914
  H      -3.675570     -3.300937      0.673752
  N      -1.543086      0.640996      1.392892
  O      -0.149514      2.522281     -1.928731
  O      -0.397517      2.711898      1.421334
  S       0.935488      3.394981     -1.498657
  N       2.070023      2.852647     -0.683592
  C       2.368771      1.569048     -0.181856
  C       1.586382      0.436690     -0.428352
  C       1.974785     -0.787610      0.103234
  C       3.126425     -0.890881      0.875624
  C       3.900782      0.240412      1.123252
  C       3.524297      1.467017      0.596242
  H       0.688406      0.494080     -1.027724
  H       1.365763     -1.665376     -0.088575
  H       3.420592     -1.851752      1.285258
  H       4.799202      0.166156      1.727104
  H       4.115845      2.357912      0.777389
28
Coordinates from ORCA-job ./Products_b E -1160.125360333396
  C      -2.713195     -0.994415     -1.653026
  C      -2.108985     -0.033919     -0.852626
  C      -3.175441     -2.186268     -1.102967
  C      -1.974496     -0.277818      0.513617
  C      -2.427603     -1.467530      1.073184
  C      -3.026769     -2.421089      0.258609
  H      -1.721996      0.882322     -1.286473
  C      -0.899233      1.760004      1.328499
  H      -2.819423     -0.809560     -2.716538
  H      -3.646805     -2.930611     -1.735330
  H      -2.310676     -1.637114      2.137100
  H      -3.381143     -3.349742      0.692888
  N      -1.392756      0.669843      1.374546
  O      -0.160587      2.622027     -1.998530
  O      -0.400527      2.815768      1.408928
  S       0.976776      3.426211     -1.565228
  N       2.063817      2.825339     -0.728627
  C       2.289712      1.539424     -0.202392
  C       1.468442      0.438833     -0.459616
  C       1.789726     -0.794388      0.093715
  C       2.911519     -0.936577      0.901810
  C       3.722208      0.164890      1.163753
  C       3.414477      1.399232      0.612460
  H       0.587851      0.517620     -1.079963
  H       1.148767     -1.646256     -0.107111
  H       3.153254     -1.903643      1.328826
  H       4.596537      0.061396      1.796752
  H       4.036548      2.266019      0.803741
28
Coordinates from ORCA-job ./Products_b E -1160.125483762535
  C      -2.733290     -1.006734     -1.656593
  C      -2.137303     -0.047107     -0.849996
  C      -3.213414     -2.192123     -1.109430
  C      -2.027703     -0.282810      0.518430
  C      -2.501749     -1.465119      1.075632
  C      -3.093384     -2.418481      0.256547
  H      -1.739158      0.865797     -1.277907
  C      -0.946656      1.751725      1.326317
  H      -2.817839     -0.826418     -2.722449
  H      -3.677053     -2.936731     -1.746305
  H      -2.404691     -1.628122      2.142251
  H      -3.462717     -3.341038      0.690120
  N      -1.446865      0.665487      1.377829
  O      -0.147277      2.597221     -1.964568
  O      -0.442311      2.804328      1.402762
  S       0.974046      3.424557     -1.532631
  N       2.082175      2.832513     -0.716101
  C       2.325279      1.546349     -0.202737
  C       1.517910      0.434752     -0.460385
  C       1.855015     -0.794892      0.089099
  C       2.981079     -0.925513      0.892668
  C       3.780200      0.183937      1.153052
  C       3.456163      1.415040      0.606154
  H       0.634619      0.509209     -1.076731
  H       1.224036     -1.653757     -0.110941
  H       3.235317     -1.890042      1.317201
  H       4.657806      0.088957      1.782196
  H       4.067764      2.289015      0.796518
28
Coordinates from ORCA-job ./Products_b E -1160.125611573115
  C      -2.735756     -1.003298     -1.650456
  C      -2.140909     -0.041149     -0.846243
  C      -3.199103     -2.194676     -1.103031
  C      -2.012184     -0.279382      0.519387
  C      -2.471262     -1.467687      1.076556
  C      -3.063780     -2.423052      0.261613
  H      -1.758449      0.878246     -1.274123
  C      -0.943328      1.765248      1.314716
  H      -2.833276     -0.819176     -2.714474
  H      -3.662023     -2.941318     -1.737738
  H      -2.360046     -1.632315      2.141586
  H      -3.420359     -3.349665      0.696792
  N      -1.422437      0.669991      1.370294
  O      -0.144714      2.609142     -1.953676
  O      -0.455769      2.825727      1.387076
  S       0.981973      3.432941     -1.528513
  N       2.093462      2.829987     -0.723784
  C       2.322801      1.543033     -0.210701
  C       1.515352      0.433444     -0.478321
  C       1.837854     -0.796702      0.077376
  C       2.952224     -0.932143      0.896159
  C       3.754274      0.172969      1.164464
  C       3.444152      1.404368      0.611646
  H       0.640099      0.515025     -1.104912
  H       1.205052     -1.652329     -0.129865
  H       3.195465     -1.897116      1.325932
  H       4.623117      0.074057      1.804942
  H       4.057571      2.275831      0.807299
28
Coordinates from ORCA-job ./Products_b E -1160.125865540092
  C      -2.733900     -0.990713     -1.630488
  C      -2.140899     -0.019012     -0.836115
  C      -3.142195     -2.200371     -1.080269
  C      -1.954627     -0.263940      0.521902
  C      -2.361886     -1.470788      1.080703
  C      -2.954754     -2.434960      0.278051
  H      -1.806722      0.918547     -1.266123
  C      -0.929690      1.810694      1.295595
  H      -2.874114     -0.797865     -2.688376
  H      -3.603121     -2.955273     -1.706807
  H      -2.207419     -1.639963      2.140068
  H      -3.269811     -3.374683      0.717520
  N      -1.352010      0.692337      1.354442
  O      -0.140494      2.643483     -1.937669
  O      -0.488757      2.891919      1.363860
  S       1.009763      3.447557     -1.539903
  N       2.119577      2.819971     -0.750358
  C       2.308991      1.529661     -0.233933
  C       1.497128      0.431603     -0.534394
  C       1.772117     -0.803007      0.035783
  C       2.848292     -0.956961      0.901337
  C       3.659226      0.134136      1.200836
  C       3.395001      1.368996      0.633468
  H       0.649094      0.538923     -1.194071
  H       1.132290     -1.647112     -0.196391
  H       3.055088     -1.924968      1.343799
  H       4.499012      0.020523      1.877010
  H       4.014822      2.231265      0.850522
28
Coordinates from ORCA-job ./Products_b E -1160.126052337702
  C      -2.730572     -0.977293     -1.614978
  C      -2.136509     -0.000248     -0.827570
  C      -3.093960     -2.202051     -1.066002
  C      -1.901560     -0.255377      0.521930
  C      -2.265565     -1.477064      1.079125
  C      -2.861219     -2.445753      0.283819
  H      -1.843433      0.951772     -1.256564
  C      -0.879055      1.824984      1.286253
  H      -2.908426     -0.775654     -2.665818
  H      -3.555634     -2.961508     -1.686978
  H      -2.073224     -1.654170      2.131274
  H      -3.142045     -3.396978      0.722522
  N      -1.283702      0.699721      1.344507
  O      -0.147412      2.674529     -1.931405
  O      -0.451065      2.911903      1.354615
  S       1.027750      3.455299     -1.563250
  N       2.137204      2.809450     -0.787046
  C       2.292301      1.519328     -0.255631
  C       1.470216      0.434358     -0.573955
  C       1.701041     -0.800528      0.015735
  C       2.744932     -0.966975      0.918014
  C       3.569542      0.110672      1.232441
  C       3.349229      1.344922      0.645008
  H       0.648215      0.560843     -1.263177
  H       1.051521     -1.633919     -0.229138
  H       2.917215     -1.934382      1.377027
  H       4.385320     -0.013527      1.936032
  H       3.978896      2.197645      0.873211
28
Coordinates from ORCA-job ./Products_b E -1160.126182648171
  C      -2.736948     -0.975309     -1.609209
  C      -2.144515      0.004396     -0.823670
  C      -3.086539     -2.204873     -1.060386
  C      -1.899491     -0.253860      0.524509
  C      -2.249522     -1.479638      1.081774
  C      -2.842474     -2.451198      0.286472
  H      -1.866525      0.961475     -1.251687
  C      -0.862262      1.820262      1.290969
  H      -2.924834     -0.772196     -2.658221
  H      -3.546610     -2.966768     -1.680111
  H      -2.049575     -1.659146      2.132194
  H      -3.113528     -3.406221      0.723854
  N      -1.285466      0.701451      1.350803
  O      -0.148227      2.682492     -1.926610
  O      -0.419034      2.901569      1.359458
  S       1.039332      3.452878     -1.579790
  N       2.151214      2.808843     -0.804917
  C       2.298752      1.518071     -0.265260
  C       1.476120      0.437563     -0.595544
  C       1.692875     -0.797747      0.000185
  C       2.720576     -0.965364      0.920745
  C       3.544682      0.110058      1.246790
  C       3.339643      1.344433      0.652813
  H       0.669226      0.572011     -1.301636
  H       1.044428     -1.629669     -0.253194
  H       2.881209     -1.932372      1.385312
  H       4.348480     -0.016270      1.963959
  H       3.969014      2.195128      0.890397
28
Coordinates from ORCA-job ./Products_b E -1160.126299072412
  C      -2.732566     -0.965644     -1.599049
  C      -2.142574      0.017655     -0.816532
  C      -3.052866     -2.205491     -1.054357
  C      -1.879206     -0.246824      0.526719
  C      -2.198951     -1.481766      1.081258
  C      -2.784726     -2.458911      0.285616
  H      -1.885461      0.980022     -1.243707
  C      -0.839095      1.824834      1.299389
  H      -2.938415     -0.759352     -2.643905
  H      -3.509168     -2.970462     -1.672931
  H      -1.984252     -1.666397      2.127443
  H      -3.032635     -3.422350      0.718010
  N      -1.284188      0.714671      1.360312
  O      -0.154117      2.707675     -1.930382
  O      -0.380016      2.899396      1.368954
  S       1.056608      3.451679     -1.607100
  N       2.164856      2.796686     -0.835801
  C       2.291543      1.508331     -0.278082
  C       1.457450      0.439308     -0.614516
  C       1.649984     -0.794771     -0.007188
  C       2.661159     -0.967750      0.930211
  C       3.494650      0.098921      1.260962
  C       3.316262      1.332225      0.654922
  H       0.667585      0.580831     -1.338169
  H       0.995394     -1.620640     -0.264017
  H       2.802437     -1.933177      1.403906
  H       4.285996     -0.033362      1.990582
  H       3.954314      2.174664      0.897452
28
Coordinates from ORCA-job ./Products_b E -1160.126330757277
  C      -2.731791     -0.970367     -1.598175
  C      -2.150119      0.016730     -0.814385
  C      -3.051397     -2.210048     -1.052802
  C      -1.895606     -0.244041      0.530778
  C      -2.214342     -1.478460      1.086584
  C      -2.790730     -2.459958      0.289163
  H      -1.892214      0.978792     -1.241719
  C      -0.841638      1.822063      1.299955
  H      -2.931819     -0.767592     -2.644758
  H      -3.501726     -2.977610     -1.672390
  H      -2.006791     -1.660493      2.134526
  H      -3.037235     -3.423684      0.721461
  N      -1.313556      0.723472      1.367062
  O      -0.151145      2.715262     -1.925985
  O      -0.361711      2.887541      1.365222
  S       1.062703      3.455840     -1.605869
  N       2.170069      2.799028     -0.834976
  C       2.295379      1.510304     -0.277066
  C       1.463420      0.441062     -0.618827
  C       1.658478     -0.794343     -0.015359
  C       2.668251     -0.967502      0.923474
  C       3.497751      0.099847      1.259724
  C       3.318090      1.335032      0.657370
  H       0.675894      0.581274     -1.344898
  H       1.007612     -1.621669     -0.276416
  H       2.811528     -1.934240      1.393639
  H       4.287900     -0.033207      1.990368
  H       3.954747      2.176968      0.904301
28
Coordinates from ORCA-job ./Products_b E -1160.126404303396
  C      -2.714075     -0.969444     -1.589463
  C      -2.146712      0.026192     -0.806133
  C      -3.011624     -2.214639     -1.045051
  C      -1.884381     -0.231170      0.537478
  C      -2.181722     -1.471002      1.092730
  C      -2.743198     -2.461436      0.296160
  H      -1.903009      0.991682     -1.233492
  C      -0.838061      1.841524      1.299096
  H      -2.919846     -0.769307     -2.635329
  H      -3.451193     -2.988454     -1.664285
  H      -1.969851     -1.650388      2.140163
  H      -2.971919     -3.429575      0.727905
  N      -1.321086      0.748381      1.372487
  O      -0.151544      2.736273     -1.918377
  O      -0.351504      2.903923      1.360044
  S       1.073762      3.463089     -1.608383
  N       2.176593      2.791488     -0.843635
  C       2.284755      1.502591     -0.285075
  C       1.447935      0.440415     -0.636916
  C       1.626193     -0.796692     -0.032764
  C       2.624071     -0.978698      0.917228
  C       3.458062      0.081162      1.263389
  C       3.295887      1.318350      0.659894
  H       0.669631      0.586728     -1.371255
  H       0.972006     -1.618720     -0.301548
  H       2.754418     -1.946913      1.387825
  H       4.238760     -0.059124      2.002632
  H       3.937656      2.153764      0.914674
28
Coordinates from ORCA-job ./Products_b E -1160.126502478347
  C      -2.679047     -0.971608     -1.577222
  C      -2.140853      0.040656     -0.794470
  C      -2.942574     -2.223443     -1.031404
  C      -1.870099     -0.206877      0.549001
  C      -2.135127     -1.453352      1.105542
  C      -2.668399     -2.460026      0.311000
  H      -1.919319      1.010860     -1.223456
  C      -0.835049      1.876743      1.297005
  H      -2.889068     -0.779171     -2.623660
  H      -3.360237     -3.009852     -1.649809
  H      -1.918735     -1.625205      2.153401
  H      -2.869974     -3.433353      0.744420
  N      -1.331007      0.790115      1.379063
  O      -0.151688      2.772434     -1.907466
  O      -0.341264      2.935971      1.351930
  S       1.087947      3.477976     -1.604467
  N       2.181681      2.781743     -0.848744
  C       2.264280      1.490546     -0.295009
  C       1.421623      0.438776     -0.664463
  C       1.575600     -0.802848     -0.063908
  C       2.555643     -1.000973      0.901687
  C       3.396370      0.047086      1.265105
  C       3.258932      1.288637      0.664190
  H       0.655617      0.595211     -1.409383
  H       0.916640     -1.616094     -0.347038
  H       2.666924     -1.972745      1.369777
  H       4.163503     -0.105565      2.015980
  H       3.907679      2.114356      0.932399
28
Coordinates from ORCA-job ./Products_b E -1160.126656796454
  C      -2.586407     -0.975672     -1.545990
  C      -2.117627      0.074770     -0.768601
  C      -2.763694     -2.239430     -0.993439
  C      -1.822691     -0.146663      0.574073
  C      -2.005982     -1.404606      1.137363
  C      -2.472223     -2.448728      0.350535
  H      -1.955510      1.054461     -1.202992
  C      -0.832906      1.968535      1.297487
  H      -2.810146     -0.803737     -2.593144
  H      -3.128103     -3.055550     -1.606946
  H      -1.774792     -1.555881      2.185408
  H      -2.606621     -3.430752      0.790245
  N      -1.340268      0.888306      1.391487
  O      -0.150747      2.852777     -1.887949
  O      -0.338568      3.027861      1.344606
  S       1.120629      3.504855     -1.597773
  N       2.188394      2.754121     -0.856778
  C       2.209306      1.456606     -0.316612
  C       1.353012      0.434041     -0.733195
  C       1.445331     -0.819619     -0.146262
  C       2.377212     -1.059725      0.857194
  C       3.233057     -0.042263      1.268186
  C       3.158703      1.209975      0.678122
  H       0.620538      0.621212     -1.504076
  H       0.774719     -1.608665     -0.467528
  H       2.439162     -2.040080      1.316484
  H       3.963780     -0.227096      2.047616
  H       3.822441      2.010947      0.982477
28
Coordinates from ORCA-job ./Products_b E -1160.126517708466
  C      -2.447752     -0.980264     -1.507331
  C      -2.075422      0.113952     -0.737652
  C      -2.518475     -2.248872     -0.942493
  C      -1.758142     -0.067352      0.605961
  C      -1.841233     -1.330440      1.181090
  C      -2.216197     -2.417375      0.405821
  H      -1.986371      1.099672     -1.180499
  C      -0.844756      2.092783      1.300225
  H      -2.680501     -0.838563     -2.557097
  H      -2.808809     -3.099486     -1.548699
  H      -1.597588     -1.450237      2.230731
  H      -2.268483     -3.402081      0.856923
  N      -1.348920      1.012088      1.403876
  O      -0.152108      2.938716     -1.860901
  O      -0.365428      3.159398      1.341214
  S       1.149760      3.528652     -1.575286
  N       2.181341      2.712389     -0.851896
  C       2.129136      1.407228     -0.339679
  C       1.258425      0.423090     -0.814498
  C       1.276972     -0.845084     -0.253469
  C       2.149453     -1.140625      0.788324
  C       3.022195     -0.164089      1.258865
  C       3.022703      1.100568      0.691234
  H       0.564557      0.649287     -1.610256
  H       0.592920     -1.600868     -0.622600
  H       2.151724     -2.131109      1.229989
  H       3.708298     -0.390539      2.067436
  H       3.702699      1.869161      1.040666
28
Coordinates from ORCA-job ./Products_b E -1160.126568298368
  C      -2.468862     -0.992616     -1.528765
  C      -2.083760      0.097853     -0.759796
  C      -2.610176     -2.249017     -0.948922
  C      -1.814285     -0.076490      0.596584
  C      -1.969451     -1.327021      1.185052
  C      -2.364526     -2.408217      0.412130
  H      -1.945501      1.075210     -1.209480
  C      -0.893574      2.084059      1.279547
  H      -2.659429     -0.856419     -2.587985
  H      -2.911186     -3.097410     -1.553631
  H      -1.763120     -1.439837      2.243810
  H      -2.474806     -3.382585      0.875911
  N      -1.374157      0.993009      1.390996
  O      -0.165532      2.890511     -1.867379
  O      -0.428516      3.157910      1.312091
  S       1.096069      3.530255     -1.518845
  N       2.144999      2.747360     -0.783826
  C       2.154288      1.428698     -0.306163
  C       1.305028      0.421063     -0.771025
  C       1.388031     -0.857107     -0.237456
  C       2.306189     -1.143655      0.766780
  C       3.158940     -0.144458      1.229512
  C       3.091543      1.129870      0.689953
  H       0.572850      0.631594     -1.537167
  H       0.718141     -1.628617     -0.601019
  H       2.358251     -2.142504      1.186759
  H       3.880411     -0.360522      2.010021
  H       3.752142      1.919083      1.032313
28
Coordinates from ORCA-job ./Products_b E -1160.126502292959
  C      -2.581732     -0.981012     -1.547460
  C      -2.133487      0.073281     -0.763877
  C      -2.768379     -2.243844     -0.995791
  C      -1.867719     -0.145876      0.585424
  C      -2.062180     -1.401827      1.149365
  C      -2.507994     -2.449807      0.354193
  H      -1.968898      1.051066     -1.200856
  C      -0.838339      1.939161      1.347918
  H      -2.784024     -0.812844     -2.599578
  H      -3.117627     -3.062059     -1.615288
  H      -1.857136     -1.551499      2.202829
  H      -2.650715     -3.431405      0.792206
  N      -1.412454      0.890881      1.417482
  O      -0.144031      2.869358     -1.891769
  O      -0.292964      2.971717      1.419649
  S       1.139639      3.506194     -1.623284
  N       2.211579      2.750655     -0.893537
  C       2.229077      1.458443     -0.335271
  C       1.372117      0.434638     -0.746892
  C       1.467194     -0.815185     -0.151580
  C       2.399452     -1.047027      0.853777
  C       3.253618     -0.026022      1.258732
  C       3.178893      1.222640      0.659879
  H       0.644835      0.614378     -1.524938
  H       0.799094     -1.608280     -0.468302
  H       2.463293     -2.024559      1.318715
  H       3.985070     -0.205426      2.038781
  H       3.843816      2.024259      0.959473
28
Coordinates from ORCA-job ./Products_b E -1160.126685619648
  C      -2.511925     -0.970799     -1.537767
  C      -2.077674      0.095384     -0.762048
  C      -2.671888     -2.233935     -0.977704
  C      -1.794767     -0.111091      0.586153
  C      -1.962835     -1.367854      1.157079
  C      -2.397956     -2.426843      0.371901
  H      -1.928169      1.073816     -1.204992
  C      -0.834802      2.017970      1.313154
  H      -2.722447     -0.811345     -2.589699
  H      -3.008924     -3.062484     -1.590346
  H      -1.742436     -1.506053      2.209277
  H      -2.521939     -3.407310      0.818316
  N      -1.332512      0.933217      1.402132
  O      -0.175897      2.862762     -1.895761
  O      -0.351682      3.082600      1.365492
  S       1.095906      3.503596     -1.585128
  N       2.154544      2.738686     -0.845237
  C       2.167004      1.433873     -0.321218
  C       1.306098      0.421920     -0.752187
  C       1.386034     -0.838917     -0.177519
  C       2.311972     -1.097530      0.826526
  C       3.175161     -0.090547      1.250828
  C       3.111560      1.167817      0.673848
  H       0.575773      0.619616     -1.523119
  H       0.707660     -1.617451     -0.508627
  H       2.362953     -2.082655      1.277094
  H       3.901896     -0.288154      2.030937
  H       3.779290      1.961711      0.988617
28
Coordinates from ORCA-job ./Products_b E -1160.126557287042
  C      -2.435505     -0.993573     -1.509057
  C      -2.084583      0.108162     -0.739611
  C      -2.533187     -2.254355     -0.930033
  C      -1.802536     -0.057885      0.614263
  C      -1.917070     -1.312551      1.202706
  C      -2.279072     -2.405589      0.430857
  H      -1.979716      1.090544     -1.186499
  C      -0.882820      2.106549      1.284832
  H      -2.633984     -0.862760     -2.567455
  H      -2.807752     -3.111759     -1.534551
  H      -1.702690     -1.419114      2.260531
  H      -2.355082     -3.383230      0.894476
  N      -1.386747      1.026688      1.400983
  O      -0.155411      2.932536     -1.848212
  O      -0.402430      3.173716      1.312708
  S       1.127106      3.542703     -1.525508
  N       2.165515      2.732875     -0.805347
  C       2.141009      1.414484     -0.328859
  C       1.289197      0.420300     -0.817636
  C       1.335143     -0.858555     -0.282143
  C       2.217975     -1.159132      0.749353
  C       3.073599     -0.174229      1.235878
  C       3.044211      1.100573      0.693693
  H       0.583456      0.644759     -1.603587
  H       0.663887     -1.619334     -0.664815
  H       2.240961     -2.158234      1.171176
  H       3.768258     -0.401910      2.037048
  H       3.708269      1.878318      1.054809
28
Coordinates from ORCA-job ./Products_b E -1160.126716028993
  C      -2.473343     -0.982132     -1.522162
  C      -2.083140      0.102627     -0.748326
  C      -2.599912     -2.245403     -0.954167
  C      -1.802276     -0.084742      0.602971
  C      -1.941388     -1.341476      1.181597
  C      -2.336582     -2.418405      0.401110
  H      -1.958279      1.083647     -1.192873
  C      -0.857071      2.057831      1.309820
  H      -2.677658     -0.836677     -2.577414
  H      -2.903814     -3.088775     -1.564078
  H      -1.725581     -1.464841      2.236860
  H      -2.434733     -3.398678      0.854547
  N      -1.370182      0.980795      1.407861
  O      -0.163532      2.902437     -1.874767
  O      -0.366156      3.119393      1.354181
  S       1.118511      3.522669     -1.566018
  N       2.167040      2.733602     -0.837178
  C       2.156348      1.423862     -0.329786
  C       1.299732      0.421440     -0.791038
  C       1.359468     -0.847502     -0.232913
  C       2.260211     -1.125453      0.789083
  C       3.119244     -0.129323      1.245679
  C       3.076885      1.136392      0.682758
  H       0.586075      0.632709     -1.573729
  H       0.684877     -1.617568     -0.590376
  H       2.294679     -2.116784      1.227702
  H       3.827127     -0.341303      2.039369
  H       3.743448      1.921659      1.021288
28
Coordinates from ORCA-job ./Products_b E -1160.126719926037
  C      -2.451641     -0.980654     -1.517105
  C      -2.072828      0.108659     -0.744153
  C      -2.566735     -2.244433     -0.947811
  C      -1.791680     -0.074657      0.607569
  C      -1.919735     -1.331799      1.187699
  C      -2.303623     -2.413404      0.407937
  H      -1.955976      1.090114     -1.189913
  C      -0.856392      2.072539      1.314147
  H      -2.655872     -0.838444     -2.572802
  H      -2.861749     -3.091356     -1.557121
  H      -1.704018     -1.451953      2.243319
  H      -2.393150     -3.394017      0.862355
  N      -1.369846      0.995698      1.411536
  O      -0.167544      2.909213     -1.875075
  O      -0.366796      3.134716      1.358814
  S       1.117861      3.522559     -1.566172
  N       2.162508      2.726985     -0.838679
  C       2.143569      1.416577     -0.332901
  C       1.286176      0.418868     -0.802416
  C       1.337212     -0.851705     -0.247169
  C       2.229972     -1.135628      0.780088
  C       3.089964     -0.144031      1.244759
  C       3.056592      1.123209      0.684640
  H       0.578543      0.635044     -1.589247
  H       0.661551     -1.617957     -0.610731
  H       2.257449     -2.128058      1.216696
  H       3.791793     -0.360822      2.042501
  H       3.724395      1.904738      1.029234
28
Coordinates from ORCA-job ./Products_b E -1160.126730055634
  C      -2.406253     -0.977000     -1.502809
  C      -2.053380      0.120783     -0.730112
  C      -2.496815     -2.242279     -0.932420
  C      -1.773177     -0.055937      0.622265
  C      -1.877602     -1.314040      1.204406
  C      -2.236218     -2.404474      0.424323
  H      -1.955366      1.103881     -1.176429
  C      -0.847674      2.094863      1.330837
  H      -2.609324     -0.840422     -2.559418
  H      -2.771676     -3.095769     -1.541853
  H      -1.663013     -1.428975      2.260689
  H      -2.307385     -3.386266      0.879214
  N      -1.373480      1.024012      1.425248
  O      -0.173196      2.927712     -1.876755
  O      -0.350984      3.153714      1.376303
  S       1.122014      3.523154     -1.573863
  N       2.158620      2.712846     -0.851283
  C       2.120504      1.401421     -0.346683
  C       1.265918      0.412707     -0.838977
  C       1.294489     -0.859707     -0.286442
  C       2.161645     -1.153004      0.759621
  C       3.018716     -0.169571      1.246470
  C       3.008802      1.099504      0.689395
  H       0.578159      0.638477     -1.640578
  H       0.619707     -1.618870     -0.666124
  H       2.171137     -2.146446      1.194560
  H       3.700499     -0.394405      2.059154
  H       3.675336      1.874090      1.051263
28
Coordinates from ORCA-job ./Products_b E -1160.126800479163
  C      -2.402765     -0.971200     -1.496697
  C      -2.045350      0.123470     -0.722193
  C      -2.495883     -2.237773     -0.929257
  C      -1.765840     -0.058433      0.629211
  C      -1.870598     -1.317244      1.209114
  C      -2.233192     -2.405007      0.425988
  H      -1.947676      1.107667     -1.165364
  C      -0.831778      2.087260      1.339707
  H      -2.607013     -0.831314     -2.552599
  H      -2.773967     -3.088875     -1.540487
  H      -1.654370     -1.436043      2.264434
  H      -2.306098     -3.388083      0.877657
  N      -1.362017      1.018835      1.434565
  O      -0.177961      2.926032     -1.887203
  O      -0.329978      3.143881      1.381585
  S       1.118534      3.519280     -1.585620
  N       2.155415      2.710634     -0.861960
  C       2.117263      1.399156     -0.353033
  C       1.272050      0.408373     -0.856405
  C       1.296924     -0.862832     -0.300461
  C       2.150862     -1.150778      0.757421
  C       2.998228     -0.163883      1.254386
  C       2.992433      1.104356      0.695250
  H       0.595787      0.634013     -1.667761
  H       0.628762     -1.624330     -0.686954
  H       2.157669     -2.143100      1.194815
  H       3.669358     -0.385619      2.076650
  H       3.651201      1.881556      1.065211
28
Coordinates from ORCA-job ./Products_b E -1160.126945900271
  C      -2.367784     -0.955525     -1.463648
  C      -2.002697      0.135499     -0.688544
  C      -2.461209     -2.223484     -0.897664
  C      -1.719379     -0.053197      0.660625
  C      -1.821585     -1.311219      1.240561
  C      -2.192444     -2.396107      0.454841
  H      -1.911597      1.123489     -1.123230
  C      -0.786108      2.096378      1.350602
  H      -2.576951     -0.812134     -2.518119
  H      -2.744763     -3.072650     -1.509201
  H      -1.596106     -1.434068      2.293203
  H      -2.266074     -3.380632      0.903225
  N      -1.299794      1.021819      1.463347
  O      -0.188742      2.929354     -1.924715
  O      -0.293759      3.158470      1.364952
  S       1.103488      3.517820     -1.599616
  N       2.130543      2.707433     -0.865246
  C       2.086912      1.387505     -0.367599
  C       1.291216      0.391535     -0.936360
  C       1.302333     -0.885277     -0.391319
  C       2.090561     -1.169001      0.716109
  C       2.886974     -0.173758      1.277626
  C       2.897948      1.100072      0.731580
  H       0.661947      0.623456     -1.783693
  H       0.669254     -1.651335     -0.824857
  H       2.084731     -2.164568      1.146130
  H       3.505856     -0.394316      2.140173
  H       3.517231      1.884441      1.150838
28
Coordinates from ORCA-job ./Products_b E -1160.127030252186
  C      -2.376545     -0.943082     -1.441702
  C      -1.975660      0.137239     -0.669570
  C      -2.488086     -2.210504     -0.876427
  C      -1.678995     -0.062257      0.675658
  C      -1.797220     -1.318633      1.254918
  C      -2.202483     -2.393151      0.470857
  H      -1.874915      1.126809     -1.098536
  C      -0.748002      2.091784      1.345847
  H      -2.598604     -0.792412     -2.492577
  H      -2.799484     -3.052197     -1.485002
  H      -1.556347     -1.449158      2.303184
  H      -2.290779     -3.377380      0.917527
  N      -1.220319      0.999952      1.475448
  O      -0.190488      2.922275     -1.970214
  O      -0.284934      3.167153      1.337830
  S       1.086212      3.519557     -1.604742
  N       2.105521      2.716300     -0.852297
  C       2.070525      1.388793     -0.367737
  C       1.327133      0.380339     -0.983290
  C       1.346417     -0.901669     -0.449186
  C       2.089125     -1.176589      0.690812
  C       2.830189     -0.166815      1.300369
  C       2.834671      1.112366      0.766924
  H       0.729456      0.607223     -1.855114
  H       0.752188     -1.678235     -0.917728
  H       2.088214     -2.175912      1.112289
  H       3.411454     -0.380634      2.190458
  H       3.411757      1.908840      1.222000
28
Coordinates from ORCA-job ./Products_b E -1160.127121589923
  C      -2.398136     -0.937498     -1.427286
  C      -1.965137      0.132656     -0.658075
  C      -2.520894     -2.205307     -0.864877
  C      -1.647625     -0.077304      0.681635
  C      -1.778355     -1.334095      1.257594
  C      -2.215968     -2.397938      0.476879
  H      -1.860433      1.123813     -1.083793
  C      -0.713332      2.074886      1.347918
  H      -2.637337     -0.778959     -2.473302
  H      -2.857752     -3.039272     -1.470702
  H      -1.522096     -1.472505      2.301341
  H      -2.314256     -3.382170      0.921761
  N      -1.157479      0.971120      1.480829
  O      -0.178855      2.917337     -2.002150
  O      -0.270344      3.158468      1.337373
  S       1.089726      3.521920     -1.620557
  N       2.104691      2.724311     -0.855812
  C       2.066433      1.397188     -0.371531
  C       1.357104      0.380232     -1.012044
  C       1.376847     -0.902547     -0.479785
  C       2.084103     -1.169683      0.684796
  C       2.790323     -0.151027      1.320229
  C       2.796305      1.128692      0.787507
  H       0.786558      0.600868     -1.903771
  H       0.811628     -1.687529     -0.969838
  H       2.082867     -2.169824      1.104499
  H       3.343689     -0.358226      2.229610
  H       3.347725      1.932393      1.261553
28
Coordinates from ORCA-job ./Products_b E -1160.127143184114
  C      -2.502902     -0.930504     -1.428212
  C      -1.986293      0.107611     -0.665818
  C      -2.672323     -2.196214     -0.873337
  C      -1.633867     -0.131129      0.661499
  C      -1.811845     -1.387041      1.228508
  C      -2.331177     -2.418080      0.455612
  H      -1.850242      1.097418     -1.088257
  C      -0.667563      1.999489      1.342613
  H      -2.771955     -0.749399     -2.463312
  H      -3.074251     -3.005064     -1.473651
  H      -1.531031     -1.547942      2.262923
  H      -2.466476     -3.400019      0.896205
  N      -1.071536      0.877766      1.462332
  O      -0.163157      2.889624     -2.049506
  O      -0.248491      3.091961      1.350459
  S       1.086097      3.521058     -1.646375
  N       2.108952      2.752646     -0.860887
  C       2.095913      1.431394     -0.364563
  C       1.425004      0.387621     -1.001745
  C       1.477320     -0.889256     -0.458323
  C       2.176083     -1.125654      0.719116
  C       2.843850     -0.080801      1.352827
  C       2.818450      1.193217      0.806037
  H       0.867593      0.577208     -1.908342
  H       0.951257     -1.699169     -0.951540
  H       2.200802     -2.122479      1.145890
  H       3.391403     -0.261822      2.271407
  H       3.340386      2.017559      1.278436
28
Coordinates from ORCA-job ./Products_b E -1160.127208060778
  C      -2.476858     -0.935821     -1.431353
  C      -1.989364      0.113916     -0.665932
  C      -2.626662     -2.203497     -0.875888
  C      -1.646087     -0.114501      0.664752
  C      -1.803596     -1.372918      1.232490
  C      -2.293981     -2.416005      0.456819
  H      -1.863981      1.103882     -1.089748
  C      -0.687465      2.022534      1.339431
  H      -2.737538     -0.762132     -2.469786
  H      -3.004832     -3.021373     -1.479175
  H      -1.530314     -1.526253      2.269976
  H      -2.413101     -3.399693      0.897862
  N      -1.113954      0.910279      1.465966
  O      -0.164994      2.894778     -2.017379
  O      -0.253235      3.109142      1.343488
  S       1.092973      3.521012     -1.635481
  N       2.118298      2.744410     -0.862531
  C       2.094730      1.423437     -0.367140
  C       1.399929      0.389880     -0.996350
  C       1.436917     -0.887145     -0.452469
  C       2.146243     -1.134337      0.716302
  C       2.839416     -0.100494      1.340759
  C       2.827985      1.173598      0.794271
  H       0.835238      0.587745     -1.897166
  H       0.889944     -1.688008     -0.937611
  H       2.159041     -2.131109      1.143573
  H       3.395876     -0.290225      2.252046
  H       3.369372      1.988898      1.260272
28
Coordinates from ORCA-job ./Products_b E -1160.127220045565
  C      -2.466941     -0.934746     -1.430204
  C      -1.985247      0.117444     -0.664635
  C      -2.611423     -2.202963     -0.874902
  C      -1.643247     -0.108764      0.666237
  C      -1.794220     -1.368014      1.233928
  C      -2.278194     -2.413954      0.457958
  H      -1.860333      1.106606     -1.089700
  C      -0.686651      2.030071      1.337575
  H      -2.726629     -0.762558     -2.469107
  H      -2.984733     -3.022580     -1.478738
  H      -1.521004     -1.519955      2.271580
  H      -2.391986     -3.398321      0.898690
  N      -1.118154      0.920170      1.466699
  O      -0.169452      2.897645     -2.008977
  O      -0.248987      3.115329      1.340262
  S       1.090797      3.521542     -1.631768
  N       2.115880      2.741224     -0.862562
  C       2.089636      1.419438     -0.368943
  C       1.391658      0.387666     -0.998674
  C       1.424751     -0.889402     -0.454554
  C       2.132711     -1.138724      0.714410
  C       2.828166     -0.106869      1.339409
  C       2.821000      1.167154      0.793055
  H       0.827748      0.584148     -1.900439
  H       0.874699     -1.688473     -0.939122
  H       2.141769     -2.135480      1.141726
  H       3.383806     -0.298030      2.250827
  H       3.364582      1.980394      1.259970
28
Coordinates from ORCA-job ./Products_b E -1160.127230281033
  C      -2.467810     -0.933686     -1.431699
  C      -1.985167      0.118329     -0.666364
  C      -2.611997     -2.202016     -0.877099
  C      -1.642895     -0.107659      0.664173
  C      -1.792478     -1.367624      1.230973
  C      -2.276345     -2.413663      0.455265
  H      -1.856105      1.105861     -1.093704
  C      -0.692667      2.033865      1.335725
  H      -2.728054     -0.761058     -2.470411
  H      -2.986000     -3.021121     -1.481164
  H      -1.518635     -1.519794      2.268458
  H      -2.388512     -3.398380      0.895558
  N      -1.121086      0.922724      1.464648
  O      -0.174714      2.894448     -1.998502
  O      -0.257823      3.120265      1.340977
  S       1.088087      3.519134     -1.629713
  N       2.117175      2.738932     -0.864926
  C       2.090399      1.418437     -0.368692
  C       1.388762      0.386721     -0.994137
  C       1.422302     -0.889913     -0.449192
  C       2.133926     -1.139157      0.717629
  C       2.833169     -0.107449      1.338707
  C       2.825679      1.165887      0.790830
  H       0.823582      0.580660     -1.895260
  H       0.869102     -1.688773     -0.930527
  H       2.142800     -2.135588      1.145693
  H       3.392606     -0.297889      2.247939
  H       3.372699      1.978508      1.254816
28
Coordinates from ORCA-job ./Products_b E -1160.127241181745
  C      -2.475814     -0.929274     -1.430026
  C      -1.979582      0.116425     -0.664501
  C      -2.628307     -2.197825     -0.878599
  C      -1.632326     -0.116336      0.663587
  C      -1.789555     -1.376875      1.227080
  C      -2.286587     -2.416461      0.451204
  H      -1.841883      1.102652     -1.092431
  C      -0.673829      2.020029      1.338695
  H      -2.740394     -0.751184     -2.466737
  H      -3.013476     -3.011452     -1.483039
  H      -1.511827     -1.534573      2.262733
  H      -2.404392     -3.401572      0.889109
  N      -1.100150      0.907742      1.465535
  O      -0.181237      2.887890     -1.993350
  O      -0.239035      3.106368      1.347580
  S       1.083102      3.516626     -1.637496
  N       2.117443      2.740033     -0.876279
  C       2.090335      1.421846     -0.373686
  C       1.396259      0.385153     -0.999480
  C       1.430149     -0.888899     -0.448457
  C       2.133958     -1.130780      0.724695
  C       2.825670     -0.094156      1.345771
  C       2.818276      1.176612      0.791885
  H       0.838200      0.570883     -1.907043
  H       0.882925     -1.691901     -0.929732
  H       2.142702     -2.125367      1.156987
  H       3.379518     -0.278246      2.259721
  H       3.359858      1.992641      1.256273
28
Coordinates from ORCA-job ./Products_b E -1160.127241536410
  C      -2.480406     -0.928029     -1.430753
  C      -1.978498      0.114665     -0.664625
  C      -2.639828     -2.196024     -0.879972
  C      -1.632198     -0.120844      0.663464
  C      -1.796499     -1.380804      1.226111
  C      -2.299347     -2.417100      0.449746
  H      -1.834531      1.099914     -1.093115
  C      -0.672340      2.013785      1.342442
  H      -2.743962     -0.747840     -2.467365
  H      -3.029634     -3.007181     -1.484784
  H      -1.519818     -1.540580      2.261752
  H      -2.422729     -3.401726      0.887281
  N      -1.094397      0.899528      1.466553
  O      -0.185865      2.887133     -1.990282
  O      -0.240415      3.101222      1.353459
  S       1.080555      3.515375     -1.640763
  N       2.117827      2.740580     -0.881456
  C       2.093006      1.423398     -0.375851
  C       1.403037      0.383540     -1.000312
  C       1.440183     -0.889498     -0.447165
  C       2.143739     -1.127398      0.726981
  C       2.831389     -0.087481      1.347039
  C       2.820385      1.182402      0.790995
  H       0.845279      0.566163     -1.908538
  H       0.896134     -1.694871     -0.928135
  H       2.155582     -2.121328      1.160692
  H       3.384695     -0.268094      2.262025
  H       3.358654      2.001092      1.254577
28
Coordinates from ORCA-job ./Products_b E -1160.127239404489
  C      -2.480900     -0.927936     -1.431527
  C      -1.975046      0.111737     -0.663704
  C      -2.649844     -2.194976     -0.881141
  C      -1.633078     -0.126329      0.665323
  C      -1.807486     -1.385109      1.227483
  C      -2.315021     -2.417962      0.449635
  H      -1.823711      1.096047     -1.092086
  C      -0.667248      2.004493      1.348743
  H      -2.740258     -0.745874     -2.468876
  H      -3.042716     -3.003831     -1.487107
  H      -1.534884     -1.546725      2.263948
  H      -2.446354     -3.401686      0.887019
  N      -1.088944      0.889734      1.469785
  O      -0.192675      2.887784     -1.981447
  O      -0.235033      3.091787      1.361067
  S       1.077957      3.514627     -1.645033
  N       2.119951      2.741060     -0.890873
  C       2.095790      1.425647     -0.380408
  C       1.410671      0.382537     -1.004073
  C       1.449769     -0.889159     -0.448014
  C       2.151416     -1.122441      0.728256
  C       2.834686     -0.079140      1.347522
  C       2.821373      1.189561      0.788592
  H       0.853915      0.563543     -1.913314
  H       0.909531     -1.696871     -0.929403
  H       2.165823     -2.115415      1.164085
  H       3.386241     -0.256228      2.264282
  H       3.356075      2.011126      1.251263
28
Coordinates from ORCA-job ./Products_b E -1160.127239564501
  C      -2.477708     -0.929672     -1.431619
  C      -1.973377      0.110398     -0.663411
  C      -2.648725     -2.196124     -0.880414
  C      -1.634768     -0.126568      0.666635
  C      -1.811325     -1.384702      1.229627
  C      -2.317566     -2.417969      0.451441
  H      -1.820462      1.094527     -1.091563
  C      -0.668900      2.004334      1.350174
  H      -2.734280     -0.748432     -2.469788
  H      -3.040179     -3.005481     -1.486611
  H      -1.541443     -1.545447      2.266926
  H      -2.450728     -3.401145      0.889493
  N      -1.091399      0.889911      1.470965
  O      -0.193240      2.890406     -1.976570
  O      -0.236299      3.091476      1.361939
  S       1.078992      3.515891     -1.644394
  N       2.121663      2.741539     -0.892169
  C       2.097061      1.426029     -0.381935
  C       1.411755      0.383201     -1.006006
  C       1.450067     -0.888576     -0.450152
  C       2.151393     -1.122236      0.726194
  C       2.834776     -0.079273      1.345903
  C       2.822153      1.189532      0.787286
  H       0.854690      0.565409     -1.914884
  H       0.909708     -1.695870     -0.932069
  H       2.165459     -2.115214      1.161989
  H       3.385851     -0.256914      2.262824
  H       3.356835      2.010968      1.250186
28
Coordinates from ORCA-job ./Products_b E -1160.127236092000
  C      -2.475557     -0.933324     -1.432761
  C      -1.971415      0.106585     -0.664366
  C      -2.651447     -2.198541     -0.880201
  C      -1.637976     -0.128910      0.667167
  C      -1.819390     -1.385854      1.231518
  C      -2.325414     -2.419127      0.453141
  H      -1.814578      1.090182     -1.092159
  C      -0.669030      2.000873      1.350634
  H      -2.728176     -0.753138     -2.472074
  H      -3.042390     -3.008065     -1.486490
  H      -1.553444     -1.545596      2.269984
  H      -2.462411     -3.401298      0.892249
  N      -1.094251      0.887502      1.470986
  O      -0.193585      2.893537     -1.969045
  O      -0.234295      3.087163      1.362261
  S       1.080163      3.518647     -1.642635
  N       2.124816      2.743880     -0.893709
  C       2.100175      1.428559     -0.383276
  C       1.413214      0.386059     -1.006413
  C       1.451058     -0.885654     -0.450504
  C       2.153665     -1.119590      0.725018
  C       2.838641     -0.077110      1.343751
  C       2.826505      1.191606      0.785061
  H       0.854935      0.569213     -1.914443
  H       0.909618     -1.692565     -0.931834
  H       2.167553     -2.112424      1.161131
  H       3.390645     -0.255394      2.259969
  H       3.362372      2.012784      1.247043
28
Coordinates from ORCA-job ./Products_b E -1160.127233202596
  C      -2.471662     -0.937897     -1.433335
  C      -1.968064      0.102746     -0.665803
  C      -2.651526     -2.201483     -0.878323
  C      -1.639820     -0.129896      0.667453
  C      -1.824877     -1.385302      1.234202
  C      -2.330055     -2.419598      0.456545
  H      -1.807962      1.085611     -1.093877
  C      -0.671302      2.000783      1.349778
  H      -2.720667     -0.759912     -2.473890
  H      -3.041806     -3.011849     -1.483890
  H      -1.562592     -1.542977      2.273903
  H      -2.470053     -3.400526      0.897438
  N      -1.097265      0.887786      1.470115
  O      -0.191526      2.897016     -1.965786
  O      -0.236285      3.086987      1.361219
  S       1.081872      3.522466     -1.639076
  N       2.126558      2.747009     -0.891012
  C       2.101847      1.430863     -0.382871
  C       1.412960      0.389898     -1.006852
  C       1.450238     -0.882703     -0.452983
  C       2.153969     -1.119022      0.721353
  C       2.840621     -0.078162      1.340943
  C       2.829177      1.191379      0.784293
  H       0.853591      0.574906     -1.913874
  H       0.907434     -1.688385     -0.934802
  H       2.167379     -2.112457      1.156098
  H       3.393473     -0.258661      2.256196
  H       3.366341      2.011383      1.246836
28
Coordinates from ORCA-job ./Products_b E -1160.127227027711
  C      -2.468611     -0.943102     -1.434185
  C      -1.963073      0.097394     -0.667910
  C      -2.655208     -2.204465     -0.876380
  C      -1.640486     -0.132831      0.667182
  C      -1.831922     -1.386087      1.236609
  C      -2.338589     -2.420486      0.459997
  H      -1.797260      1.078815     -1.097051
  C      -0.670830      1.997944      1.349321
  H      -2.713698     -0.767138     -2.476017
  H      -3.046955     -3.014866     -1.480949
  H      -1.573621     -1.542042      2.277565
  H      -2.483662     -3.399769      0.902878
  N      -1.097124      0.885073      1.468764
  O      -0.189611      2.901080     -1.965179
  O      -0.235595      3.084089      1.361857
  S       1.082825      3.527261     -1.635952
  N       2.127487      2.751512     -0.888079
  C       2.103338      1.434537     -0.382123
  C       1.413132      0.394777     -1.006783
  C       1.450864     -0.878729     -0.454966
  C       2.155942     -1.117060      0.718156
  C       2.843642     -0.077353      1.338504
  C       2.831954      1.193003      0.783787
  H       0.852733      0.580633     -1.912971
  H       0.907209     -1.683617     -0.937149
  H       2.169596     -2.111158      1.151387
  H       3.397548     -0.259537      2.252785
  H       3.369974      2.012119      1.246905
28
Coordinates from ORCA-job ./Products_b E -1160.127218049560
  C      -2.463989     -0.949040     -1.434681
  C      -1.954628      0.090720     -0.670062
  C      -2.660417     -2.207355     -0.873387
  C      -1.638984     -0.137048      0.667241
  C      -1.839750     -1.387267      1.239949
  C      -2.349753     -2.421122      0.464725
  H      -1.780261      1.069598     -1.101574
  C      -0.668645      1.993945      1.350288
  H      -2.704084     -0.775257     -2.478049
  H      -3.055268     -3.017202     -1.476691
  H      -1.586475     -1.541421      2.282411
  H      -2.502341     -3.398135      0.910088
  N      -1.093519      0.880439      1.467824
  O      -0.187983      2.906157     -1.967573
  O      -0.234537      3.080582      1.365190
  S       1.082795      3.533157     -1.632996
  N       2.127030      2.757137     -0.884650
  C       2.103756      1.439001     -0.381474
  C       1.413758      0.400371     -1.007975
  C       1.452469     -0.874327     -0.458757
  C       2.157964     -1.114822      0.713677
  C       2.845343     -0.076019      1.335941
  C       2.832824      1.195427      0.783725
  H       0.853191      0.586847     -1.913889
  H       0.909026     -1.678610     -0.942197
  H       2.172254     -2.109863      1.144738
  H       3.399597     -0.259685      2.249727
  H       3.370625      2.013792      1.248430
28
Coordinates from ORCA-job ./Products_b E -1160.127211165985
  C      -2.461551     -0.951772     -1.434817
  C      -1.949527      0.087075     -0.670681
  C      -2.664466     -2.208396     -0.872005
  C      -1.637692     -0.140082      0.667723
  C      -1.844852     -1.388524      1.241833
  C      -2.357515     -2.421405      0.467053
  H      -1.769422      1.064076     -1.104151
  C      -0.665824      1.990207      1.352220
  H      -2.698525     -0.778598     -2.479006
  H      -3.061560     -3.017412     -1.474969
  H      -1.594675     -1.542195      2.285121
  H      -2.515205     -3.397099      0.913560
  N      -1.090224      0.876405      1.468290
  O      -0.188330      2.909149     -1.969327
  O      -0.231980      3.076958      1.368934
  S       1.081925      3.536172     -1.632405
  N       2.126271      2.760024     -0.884231
  C       2.103719      1.441472     -0.381957
  C       1.415065      0.402767     -1.009414
  C       1.454647     -0.872286     -0.460913
  C       2.159780     -1.113027      0.711704
  C       2.846011     -0.073999      1.334914
  C       2.832529      1.197788      0.783426
  H       0.855036      0.589149     -1.915651
  H       0.912199     -1.676783     -0.945134
  H       2.174761     -2.108412      1.141958
  H       3.400010     -0.257517      2.248900
  H       3.369396      2.016264      1.249025
28
Coordinates from ORCA-job ./Products_b E -1160.127208288829
  C      -2.459386     -0.952760     -1.434369
  C      -1.946772      0.085917     -0.670300
  C      -2.665126     -2.208637     -0.870866
  C      -1.636800     -0.140848      0.668618
  C      -1.846767     -1.388465      1.243371
  C      -2.360218     -2.421059      0.468721
  H      -1.764041      1.061732     -1.105354
  C      -0.664775      1.989335      1.353565
  H      -2.694550     -0.779842     -2.479010
  H      -3.062750     -3.017409     -1.473819
  H      -1.598271     -1.541798      2.287112
  H      -2.520193     -3.396115      0.915830
  N      -1.088810      0.875357      1.469310
  O      -0.188944      2.910824     -1.970332
  O      -0.231289      3.076231      1.370744
  S       1.081037      3.537561     -1.631755
  N       2.125275      2.760957     -0.883921
  C       2.103075      1.442029     -0.382539
  C       1.416064      0.403179     -1.011320
  C       1.455906     -0.872115     -0.463315
  C       2.159961     -1.112990      0.709911
  C       2.844852     -0.073782      1.334351
  C       2.830930      1.198281      0.783483
  H       0.857070      0.590085     -1.918106
  H       0.914608     -1.676751     -0.948598
  H       2.175177     -2.108632      1.139560
  H       3.398065     -0.257154      2.248847
  H       3.366673      2.016870      1.250179
28
Coordinates from ORCA-job ./Products_b E -1160.127205425657
  C      -2.458078     -0.953526     -1.434044
  C      -1.945177      0.085018     -0.669879
  C      -2.666139     -2.208845     -0.870137
  C      -1.636787     -0.141435      0.669411
  C      -1.849111     -1.388465      1.244567
  C      -2.363066     -2.420808      0.469923
  H      -1.760288      1.059761     -1.106428
  C      -0.664156      1.988360      1.354464
  H      -2.691603     -0.780660     -2.479057
  H      -3.063993     -3.017413     -1.473208
  H      -1.602118     -1.541564      2.288698
  H      -2.524904     -3.395351      0.917491
  N      -1.088505      0.874491      1.470337
  O      -0.189897      2.912048     -1.969709
  O      -0.230524      3.075183      1.371589
  S       1.080087      3.538602     -1.630873
  N       2.124639      2.761608     -0.883952
  C       2.103104      1.442436     -0.383240
  C       1.417499      0.403223     -1.012912
  C       1.457654     -0.872136     -0.465100
  C       2.160918     -1.112788      0.708636
  C       2.844663     -0.073284      1.333859
  C       2.830257      1.198911      0.783313
  H       0.859377      0.590842     -1.920109
  H       0.917390     -1.677024     -0.951117
  H       2.176425     -2.108550      1.137989
  H       3.397327     -0.256363      2.248744
  H       3.365007      2.017726      1.250742
28
Coordinates from ORCA-job ./Products_b E -1160.127205230539
  C      -2.457657     -0.953848     -1.433924
  C      -1.945565      0.085170     -0.669814
  C      -2.665357     -2.209129     -0.869833
  C      -1.637472     -0.140744      0.669567
  C      -1.849417     -1.387786      1.244927
  C      -2.362621     -2.420575      0.470394
  H      -1.760922      1.059660     -1.107016
  C      -0.665055      1.989215      1.353805
  H      -2.690813     -0.781214     -2.479055
  H      -3.062535     -3.018044     -1.472877
  H      -1.602681     -1.540513      2.289170
  H      -2.524120     -3.395060      0.918205
  N      -1.089928      0.875601      1.470477
  O      -0.190093      2.912581     -1.968464
  O      -0.231191      3.075938      1.370150
  S       1.079892      3.538985     -1.629492
  N       2.124487      2.761498     -0.883233
  C       2.103252      1.442137     -0.383143
  C       1.417674      0.403029     -1.013176
  C       1.457722     -0.872433     -0.465687
  C       2.160962     -1.113344      0.708007
  C       2.844785     -0.074063      1.333495
  C       2.830433      1.198285      0.783327
  H       0.859721      0.591513     -1.920316
  H       0.917473     -1.677186     -0.951933
  H       2.176376     -2.109204      1.137132
  H       3.397470     -0.257429      2.248304
  H       3.365180      2.016959      1.251002
