! wB97X-D3BJ def2-TZVP TightSCF Opt Freq CPCM(THF)  # OptTS VeryTightOpt Freq SP NMR

* xyz 0 1
 C   -2.88141728  -1.13514044  -1.70063788
 C   -2.35410824  -0.17909006  -0.83354076
 C   -3.59306033  -2.23287425  -1.20653255
 C   -2.54116376  -0.32324853   0.55187784
 C   -3.25394824  -1.42317618   1.05132260
 C   -3.77585255  -2.37116191   0.17182577
 H   -1.79312678   0.67765752  -1.21784590
 C   -1.40600257   1.63945585   1.46894263
 H   -2.73360634  -1.01719181  -2.77742996
 H   -4.00392741  -2.97638149  -1.89386147
 H   -3.39054381  -1.51872011   2.13080665
 H   -4.33117002  -3.22466053   0.56927691
 N   -2.03445047   0.60348229   1.46317453
 O   -0.12515796   2.26750382  -1.74591050
 O   -0.80635762   2.64312258   1.62137950
 S    0.92253422   3.28428955  -1.36872730
 N    2.22616127   2.86752094  -0.62350408
 C    2.65780180   1.62394856  -0.17612236
 C    1.95336942   0.41338396  -0.37339496
 C    2.47802106  -0.77799973   0.11865728
 C    3.69666459  -0.78913517   0.80713343
 C    4.39968201   0.40492013   1.00406276
 C    3.88799480   1.60250185   0.51686085
 H    1.00608142   0.43485356  -0.91299252
 H    1.92875726  -1.71040604  -0.03499271
 H    4.09889012  -1.73026806   1.19068120
 H    5.35146230   0.39877938   1.54112934
 H    4.41647312   2.54803432   0.65836164
*
