 28
  Energy -1160.001685877760  Dipole 7.69485  G(298) 103.34
 C   -2.09843100  -1.50968100  -0.69459700
 C   -1.36302900  -0.38924800  -0.34130500
 C   -3.00792600  -2.05549600   0.20636700
 C   -1.55771000   0.18147100   0.91914200
 C   -2.46177800  -0.36906400   1.83103800
 C   -3.18917300  -1.48986100   1.46604900
 H   -0.64303200   0.04641600  -1.02355900
 C   -0.79266200   1.33622800   1.28053000
 H   -1.96109400  -1.95940000  -1.67122800
 H   -3.58053800  -2.93279800  -0.07451500
 H   -2.58431700   0.08355200   2.80802600
 H   -3.89759600  -1.92419600   2.16174500
 N   -0.53775600   2.50143600   1.22272000
 O    0.43358700   3.21004000   1.67254000
 O    0.72048000   0.78756500   2.45277800
 S    1.82359800   1.79308200   2.31303900
 N    2.70798000   1.62585400   1.10322700
 C    2.35210700   0.90140300  -0.06441800
 C    2.03434700   1.59956200  -1.22831500
 C    1.72799600   0.90408300  -2.39190100
 C    1.74383500  -0.48678300  -2.40522700
 C    2.06139000  -1.18045600  -1.24239400
 C    2.36238200  -0.49259100  -0.07320400
 H    2.03067200   2.68373700  -1.21015000
 H    1.48035300   1.45420200  -3.29353900
 H    1.50982700  -1.02620300  -3.31642000
 H    2.07345400  -2.26526300  -1.24206200
 H    2.61303600  -1.02759100   0.83563200
