17
Coordinates from ORCA-job /scratch/obeletsan/orcajob__14516-9m37/r2
  C   -2.39466663541304     -0.79297224790077     -0.42982248758422
  C   -1.55877724632373      0.30252628869856     -0.56879622898995
  C   -1.91882192290130     -1.97348569409991      0.13870630537910
  C   -0.22214601555583      0.21121058209572     -0.13477671328296
  C   0.25800716081626     -0.97552563363189      0.43869272067260
  C   -0.59734894251877     -2.05907814545400      0.56971309088102
  H   -1.91921561742609      1.22694542003412     -1.00812754567108
  C   0.61895424083796      1.33707010983597     -0.30154686227476
  H   -3.42526140551930     -0.72472642906905     -0.76437455386761
  H   -2.58105721712154     -2.82717565248953      0.24616113631736
  H   1.28758412450393     -1.01987726455600      0.77185668658044
  H   -0.22811918915872     -2.97872898854177      1.01276690201088
  N   0.90782874436277      2.39826343993115     -0.75180827585445
  O   2.26834022351591      1.15870215195027      1.09754718394009
  S   3.46897502822225      2.00134779501439      0.70344425080907
  O   4.35414613992181      1.36175570487870     -0.29661913944207
  S   1.96331952975741      3.62599756330406     -0.77396546962348
