! r2SCAN-3c TightSCF Opt Freq CPCM(THF)  # OptTS VeryTightOpt Freq SP NMR

* xyz 0 1
 C   -4.92180586  -1.35780233   0.74448292
 C   -4.31527599  -0.11823034   0.55536902
 C   -4.20500417  -2.41571475   1.31174892
 C   -2.97170844   0.07449131   0.93655611
 C   -2.24991198  -0.99638731   1.50900053
 C   -2.87154940  -2.22883696   1.69116109
 H   -4.87053706   0.71192397   0.11324931
 C   -2.33434196   1.33247691   0.75366683
 H   -5.96384739  -1.49900675   0.44664088
 H   -4.68582993  -3.38611197   1.45865834
 H   -1.20901075  -0.83422248   1.79860487
 H   -2.30820407  -3.05341288   2.13559238
 N   -1.60847067   2.25566272   0.70954368
 O   -0.89312036   3.22763041   0.64606440
 O    0.85056096   0.50509649   1.78002810
 S    1.70918312   1.74555039   1.77993426
 N    2.79350493   1.97179632   0.68377617
 C    3.14603373   1.19572491  -0.41528699
 C    4.18349983   1.70013527  -1.22946669
 C    4.60458689   0.99401830  -2.35108557
 C    3.99967271  -0.22426200  -2.68016780
 C    2.97026309  -0.73165567  -1.87904637
 C    2.53899783  -0.03629368  -0.75301586
 H    4.63811200   2.65415254  -0.95263563
 H    5.40800635   1.39363749  -2.97504843
 H    4.33015975  -0.77880557  -3.56220141
 H    2.49763226  -1.68290351  -2.13729748
 H    1.73840459  -0.41865083  -0.11882554
*
