18
Coordinates from ORCA-job mol E -514.071135468001
  C      -0.131100      0.035552      0.350009
  C       0.772710      1.096776      0.416412
  C       0.327465     -1.283602      0.400365
  C       2.141673      0.838957      0.533375
  C       2.609688     -0.488100      0.584973
  C       1.696065     -1.525090      0.517571
  H       0.399378      2.113926      0.376019
  C       3.059165      1.916771      0.600377
  O      -1.438125      0.394736      0.237064
  H      -0.358949     -2.120145      0.350293
  H       3.672335     -0.681648      0.676170
  H       2.048903     -2.551369      0.556393
  N       3.826979      2.791330      0.648777
  O       4.619045      3.697200      0.700674
  C      -2.407743     -0.647285      0.158765
  H      -3.373446     -0.146977      0.074245
  H      -2.398679     -1.270433      1.062824
  H      -2.245444     -1.277638     -0.725517
18
Coordinates from ORCA-job mol E -514.071183571417
  C      -0.131294      0.036854      0.349742
  C       0.772974      1.098449      0.416251
  C       0.327174     -1.282801      0.400022
  C       2.141817      0.838931      0.533294
  C       2.610669     -0.487905      0.584803
  C       1.696113     -1.524850      0.517116
  H       0.400780      2.116551      0.375990
  C       3.059698      1.916768      0.600547
  O      -1.438310      0.395128      0.236796
  H      -0.359635     -2.119200      0.349966
  H       3.673568     -0.681732      0.676055
  H       2.048515     -2.551380      0.555850
  N       3.827072      2.789886      0.649158
  O       4.621761      3.697924      0.701498
  C      -2.409645     -0.649215      0.158971
  H      -3.375538     -0.149636      0.072771
  H      -2.400349     -1.270455      1.063700
  H      -2.245450     -1.280359     -0.723739
18
Coordinates from ORCA-job mol E -514.071192275883
  C      -0.131780      0.037798      0.349801
  C       0.772691      1.099553      0.416347
  C       0.326887     -1.282082      0.400055
  C       2.141276      0.838539      0.533181
  C       2.611009     -0.487823      0.584595
  C       1.695819     -1.524616      0.516951
  H       0.401798      2.118113      0.376285
  C       3.059426      1.916517      0.600469
  O      -1.438525      0.395491      0.236982
  H      -0.360099     -2.118304      0.350261
  H       3.673850     -0.681765      0.675710
  H       2.047806     -2.551304      0.555627
  N       3.827010      2.788907      0.649194
  O       4.623238      3.697908      0.701767
  C      -2.410382     -0.650736      0.158901
  H      -3.376010     -0.151128      0.071939
  H      -2.400015     -1.270735      1.064155
  H      -2.244076     -1.281375     -0.723429
18
Coordinates from ORCA-job mol E -514.071193250469
  C      -0.132016      0.037930      0.349894
  C       0.772471      1.099734      0.416392
  C       0.326976     -1.281921      0.400165
  C       2.140971      0.838325      0.533134
  C       2.611137     -0.487765      0.584522
  C       1.695823     -1.524534      0.516950
  H       0.402110      2.118443      0.376413
  C       3.059122      1.916494      0.600373
  O      -1.438661      0.395461      0.237183
  H      -0.359961     -2.118176      0.350500
  H       3.673956     -0.681660      0.675541
  H       2.047693     -2.551266      0.555600
  N       3.826975      2.788686      0.649152
  O       4.623427      3.697598      0.701793
  C      -2.410684     -0.651194      0.158822
  H      -3.375983     -0.151074      0.071694
  H      -2.399880     -1.270772      1.064294
  H      -2.243556     -1.281348     -0.723632
