17
Coordinates from ORCA-job mol
  C   -2.41306141122952     -0.73784386009823     -0.36437361310936
  C   -1.54291745470039      0.33406761259301     -0.48433978066411
  C   -1.96142800592212     -1.96074079073780      0.12814385930259
  C   -0.19419919668691      0.17139360587854     -0.12328193974651
  C   0.26227084102832     -1.05780596467498      0.37298335135925
  C   -0.62781875823657     -2.11435149593086      0.49796008054071
  H   -1.88672381747472      1.29260218480544     -0.85893382133403
  C   0.70762037248983      1.26029679384558     -0.25938384001811
  H   -3.45339782075156     -0.61551493648742     -0.64997742094183
  H   -2.65145919294473     -2.79326999709218      0.22585208482274
  H   1.30310524223970     -1.15943804257185      0.65785715950705
  H   -0.27589891803429     -3.06579196712164      0.88446531583257
  N   0.98856381080829      2.30589116871955     -0.78439784599184
  O   1.85536260256717      3.20069421929457     -0.72625415620312
  O   2.23393943849943      1.20724881361527      1.09717699554936
  S   3.35077874613943      2.15427229940628      0.67613440425827
  O   4.30526352220863      1.57829035655673     -0.28963083316363
