! r2scan-3c D4 TightSCF Opt freq Mass2016
!CPCM(Benzene)
%geom maxiter 300 end
%maxcore 4000 
%pal nprocs 28
end

*xyz 0 1
C       -0.070640000     -0.066899000      0.353325000
C        0.789470000      1.019181000      0.418344000
C        0.432858000     -1.362210000      0.406764000
C        2.164026000      0.802878000      0.537155000
C        2.671806000     -0.497120000      0.592124000
C        1.802026000     -1.575006000      0.525895000
H        0.406536000      2.031383000      0.377175000
C        3.065087000      1.920486000      0.602715000
H       -1.137291000      0.099143000      0.261151000
H        3.739629000     -0.651914000      0.684701000
H        2.195254000     -2.583672000      0.567764000
N        3.801196000      2.803611000      0.647759000
O        4.579406000      3.736158000      0.695264000
Cl      -0.671146732     -2.743210207      0.323625668
*