17
Coordinates from ORCA-job mol
  C   0.61943650604037     -1.41378783339311      0.03710431672634
  C   1.36735756638123     -0.81943331969932     -0.97319171010581
  C   0.62772000112157     -0.88490560385025      1.32510728362457
  C   2.12812217774729      0.31451507108927     -0.68715344985976
  C   2.14394528434825      0.85366112525302      0.60313507863072
  C   1.39156495923267      0.24776951076974      1.60131780340499
  H   1.36917541253616     -1.22230770960872     -1.98094989424869
  C   3.60298993037719      1.82408304087738     -1.90775947971356
  H   0.02704996821084     -2.29613578610179     -0.18656251736491
  H   0.04248614635118     -1.35225615389716      2.11113629431184
  H   2.74031857645750      1.73695149183647      0.81344982354991
  H   1.40416168021773      0.66645411809259      2.60350446514396
  N   2.87055406195574      0.88892900744726     -1.72511139362836
  O   4.32751294677409      2.69544010602758     -2.22544211004326
  O   4.24313905788283      3.89546726245352      0.84662466749467
  S   5.55576375681659      4.05458602028831      0.19779861265313
  O   6.53420196554874      2.97586865241519      0.39989421242421
