 $CONTRL SCFTYP=rhf RUNTYP=hessian d5=.t. 
!dfttyp=pbe0
 mplevl=2
 maxit=100 icut=20 inttyp=hondo itol=30 gencon=.f. wide=1                                
 mult=1 icharg=0 exetyp=run fstint=.t. nzvar=0 $END                            
 $SYSTEM TIMLIM=100000 mwords=360 nojac=1  $END                                  
 $system mxbcst=-1 $end                                                         
 $p2p p2p=.t. dlb=.t. $end                                                      
 $smp                                                                           
  mkl64=21 smppar=1 mklnp=18 np=36 httnp=1 dianp=1                              
  pts=0x101                                                                     
 $end                                                                           
 $mpi mxgsum=0x40000 mnpdot=1d9 $end                                            
 $MOORTH nostf=1 nozero=1 syms=1 symden=1 symvec=1 tole=0 tolz=0 $end           
 $BASIS GBASIS=apvtzs extfil=.t. $END                                          
 $GUESS GUESS=huckel                                                            
 $END                                                                           
! $RIMP2 AUXBAS=cc-pvdz/C VERBOSE=.T. $END
 $MP2 method=1 $END
 $MP2GRD dblbf=0 fused=0 asysnc=1 tol1=1d-12 tol2=1d-12 $END
 $FORCE NVIB=2 VIBSIZ=0.005 $END
 $trans mptran=2 dirtrf=.t. mode=112 cuttrf=1d-20 $end
 $DATA
 C7NH5SO3
C1
CARBON      6.0   0.0919885815   0.0876303484  -0.1148967854
CARBON      6.0   1.0765442527   1.0587075495  -0.2419987424
CARBON      6.0   0.3945178080  -1.1558865057   0.4416650232
CARBON      6.0   2.3792313495   0.7779986023   0.1866353955
CARBON      6.0   2.6889213013  -0.4655105864   0.7440820869
CARBON      6.0   1.6911948788  -1.4277844498   0.8705657220
HYDROGEN    1.0   0.8531241537   2.0264585448  -0.6685628778
CARBON      6.0   3.4183958298   1.7916885034   0.0487948586
HYDROGEN    1.0  -0.9141575147   0.3005356342  -0.4480632553
HYDROGEN    1.0  -0.3767307641  -1.9071412114   0.5390895013
HYDROGEN    1.0   3.6986763939  -0.6716712522   1.0683533924
HYDROGEN    1.0   1.9286010740  -2.3900549061   1.3021386390
NITROGEN    7.0   3.2609846862   2.9216778431  -0.5482736851
OXYGEN      8.0   4.4750893517   3.6417138484  -0.4317946004
OXYGEN      8.0   4.6441447933   1.5302879199   0.6009839398
SULFUR     16.0   5.7585504204   2.6350132581  -0.0352780628
OXYGEN      8.0   6.3053234050   2.0433368573  -1.2427405497
 $END

