 $CONTRL SCFTYP=rhf RUNTYP=hessian d5=.t. 
!dfttyp=pbe0
 mplevl=2
 maxit=100 icut=20 inttyp=hondo itol=30 gencon=.f. wide=1                                
 mult=1 icharg=0 exetyp=run fstint=.t. nzvar=0 $END                            
 $SYSTEM TIMLIM=100000 mwords=360 nojac=1  $END                                  
 $PCM SOLVNT=BENZENE $END
 $system mxbcst=-1 $end                                                         
 $p2p p2p=.t. dlb=.t. $end                                                      
 $smp                                                                           
  mkl64=21 smppar=1 mklnp=18 np=36 httnp=1 dianp=1                              
  pts=0x101                                                                     
 $end                                                                           
 $mpi mxgsum=0x40000 mnpdot=1d9 $end                                            
 $MOORTH nostf=1 nozero=1 syms=1 symden=1 symvec=1 tole=0 tolz=0 $end           
 $BASIS GBASIS=apvtzs extfil=.t. $END                                          
 $GUESS GUESS=huckel                                                            
 $END                                                                           
! $RIMP2 AUXBAS=cc-pvdz/C VERBOSE=.T. $END
 $MP2 method=1 $END
 $MP2GRD dblbf=0 fused=0 asysnc=1 tol1=1d-12 tol2=1d-12 $END
 $FORCE NVIB=2 VIBSIZ=0.005 $END
 $trans mptran=2 dirtrf=.t. mode=112 cuttrf=1d-20 $end
 $DATA
 SO2
C1
SULFUR     16.0   0.0000000000   0.0000019042   0.3804423990
OXYGEN      8.0   0.0000000000   1.2560057453  -0.3718046291
OXYGEN      8.0   0.0000000000  -1.2560076495  -0.3718057710
 $END
 $VIB   
         IVIB=   0 IATOM=   0 ICOORD=   0 E=     -547.9668469940
 0.000000000E+00 5.029306737E-06 1.493332202E-05 0.000000000E+00-3.050300806E-06
-5.960601904E-06 0.000000000E+00-1.979005931E-06-8.972720120E-06
 3.369999409E-04 3.028312450E-05 1.918408238E+00
 $END

