!DLPNO-CCSD(T) Extrapolate(3/4,cc) cc-pVQZ/C TightPNO TightSCF 
!CPCM(Benzene)
%geom maxiter 300 end
%maxcore 4000 
%pal nprocs 36
end

*xyz 0 1
6        0.063975000      0.088079000     -0.081851000
6        1.051917000      1.051008000     -0.220896000
6        0.368380000     -1.162071000      0.457684000
6        2.365012000      0.763462000      0.177639000
6        2.670681000     -0.489649000      0.719497000
6        1.670541000     -1.446019000      0.857100000
1        0.816576000      2.026105000     -0.634492000
6        3.412759000      1.774859000      0.032393000
1       -0.951802000      0.314071000     -0.392493000
1       -0.410382000     -1.911301000      0.566506000
1        3.686348000     -0.714821000      1.026123000
1        1.912950000     -2.417669000      1.277033000
7        3.241239000      2.880297000     -0.601988000
8        4.374441000      3.684851000     -0.576471000
8        4.618503000      1.502767000      0.613755000
34       5.878957000      2.750204000      0.068143000
8        6.604305000      2.102828000     -1.216984000

*
