14
Coordinates from ORCA-job mol
  C   1.80437258081211     -0.43094901586096      0.36594075210414
  C   2.88388338255261      0.37643539667420      0.02886916255845
  C   1.99387506169164     -1.77857711203795      0.65711658661614
  C   4.16646140354728     -0.17076012414731     -0.01734361172284
  C   4.36443947991155     -1.52409972975308      0.27405683610335
  C   3.27674032391430     -2.31915029190845      0.60937269570456
  H   2.74875683498723      1.42842486999682     -0.19995769041140
  C   6.42480912704896      0.55511235447698     -0.49567054848060
  H   0.80766370081608     -0.00129356666286      0.40093080048640
  H   1.14768530948544     -2.40551582348375      0.92001394024299
  H   5.36657113830033     -1.94250643613062      0.23588156027896
  H   3.43443473571243     -3.36979260616928      0.83489336438821
  N   5.22981692846183      0.67083022137062     -0.36074930663667
  O   7.58408999275816      0.58244186363567     -0.66235454123170
