14
Coordinates from ORCA-job mol E -859.141744153211
  C      -0.079849     -0.050698      0.352727
  C       0.790793      1.025124      0.417567
  C       0.429679     -1.344550      0.407363
  C       2.175440      0.814632      0.536928
  C       2.666100     -0.501415      0.590595
  C       1.796387     -1.578175      0.525837
  H       0.405272      2.038245      0.376188
  C       3.064017      1.913006      0.602535
  H      -1.148314      0.110540      0.260354
  Cl     -0.667351     -2.702370      0.325752
  H       3.733493     -0.671414      0.683144
  H       2.174354     -2.593834      0.566758
  N       3.807010      2.809523      0.648639
  O       4.573098      3.735997      0.696382
14
Coordinates from ORCA-job mol E -859.141744367614
  C      -0.079751     -0.050647      0.352742
  C       0.790999      1.025128      0.417548
  C       0.429732     -1.344492      0.407397
  C       2.175564      0.814487      0.536886
  C       2.666215     -0.501589      0.590570
  C       1.796435     -1.578230      0.525850
  H       0.405512      2.038261      0.376150
  C       3.064162      1.912844      0.602466
  H      -1.148209      0.110610      0.260383
  Cl     -0.667593     -2.702104      0.325809
  H       3.733598     -0.671628      0.683101
  H       2.174138     -2.593994      0.566761
  N       3.806881      2.809560      0.648585
  O       4.572448      3.736404      0.696521
