19
Coordinates from ORCA-job mol
  C   -2.07598709381439     -0.95552032264036      0.22041451683188
  C   -1.19438413631808      0.05522671670318     -0.12120562080433
  C   -1.60677696154885     -2.26185324670895      0.31055738557483
  C   0.16679356759144     -0.20181088906208     -0.35295991083393
  C   0.62533956663737     -1.52106849361304     -0.22409469729834
  C   -0.26198139344922     -2.54298274620765      0.08389648601498
  N   -1.72684869523682      1.42134697572318     -0.26855633873411
  C   1.10837635188868      0.82977233868103     -0.61635836559293
  H   -3.11835510534671     -0.71626618060683      0.39570838553268
  H   -2.29694936352085     -3.06059311390607      0.56240204576927
  H   1.68135235324247     -1.72284462305239     -0.36842122398545
  H   0.10339748289191     -3.56196750238230      0.16278468877652
  N   2.03573984984396      1.20981947115501     -1.28521300220208
  O   2.91355679155542      2.10297580750596     -1.21844255094243
  O   1.24574056348724      2.13811224713790      0.89902913487082
  S   2.60744403442890      2.82834018432155      0.88909876296031
  O   3.66613419859144      2.07851927339912      1.59770189987195
  O   -2.77672784973457      1.68014260963242      0.30350646234245
  O   -1.09586416118936      2.20065149392035     -0.96984805815211
