! ZORA DLPNO-CCSD(T1) TightPNO
! ZORA-def2-QZVPP def2-QZVPP/C AutoAux
! RIJK VeryTightSCF CPCM(Benzene)

%basis
	AutoAuxSize 3
	AutoAuxLmax true
end
%scf
	AutoTRAH false
	MaxIter 1500
	Convergence VeryTight
end
%mdci
	TCutPNO 1.000e-6
	UseFullLMP2Guess true
	MaxIter 1000
end

%pal
	nprocs 8
end
%MaxCore 12500

* xyzfile 0 1 opt.xyz
