!DLPNO-CCSD(T) Extrapolate(3/4,cc) cc-pVQZ/C TightPNO TightSCF 
!CPCM(Benzene)
%geom maxiter 300 end
%maxcore 4000 
%pal nprocs 36
end

*xyz 0 1
6        0.080651751      0.092932213     -0.086307336
6        1.059555752      1.069017138     -0.220361600
6        0.399150848     -1.157278295      0.446008001
6        2.371724483      0.784687307      0.176013318
6        2.697882682     -0.464917158      0.711018731
6        1.705520750     -1.431900445      0.843876587
1        0.820925396      2.042928747     -0.623575885
6        3.407022069      1.799097407      0.024218161
1       -0.932855386      0.308029198     -0.392590107
1       -0.368088491     -1.910536164      0.550874845
1        3.714464928     -0.673467563      1.010754879
1        1.954396581     -2.398975248      1.256248546
7        3.278827644      2.886760671     -0.654141986
8        4.484433053      3.624552361     -0.513526402
8        4.605611916      1.585790010      0.654503107
16       5.744168591      2.652853907      0.015259641
8        6.351007433      1.987425910     -1.127572498

*
