!DLPNO-CCSD(T) Extrapolate(3/4,cc) cc-pVQZ/C TightPNO TightSCF 
!CPCM(Benzene)
%geom maxiter 300 end
%maxcore 4000 
%pal nprocs 36
end

*xyz 0 1
6        0.259206000      0.042000000     -0.484706000
6        1.355251000      0.889122000     -0.532426000
6        0.256755000     -1.046947000      0.389500000
6        2.456423000      0.600415000      0.281525000
6        2.453212000     -0.463913000      1.189155000
6        1.347355000     -1.299822000      1.223218000
1        1.379435000      1.752653000     -1.189664000
6        3.788089000      1.350527000      0.010310000
1       -0.601416000      0.236702000     -1.116891000
1       -0.612682000     -1.696481000      0.433060000
1        3.307646000     -0.625211000      1.838613000
1        1.326592000     -2.140450000      1.909604000
7        3.456147000      2.168039000      0.897605000
8        5.269296000      3.288214000      0.731258000
8        4.673818000      1.072072000     -0.836331000
34       5.964385000      2.910409000     -0.732839000
8        5.294890000      3.759672000     -1.940290000

*
