
                                 *****************
                                 * O   R   C   A *
                                 *****************

                                            #,                                       
                                            ###                                      
                                            ####                                     
                                            #####                                    
                                            ######                                   
                                           ########,                                 
                                     ,,################,,,,,                         
                               ,,#################################,,                 
                          ,,##########################################,,             
                       ,#########################################, ''#####,          
                    ,#############################################,,   '####,        
                  ,##################################################,,,,####,       
                ,###########''''           ''''###############################       
              ,#####''   ,,,,##########,,,,          '''####'''          '####       
            ,##' ,,,,###########################,,,                        '##       
           ' ,,###''''                  '''############,,,                           
         ,,##''                                '''############,,,,        ,,,,,,###''
      ,#''                                            '''#######################'''  
     '                                                          ''''####''''         
             ,#######,   #######,   ,#######,      ##                                
            ,#'     '#,  ##    ##  ,#'     '#,    #''#        ######   ,####,        
            ##       ##  ##   ,#'  ##            #'  '#       #        #'  '#        
            ##       ##  #######   ##           ,######,      #####,   #    #        
            '#,     ,#'  ##    ##  '#,     ,#' ,#      #,         ##   #,  ,#        
             '#######'   ##     ##  '#######'  #'      '#     #####' # '####'        



                  #######################################################
                  #                        -***-                        #
                  #          Department of theory and spectroscopy      #
                  #    Directorship and core code : Frank Neese         #
                  #        Max Planck Institute fuer Kohlenforschung    #
                  #                Kaiser Wilhelm Platz 1               #
                  #                 D-45470 Muelheim/Ruhr               #
                  #                      Germany                        #
                  #                                                     #
                  #                  All rights reserved                #
                  #                        -***-                        #
                  #######################################################


                         Program Version 5.0.4 -  RELEASE  -


 With contributions from (in alphabetic order):
   Daniel Aravena         : Magnetic Suceptibility
   Michael Atanasov       : Ab Initio Ligand Field Theory (pilot matlab implementation)
   Alexander A. Auer      : GIAO ZORA, VPT2 properties, NMR spectrum
   Ute Becker             : Parallelization
   Giovanni Bistoni       : ED, misc. LED, open-shell LED, HFLD
   Martin Brehm           : Molecular dynamics
   Dmytro Bykov           : SCF Hessian
   Vijay G. Chilkuri      : MRCI spin determinant printing, contributions to CSF-ICE
   Dipayan Datta          : RHF DLPNO-CCSD density
   Achintya Kumar Dutta   : EOM-CC, STEOM-CC
   Dmitry Ganyushin       : Spin-Orbit,Spin-Spin,Magnetic field MRCI
   Miquel Garcia          : C-PCM and meta-GGA Hessian, CC/C-PCM, Gaussian charge scheme
   Yang Guo               : DLPNO-NEVPT2, F12-NEVPT2, CIM, IAO-localization
   Andreas Hansen         : Spin unrestricted coupled pair/coupled cluster methods
   Benjamin Helmich-Paris : MC-RPA, TRAH-SCF, COSX integrals
   Lee Huntington         : MR-EOM, pCC
   Robert Izsak           : Overlap fitted RIJCOSX, COSX-SCS-MP3, EOM
   Marcus Kettner         : VPT2
   Christian Kollmar      : KDIIS, OOCD, Brueckner-CCSD(T), CCSD density, CASPT2, CASPT2-K
   Simone Kossmann        : Meta GGA functionals, TD-DFT gradient, OOMP2, MP2 Hessian
   Martin Krupicka        : Initial AUTO-CI
   Lucas Lang             : DCDCAS
   Marvin Lechner         : AUTO-CI (C++ implementation), FIC-MRCC
   Dagmar Lenk            : GEPOL surface, SMD
   Dimitrios Liakos       : Extrapolation schemes; Compound Job, initial MDCI parallelization
   Dimitrios Manganas     : Further ROCIS development; embedding schemes
   Dimitrios Pantazis     : SARC Basis sets
   Anastasios Papadopoulos: AUTO-CI, single reference methods and gradients
   Taras Petrenko         : DFT Hessian,TD-DFT gradient, ASA, ECA, R-Raman, ABS, FL, XAS/XES, NRVS
   Peter Pinski           : DLPNO-MP2, DLPNO-MP2 Gradient
   Christoph Reimann      : Effective Core Potentials
   Marius Retegan         : Local ZFS, SOC
   Christoph Riplinger    : Optimizer, TS searches, QM/MM, DLPNO-CCSD(T), (RO)-DLPNO pert. Triples
   Tobias Risthaus        : Range-separated hybrids, TD-DFT gradient, RPA, STAB
   Michael Roemelt        : Original ROCIS implementation
   Masaaki Saitow         : Open-shell DLPNO-CCSD energy and density
   Barbara Sandhoefer     : DKH picture change effects
   Avijit Sen             : IP-ROCIS
   Kantharuban Sivalingam : CASSCF convergence, NEVPT2, FIC-MRCI
   Bernardo de Souza      : ESD, SOC TD-DFT
   Georgi Stoychev        : AutoAux, RI-MP2 NMR, DLPNO-MP2 response
   Willem Van den Heuvel  : Paramagnetic NMR
   Boris Wezisla          : Elementary symmetry handling
   Frank Wennmohs         : Technical directorship


 We gratefully acknowledge several colleagues who have allowed us to
 interface, adapt or use parts of their codes:
   Stefan Grimme, W. Hujo, H. Kruse, P. Pracht,  : VdW corrections, initial TS optimization,
                  C. Bannwarth, S. Ehlert          DFT functionals, gCP, sTDA/sTD-DF
   Ed Valeev, F. Pavosevic, A. Kumar             : LibInt (2-el integral package), F12 methods
   Garnet Chan, S. Sharma, J. Yang, R. Olivares  : DMRG
   Ulf Ekstrom                                   : XCFun DFT Library
   Mihaly Kallay                                 : mrcc  (arbitrary order and MRCC methods)
   Jiri Pittner, Ondrej Demel                    : Mk-CCSD
   Frank Weinhold                                : gennbo (NPA and NBO analysis)
   Christopher J. Cramer and Donald G. Truhlar   : smd solvation model
   Lars Goerigk                                  : TD-DFT with DH, B97 family of functionals
   V. Asgeirsson, H. Jonsson                     : NEB implementation
   FAccTs GmbH                                   : IRC, NEB, NEB-TS, DLPNO-Multilevel, CI-OPT
                                                   MM, QMMM, 2- and 3-layer-ONIOM, Crystal-QMMM,
                                                   LR-CPCM, SF, NACMEs, symmetry and pop. for TD-DFT,
                                                   nearIR, NL-DFT gradient (VV10), updates on ESD,
                                                   ML-optimized integration grids
   S Lehtola, MJT Oliveira, MAL Marques          : LibXC Library
   Liviu Ungur et al                             : ANISO software


 Your calculation uses the libint2 library for the computation of 2-el integrals
 For citations please refer to: http://libint.valeyev.net

 Your ORCA version has been built with support for libXC version: 5.1.0
 For citations please refer to: https://tddft.org/programs/libxc/

 This ORCA versions uses:
   CBLAS   interface :  Fast vector & matrix operations
   LAPACKE interface :  Fast linear algebra routines
   SCALAPACK package :  Parallel linear algebra routines
   Shared memory     :  Shared parallel matrices
   BLAS/LAPACK       :  OpenBLAS 0.3.15  USE64BITINT DYNAMIC_ARCH NO_AFFINITY Zen SINGLE_THREADED
        Core in use  :  Zen
   Copyright (c) 2011-2014, The OpenBLAS Project




***************************************
The coordinates will be read from file: opt.xyz
***************************************


================================================================================

----- Orbital basis set information -----
Your calculation utilizes the basis: ZORA-def2-TZVPP 
   Exponents from def2-TZVPP [F. Weigend and R. Ahlrichs, Phys. Chem. Chem. Phys. 7, 3297 (2005)],
   recontracted for ZORA by D. A. Pantazis.

----- AuxJ basis set information -----
Your calculation utilizes the AutoAux generation procedure.
  G. L. Stoychev, A. A. Auer, F. Neese, J. Chem. Theory Comput. 13, 554 (2017)

----- AuxC basis set information -----
Your calculation utilizes the auxiliary basis: def2-TZVPP/C
  H-La, Hf-Rn : A. Hellweg, C. Hattig, S. Hofener and W. Klopper, Theor. Chem. Acc. 117, 587 (2007).
        Ce-Lu : J. Chmela and M. E. Harding, Mol. Phys. (2018).

----- AuxJK basis set information -----
Your calculation utilizes the AutoAux generation procedure.
  G. L. Stoychev, A. A. Auer, F. Neese, J. Chem. Theory Comput. 13, 554 (2017)

================================================================================
                                        WARNINGS
                       Please study these warnings very carefully!
================================================================================


WARNING: Post HF methods need fully converged wavefunctions
  ===> : Setting SCFConvForced true
         You can overwrite this default with %scf ConvForced false 


WARNING: MDCI localization with Augmented Hessian Foster-Boys
  ===> : Switching off randomization!

INFO   : the flag for use of the SHARK integral package has been found!

================================================================================
                                       INPUT FILE
================================================================================
NAME = iv.inp
|  1> ! ZORA DLPNO-CCSD(T1) TightPNO
|  2> ! ZORA-def2-TZVPP def2-TZVPP/C AutoAux
|  3> ! RIJK VeryTightSCF CPCM(Benzene)
|  4> 
|  5> %basis
|  6> 	AutoAuxSize 3
|  7> 	AutoAuxLmax true
|  8> end
|  9> %scf
| 10> 	AutoTRAH false
| 11> 	MaxIter 1500
| 12> 	Convergence VeryTight
| 13> end
| 14> %mdci
| 15> 	TCutPNO 1.000e-6
| 16> 	UseFullLMP2Guess true
| 17> 	MaxIter 1000
| 18> end
| 19> 
| 20> %pal
| 21> 	nprocs 8
| 22> end
| 23> %MaxCore 12500
| 24> 
| 25> * xyzfile 0 1 opt.xyz
| 26> 
| 27>                          ****END OF INPUT****
================================================================================

                       ****************************
                       * Single Point Calculation *
                       ****************************

---------------------------------
CARTESIAN COORDINATES (ANGSTROEM)
---------------------------------
  S      0.776227    0.642566    0.000000
  O      2.243739    0.542270    0.000000
  O      0.191813    1.992429    0.000000

----------------------------
CARTESIAN COORDINATES (A.U.)
----------------------------
  NO LB      ZA    FRAG     MASS         X           Y           Z
   0 S    16.0000    0    32.060    1.466857    1.214275    0.000000
   1 O     8.0000    0    15.999    4.240051    1.024741    0.000000
   2 O     8.0000    0    15.999    0.362475    3.765144    0.000000

--------------------------------
INTERNAL COORDINATES (ANGSTROEM)
--------------------------------
 S      0   0   0     0.000000000000     0.00000000     0.00000000
 O      1   0   0     1.470934773200     0.00000000     0.00000000
 O      1   2   0     1.470940969228   117.31967123     0.00000000

---------------------------
INTERNAL COORDINATES (A.U.)
---------------------------
 S      0   0   0     0.000000000000     0.00000000     0.00000000
 O      1   0   0     2.779663882209     0.00000000     0.00000000
 O      1   2   0     2.779675591005   117.31967123     0.00000000

---------------------
BASIS SET INFORMATION
---------------------
There are 2 groups of distinct atoms

 Group   1 Type S   : 14s9p3d1f contracted to 8s4p3d1f pattern {71111111/6111/111/1}
 Group   2 Type O   : 11s6p2d1f contracted to 6s3p2d1f pattern {611111/411/11/1}

Atom   0S    basis set group =>   1
Atom   1O    basis set group =>   2
Atom   2O    basis set group =>   2
---------------------------------
AUXILIARY/J BASIS SET INFORMATION
---------------------------------
There are 2 groups of distinct atoms

 Group   1 Type S   : 24s23p23d17f10g3h1i contracted to 24s23p23d17f10g3h1i pattern {111111111111111111111111/11111111111111111111111/11111111111111111111111/11111111111111111/1111111111/111/1}
 Group   2 Type O   : 22s21p21d15f6g2h1i contracted to 22s21p21d15f6g2h1i pattern {1111111111111111111111/111111111111111111111/111111111111111111111/111111111111111/111111/11/1}

Atom   0S    basis set group =>   1
Atom   1O    basis set group =>   2
Atom   2O    basis set group =>   2
---------------------------------
AUXILIARY/C BASIS SET INFORMATION
---------------------------------
There are 2 groups of distinct atoms

 Group   1 Type S   : 11s8p7d5f2g contracted to 11s8p7d5f2g pattern {11111111111/11111111/1111111/11111/11}
 Group   2 Type O   : 8s6p5d3f1g contracted to 8s6p4d3f1g pattern {11111111/111111/2111/111/1}

Atom   0S    basis set group =>   1
Atom   1O    basis set group =>   2
Atom   2O    basis set group =>   2
----------------------------------
AUXILIARY/JK BASIS SET INFORMATION
----------------------------------
There are 2 groups of distinct atoms

 Group   1 Type S   : 24s23p23d17f10g3h1i contracted to 24s23p23d17f10g3h1i pattern {111111111111111111111111/11111111111111111111111/11111111111111111111111/11111111111111111/1111111111/111/1}
 Group   2 Type O   : 22s21p21d15f6g2h1i contracted to 22s21p21d15f6g2h1i pattern {1111111111111111111111/111111111111111111111/111111111111111111111/111111111111111/111111/11/1}

Atom   0S    basis set group =>   1
Atom   1O    basis set group =>   2
Atom   2O    basis set group =>   2


           ************************************************************
           *        Program running with 8 parallel MPI-processes     *
           *              working on a common directory               *
           ************************************************************
------------------------------------------------------------------------------
                           ORCA GTO INTEGRAL CALCULATION
                           -- RI-GTO INTEGRALS CHOSEN --
------------------------------------------------------------------------------
------------------------------------------------------------------------------
                   ___                                                        
                  /   \      - P O W E R E D   B Y -                         
                 /     \                                                     
                 |  |  |   _    _      __       _____    __    __             
                 |  |  |  | |  | |    /  \     |  _  \  |  |  /  |          
                  \  \/   | |  | |   /    \    | | | |  |  | /  /          
                 / \  \   | |__| |  /  /\  \   | |_| |  |  |/  /          
                |  |  |   |  __  | /  /__\  \  |    /   |      \           
                |  |  |   | |  | | |   __   |  |    \   |  |\   \          
                \     /   | |  | | |  |  |  |  | |\  \  |  | \   \       
                 \___/    |_|  |_| |__|  |__|  |_| \__\ |__|  \__/        
                                                                              
                      - O R C A' S   B I G   F R I E N D -                    
                                      &                                       
                       - I N T E G R A L  F E E D E R -                       
                                                                              
 v1 FN, 2020, v2 2021                                                         
------------------------------------------------------------------------------


Reading SHARK input file iv.SHARKINP.tmp ... ok
----------------------
SHARK INTEGRAL PACKAGE
----------------------

Number of atoms                             ...      3
Number of basis functions                   ...    106
Number of shells                            ...     40
Maximum angular momentum                    ...      3
Integral batch strategy                     ... SHARK/LIBINT Hybrid
RI-J (if used) integral strategy            ... SPLIT-RIJ (Revised 2003 algorithm where possible)
Printlevel                                  ...      1
Contraction scheme used                     ... SEGMENTED contraction
Coulomb Range Separation                    ... NOT USED
Exchange Range Separation                   ... NOT USED
Finite Nucleus Model                        ... NOT USED
Auxiliary Coulomb fitting basis             ... AVAILABLE
   # of basis functions in Aux-J            ...   1231
   # of shells in Aux-J                     ...    277
   Maximum angular momentum in Aux-J        ...      6
Auxiliary J/K fitting basis                 ... AVAILABLE
   # of basis functions in Aux-JK           ...   1231
   # of shells in Aux-JK                    ...    277
   Maximum angular momentum in Aux-JK       ...      6
Auxiliary Correlation fitting basis         ... AVAILABLE
   # of basis functions in Aux-C            ...    275
   # of shells in Aux-C                     ...     77
   Maximum angular momentum in Aux-C        ...      4
Auxiliary 'external' fitting basis          ... NOT available
Integral threshold                          ...     1.000000e-12
Primitive cut-off                           ...     1.000000e-14
Primitive pair pre-selection threshold      ...     1.000000e-14

Calculating pre-screening integrals         ... done (  0.0 sec) Dimension = 40
Organizing shell pair data                  ... done (  0.0 sec)
Shell pair information
Total number of shell pairs                 ...       820
Shell pairs after pre-screening             ...       785
Total number of primitive shell pairs       ...      2356
Primitive shell pairs kept                  ...      1933
          la=0 lb=0:    179 shell pairs
          la=1 lb=0:    200 shell pairs
          la=1 lb=1:     55 shell pairs
          la=2 lb=0:    136 shell pairs
          la=2 lb=1:     70 shell pairs
          la=2 lb=2:     28 shell pairs
          la=3 lb=0:     60 shell pairs
          la=3 lb=1:     30 shell pairs
          la=3 lb=2:     21 shell pairs
          la=3 lb=3:      6 shell pairs

Calculating one electron integrals          ... done (  0.0 sec)
Calculating RI/J V-Matrix + Cholesky decomp.... done (  0.0 sec)
Calculating RI/JK V-Matrix + Cholesky decomp... done (  0.0 sec)
Calculating RI/C V-Matrix + Cholesky decomp.... done (  0.0 sec)
Calculating Nuclear repulsion               ... done (  0.0 sec) ENN=    105.576061431211 Eh

SHARK setup successfully completed in   0.2 seconds

Maximum memory used throughout the entire GTOINT-calculation: 24.0 MB


           ************************************************************
           *        Program running with 8 parallel MPI-processes     *
           *              working on a common directory               *
           ************************************************************
------------------------------------------------------------------------------
                          ORCA RELATIVISTIC HAMILTONIAN
------------------------------------------------------------------------------

Relativistic Method            ... ZORA(MP)
Treatment of potential         ... Van Wuellen
Nucleus model                  ... Point Nucleus
Speed of light used            ... 137.03598950000000


            *************************************************
            *         ZERO ORDER REGULAR APPROXIMATION      *
            *                     ZORA(MP)                  *
            *            Programmed by FN according to      *
            *                   C. van Wuellen              *
            *       J. Chem. Phys. (1998) vol 109, 392-399  *
            *************************************************

Terms included in model potential: +V(e,N)+V(C)+V(Xa)+V(VWN-V)
Basis function cutoff value   ... 1.000000e-12
Loading the fitted atomic densities (ZORA)   ... done
Calculating the cutoffs                      ... done
Number of fit functions                      ... 38
Setting up the integration grid ... done

Maximum memory used throughout the entire REL-calculation: 5.4 MB


           ************************************************************
           *        Program running with 8 parallel MPI-processes     *
           *              working on a common directory               *
           ************************************************************
-------------------------------------------------------------------------------
                                 ORCA SCF
-------------------------------------------------------------------------------

------------
SCF SETTINGS
------------
Hamiltonian:
 Ab initio Hamiltonian  Method          .... Hartree-Fock(GTOs)
 RI-approximation to the Coulomb term is turned on
   Number of AuxJK basis functions      .... 1231
   RI-JK (J+K treated both via RI)      .... on

Relativistic Settings:
 Scalar relativistic method             .... ZORA
 Speed of light used       Velit        ....       137.035989
Orbital energies will be scaled


General Settings:
 Integral files         IntName         .... iv
 Hartree-Fock type      HFTyp           .... RHF
 Total Charge           Charge          ....    0
 Multiplicity           Mult            ....    1
 Number of Electrons    NEL             ....   32
 Basis Dimension        Dim             ....  106
 Nuclear Repulsion      ENuc            ....    105.5760614312 Eh

Convergence Acceleration:
 DIIS                   CNVDIIS         .... on
   Start iteration      DIISMaxIt       ....    12
   Startup error        DIISStart       ....  0.200000
   # of expansion vecs  DIISMaxEq       ....     5
   Bias factor          DIISBfac        ....   1.050
   Max. coefficient     DIISMaxC        ....  10.000
 Trust-Rad. Augm. Hess. CNVTRAH         .... off
 SOSCF                  CNVSOSCF        .... on
   Start iteration      SOSCFMaxIt      ....   150
   Startup grad/error   SOSCFStart      ....  0.003300
 Level Shifting         CNVShift        .... on
   Level shift para.    LevelShift      ....    0.2500
   Turn off err/grad.   ShiftErr        ....    0.0010
 Zerner damping         CNVZerner       .... off
 Static damping         CNVDamp         .... on
   Fraction old density DampFac         ....    0.7000
   Max. Damping (<1)    DampMax         ....    0.9800
   Min. Damping (>=0)   DampMin         ....    0.0000
   Turn off err/grad.   DampErr         ....    0.1000
 Fernandez-Rico         CNVRico         .... off

SCF Procedure:
 Maximum # iterations   MaxIter         ....  1500
 SCF integral mode      SCFMode         .... Direct
   Integral package                     .... SHARK and LIBINT hybrid scheme
 Reset frequency        DirectResetFreq ....    20
 Integral Threshold     Thresh          ....  1.000e-12 Eh
 Primitive CutOff       TCut            ....  1.000e-14 Eh

Convergence Tolerance:
 Convergence Check Mode ConvCheckMode   .... Total+1el-Energy
 Convergence forced     ConvForced      .... 1
 Energy Change          TolE            ....  1.000e-09 Eh
 1-El. energy change                    ....  1.000e-06 Eh
 Orbital Gradient       TolG            ....  2.000e-06
 Orbital Rotation angle TolX            ....  2.000e-06
 DIIS Error             TolErr          ....  1.000e-08


Diagonalization of the overlap matrix:
Smallest eigenvalue                        ... 2.035e-03
Time for diagonalization                   ...    0.001 sec
Threshold for overlap eigenvalues          ... 1.000e-08
Number of eigenvalues below threshold      ... 0
Time for construction of square roots      ...    0.001 sec
Total time needed                          ...    0.002 sec

Time for model grid setup =    0.029 sec

------------------------------
INITIAL GUESS: MODEL POTENTIAL
------------------------------
Loading ZORA relativistic densities                ... done
Calculating cut-offs                               ... done
Initializing the effective Hamiltonian             ... done
Setting up the integral package (SHARK)            ... done
Starting the Coulomb interaction                   ... done (   0.0 sec)
Reading the grid                                   ... done
Mapping shells                                     ... done
Starting the XC term evaluation                    ... done (   0.0 sec)
Transforming the Hamiltonian                       ... done (   0.0 sec)
Diagonalizing the Hamiltonian                      ... done (   0.0 sec)
Back transforming the eigenvectors                 ... done (   0.0 sec)
Now organizing SCF variables                       ... done
                      ------------------
                      INITIAL GUESS DONE (   0.0 sec)
                      ------------------

--------------------
CPCM SOLVATION MODEL
--------------------
CPCM parameters:
  Epsilon                                         ...       2.2800
  Refrac                                          ...       1.5010
  Rsolv                                           ...       1.3000
  Surface type                                    ... GAUSSIAN VDW
  Epsilon function type                           ...         CPCM
Radii:
 Radius for S  used is    4.0818 Bohr (=   2.1600 Ang.)
 Radius for O  used is    3.4469 Bohr (=   1.8240 Ang.)
Calculating surface                               ...        done! (  0.0s)
GEPOL surface points                              ...          252
GEPOL Volume                                      ...     420.6111
GEPOL Surface-area                                ...     286.9719
Calculating surface distance matrix               ...        done! (  0.0s)
Performing Cholesky decomposition & store         ...        done! (  0.0s)
Overall time for CPCM initialization              ...                 0.0s
--------------
SCF ITERATIONS
--------------
ITER       Energy         Delta-E        Max-DP      RMS-DP      [F,P]     Damp
  0   -549.0027956469   0.000000000000 0.05815783  0.00169422  0.6530813 0.7000
  1   -548.9252189991   0.077576647767 0.05442660  0.00174089  0.4768780 0.7000
  2   -548.9354643938  -0.010245394662 0.03226009  0.00106396  0.3237816 0.7000
  3   -549.0323076940  -0.096843300253 0.01304504  0.00045334  0.2198152 0.7000
                               ***Turning on DIIS***
  4   -549.1461525771  -0.113844883050 0.02369212  0.00048112  0.1507698 0.7000
  5   -549.2240805404  -0.077927963372 0.02074669  0.00054229  0.1044289 0.7000
  6   -549.1712760461   0.052804494360 0.05048212  0.00142603  0.0727199 0.0000
  7   -549.3558908843  -0.184614838264 0.01528775  0.00044630  0.0615888 0.0000
  8   -549.2846449620   0.071245922326 0.00598470  0.00021953  0.0320722 0.0000
  9   -549.2529057568   0.031739205204 0.00600301  0.00019418  0.0191890 0.0000
 10   -549.2249722043   0.027933552514 0.00342087  0.00009782  0.0079419 0.0000
                      *** Initiating the SOSCF procedure ***
                           *** Shutting down DIIS ***
                      *** Re-Reading the Fockian *** 
                      *** Removing any level shift *** 
ITER      Energy       Delta-E        Grad      Rot      Max-DP    RMS-DP
 11   -549.21123457   0.0137376333  0.001856  0.001856  0.001686  0.000045
 12   -549.20481940   0.0064151735  0.000787  0.001209  0.000883  0.000021
 13   -549.20482143  -0.0000020323  0.000224  0.000388  0.000867  0.000016
 14   -549.20482237  -0.0000009393  0.000055  0.000175  0.000204  0.000005
 15   -549.20482245  -0.0000000846  0.000022  0.000050  0.000037  0.000002
 16   -549.20482246  -0.0000000099  0.000008  0.000008  0.000030  0.000001
 17   -549.20482246  -0.0000000007  0.000001  0.000001  0.000005  0.000000
                 **** Energy Check signals convergence ****
              ***Rediagonalizing the Fockian in SOSCF/NRSCF***

               *****************************************************
               *                     SUCCESS                       *
               *           SCF CONVERGED AFTER  18 CYCLES          *
               *****************************************************


----------------
TOTAL SCF ENERGY
----------------

Total Energy       :         -549.20482246 Eh          -14944.62299 eV

Components:
Nuclear Repulsion  :          105.57606143 Eh            2872.87069 eV
Electronic Energy  :         -654.78088390 Eh          -17817.49367 eV
One Electron Energy:         -967.19785745 Eh          -26318.79172 eV
Two Electron Energy:          312.41697355 Eh            8501.29805 eV
CPCM Dielectric    :           -0.00578537 Eh              -0.15743 eV

Virial components:
Potential Energy   :        -1100.06265888 Eh          -29934.22677 eV
Kinetic Energy     :          550.85783641 Eh           14989.60379 eV
Virial Ratio       :            1.99699920

CPCM Solvation Model Properties:
Surface-charge          :           -0.00778406
Charge-correction       :            0.00003728 Eh               0.00101 eV
Free-energy (cav+disp)  :  This term is not implemented in the current solvation scheme

---------------
SCF CONVERGENCE
---------------

  Last Energy change         ...   -2.1032e-11  Tolerance :   1.0000e-09
  Last MAX-Density change    ...    5.3431e-07  Tolerance :   1.0000e-08
  Last RMS-Density change    ...    2.3277e-08  Tolerance :   1.0000e-09
  Last Orbital Gradient      ...    2.7147e-07  Tolerance :   2.0000e-06
  Last Orbital Rotation      ...    4.8187e-07  Tolerance :   2.0000e-06

             **** THE GBW FILE WAS UPDATED (iv.gbw) ****
             **** DENSITY iv.scfp WAS UPDATED ****
             **** ENERGY FILE WAS UPDATED (iv.en.tmp) ****
             **** THE GBW FILE WAS UPDATED (iv.gbw) ****
             **** DENSITY iv.scfp WAS UPDATED ****
----------------
ORBITAL ENERGIES
----------------

  NO   OCC          E(Eh)            E(eV) 
   0   2.0000     -92.777031     -2524.5914 
   1   2.0000     -20.656355      -562.0880 
   2   2.0000     -20.656322      -562.0871 
   3   2.0000      -9.213324      -250.7073 
   4   2.0000      -6.842861      -186.2037 
   5   2.0000      -6.841810      -186.1751 
   6   2.0000      -6.840287      -186.1337 
   7   2.0000      -1.478268       -40.2257 
   8   2.0000      -1.379288       -37.5323 
   9   2.0000      -0.876973       -23.8637 
  10   2.0000      -0.689236       -18.7551 
  11   2.0000      -0.677718       -18.4416 
  12   2.0000      -0.644740       -17.5443 
  13   2.0000      -0.533822       -14.5260 
  14   2.0000      -0.509617       -13.8674 
  15   2.0000      -0.495646       -13.4872 
  16   0.0000       0.005833         0.1587 
  17   0.0000       0.187881         5.1125 
  18   0.0000       0.189041         5.1441 
  19   0.0000       0.364504         9.9187 
  20   0.0000       0.368908        10.0385 
  21   0.0000       0.438433        11.9304 
  22   0.0000       0.478806        13.0290 
  23   0.0000       0.521741        14.1973 
  24   0.0000       0.524051        14.2602 
  25   0.0000       0.542456        14.7610 
  26   0.0000       0.587810        15.9951 
  27   0.0000       0.599790        16.3211 
  28   0.0000       0.619471        16.8567 
  29   0.0000       0.630630        17.1603 
  30   0.0000       0.674585        18.3564 
  31   0.0000       0.709677        19.3113 
  32   0.0000       0.803041        21.8519 
  33   0.0000       0.854032        23.2394 
  34   0.0000       1.029382        28.0109 
  35   0.0000       1.071442        29.1554 
  36   0.0000       1.500819        40.8394 
  37   0.0000       1.524857        41.4935 
  38   0.0000       1.578126        42.9430 
  39   0.0000       1.579434        42.9786 
  40   0.0000       1.660449        45.1831 
  41   0.0000       1.683326        45.8056 
  42   0.0000       1.691407        46.0255 
  43   0.0000       1.729476        47.0614 
  44   0.0000       1.777637        48.3720 
  45   0.0000       1.797028        48.8996 
  46   0.0000       1.829627        49.7867 
  47   0.0000       1.895108        51.5685 
  48   0.0000       2.018750        54.9330 
  49   0.0000       2.019090        54.9422 
  50   0.0000       2.072040        56.3831 
  51   0.0000       2.073922        56.4343 
  52   0.0000       2.171825        59.0984 
  53   0.0000       2.334640        63.5288 
  54   0.0000       2.444128        66.5081 
  55   0.0000       2.461927        66.9924 
  56   0.0000       2.541471        69.1569 
  57   0.0000       2.547048        69.3087 
  58   0.0000       2.559156        69.6382 
  59   0.0000       2.711235        73.7765 
  60   0.0000       2.733214        74.3745 
  61   0.0000       3.073331        83.6296 
  62   0.0000       3.086377        83.9846 
  63   0.0000       3.160835        86.0107 
  64   0.0000       3.161095        86.0178 
  65   0.0000       3.181007        86.5596 
  66   0.0000       3.315025        90.2064 
  67   0.0000       3.670775        99.8869 
  68   0.0000       4.302392       117.0740 
  69   0.0000       5.247245       142.7848 
  70   0.0000       5.505923       149.8238 
  71   0.0000       5.524484       150.3288 
  72   0.0000       5.525587       150.3589 
  73   0.0000       5.530094       150.4815 
  74   0.0000       5.535895       150.6394 
  75   0.0000       5.586367       152.0128 
  76   0.0000       5.586885       152.0269 
  77   0.0000       5.619040       152.9019 
  78   0.0000       5.660678       154.0349 
  79   0.0000       5.719037       155.6229 
  80   0.0000       5.787567       157.4877 
  81   0.0000       5.934369       161.4824 
  82   0.0000       6.020068       163.8144 
  83   0.0000       6.040708       164.3760 
  84   0.0000       6.703632       182.4151 
  85   0.0000       6.751668       183.7222 
  86   0.0000       6.759112       183.9248 
  87   0.0000       6.773740       184.3228 
  88   0.0000       6.976209       189.8323 
  89   0.0000       7.004401       190.5994 
  90   0.0000       7.093656       193.0282 
  91   0.0000       7.097334       193.1283 
  92   0.0000       7.256502       197.4595 
  93   0.0000       7.275795       197.9844 
  94   0.0000       7.330856       199.4827 
  95   0.0000       7.383527       200.9160 
  96   0.0000       7.481964       203.5946 
  97   0.0000       8.405846       228.7347 
  98   0.0000       8.458263       230.1610 
  99   0.0000      15.001964       408.2242 
 100   0.0000      15.150223       412.2585 
 101   0.0000      19.596489       533.2476 
 102   0.0000      78.928301      2147.7483 
 103   0.0000      79.070681      2151.6226 
 104   0.0000     122.945975      3345.5301 
 105   0.0000     812.679355     22114.1295 

                    ********************************
                    * MULLIKEN POPULATION ANALYSIS *
                    ********************************

-----------------------
MULLIKEN ATOMIC CHARGES
-----------------------
   0 S :    0.960242
   1 O :   -0.480125
   2 O :   -0.480117
Sum of atomic charges:   -0.0000000

--------------------------------
MULLIKEN REDUCED ORBITAL CHARGES
--------------------------------
  0 S s       :     5.812261  s :     5.812261
      pz      :     2.788723  p :     8.542291
      px      :     2.802094
      py      :     2.951475
      dz2     :     0.039629  d :     0.615236
      dxz     :     0.137488
      dyz     :     0.083901
      dx2y2   :     0.154881
      dxy     :     0.199336
      f0      :     0.005448  f :     0.069970
      f+1     :     0.002317
      f-1     :     0.001900
      f+2     :     0.014449
      f-2     :     0.003994
      f+3     :     0.013382
      f-3     :     0.028480
  1 O s       :     3.857243  s :     3.857243
      pz      :     1.469107  p :     4.583556
      px      :     1.342306
      py      :     1.772143
      dz2     :     0.003407  d :     0.037341
      dxz     :     0.013235
      dyz     :     0.000048
      dx2y2   :     0.011577
      dxy     :     0.009074
      f0      :     0.000178  f :     0.001985
      f+1     :     0.000259
      f-1     :     0.000018
      f+2     :     0.000422
      f-2     :     0.000013
      f+3     :     0.000571
      f-3     :     0.000523
  2 O s       :     3.857239  s :     3.857239
      pz      :     1.469097  p :     4.583552
      px      :     1.686502
      py      :     1.427954
      dz2     :     0.003407  d :     0.037341
      dxz     :     0.001942
      dyz     :     0.011340
      dx2y2   :     0.009120
      dxy     :     0.011531
      f0      :     0.000178  f :     0.001985
      f+1     :     0.000063
      f-1     :     0.000215
      f+2     :     0.000202
      f-2     :     0.000233
      f+3     :     0.000607
      f-3     :     0.000487


                     *******************************
                     * LOEWDIN POPULATION ANALYSIS *
                     *******************************

----------------------
LOEWDIN ATOMIC CHARGES
----------------------
   0 S :    0.731262
   1 O :   -0.365622
   2 O :   -0.365639

-------------------------------
LOEWDIN REDUCED ORBITAL CHARGES
-------------------------------
  0 S s       :     5.268427  s :     5.268427
      pz      :     2.762939  p :     8.766948
      px      :     2.928383
      py      :     3.075626
      dz2     :     0.093573  d :     1.035140
      dxz     :     0.185076
      dyz     :     0.109967
      dx2y2   :     0.301875
      dxy     :     0.344650
      f0      :     0.010902  f :     0.198222
      f+1     :     0.013152
      f-1     :     0.009946
      f+2     :     0.033315
      f-2     :     0.007952
      f+3     :     0.048424
      f-3     :     0.074531
  1 O s       :     3.629874  s :     3.629874
      pz      :     1.428924  p :     4.665191
      px      :     1.539168
      py      :     1.697099
      dz2     :     0.009053  d :     0.066734
      dxz     :     0.014962
      dyz     :     0.000160
      dx2y2   :     0.030339
      dxy     :     0.012220
      f0      :     0.000291  f :     0.003823
      f+1     :     0.000690
      f-1     :     0.000047
      f+2     :     0.000558
      f-2     :     0.000032
      f+3     :     0.001431
      f-3     :     0.000774
  2 O s       :     3.629880  s :     3.629880
      pz      :     1.428921  p :     4.665202
      px      :     1.651279
      py      :     1.585001
      dz2     :     0.009053  d :     0.066735
      dxz     :     0.002509
      dyz     :     0.012613
      dx2y2   :     0.022930
      dxy     :     0.019630
      f0      :     0.000291  f :     0.003823
      f+1     :     0.000145
      f-1     :     0.000592
      f+2     :     0.000257
      f-2     :     0.000333
      f+3     :     0.001275
      f-3     :     0.000931


                      *****************************
                      * MAYER POPULATION ANALYSIS *
                      *****************************

  NA   - Mulliken gross atomic population
  ZA   - Total nuclear charge
  QA   - Mulliken gross atomic charge
  VA   - Mayer's total valence
  BVA  - Mayer's bonded valence
  FA   - Mayer's free valence

  ATOM       NA         ZA         QA         VA         BVA        FA
  0 S     15.0398    16.0000     0.9602     3.6710     3.6710    -0.0000
  1 O      8.4801     8.0000    -0.4801     1.9268     1.9268     0.0000
  2 O      8.4801     8.0000    -0.4801     1.9268     1.9268     0.0000

  Mayer bond orders larger than 0.100000
B(  0-S ,  1-O ) :   1.8355 B(  0-S ,  2-O ) :   1.8355 

-------
TIMINGS
-------

Total SCF time: 0 days 0 hours 0 min 2 sec 

Total time                  ....       2.821 sec
Sum of individual times     ....       2.758 sec  ( 97.8%)

Fock matrix formation       ....       2.677 sec  ( 94.9%)
Diagonalization             ....       0.019 sec  (  0.7%)
Density matrix formation    ....       0.001 sec  (  0.1%)
Population analysis         ....       0.002 sec  (  0.1%)
Initial guess               ....       0.006 sec  (  0.2%)
Orbital Transformation      ....       0.000 sec  (  0.0%)
Orbital Orthonormalization  ....       0.000 sec  (  0.0%)
DIIS solution               ....       0.016 sec  (  0.6%)
SOSCF solution              ....       0.009 sec  (  0.3%)

Maximum memory used throughout the entire SCF-calculation: 22.9 MB


           ************************************************************
           *        Program running with 8 parallel MPI-processes     *
           *              working on a common directory               *
           ************************************************************


--------------------------------------------------------------------------------
                             ORCA-MATRIX DRIVEN CI
--------------------------------------------------------------------------------


Wavefunction type
-----------------
Correlation treatment                      ...      CCSD     
Single excitations                         ... ON
Orbital optimization                       ... OFF
Calculation of Z vector                    ... OFF
Calculation of Brueckner orbitals          ... OFF
Perturbative triple excitations            ... ON
Calculation of F12 correction              ... OFF
Frozen core treatment                      ... chemical core (14 el)
Reference Wavefunction                     ... RHF
  Internal Orbitals:     7 ...   15 (  9 MO's/ 18 electrons)
  Virtual  Orbitals:    16 ...  105 ( 90 MO's              )
Number of AO's                             ...    106
Number of electrons                        ...     32
Number of correlated electrons             ...     18

Algorithmic settings
--------------------
Integral transformation                    ... All integrals via the RI transformation
K(C) Formation                             ... RI-DLPNO
   PNO-Integral Storage                    ... ON DISK
   PNO occupation number cut-off           ... 1.000e-06
   Singles PNO occupation number cut-off   ... 3.000e-08
   PNO Mulliken prescreening cut-off       ... 1.000e-03
   Domain cut-off (Mulliken population)    ... 1.000e-03
   PNO Normalization                       ...    1
Maximum number of iterations               ...      1000
Convergence tolerance (max. residuum)      ... 1.000e-06
Level shift for amplitude update           ... 2.000e-01
Maximum number of DIIS vectors             ...         7
DIIS turned on at iteration                ...         0
Damping before turning on DIIS             ...     0.500
Damping after turning on DIIS              ...     0.000
Pair specific amplitude update             ... OFF
Natural orbital iterations                 ... OFF
Perturbative natural orbital generation    ... OFF
Printlevel                                 ... 2

Singles Fock matrix elements calculated using PNOs.

Memory handling:
----------------
Maximum memory for working arrays          ...  12500 MB
Data storage in matrix containers          ... UNCOMPRESSED
Data type for integral storage             ... DOUBLE
In-Core Storage of quantities:
   Amplitudes+Sigma Vector      ... NO
   J+K operators                ... NO
   DIIS vectors                 ... NO
   3-external integrals         ... NO
   4-external integrals         ... NO

Localization treatment:
-----------------------
Localization option                        ...    6
Localization threshhold                    ... -1.0e+00
Using relative localization threshhold     ... 1.0e-08
Neglect threshold for strong pairs         ... 1.000e-05 Eh
Prescreening threshold for very weak pairs ... 1.000e-07 Eh

Initializing the integral package          ... done
Localizing the valence orbitals
------------------------------------------------------------------------------
                           ORCA ORBITAL LOCALIZATION
------------------------------------------------------------------------------

Input orbitals are from                  ... iv.gbw
Output orbitals are to                   ... iv.loc
Max. number of iterations                ... 128
Localizations seeded randomly            ... off
Convergence tolerance                    ... 2.000e-07
Using relative localization threshhold   ... 1.000e-08
Treshold for strong local MOs            ... 9.500e-01
Treshold for bond MOs                    ... 8.500e-01
Operator                                 ... 0
Orbital range for localization           ... 7 to 15
Localization criterion                   ... FOSTER-BOYS (AUGMENTED HESSIAN)
Doing the dipole integrals     ... o.k.
Initial value of the localization sum :   109.640850
ITERATION   0 : L=  117.6990964907 DL=  8.06e+00 (AVERGE_DL)=    0.4731175094 
ITERATION   1 : L=  118.8017701915 DL=  1.10e+00 (AVERGE_DL)=    0.1750137852 
ITERATION   2 : L=  118.9887791951 DL=  1.87e-01 (AVERGE_DL)=    0.0720742294 
ITERATION   3 : L=  119.0571605807 DL=  6.84e-02 (AVERGE_DL)=    0.0435830579 
ITERATION   4 : L=  119.0722629941 DL=  1.51e-02 (AVERGE_DL)=    0.0204819795 
ITERATION   5 : L=  119.0747784426 DL=  2.52e-03 (AVERGE_DL)=    0.0083590411 
ITERATION   6 : L=  119.0752015209 DL=  4.23e-04 (AVERGE_DL)=    0.0034281449 
ITERATION   7 : L=  119.0752695791 DL=  6.81e-05 (AVERGE_DL)=    0.0013749557 
ITERATION   8 : L=  119.0752803834 DL=  1.08e-05 (AVERGE_DL)=    0.0005478331 
ITERATION   9 : L=  119.0752820832 DL=  1.70e-06 (AVERGE_DL)=    0.0002172905 
ITERATION  10 : L=  119.0752823514 DL=  2.68e-07 (AVERGE_DL)=    0.0000863115 
LOCALIZATION SUM CONVERGED

------------------------------------------------------
AUGMENTED HESSIAN OPTIMIZATION OF FOSTER-BOYS ORBITALS
------------------------------------------------------

Spin operator:           0
Orbital window:          7 to 15
Number of iterations:    128
Gradient tolerance:      2.000e-07
Number of pairs:         36
Davidson threshold:      2000
Diagonalization method:  LAPACK
Iter:    0   L: 119.0752823514   Grad. norm: 5.179797e-04
   *** Likely close to a maximum now. ***
       Augmented Hessian eigenvalues:  1.02e-07 -9.16e-01 -9.18e-01 -1.69e+00 ... 
Iter:    1   L: 119.0752824023   Grad. norm: 7.329756e-08
LOCALIZATION HAS CONVERGED.

Eigenvalues of the Hessian:
  0 -9.165e-01
  1 -9.180e-01
  2 -1.690e+00
  3 -1.699e+00
  4 -2.130e+00
  5 -2.151e+00
  6 -4.730e+00
  7 -4.732e+00
  8 -5.951e+00
  9 -5.955e+00
    ...


--------------------------------------------------------------------------------
                    LOCALIZED MOLECULAR ORBITAL COMPOSITIONS
--------------------------------------------------------------------------------

The Mulliken populations for each LMO on each atom are computed
The LMO`s will be ordered according to atom index and type
  (A) Strongly localized MO`s have populations of >=0.950 on one atom
  (B) Two center bond orbitals have populations of >=0.850 on two atoms
  (C) Other MO`s are considered to be `delocalized`

FOUND  -   3 strongly local MO`s
       -   6 two center bond MO`s
       -   0 significantly delocalized MO`s

Rather strongly localized orbitals:
MO   9:   2O  -   0.965792
MO   8:   1O  -   0.965790
MO   7:   0S  -   1.045965
Bond-like localized orbitals:
MO  15:   2O  -   0.680878  and   0S  -   0.320039
MO  14:   2O  -   0.680878  and   0S  -   0.320039
MO  13:   2O  -   0.938996  and   0S  -   0.062244
MO  12:   1O  -   0.680881  and   0S  -   0.320036
MO  11:   1O  -   0.680881  and   0S  -   0.320036
MO  10:   1O  -   0.938997  and   0S  -   0.062243
Localized MO's were stored in: iv.loc

Localizing the core orbitals
------------------------------------------------------------------------------
                           ORCA ORBITAL LOCALIZATION
------------------------------------------------------------------------------

Input orbitals are from                  ... iv.loc
Output orbitals are to                   ... iv.loc
Max. number of iterations                ... 128
Localizations seeded randomly            ... off
Convergence tolerance                    ... 2.000e-07
Using relative localization threshhold   ... 1.000e-08
Treshold for strong local MOs            ... 9.500e-01
Treshold for bond MOs                    ... 8.500e-01
Operator                                 ... 0
Orbital range for localization           ... 0 to 6
Localization criterion                   ... FOSTER-BOYS (AUGMENTED HESSIAN)
Doing the dipole integrals     ... o.k.
Initial value of the localization sum :    51.471827
ITERATION   0 : L=   51.6232670107 DL=  1.51e-01 (AVERGE_DL)=    0.0849201616 
ITERATION   1 : L=   51.6753494520 DL=  5.21e-02 (AVERGE_DL)=    0.0498007656 
ITERATION   2 : L=   51.6771488588 DL=  1.80e-03 (AVERGE_DL)=    0.0092566753 
ITERATION   3 : L=   51.6772190917 DL=  7.02e-05 (AVERGE_DL)=    0.0018287769 
ITERATION   4 : L=   51.6772236473 DL=  4.56e-06 (AVERGE_DL)=    0.0004657639 
ITERATION   5 : L=   51.6772240355 DL=  3.88e-07 (AVERGE_DL)=    0.0001359497 
LOCALIZATION SUM CONVERGED

------------------------------------------------------
AUGMENTED HESSIAN OPTIMIZATION OF FOSTER-BOYS ORBITALS
------------------------------------------------------

Spin operator:           0
Orbital window:          0 to 6
Number of iterations:    128
Gradient tolerance:      2.000e-07
Number of pairs:         21
Davidson threshold:      2000
Diagonalization method:  LAPACK
Iter:    0   L: 51.6772240355   Grad. norm: 1.430774e-04
   *** Detected a saddle point. ***
       Augmented Hessian eigenvalues:  1.55e-04  2.71e-05 -3.06e-05 -1.29e-04 ... 
Iter:    1   L: 51.6772538706   Grad. norm: 5.965941e-04
Iter:    2   L: 51.6772574654   Grad. norm: 4.193826e-04
Iter:    3   L: 51.6772576756   Grad. norm: 9.230269e-07
Iter:    4   L: 51.6772576771   Grad. norm: 7.409643e-07
   *** Likely close to a maximum now. ***
       Augmented Hessian eigenvalues:  4.73e-11 -1.09e-06 -1.54e-04 -2.27e-04 ... 
Iter:    5   L: 51.6772576771   Grad. norm: 2.376727e-10
LOCALIZATION HAS CONVERGED.

Eigenvalues of the Hessian:
  0 -1.057e-06
  1 -1.537e-04
  2 -2.274e-04
  3 -1.368e-01
  4 -1.369e-01
  5 -1.370e-01
  6 -4.107e-01
  7 -5.456e-01
  8 -5.483e-01
  9 -5.489e-01
    ...


--------------------------------------------------------------------------------
                    LOCALIZED MOLECULAR ORBITAL COMPOSITIONS
--------------------------------------------------------------------------------

The Mulliken populations for each LMO on each atom are computed
The LMO`s will be ordered according to atom index and type
  (A) Strongly localized MO`s have populations of >=0.950 on one atom
  (B) Two center bond orbitals have populations of >=0.850 on two atoms
  (C) Other MO`s are considered to be `delocalized`

FOUND  -   7 strongly local MO`s
       -   0 two center bond MO`s
       -   0 significantly delocalized MO`s

Rather strongly localized orbitals:
MO   6:   2O  -   0.999706
MO   5:   1O  -   0.999706
MO   4:   0S  -   0.999669
MO   3:   0S  -   0.999998
MO   2:   0S  -   0.999380
MO   1:   0S  -   1.000019
MO   0:   0S  -   0.999998
Localized MO's were stored in: iv.loc

Warning: reference  - re-canonicalizations have been set to INT 1 VIRT 1
Warning: internal orbitals are localized - no re-canonicalization of internal orbitals
Warning: UsePNO is turned on - no re-canonicalization of internal and virtual orbitals

--------------------------
CLOSED-SHELL FOCK OPERATOR
--------------------------

Restoring SHARK [2] ... ok
MDCI_FockCPCM: ediel   =  -0.005785365000
MDCI_FockCPCM: <VCPCM> =   0.062871306558
RI-JK section for the Fock operator:
  RHF full Fock operator         ... (SHARK)done
  RHF frozen core Fock operator  ... (SHARK)done
Time needed for Fock operator              ...            0.224 sec
Reference energy                           ...   -549.204822458

--------------
DLPNO SETTINGS (2015 fully linear scaling implementation)
--------------

TCutMKN:           1.000e-03
TCutPAO:           1.000e-03
TCutPNO:           1.000e-06
TCutPNOSingles:    3.000e-08
TCutEN:            9.700e-01
TCutPAOExt:        1.000e-01
TCutPairs:         1.000e-05
TCutPre:           1.000e-07
TCutOSV:           1.000e-06
TCutDOij:          1.000e-05
TCutDO:            5.000e-03
TCutC:             1.000e-04
TCutCPAO:          1.000e-03
TCutCMO:           1.000e-03
TScaleDOMP2PreScr: 2.000e+00
TScaleMKNMP2PreScr:1.000e+01
TScalePNOMP2PreScr:1.000e+00
PAO overlap thresh 1.000e-08
Using PNOs for Singles Fock computation
Use new domains
Use fully linear algorithm
TCutTNO:           1.000e-09
TCutMP2Pairs:      1.000e-06
TCutDOStrong:      2.000e-03
TCutMKNStrong:     1.000e-02
TCutMKNWeak:       1.000e-01
TCutDOWeak:        4.000e-03
NTCutTNO:          1

--------------------------
Mulliken population of the LMOs            ... ok
Performing proximity check                 ... No problems found
Calculating differential overlap integrals ... ok

--------------------------
ELECTRON PAIR PRESCREENING
--------------------------

Dipole-based pair screening          .... used

   TCutDOij = 1.000000e-05
   TCutPre  = 1.000000e-07
   .... Finished loop over pairs
Total time spent in the prescreening                  ...     0.000 sec
sum of pair energies estimated for screened out pairs ...       0.000000000000 Eh
Thresholds for map construction and integral transformation for crude MP2:
   TCutMKN                    ...     1.0e-02
   TCutDO                     ...     1.0e-02
   TCutPairs                  ...     1.0e-05
   TCutPNO_CrudeMP2           ...     1.0e-06
   TCutPNOSingles_CrudeMP2    ...     3.0e-08
--------------------------------
LOCAL RI TRANSFORMATION (IAVPAO)
--------------------------------

Orbital window:       7 to 15
Number of PAOs:     106
Basis functions:    106 (40 shells)
Aux. functions:     275 (77 shells)
Use SHARK:           on

Processing maps (0.0 sec)
Average map sizes:
   Aux shells -> MOs               9.0
   Aux shells -> PAOs            106.0
   MOs        -> AO shells        40.0
   PAOs       -> AO shells        40.0

Calculating integrals (0.0 sec, 2.005 MB)
Sorting integrals (0.0 sec, 2.002 MB)
Total time for the integral transformation: 0.1 sec
--------------------------------
INITIAL GUESS AND PNO GENERATION
--------------------------------

PNO truncation parameters                   .... 
    PAOOverlapThresh   =        1.000e-08

    TCutPairs          =        1.000e-05
    TCutPNO            =        1.000e-06
    TCutPNOSingles     =        3.000e-08
    TCutMP2Pairs       =        1.000e-06
    TCutMKN            =        1.000e-02
    TCutDO             =        1.000e-02

Pair selection                          .... not used
Type of local MP2 treatment                 .... semi-local MP2
Strategy for PNO selection                  .... occupation number selection
Pair density normalization                  .... MP2 norm
Spin component scaling                      .... not used

   .... Finished loop over pairs
Making pair pair interaction lists          ... done

                       ===========================
                         45 OF   45 PAIRS ARE KEPT CCSD PAIRS
                          0 OF   45 PAIRS ARE KEPT MP2 PAIRS FOR (T)
                          0 OF   45 PAIRS ARE SKIPPED
                       ===========================

Total time spent in the initial guess                 ...     0.027 sec
SL-MP2 correlation energy (all non-screened pairs)    ...      -0.625282522809 Eh

Initial PNO correlation energy                        ...      -0.623336650653 Eh
sum of pair energies prescreened and skipped MP2 pairs...       0.000000000000 Eh
sum of pair energies of crude MP2 skipped pairs only  ...       0.000000000000 Eh
sum of MP2 pair energies for pairs that were not kept ...       0.000000000000 Eh
sum of PNO error estimates for the kept pairs         ...      -0.001945872157 Eh
                                                          --------------------
sum of all corrections                                         -0.001945872157
Initial total correlation energy                               -0.625282522809
Thresholds for map construction and integral transformation for fine MP2 and CCSD(T) calculation:
   TCutMKN   ...     1.0e-03
   TCutDO    ...     5.0e-03
   TCutPairs ...     1.0e-05
   TCutCMO   ...     1.0e-03
   TCutCPAO  ...     1.0e-03

Thresholds for map construction and integral transformation for strong Triples:
   TCutMKN   ...     1.0e-02
   TCutDO    ...     1.0e-02
   TCutCMO   ...     1.0e-03
   TCutCPAO  ...     1.0e-03

Thresholds for map construction and integral transformation for weak Triples:
   TCutMKN   ...     1.0e-01
   TCutDO    ...     2.0e-02
   TCutCMO   ...     1.0e-03
   TCutCPAO  ...     1.0e-03

--------------------------------
LOCAL RI TRANSFORMATION (IAVPAO)
--------------------------------

Orbital window:       7 to 15
Number of PAOs:     106
Basis functions:    106 (40 shells)
Aux. functions:     275 (77 shells)
Use SHARK:           on

Processing maps (0.0 sec)
Average map sizes:
   Aux shells -> MOs               9.0
   Aux shells -> PAOs            106.0
   MOs        -> AO shells        40.0
   PAOs       -> AO shells        40.0

Calculating integrals (0.0 sec, 2.005 MB)
Sorting integrals (0.0 sec, 2.002 MB)
Total time for the integral transformation: 0.1 sec
--------------------------------
INITIAL GUESS AND PNO GENERATION
--------------------------------

PNO truncation parameters                   .... 
    ScaleTCutPNO       =        1.000e-02
    PAOOverlapThresh   =        1.000e-08

    TCutPairs          =        1.000e-05
    TCutPNO            =        1.000e-06
    TCutPNOSingles     =        3.000e-08
    TCutMP2Pairs       =        1.000e-06
    TCutMKN            =        1.000e-03
    TCutDO             =        5.000e-03

Pair selection                          .... not used
Type of local MP2 treatment                 .... full local PMP2
Strategy for PNO selection                  .... occupation number selection
Pair density normalization                  .... MP2 norm
Spin component scaling                      .... not used

PASS-1: Formation of initial guess LMP2 amplitudes
Initial amplitudes guess done. Entering LMP2 iteration loop:
   Max. no of iterations          ...  50
   Energy convergence tolerance   ...    1.0e-07
   Residual convergence tolerance ...    5.0e-07
   Fock matrix cutoff             ...    1.0e-05 Eh
   DIIS convergence acceleration parameters:
        Max # vectors in DIIS     ... 7
        Start iteration of DIIS   ... 0
        Levelshift                ... 2.000e-01
        Damping factor 1          ... 5.000e-01
        Damping factor 2          ... 1.000e+00
   L-MP2 PNO cut-off              ...   1.0e-08
   L-MP2 PNO cut-off (core)       ...   1.0e-10
                           *** Turning on DIIS ***
LMP2-Iter=   0:  ELMP2= -0.648418572036  DE=   2.3e-02 RMAX=   1.8e-02
LMP2-Iter=   1:  ELMP2= -0.660639131343  DE=   1.2e-02 RMAX=   8.9e-03
LMP2-Iter=   2:  ELMP2= -0.663928136186  DE=   3.3e-03 RMAX=   4.0e-03
LMP2-Iter=   3:  ELMP2= -0.664520729875  DE=   5.9e-04 RMAX=   1.5e-03
LMP2-Iter=   4:  ELMP2= -0.664558297424  DE=   3.8e-05 RMAX=   4.3e-04
LMP2-Iter=   5:  ELMP2= -0.664547462772  DE=   1.1e-05 RMAX=   1.2e-04
LMP2-Iter=   6:  ELMP2= -0.664543443305  DE=   4.0e-06 RMAX=   2.9e-05
LMP2-Iter=   7:  ELMP2= -0.664543011707  DE=   4.3e-07 RMAX=   5.7e-06
LMP2-Iter=   8:  ELMP2= -0.664543029198  DE=   1.7e-08 RMAX=   1.0e-06
LMP2-Iter=   9:  ELMP2= -0.664542993295  DE=   3.6e-08 RMAX=   1.3e-07
LMP2-Iter=  10:  ELMP2= -0.664542996446  DE=   3.2e-09 RMAX=   4.5e-08 => CONVERGED
PASS-2: Formation of Pair natural orbitals
   .... Finished loop over pairs

 PNO Occupation Number Statistics: 
  | Av. % of trace(Dij) retained        ...  99.607901806988
  | sigma^2 in % of trace(Dij) retained ...   3.00e-01
  | Av. % of trace(Di) retained         ...  99.998788174742
  | sigma^2 in % of trace(Di) retained  ...   5.96e-08
 Distributions of % trace(Dij) recovered:
  |       >= 99.9  ...    21 ( 46.7 % of all pairs)
  |   [90.0, 99.0) ...     4 (  8.9 % of all pairs)
  |   [99.0, 99.9) ...    20 ( 44.4 % of all pairs)
 Distributions of % trace(Di) recovered :
  |       >= 99.9  ...     9 (100.0 % of all I-pairs )

Making pair pair interaction lists          ... done

                       ===========================
                         45 OF   45 PAIRS ARE KEPT
                       ===========================

Total time spent in the initial guess                 ...     0.231 sec
L-MP2 correlation energy (all non-screened pairs)     ...      -0.664542996446 Eh
L-MP2 PNO error correction                            ...      -0.000028549830 Eh
                                                          --------------------
Initial total L-MP2 energy (non-screened pairs)       ...      -0.664571546276 Eh

Initial PNO correlation energy                        ...      -0.662697231103 Eh
sum of pair energies estimated for screened out pairs ...       0.000000000000 Eh
sum of MP2 pair energies for pairs that were not kept ...       0.000000000000 Eh
sum of PNO error estimates for the kept pairs         ...      -0.001874315173 Eh
                                                          --------------------
sum of all corrections                                         -0.001874315173
Initial total correlation energy                               -0.664571546276
Thresholds for map construction and integral transformation for fine MP2 and CCSD(T) calculation:
   TCutMKN   ...     1.0e-03
   TCutDO    ...     5.0e-03
   TCutPairs ...     1.0e-05
   TCutCMO   ...     1.0e-03
   TCutCPAO  ...     1.0e-03

Time for aux screen maps:            0.000
Time for maps after fine MP2:            0.000
-----------------------------
LOCAL RI TRANSFORMATION (IJV)
-----------------------------

Orbital window:       7 to 15
Basis functions:    106 (40 shells)
Aux. functions:     275 (77 shells)
Use SHARK:           on

Processing maps (0.0 sec)
Average map sizes:
   Aux shells -> MOs(i)            9.0
   Aux shells -> MOs(j)            9.0
   MOs        -> AO shells        40.0

Calculating integrals (0.0 sec, 0.173 MB)
Sorting integrals (0.0 sec, 0.170 MB)
Total time for the integral transformation: 0.0 sec
--------------------------------
LOCAL RI TRANSFORMATION (VABPAO)
--------------------------------

Number of PAOs:     106
Basis functions:    106 (40 shells)
Aux. functions:     275 (77 shells)
Use SHARK:           on

Processing maps (0.0 sec)
Average map sizes:
   Aux shells -> PAOs            106.0
   PAOs       -> AO shells        40.0

Calculating integrals (0.1 sec, 23.577 MB)
Finished


-------------------------------------
Pair Pair Term precalculation with     
RI-(ij|mn) and (im|jn) transformation  
ON THE FLY                             
-------------------------------------

   IBatch   1 (of   1)              ... done (    0.542 sec)
Total EXT                           ...           0.542 sec

---------------------
RI-PNO TRANSFORMATION
---------------------

Total Number of PNOs                   ...  1373
Average number of PNOs per pair        ...    30
Maximal number of PNOs per pair        ...    40
   #pairs with  1 -  5 PNOs   :    0
   #pairs with  6 - 10 PNOs   :    0
   #pairs with 11 - 15 PNOs   :    1
   #pairs with 16 - 20 PNOs   :    2
   #pairs with 21 - 25 PNOs   :    5
   #pairs with 26 - 30 PNOs   :    9
   #pairs with 31 - 35 PNOs   :   18
   #pairs with 36 - 40 PNOs   :   10
   #pairs with 41 - 45 PNOs   :    0
   #pairs with 46 - 50 PNOs   :    0

Generation of (ij|ab)[P] integrals            ... on
Generation of (ia|bc)[P],(ja|bc)[P] integrals ... on
Storage of 3 and 4 external integrals         ... on
Generation of ALL (ka|bc)[P] integrals        ... on
Keep RI integrals in memory                   ... off

Ibatch:  1 (of  1)
Starting 2-4 index PNO integral generation ... done

Timings:
Total PNO integral transformation time     ...          0.269 sec
Size of the 3-external file                ...        11 MB
Size of the 4-external file                ...        47 MB
Size of the IKJL file                      ...         0 MB
Size of the all 3-external file            ...        49 MB
Size of the 1-external file                ...         0 MB

Making pair/pair overlap matrices          ... done (    0.011 sec)
Size of the pair overlap file              ... 12 MB
Redoing the guess amplitudes               ... done (    0.000 sec)

-------------------------
FINAL STARTUP INFORMATION
-------------------------

E(0)                                       ...   -549.204822458
E(L-MP2)                                   ...     -0.664571546
E(L-MP2) including corrections             ...     -0.664571546
Initial E(tot)                             ...   -549.869394004
<T|T>                                      ...      0.166792256
Number of pairs included                   ... 45
Total number of pairs                      ... 45

------------------------------------------------
                  RHF COUPLED CLUSTER ITERATIONS
------------------------------------------------

Number of PNO amplitudes to be optimized   ...        43439
Number of non-PNO amplitudes               ...       364500
Untruncated number of regular amplitudes   ...       364500

Iter       E(tot)           E(Corr)          Delta-E          Residual     Time
  0   -549.829827089     -0.623130317      0.041441230      0.018785926    0.24
                           *** Turning on DIIS ***
  1   -549.834991980     -0.628295207     -0.005164890      0.010426500    0.24
  2   -549.852651915     -0.645955142     -0.017659936      0.004968689    0.24
  3   -549.857578182     -0.650881409     -0.004926267      0.003310150    0.24
  4   -549.859428855     -0.652732082     -0.001850673      0.001412473    0.24
  5   -549.860189598     -0.653492825     -0.000760743      0.000569172    0.24
  6   -549.860332651     -0.653635878     -0.000143053      0.000229872    0.24
  7   -549.860362544     -0.653665771     -0.000029893      0.000096173    0.24
  8   -549.860378439     -0.653681666     -0.000015895      0.000033853    0.24
  9   -549.860369472     -0.653672699      0.000008967      0.000014475    0.24
 10   -549.860372102     -0.653675329     -0.000002630      0.000008313    0.24
 11   -549.860370968     -0.653674195      0.000001133      0.000003355    0.24
 12   -549.860371074     -0.653674301     -0.000000106      0.000001729    0.24
 13   -549.860370827     -0.653674054      0.000000248      0.000000963    0.24
               --- The Coupled-Cluster iterations have converged ---

----------------------
COUPLED CLUSTER ENERGY
----------------------

E(0)                                       ...   -549.204822458
E(CORR)(strong-pairs)                      ...     -0.653674054
E(CORR)(weak-pairs)                        ...     -0.001874315
E(CORR)(corrected)                         ...     -0.655548369
E(TOT)                                     ...   -549.860370827
Singles Norm <S|S>**1/2                    ...      0.089794655  
T1 diagnostic                              ...      0.021164803  

------------------
LARGEST AMPLITUDES
------------------
   7-> 16   7-> 16       0.066548
   7-> 17   7-> 17       0.051531
  11-> 16  11-> 16       0.044062
  12-> 16  12-> 16       0.044062
  15-> 16  15-> 16       0.044062
  14-> 16  14-> 16       0.044062
   7-> 18   7-> 18       0.038297
  12-> 16  11-> 16       0.036012
  15-> 16  14-> 16       0.036012
   7-> 16   7-> 21       0.033214
   7-> 21   7-> 16       0.033214
   7-> 20   7-> 20       0.030843
  11-> 16  -1-> -1       0.028174
  12-> 16  -1-> -1       0.028174
  15-> 16  -1-> -1       0.028171
  14-> 16  -1-> -1       0.028171


-------------------------------------------
DLPNO BASED TRIPLES CORRECTION
-------------------------------------------

Singles multiplier          ...  1.000000
TCutTNO                     ... 1.000e-09
TCutMP2Pairs                ... 1.000e-06
TCutDOStrong                ... 1.000e-02
TCutMKNStrong               ... 1.000e-02
TCutDOWeak                  ... 2.000e-02
TCutMKNWeak                 ... 1.000e-01

Parameters used in iterative triples
TCutFock                    ... 1.000e-03
TCutWeak                    ... 1.000e-08
TCutWeakGuess               ... 6.000e-06
TCutIter                    ... 1.000e-03
TNOScaleS                   ... 1.000e+01
TNOScaleW                   ... 1.000e+02
ETol                        ... 1.000e-04

Fragment selection                          .... not used
Fock matrix occ-virt block is zero --> Setting DT_in_Triples to false.
Number of Triples that are to be computed   ...       156

 . . . . . . . . .
10% done  
20% done  
30% done  
40% done  
50% done  
60% done  
70% done  
80% done  
90% done               (      2.613 sec)

-------------------
Triples Iterations:
-------------------

The T1 Strong/Weak pair is = 92/64 

Iter        E(Triple)      Delta-E            Time
  0     0.000000000000    0.032039436387      2.69
  1    -0.034342585106    0.002303148719      2.15
  2    -0.034680390352    0.000337805246      2.07
  3    -0.034710368294    0.000029977942      2.09

------------------
TRIPLES CORRECTION
------------------

The Conventional (T0) is    -0.032173292291
The Truncated    (T0) is    -0.032039436387
The corrected     (T) is    -0.034844224198

Triples timings:
Total time for T0               ...     2.688 sec
Total time for Iterative (T)    ...     6.312 sec
Total time of overall (T)       ...     9.384 sec

Triples List generation         ...     0.000 sec
TNO generation                  ...     0.073 sec
Pair density generation         ...     0.000 sec
Look up tables                  ...     0.000 sec
Generating 3-index integrals    ...     0.457 sec
  Make 4-ind.int. from 3-ind.int...     0.355 sec
  Projecting amplitudes (D + S) ...     0.058 sec
  Downprojecting integrals      ...     0.753 sec
  Energy contr. (sum over a,b,c)...     0.410 sec
Fitting ET(->0)                 ...     0.000 sec

Everything after 3-index        ...     2.156 sec

Timing details:
 TNO integrals                  ...     0.785 sec
   Reading 3-index integrals    ...     0.004 sec
   Sorting integrals            ...     0.150 sec
       Sorting integrals 1      ...     0.000 sec
       Sorting integrals 2      ...     0.030 sec
       Sorting integrals 3      ...     0.007 sec
       Sorting integrals 4      ...     0.001 sec
       Sorting integrals 5      ...     0.001 sec
       Sorting integrals 6      ...     0.111 sec
   Calculating local VM**-1/2   ...     0.011 sec
   Orthogonal. integrals        ...     0.029 sec
   Multipl. 3-index integrals   ...     0.592 sec
   All concerning IRIab (w/TNO) ...     0.187 sec

 Calculate W0/W1                ...     0.580 sec
 W 3-ext contribution           ...     0.412 sec
 W 3-int contribution           ...     0.066 sec
 Sorting W                      ...     0.088 sec

 V exchange contribution        ...     0.153 sec

 Timings for Triples without generation
     of 3-index integrals       ...     2.156 sec
       0 weak pairs             ...     2.156 sec
       1 weak pair              ...     0.000 sec
       2 weak pairs             ...     0.000 sec
       3 weak pairs             ...     0.000 sec
  Extra time for extrapolation  ...     0.000 sec

Number of Triples   (0, 1, 2, 3 weak pairs; overall):    156       0       0       0  (   156)
Number of Atoms     (0, 1, 2, 3 weak pairs; overall):    3.0     0.0     0.0     0.0  (     3)
Number of PAOs      (0, 1, 2, 3 weak pairs; overall):  106.0     0.0     0.0     0.0  (   106)
Number of AuxFcns   (0, 1, 2, 3 weak pairs; overall):  259.4     0.0     0.0     0.0  (   275)
Number of TNOs      (0, 1, 2, 3 weak pairs         ):   67.2     0.0     0.0     0.0
Aver. Number of NTNO, Atoms, PAOs, AuxFcns / Triples:    156    67.2     3.0   106.0   259.4

Triples Correction (T)                     ...     -0.034844224
Final correlation energy                   ...     -0.690392593
E(CCSD)                                    ...   -549.860370827
E(CCSD(T))                                 ...   -549.895215051



--------------------------------------------------------------------------------
                                    TIMINGS
--------------------------------------------------------------------------------


Total execution time                   ...       14.775 sec

Localization of occupied MO's          ...        0.214 sec (  1.4%)
Fock Matrix Formation                  ...        0.224 sec (  1.5%)
Global overlap, Fock, MKN matrices     ...        0.102 sec (  0.7%)
Differential overlap integrals         ...        0.080 sec (  0.5%)
Organizing maps                        ...        0.001 sec (  0.0%)
RI 3-index integral generations        ...        0.208 sec (  1.4%)
RI-PNO integral transformation         ...        0.856 sec (  5.8%)
Initial Guess                          ...        0.262 sec (  1.8%)
DIIS Solver                            ...        0.099 sec (  0.7%)
State Vector Update                    ...        0.001 sec (  0.0%)
Sigma-vector construction              ...        3.321 sec ( 22.5%)
  <D|H|D>(0-ext)                       ...        0.092 sec (  2.8% of sigma)
  <D|H|D>(2-ext Fock)                  ...        0.002 sec (  0.1% of sigma)
  <D|H|D>(2-ext)                       ...        0.251 sec (  7.6% of sigma)
  <D|H|D>(4-ext)                       ...        0.614 sec ( 18.5% of sigma)
  <D|H|D>(4-ext-corr)                  ...        1.605 sec ( 48.3% of sigma)
  CCSD doubles correction              ...        0.014 sec (  0.4% of sigma)
  <S|H|S>                              ...        0.044 sec (  1.3% of sigma)
  <S|H|D>(1-ext)                       ...        0.014 sec (  0.4% of sigma)
  <S|H|D>(3-ext)                       ...        0.021 sec (  0.6% of sigma)
  Fock-dressing                        ...        0.228 sec (  6.9% of sigma)
  Singles amplitudes                   ...        0.022 sec (  0.7% of sigma)
  (ik|jl)-dressing                     ...        0.055 sec (  1.6% of sigma)
  (ij|ab),(ia|jb)-dressing             ...        0.130 sec (  3.9% of sigma)
  Pair energies                        ...        0.001 sec (  0.0% of sigma)
Total Time for computing (T)           ...        9.384 sec ( 63.5% of ALL)


Maximum memory used throughout the entire MDCI-calculation: 277.1 MB

-------------------------   --------------------
FINAL SINGLE POINT ENERGY      -549.895215050749
-------------------------   --------------------


                            ***************************************
                            *     ORCA property calculations      *
                            ***************************************


  WARNING: The energy has been calculated at the MDCI level but the densities
           used in the property calculations are still SCF densities
           MDCI response densities have not been calculated 
           use %mdci Density linearized end
           or  %mdci Density unrelaxed end
           or  %mdci Density orbopt end

                                    ---------------------
                                    Active property flags
                                    ---------------------
   (+) Dipole Moment


------------------------------------------------------------------------------
                       ORCA ELECTRIC PROPERTIES CALCULATION
------------------------------------------------------------------------------

Dipole Moment Calculation                       ... on
Quadrupole Moment Calculation                   ... off
Polarizability Calculation                      ... off
GBWName                                         ... iv.gbw
Electron density                                ... iv.scfp
The origin for moment calculation is the CENTER OF MASS  = ( 1.883656,  1.804037  0.000000)

-------------
DIPOLE MOMENT
-------------
                                X             Y             Z
Electronic contribution:     -0.61485      -0.87023       0.00000
Nuclear contribution   :      0.01292       0.01828       0.00000
                        -----------------------------------------
Total Dipole Moment    :     -0.60193      -0.85194       0.00000
                        -----------------------------------------
Magnitude (a.u.)       :      1.04313
Magnitude (Debye)      :      2.65143



--------------------
Rotational spectrum 
--------------------
 
Rotational constants in cm-1:     1.798422     0.333790     0.281537 
Rotational constants in MHz : 53915.329793 10006.779367  8440.253565 

 Dipole components along the rotational axes: 
x,y,z [a.u.] :    -0.000137    -1.043130     0.000000 
x,y,z [Debye]:    -0.000349    -2.651425     0.000000 

 

Timings for individual modules:

Sum of individual times         ...       18.321 sec (=   0.305 min)
GTO integral calculation        ...        0.262 sec (=   0.004 min)   1.4 %
Relativistic integrals          ...        0.201 sec (=   0.003 min)   1.1 %
SCF iterations                  ...        2.930 sec (=   0.049 min)  16.0 %
MDCI module                     ...       14.927 sec (=   0.249 min)  81.5 %
                             ****ORCA TERMINATED NORMALLY****
TOTAL RUN TIME: 0 days 0 hours 0 minutes 18 seconds 536 msec
