17
Coordinates from ORCA-job mol
  C   -2.42172201736487     -0.43931785954338      0.16507129015567
  C   -1.43256087489849      0.49811218534818     -0.09580981656493
  C   -2.07483088906490     -1.76496164146368      0.42210850945485
  C   -0.09885628353293      0.09002919184280     -0.06103323856600
  C   0.26183363519040     -1.24061357809016      0.15806505125451
  C   -0.73862327817231     -2.16517242842324      0.41820324792847
  H   -1.67484076046081      1.53205274341258     -0.31852106511256
  C   1.01761717630167      1.15856530471950     -0.10349493144165
  H   -3.46504788521360     -0.14008472964975      0.15362015945789
  H   -2.85413328054417     -2.49712275446112      0.61170760458283
  H   1.30819322509708     -1.52739187323643      0.13196668908940
  H   -0.47909384984910     -3.20251159585791      0.60476612441306
  N   1.08932888877854      1.08952604830997     -1.35879228632388
  O   2.49601420773379      2.56393900616149     -1.48450816226083
  O   1.54031646559301      1.73196208171857      0.88219717999324
  S   3.25095758530642      2.67165343440112     -0.17398535955514
  O   4.27544793510027      1.64133646481145      0.04843900349505
