28
Coordinates from ORCA-job mol
  C   -3.56856646199315      0.61604161976617      0.70093704636207
  C   -2.38223791571077      1.31929785039355      0.86911218927416
  C   -3.67641088415242     -0.34845320267909     -0.29851186243289
  C   -1.29563451408078      1.06083748377121      0.02733435381056
  C   -1.40399198058367      0.09339977942203     -0.97718610374885
  C   -2.59386003525127     -0.60550570368750     -1.13677396956299
  H   -2.28640527647354      2.06605465629042      1.65105291382869
  C   -0.05393090897890      1.83047890226410      0.19201563360082
  H   -4.41030083678774      0.81800066337360      1.35670755738771
  H   -4.60373398161803     -0.89977323508834     -0.42435862603763
  H   -0.56498110287742     -0.10143582054474     -1.63839174551021
  H   -2.67653652662223     -1.35139392058247     -1.92161998568159
  N   -0.09262464697067      3.08790126479665      0.49060016434019
  O   1.23368466800884      3.58106464394346      0.59002642399518
  N   1.19680082831107      1.28198522054625     -0.03774805130839
  S   2.41912826221864      2.53666815177733     -0.10440314645523
  O   2.62037619278316      2.92117697216680     -1.51975214242946
  C   1.56966599476311     -0.08528382973541      0.07213776818077
  C   2.45044162732002     -0.62920859460325     -0.86283384278451
  C   1.07371894517306     -0.86335050346224      1.11950281609175
  C   2.83959462570184     -1.95945533090240     -0.74032802562394
  C   1.44612519667276     -2.19869886610679      1.21150553043574
  C   2.33260849777480     -2.74910588089893      0.28790528876677
  H   2.81375700377199     -0.01859382970939     -1.68466053705061
  H   0.40190231862502     -0.42267604714447      1.84997750849944
  H   3.52949174239877     -2.38232452092959     -1.46449386634639
  H   1.05351094337805     -2.80716802447595      2.02081135340655
  H   2.62840722519946     -3.79047789796105      0.37143435699231
