28
Coordinates from ORCA-job mol E -1159.294664602567
  C      -3.568448      0.615871      0.700954
  C      -2.382154      1.319152      0.869158
  C      -3.676274     -0.348557     -0.298552
  C      -1.295517      1.060801      0.027363
  C      -1.403884      0.093428     -0.977230
  C      -2.593725     -0.605501     -1.136835
  H      -2.286340      2.065842      1.651166
  C      -0.053934      1.830563      0.192061
  H      -4.410189      0.817766      1.356737
  H      -4.603578     -0.899902     -0.424428
  H      -0.564899     -0.101336     -1.638487
  H      -2.676392     -1.351343     -1.921728
  N      -0.092679      3.088011      0.490488
  O       1.233575      3.581285      0.589792
  N       1.196915      1.282124     -0.037455
  S       2.419128      2.536581     -0.104412
  O       2.620488      2.921090     -1.519928
  C       1.569688     -0.085198      0.072261
  C       2.450351     -0.629155     -0.862783
  C       1.073749     -0.863251      1.119640
  C       2.839360     -1.959452     -0.740356
  C       1.446015     -2.198641      1.211549
  C       2.332362     -2.749101      0.287858
  H       2.813692     -0.018575     -1.684622
  H       0.402061     -0.422532      1.850204
  H       3.529173     -2.382351     -1.464585
  H       1.053401     -2.807106      2.020858
  H       2.628054     -3.790508      0.371312
28
Coordinates from ORCA-job mol E -1159.294664879155
  C      -3.568566      0.616042      0.700937
  C      -2.382238      1.319298      0.869112
  C      -3.676411     -0.348453     -0.298512
  C      -1.295635      1.060837      0.027334
  C      -1.403992      0.093400     -0.977186
  C      -2.593860     -0.605506     -1.136774
  H      -2.286405      2.066055      1.651053
  C      -0.053931      1.830479      0.192016
  H      -4.410301      0.818001      1.356708
  H      -4.603734     -0.899773     -0.424359
  H      -0.564981     -0.101436     -1.638392
  H      -2.676537     -1.351394     -1.921620
  N      -0.092625      3.087901      0.490600
  O       1.233685      3.581065      0.590026
  N       1.196801      1.281985     -0.037748
  S       2.419128      2.536668     -0.104403
  O       2.620376      2.921177     -1.519752
  C       1.569666     -0.085284      0.072138
  C       2.450442     -0.629209     -0.862834
  C       1.073719     -0.863351      1.119503
  C       2.839595     -1.959455     -0.740328
  C       1.446125     -2.198699      1.211506
  C       2.332608     -2.749106      0.287905
  H       2.813757     -0.018594     -1.684661
  H       0.401902     -0.422676      1.849978
  H       3.529492     -2.382325     -1.464494
  H       1.053511     -2.807168      2.020811
  H       2.628407     -3.790478      0.371434
