17
Coordinates from ORCA-job inp E -947.967841205646
  C       0.023000      0.176200      0.240500
  C       1.002800      1.101000     -0.128100
  C       0.390800     -1.108600      0.650900
  C       2.352000      0.738900     -0.059700
  C       2.714900     -0.560900      0.338500
  C       1.730600     -1.479400      0.688500
  H       0.712900      2.104000     -0.436900
  C       3.418100      1.735000     -0.335400
  H      -1.024700      0.454400      0.215900
  H      -0.378900     -1.822800      0.941000
  H       3.761600     -0.856900      0.380900
  H       2.009900     -2.485200      1.000900
  N       3.485400      2.604500     -1.295500
  O       4.705900      3.295200     -1.110300
  O       4.372800      1.698900      0.614300
  S       5.374500      2.901900      0.307800
  O       6.722800      2.300800      0.057400
17
Coordinates from ORCA-job inp E -947.990872048289
  C       0.012564      0.181454      0.247497
  C       1.006510      1.088330     -0.131301
  C       0.362451     -1.108886      0.656559
  C       2.355687      0.705105     -0.071444
  C       2.706017     -0.596271      0.324431
  C       1.705959     -1.500842      0.681401
  H       0.734818      2.100191     -0.435650
  C       3.420066      1.695347     -0.343644
  H      -1.036853      0.482714      0.234217
  H      -0.418667     -1.811748      0.957069
  H       3.754522     -0.901864      0.359140
  H       1.974863     -2.511938      0.992382
  N       3.474892      2.556771     -1.302310
  O       4.674322      3.295618     -1.138233
  O       4.397421      1.693170      0.619159
  S       5.454720      2.991615      0.345653
  O       6.795109      2.438235      0.075774
17
Coordinates from ORCA-job inp E -947.993560278730
  C       0.022464      0.176739      0.222707
  C       1.005269      1.102808     -0.089483
  C       0.365274     -1.128425      0.604221
  C       2.342035      0.723891      0.007530
  C       2.685060     -0.583636      0.392082
  C       1.695239     -1.508892      0.678245
  H       0.751740      2.126862     -0.380246
  C       3.408761      1.702708     -0.242453
  H      -1.017284      0.477685      0.175100
  H      -0.405967     -1.851057      0.847533
  H       3.729647     -0.870993      0.452972
  H       1.966582     -2.532976      0.963740
  N       3.453437      2.529934     -1.257120
  O       4.608537      3.288275     -1.244515
  O       4.407666      1.729285      0.681399
  S       5.519237      3.021020      0.259323
  O       6.836703      2.393770     -0.000336
17
Coordinates from ORCA-job inp E -947.991213371251
  C       0.019608      0.178285      0.205436
  C       1.030388      1.081999     -0.120486
  C       0.329331     -1.121868      0.612380
  C       2.368866      0.684393     -0.018065
  C       2.687724     -0.621636      0.379274
  C       1.666466     -1.523635      0.681815
  H       0.809617      2.109426     -0.421114
  C       3.432251      1.658730     -0.233005
  H      -1.023268      0.503857      0.159654
  H      -0.468092     -1.824272      0.882144
  H       3.736187     -0.911482      0.446498
  H       1.916876     -2.543689      0.987444
  N       3.438495      2.488150     -1.183370
  O       4.533259      3.317043     -1.148368
  O       4.453334      1.716406      0.657261
  S       5.578836      3.065469      0.253414
  O       6.864521      2.539824     -0.070212
17
Coordinates from ORCA-job inp E -947.988379359689
  C      -0.009102      0.174635      0.231246
  C       1.012972      1.074130     -0.133655
  C       0.312900     -1.119921      0.641132
  C       2.373717      0.678363     -0.060718
  C       2.705075     -0.623956      0.340449
  C       1.674025     -1.523778      0.673715
  H       0.781404      2.099987     -0.431499
  C       3.432958      1.660282     -0.298237
  H      -1.069015      0.503072      0.217458
  H      -0.491163     -1.818861      0.941921
  H       3.767910     -0.915452      0.384138
  H       1.931353     -2.539347      0.979108
  N       3.433321      2.463455     -1.283091
  O       4.540011      3.317652     -1.151335
  O       4.439556      1.741894      0.661161
  S       5.571298      3.090944      0.320128
  O       6.967181      2.533899      0.038777
17
Coordinates from ORCA-job inp E -947.993691159599
  C       0.003761      0.167000      0.223383
  C       0.992158      1.098993     -0.101546
  C       0.358890     -1.131877      0.612690
  C       2.344614      0.730545     -0.006822
  C       2.696541     -0.572923      0.390626
  C       1.704565     -1.504168      0.679919
  H       0.728986      2.118681     -0.394547
  C       3.418180      1.714998     -0.256947
  H      -1.047857      0.458454      0.185430
  H      -0.415573     -1.855663      0.868619
  H       3.752452     -0.852224      0.447881
  H       1.982397     -2.523077      0.966203
  N       3.462392      2.526607     -1.316641
  O       4.615635      3.327899     -1.211787
  O       4.399468      1.744353      0.713278
  S       5.542982      3.011493      0.281729
  O       6.834809      2.337909     -0.010768
17
Coordinates from ORCA-job inp E -947.993522942582
  C       0.030913      0.179619      0.200145
  C       1.034264      1.082976     -0.121901
  C       0.350149     -1.118046      0.614444
  C       2.367965      0.689022     -0.022986
  C       2.690859     -0.617724      0.381935
  C       1.677010     -1.515102      0.688631
  H       0.800814      2.106585     -0.423467
  C       3.439264      1.668861     -0.241102
  H      -1.008248      0.494032      0.153820
  H      -0.444644     -1.813486      0.886323
  H       3.735491     -0.907314      0.455649
  H       1.928534     -2.531430      1.002329
  N       3.457520      2.508690     -1.205948
  O       4.511857      3.363942     -1.149313
  O       4.430781      1.716848      0.653356
  S       5.551602      3.032057      0.271703
  O       6.820270      2.457469     -0.072919
17
Coordinates from ORCA-job inp E -947.997319663493
  C       0.015705      0.172867      0.208121
  C       1.021322      1.087148     -0.104269
  C       0.345430     -1.128765      0.601643
  C       2.368131      0.702677     -0.001026
  C       2.701693     -0.597938      0.402900
  C       1.687309     -1.515472      0.686667
  H       0.781440      2.114092     -0.396791
  C       3.418110      1.693951     -0.264859
  H      -1.030054      0.486395      0.156280
  H      -0.441168     -1.845740      0.846576
  H       3.751326     -0.887424      0.480009
  H       1.946761     -2.536733      0.982903
  N       3.431457      2.497408     -1.249786
  O       4.538978      3.360582     -1.162079
  O       4.420144      1.781313      0.703425
  S       5.578443      3.049584      0.251367
  O       6.839374      2.363055     -0.070382
17
Coordinates from ORCA-job inp E -947.997101691603
  C       0.003251      0.162185      0.210508
  C       0.995770      1.097415     -0.098595
  C       0.352528     -1.135242      0.602322
  C       2.347100      0.731623      0.010552
  C       2.699219     -0.568797      0.411171
  C       1.701733     -1.503938      0.688532
  H       0.737230      2.115751     -0.397789
  C       3.406518      1.719539     -0.248675
  H      -1.048690      0.453148      0.156260
  H      -0.425981     -1.863695      0.846301
  H       3.755563     -0.846830      0.482165
  H       1.976937     -2.522134      0.979044
  N       3.453534      2.519806     -1.285884
  O       4.568496      3.357198     -1.158015
  O       4.398654      1.756828      0.667387
  S       5.580545      3.000819      0.267112
  O       6.871993      2.323322     -0.061697
17
Coordinates from ORCA-job inp E -947.996284107047
  C       0.010035      0.167890      0.206433
  C       1.014478      1.090705     -0.115525
  C       0.347410     -1.127156      0.609596
  C       2.367458      0.715333     -0.015268
  C       2.712809     -0.588746      0.382250
  C       1.701136     -1.507981      0.678058
  H       0.764722      2.112210     -0.411754
  C       3.423552      1.705150     -0.241642
  H      -1.048295      0.470866      0.169116
  H      -0.448039     -1.839264      0.878575
  H       3.772404     -0.866136      0.450233
  H       1.968424     -2.522998      0.979301
  N       3.468256      2.485285     -1.295904
  O       4.518891      3.362347     -1.152208
  O       4.403674      1.802566      0.738864
  S       5.586256      3.007756      0.284902
  O       6.811230      2.329173     -0.074326
17
Coordinates from ORCA-job inp E -947.996363251112
  C       0.028413      0.169175      0.186447
  C       1.028676      1.091270     -0.101821
  C       0.362242     -1.131242      0.580397
  C       2.370613      0.716517      0.022657
  C       2.706214     -0.584016      0.428137
  C       1.697481     -1.506276      0.691182
  H       0.783882      2.114816     -0.398381
  C       3.419697      1.715839     -0.222800
  H      -1.016496      0.470341      0.117575
  H      -0.424052     -1.851034      0.808171
  H       3.753093     -0.863743      0.522886
  H       1.957501     -2.525394      0.989982
  N       3.435035      2.513384     -1.189506
  O       4.506891      3.387718     -1.158244
  O       4.418568      1.805260      0.737052
  S       5.581338      3.023817      0.208905
  O       6.765304      2.250568     -0.151939
17
Coordinates from ORCA-job inp E -947.999264896318
  C       0.008915      0.157465      0.195521
  C       0.998064      1.097629     -0.092265
  C       0.359381     -1.139936      0.586838
  C       2.349446      0.735893      0.023341
  C       2.702309     -0.562468      0.425780
  C       1.704786     -1.500259      0.693480
  H       0.739177      2.117459     -0.390408
  C       3.399339      1.732898     -0.229844
  H      -1.039597      0.443319      0.123884
  H      -0.416733     -1.872740      0.815397
  H       3.756772     -0.832327      0.511241
  H       1.980185     -2.517336      0.988216
  N       3.450737      2.518092     -1.253423
  O       4.544471      3.384395     -1.135939
  O       4.388154      1.804356      0.705228
  S       5.608184      2.988111      0.236883
  O       6.840811      2.242450     -0.133231
17
Coordinates from ORCA-job inp E -948.000013347086
  C       0.012935      0.160188      0.192386
  C       1.008524      1.096895     -0.098939
  C       0.361816     -1.137708      0.582063
  C       2.358038      0.736588      0.027378
  C       2.709332     -0.562208      0.430148
  C       1.710764     -1.500497      0.688097
  H       0.751442      2.116889     -0.394873
  C       3.409971      1.733609     -0.220927
  H      -1.043002      0.450483      0.131143
  H      -0.419425     -1.869125      0.808303
  H       3.764449     -0.831639      0.521190
  H       1.985083     -2.518365      0.979736
  N       3.450833      2.512436     -1.253503
  O       4.533361      3.381877     -1.141043
  O       4.387256      1.823634      0.735440
  S       5.602581      2.991264      0.234709
  O       6.790440      2.212680     -0.150608
17
Coordinates from ORCA-job inp E -948.000468938391
  C       0.013926      0.157178      0.185551
  C       1.005628      1.099579     -0.092771
  C       0.363966     -1.140054      0.575138
  C       2.357183      0.742565      0.038372
  C       2.711546     -0.555863      0.440712
  C       1.712102     -1.496464      0.693755
  H       0.746276      2.120340     -0.386305
  C       3.407292      1.740316     -0.211213
  H      -1.036712      0.439628      0.104956
  H      -0.415753     -1.876385      0.790457
  H       3.769092     -0.822455      0.534093
  H       1.987356     -2.513354      0.986363
  N       3.449443      2.514597     -1.240019
  O       4.532688      3.387135     -1.128884
  O       4.379751      1.840409      0.752019
  S       5.614720      2.977407      0.221180
  O       6.775895      2.182419     -0.192704
17
Coordinates from ORCA-job inp E -948.001284778778
  C       0.018916      0.148324      0.164729
  C       1.003925      1.104229     -0.087127
  C       0.377062     -1.148420      0.548181
  C       2.356497      0.761609      0.067292
  C       2.718206     -0.533299      0.472392
  C       1.725837     -1.488197      0.696650
  H       0.738218      2.122806     -0.380396
  C       3.398688      1.767490     -0.174069
  H      -1.037475      0.420768      0.071347
  H      -0.400204     -1.895866      0.739816
  H       3.771782     -0.783431      0.594856
  H       2.005956     -2.503159      0.988636
  N       3.446152      2.524079     -1.206678
  O       4.532537      3.398273     -1.102386
  O       4.361214      1.889076      0.789163
  S       5.638442      2.942302      0.185326
  O       6.718646      2.070416     -0.297034
17
Coordinates from ORCA-job inp E -948.001674681379
  C       0.018242      0.141551      0.153859
  C       0.995923      1.111470     -0.076333
  C       0.385172     -1.152105      0.536837
  C       2.350216      0.784245      0.096246
  C       2.722756     -0.509070      0.499062
  C       1.737082     -1.476407      0.705050
  H       0.723329      2.125809     -0.373938
  C       3.390958      1.793969     -0.146020
  H      -1.032484      0.395390      0.029593
  H      -0.383911     -1.912035      0.703674
  H       3.787801     -0.753855      0.616918
  H       2.027796     -2.491627      0.989188
  N       3.446772      2.535074     -1.192535
  O       4.541103      3.403356     -1.090102
  O       4.348593      1.923614      0.815940
  S       5.654677      2.903791      0.174561
  O       6.660375      1.973829     -0.371301
17
Coordinates from ORCA-job inp E -948.001854523509
  C       0.017311      0.135965      0.145456
  C       0.989791      1.113111     -0.075120
  C       0.392741     -1.158752      0.522824
  C       2.344529      0.793773      0.105661
  C       2.719716     -0.496789      0.512765
  C       1.742863     -1.473347      0.703925
  H       0.710425      2.129002     -0.368636
  C       3.385712      1.802808     -0.135535
  H      -1.040648      0.387328      0.026406
  H      -0.370755     -1.925086      0.680465
  H       3.776409     -0.728532      0.652931
  H       2.036994     -2.486436      0.990540
  N       3.449385      2.542882     -1.188833
  O       4.549729      3.405001     -1.081147
  O       4.350532      1.928442      0.824367
  S       5.669171      2.882898      0.166339
  O       6.650495      1.944733     -0.411707
17
Coordinates from ORCA-job inp E -948.002007042918
  C       0.017258      0.134748      0.141512
  C       0.990737      1.111283     -0.079841
  C       0.390121     -1.157989      0.525537
  C       2.343642      0.793888      0.107110
  C       2.719386     -0.497748      0.512396
  C       1.742497     -1.474175      0.703336
  H       0.714077      2.124898     -0.379858
  C       3.383440      1.804034     -0.128138
  H      -1.041519      0.386533      0.021758
  H      -0.376066     -1.922323      0.690148
  H       3.776398     -0.730134      0.652129
  H       2.036690     -2.487036      0.991502
  N       3.444196      2.550944     -1.178503
  O       4.545064      3.408231     -1.079713
  O       4.359952      1.917104      0.822783
  S       5.671943      2.884513      0.166055
  O       6.656583      1.950227     -0.417514
17
Coordinates from ORCA-job inp E -948.002419418855
  C       0.017116      0.131888      0.126441
  C       0.992256      1.108093     -0.087166
  C       0.386733     -1.157800      0.523941
  C       2.343491      0.793753      0.117691
  C       2.715721     -0.497250      0.527021
  C       1.737361     -1.473339      0.712534
  H       0.719905      2.118253     -0.399497
  C       3.381566      1.805865     -0.111916
  H      -1.041856      0.383268     -0.004599
  H      -0.379676     -1.920851      0.687608
  H       3.773013     -0.731867      0.671706
  H       2.029790     -2.484746      1.008715
  N       3.421936      2.577871     -1.144774
  O       4.526720      3.420186     -1.063672
  O       4.395312      1.874741      0.805783
  S       5.685743      2.879732      0.163267
  O       6.669269      1.969202     -0.462384
17
Coordinates from ORCA-job inp E -948.003208138307
  C       0.018399      0.119604      0.084622
  C       0.993278      1.102051     -0.108938
  C       0.383817     -1.160182      0.515791
  C       2.339126      0.803829      0.145557
  C       2.709832     -0.483788      0.568829
  C       1.733887     -1.465343      0.737226
  H       0.724383      2.103193     -0.448726
  C       3.374638      1.820036     -0.062215
  H      -1.036861      0.358062     -0.087218
  H      -0.383418     -1.924790      0.674952
  H       3.766046     -0.711696      0.736964
  H       2.027468     -2.471739      1.052026
  N       3.373674      2.660760     -1.041459
  O       4.498336      3.459042     -1.002371
  O       4.460228      1.790824      0.780953
  S       5.722673      2.826354      0.137917
  O       6.668894      1.970786     -0.613210
17
Coordinates from ORCA-job inp E -948.004067988397
  C       0.031704      0.109738      0.032471
  C       1.003834      1.096567     -0.123835
  C       0.383973     -1.163834      0.494300
  C       2.343165      0.805900      0.182308
  C       2.702385     -0.477143      0.629020
  C       1.721913     -1.458608      0.774856
  H       0.743420      2.093769     -0.483651
  C       3.378490      1.822161     -0.009908
  H      -1.012199      0.339450     -0.193786
  H      -0.384385     -1.930141      0.630623
  H       3.752687     -0.700868      0.835037
  H       2.005233     -2.458752      1.116186
  N       3.319981      2.737252     -0.920106
  O       4.462021      3.506873     -0.904591
  O       4.532139      1.709859      0.731478
  S       5.761439      2.786709      0.080633
  O       6.628600      1.978069     -0.800336
17
Coordinates from ORCA-job inp E -948.005052545172
  C       0.041950      0.098013     -0.012567
  C       1.011734      1.090478     -0.143971
  C       0.388305     -1.170140      0.473208
  C       2.348014      0.809696      0.203216
  C       2.696934     -0.464014      0.682656
  C       1.714464     -1.448260      0.812974
  H       0.753515      2.081744     -0.522833
  C       3.386646      1.825812      0.022303
  H      -0.996956      0.316936     -0.281063
  H      -0.378196     -1.941646      0.583915
  H       3.739011     -0.678243      0.932261
  H       1.989864     -2.439180      1.182895
  N       3.281649      2.819841     -0.789996
  O       4.450691      3.560288     -0.800640
  O       4.580533      1.636699      0.678705
  S       5.791314      2.716309      0.029024
  O       6.574926      1.982669     -0.979385
17
Coordinates from ORCA-job inp E -948.005623491524
  C       0.058452      0.092070     -0.053024
  C       1.032369      1.082019     -0.166976
  C       0.390544     -1.172216      0.454860
  C       2.357708      0.804896      0.220747
  C       2.686540     -0.458222      0.738619
  C       1.701472     -1.440630      0.852789
  H       0.783273      2.068921     -0.564344
  C       3.403522      1.816124      0.049832
  H      -0.964227      0.303114     -0.369228
  H      -0.375292     -1.946138      0.537937
  H       3.717255     -0.667303      1.032360
  H       1.966780     -2.426521      1.245859
  N       3.259267      2.881990     -0.664182
  O       4.438949      3.605512     -0.670661
  O       4.624682      1.579590      0.630812
  S       5.805209      2.679173     -0.047311
  O       6.487895      1.994622     -1.157390
17
Coordinates from ORCA-job inp E -948.005869513706
  C       0.069087      0.084353     -0.081314
  C       1.046029      1.071929     -0.190622
  C       0.388177     -1.172911      0.449183
  C       2.363996      0.799599      0.224186
  C       2.682345     -0.457008      0.766815
  C       1.692762     -1.436375      0.877516
  H       0.803259      2.054932     -0.603086
  C       3.412536      1.808122      0.059904
  H      -0.951291      0.293819     -0.416754
  H      -0.383685     -1.945236      0.528969
  H       3.704927     -0.662309      1.087903
  H       1.946842     -2.414935      1.292862
  N       3.248979      2.921152     -0.574032
  O       4.441948      3.636415     -0.585168
  O       4.650239      1.526913      0.574749
  S       5.817978      2.653005     -0.078739
  O       6.440272      2.035536     -1.261673
17
Coordinates from ORCA-job inp E -948.005988660819
  C       0.073152      0.083144     -0.093040
  C       1.057693      1.062428     -0.211050
  C       0.382081     -1.169429      0.454307
  C       2.372161      0.787234      0.215203
  C       2.679319     -0.463617      0.777007
  C       1.682372     -1.435177      0.894934
  H       0.826757      2.039476     -0.640065
  C       3.421317      1.795455      0.056532
  H      -0.945155      0.295205     -0.435854
  H      -0.393609     -1.936889      0.535871
  H       3.698534     -0.671136      1.109791
  H       1.927480     -2.409322      1.325744
  N       3.244896      2.937009     -0.522387
  O       4.432628      3.655686     -0.526919
  O       4.669721      1.492706      0.534186
  S       5.822860      2.649083     -0.090071
  O       6.422191      2.085142     -1.313489
17
Coordinates from ORCA-job inp E -948.006052653341
  C       0.072798      0.084997     -0.089931
  C       1.063335      1.056246     -0.222796
  C       0.376892     -1.164868      0.464930
  C       2.376433      0.777326      0.200416
  C       2.681542     -0.472273      0.766178
  C       1.680006     -1.437295      0.895821
  H       0.836614      2.032077     -0.657538
  C       3.423983      1.787794      0.043789
  H      -0.945525      0.301741     -0.426378
  H      -0.404498     -1.926008      0.559922
  H       3.701463     -0.683329      1.095749
  H       1.922047     -2.410795      1.331002
  N       3.245433      2.933129     -0.528344
  O       4.427371      3.662271     -0.512590
  O       4.670437      1.488165      0.530249
  S       5.821306      2.659232     -0.075609
  O       6.424764      2.108589     -1.304168
17
Coordinates from ORCA-job inp E -948.006072241687
  C       0.071804      0.086339     -0.085358
  C       1.063278      1.054056     -0.227325
  C       0.375366     -1.162579      0.472372
  C       2.378278      0.772451      0.189017
  C       2.683826     -0.477616      0.753123
  C       1.680022     -1.438878      0.892294
  H       0.836487      2.030185     -0.662496
  C       3.424023      1.784887      0.034617
  H      -0.948789      0.306680     -0.412372
  H      -0.407683     -1.919754      0.578192
  H       3.706007     -0.691628      1.075261
  H       1.920992     -2.411671      1.329308
  N       3.248755      2.926363     -0.546858
  O       4.424404      3.663066     -0.515041
  O       4.666084      1.493849      0.539289
  S       5.818280      2.666941     -0.060473
  O       6.433267      2.114308     -1.282849
17
Coordinates from ORCA-job inp E -948.006075267241
  C       0.070783      0.086832     -0.084232
  C       1.063213      1.053338     -0.229131
  C       0.374739     -1.161782      0.474929
  C       2.378615      0.771705      0.186489
  C       2.684255     -0.478622      0.749722
  C       1.680673     -1.439477      0.890647
  H       0.836659      2.029126     -0.664907
  C       3.423741      1.784852      0.033144
  H      -0.949140      0.307371     -0.410380
  H      -0.408499     -1.917628      0.584799
  H       3.705543     -0.692589      1.071242
  H       1.922720     -2.412709      1.327254
  N       3.249463      2.925131     -0.550376
  O       4.424770      3.662909     -0.514220
  O       4.664632      1.495694      0.541647
  S       5.818034      2.667778     -0.057328
  O       6.434199      2.115074     -1.278599
17
Coordinates from ORCA-job inp E -948.006076455734
  C       0.071395      0.086164     -0.085777
  C       1.063339      1.053088     -0.230134
  C       0.375185     -1.161911      0.474748
  C       2.378454      0.772092      0.186805
  C       2.684110     -0.478270      0.749945
  C       1.680472     -1.439112      0.891070
  H       0.836092      2.029097     -0.665604
  C       3.423629      1.785358      0.034458
  H      -0.948815      0.306546     -0.412111
  H      -0.408144     -1.917391      0.585870
  H       3.705957     -0.692472      1.070637
  H       1.922234     -2.411915      1.328410
  N       3.249394      2.926287     -0.547665
  O       4.425606      3.663036     -0.512165
  O       4.664816      1.495081      0.541643
  S       5.818214      2.666624     -0.058485
  O       6.432464      2.114698     -1.280945
17
Coordinates from ORCA-job inp E -948.006076639445
  C       0.071461      0.085974     -0.086234
  C       1.063148      1.053164     -0.230255
  C       0.375316     -1.161921      0.474645
  C       2.378405      0.772313      0.187071
  C       2.684183     -0.478057      0.750168
  C       1.680563     -1.438975      0.891223
  H       0.835876      2.029006     -0.665919
  C       3.423669      1.785659      0.035109
  H      -0.948655      0.306069     -0.413112
  H      -0.407806     -1.917430      0.585771
  H       3.705906     -0.692068      1.070966
  H       1.922158     -2.411569      1.328807
  N       3.249192      2.927028     -0.545978
  O       4.425767      3.663149     -0.511610
  O       4.665090      1.494541      0.541176
  S       5.818363      2.665947     -0.059062
  O       6.431765      2.114170     -1.282066
