21
Coordinates from ORCA-job mol
  C   0.10171248154913     -0.05015843350816      0.00989202622573
  C   1.07207372018480      0.92966124312573     -0.21107653770088
  C   0.49050575140948     -1.32133127048005      0.42038096158657
  C   2.42746110141718      0.60240284241335      0.01512416031479
  C   2.80239394128857     -0.68586363388699      0.39971338289631
  C   1.83186741525799     -1.64825602696928      0.62047153690131
  O   0.82819608483767      2.19004452888941     -0.60359727481855
  C   3.47094501850595      1.71743174216313     -0.05079899976048
  H   -0.94852637711697      0.16547731926726     -0.14606680475563
  H   -0.27514307600923     -2.07555447370010      0.57827726538764
  H   3.85825346076200     -0.90468404441704      0.52302851338958
  H   2.11364600795742     -2.64778866547607      0.93286206402255
  N   3.77058125150610      1.42115436399404     -1.24128994347100
  O   5.09489989600974      2.94760765628516     -1.42770026397039
  O   3.79380529459890      2.52597936786500      0.85902533493584
  S   5.58708154720543      3.36782402379188     -0.05393633546808
  O   6.60440586354769      2.48890726755761      0.54260312595700
  C   -0.52911498067628      2.57926279130271     -0.82895996174697
  H   -0.48574918148660      3.62778183869795     -1.12362168416101
  H   -1.12366745627520      2.47734168703241      0.08704059956085
  H   -0.97697776447385      1.98793987605202     -1.63688116532517
