21
Coordinates from ORCA-job mol E -1062.635536385971
  C      -2.421072     -0.777461     -0.444148
  C      -1.548790      0.305325     -0.557065
  C      -1.969780     -1.988706      0.089858
  C      -0.217518      0.158491     -0.156553
  C       0.246698     -1.052693      0.380883
  C      -0.642245     -2.107070      0.498237
  H      -1.912494      1.243198     -0.962100
  C       0.676500      1.254562     -0.298331
  O      -3.689523     -0.546278     -0.871397
  H      -2.636075     -2.836515      0.195469
  H       1.278669     -1.137400      0.697926
  H      -0.300215     -3.049795      0.914163
  N       0.998408      2.261555     -0.871535
  O       1.871249      3.152080     -0.817839
  O       2.136238      1.276358      1.133610
  S       3.274400      2.197649      0.714471
  O       4.277097      1.565591     -0.163815
  C      -4.622702     -1.623014     -0.797390
  H      -5.550119     -1.239180     -1.224228
  H      -4.798273     -1.926909      0.242944
  H      -4.281393     -2.486330     -1.383152
21
Coordinates from ORCA-job mol E -1062.633547854794
  C      -2.432597     -0.780001     -0.442353
  C      -1.557530      0.300424     -0.556101
  C      -1.987310     -1.988731      0.102239
  C      -0.229242      0.153592     -0.145829
  C       0.229112     -1.055256      0.401838
  C      -0.662690     -2.107116      0.519992
  H      -1.916747      1.236489     -0.969243
  C       0.667500      1.247481     -0.287727
  O      -3.697971     -0.548629     -0.878892
  H      -2.656066     -2.834384      0.209265
  H       1.258794     -1.140049      0.726166
  H      -0.325275     -3.047832      0.944153
  N       0.993508      2.251646     -0.863572
  O       1.866383      3.142011     -0.808300
  O       2.238883      1.077538      0.926786
  S       3.261669      2.190544      0.738709
  O       4.417003      1.820088     -0.100522
  C      -4.633667     -1.623178     -0.805900
  H      -5.560535     -1.236407     -1.231280
  H      -4.809058     -1.928448      0.234050
  H      -4.295105     -2.486325     -1.393472
21
Coordinates from ORCA-job mol E -1062.631664794616
  C      -2.446352     -0.810396     -0.455101
  C      -1.531971      0.232499     -0.600904
  C      -2.035267     -2.033982      0.082034
  C      -0.200314      0.039510     -0.220642
  C       0.225345     -1.188536      0.314508
  C      -0.704856     -2.203404      0.460648
  H      -1.866244      1.180296     -1.008563
  C       0.718458      1.115268     -0.385848
  O      -3.714057     -0.528571     -0.853743
  H      -2.733717     -2.852254      0.210590
  H       1.260829     -1.323016      0.592901
  H      -0.391273     -3.158355      0.871069
  N       1.056777      2.077879     -1.022658
  O       1.890140      3.010024     -1.001775
  O       2.413280      1.289525      1.197104
  S       3.240359      2.528271      0.842880
  O       4.546891      2.266189      0.209824
  C      -4.690786     -1.562519     -0.743553
  H      -5.633284     -1.112538     -1.057891
  H      -4.782912     -1.915280      0.291995
  H      -4.451985     -2.407154     -1.402868
21
Coordinates from ORCA-job mol E -1062.635032926107
  C      -2.422231     -0.794618     -0.456602
  C      -1.523165      0.260889     -0.608728
  C      -1.989503     -2.012820      0.077321
  C      -0.185598      0.082114     -0.241644
  C       0.259888     -1.136738      0.294780
  C      -0.654354     -2.164284      0.448537
  H      -1.872329      1.204429     -1.013311
  C       0.726636      1.159124     -0.406750
  O      -3.696118     -0.530472     -0.847558
  H      -2.675126     -2.841202      0.209219
  H       1.300586     -1.252738      0.572122
  H      -0.325582     -3.113685      0.859977
  N       1.091337      2.119918     -1.029110
  O       1.930286      3.041160     -1.001026
  O       2.095831      1.372513      1.174439
  S       3.159237      2.411263      0.854244
  O       4.386132      1.882269      0.230085
  C      -4.662083     -1.572479     -0.718228
  H      -5.613239     -1.131704     -1.019281
  H      -4.735473     -1.922034      0.319742
  H      -4.426071     -2.417448     -1.378220
21
Coordinates from ORCA-job mol E -1062.635478140160
  C      -2.414529     -0.809301     -0.485917
  C      -1.506802      0.235486     -0.659915
  C      -1.984199     -2.030385      0.044154
  C      -0.165186      0.043688     -0.314102
  C       0.275632     -1.175087      0.225189
  C      -0.645085     -2.193481      0.396918
  H      -1.852692      1.181444     -1.061405
  C       0.754254      1.111920     -0.479922
  O      -3.692160     -0.533033     -0.855637
  H      -2.673825     -2.854313      0.182766
  H       1.320883     -1.301022      0.485038
  H      -0.318851     -3.145099      0.805307
  N       1.191288      2.022805     -1.122421
  O       1.994840      2.968385     -1.098519
  O       1.990697      1.517345      1.273015
  S       3.068664      2.528275      0.944460
  O       4.352962      1.966035      0.488469
  C      -4.680090     -1.541175     -0.647514
  H      -5.639119     -1.057782     -0.837891
  H      -4.661505     -1.913687      0.384409
  H      -4.546115     -2.377562     -1.346474
21
Coordinates from ORCA-job mol E -1062.636697383986
  C      -2.422036     -0.823316     -0.523444
  C      -1.533612      0.238877     -0.694639
  C      -1.970681     -2.033593      0.013932
  C      -0.191076      0.072776     -0.342520
  C       0.267311     -1.130774      0.215933
  C      -0.632836     -2.167815      0.384085
  H      -1.893924      1.176318     -1.103315
  C       0.717351      1.150553     -0.499771
  O      -3.700312     -0.576632     -0.911697
  H      -2.642093     -2.874576      0.139597
  H       1.308128     -1.225773      0.504129
  H      -0.293380     -3.108692      0.806305
  N       1.211877      2.037746     -1.125963
  O       2.007881      2.985145     -1.085348
  O       2.011850      1.590097      1.389392
  S       3.145548      2.494021      0.975887
  O       4.350750      1.802544      0.480727
  C      -4.690698     -1.563433     -0.625981
  H      -5.650938     -1.081583     -0.814991
  H      -4.648602     -1.883232      0.422413
  H      -4.581448     -2.435202     -1.284723
21
Coordinates from ORCA-job mol E -1062.636415891546
  C      -2.423560     -0.802798     -0.512420
  C      -1.558862      0.282102     -0.661192
  C      -1.957129     -2.000260      0.039267
  C      -0.222079      0.149369     -0.276211
  C       0.253133     -1.043790      0.292019
  C      -0.625651     -2.102232      0.440814
  H      -1.932174      1.209805     -1.080478
  C       0.671313      1.241060     -0.427577
  O      -3.697785     -0.591209     -0.932047
  H      -2.613504     -2.854690      0.156061
  H       1.286210     -1.109072      0.611864
  H      -0.274842     -3.033164      0.875484
  N       1.129105      2.167150     -1.027543
  O       1.960118      3.085700     -0.967375
  O       2.062577      1.515565      1.363216
  S       3.261292      2.286589      0.865230
  O       4.265602      1.464637      0.162609
  C      -4.657571     -1.619033     -0.690726
  H      -5.619628     -1.201700     -0.991038
  H      -4.695394     -1.888782      0.372433
  H      -4.442110     -2.511789     -1.292383
21
Coordinates from ORCA-job mol E -1062.635754990795
  C      -2.425115     -0.790117     -0.472154
  C      -1.551672      0.287983     -0.617620
  C      -1.969559     -1.991669      0.080202
  C      -0.216232      0.144763     -0.230946
  C       0.250355     -1.053997      0.331496
  C      -0.638433     -2.104288      0.479532
  H      -1.918037      1.219408     -1.034820
  C       0.680144      1.234819     -0.386778
  O      -3.698831     -0.562694     -0.886859
  H      -2.635010     -2.837109      0.206235
  H       1.284978     -1.131625      0.643542
  H      -0.294361     -3.038607      0.912399
  N       1.069748      2.195499     -0.987209
  O       1.923428      3.099601     -0.936047
  O       2.107347      1.427123      1.281518
  S       3.269402      2.270550      0.791887
  O       4.287666      1.521205      0.030984
  C      -4.645609     -1.619941     -0.742425
  H      -5.592998     -1.218149     -1.103717
  H      -4.753836     -1.917558      0.308548
  H      -4.364315     -2.491740     -1.347759
21
Coordinates from ORCA-job mol E -1062.635445395241
  C      -2.422604     -0.777769     -0.434149
  C      -1.541816      0.294845     -0.575238
  C      -1.977663     -1.982513      0.119606
  C      -0.208991      0.143736     -0.181928
  C       0.249224     -1.060246      0.375458
  C      -0.647734     -2.104345      0.519477
  H      -1.901135      1.228660     -0.993257
  C       0.691745      1.231031     -0.343607
  O      -3.694444     -0.538768     -0.848027
  H      -2.650706     -2.821373      0.249637
  H       1.283363     -1.147484      0.685286
  H      -0.310337     -3.041543      0.951445
  N       1.013486      2.229594     -0.930428
  O       1.888334      3.119340     -0.888493
  O       2.118354      1.324688      1.153210
  S       3.260433      2.232982      0.717528
  O       4.285559      1.565598     -0.107285
  C      -4.626052     -1.617183     -0.790937
  H      -5.551738     -1.228604     -1.217052
  H      -4.806573     -1.933989      0.244666
  H      -4.281645     -2.473198     -1.385904
21
Coordinates from ORCA-job mol E -1062.635530788942
  C      -2.421797     -0.771133     -0.426399
  C      -1.544236      0.305332     -0.557875
  C      -1.978058     -1.974202      0.131454
  C      -0.215444      0.160516     -0.148728
  C       0.242268     -1.043175      0.410489
  C      -0.651848     -2.091180      0.544445
  H      -1.902540      1.236859     -0.981844
  C       0.684324      1.249796     -0.308102
  O      -3.689765     -0.539789     -0.855997
  H      -2.649230     -2.815981      0.253373
  H       1.273495     -1.127101      0.729981
  H      -0.314929     -3.027682      0.978278
  N       0.990941      2.260809     -0.884561
  O       1.872111      3.145074     -0.839899
  O       2.131459      1.257799      1.084750
  S       3.276276      2.175576      0.671637
  O       4.270935      1.541305     -0.214374
  C      -4.612674     -1.626827     -0.816679
  H      -5.531745     -1.249605     -1.266925
  H      -4.815128     -1.941031      0.215754
  H      -4.245356     -2.481902     -1.398772
21
Coordinates from ORCA-job mol E -1062.635537472886
  C      -2.422595     -0.774776     -0.434241
  C      -1.545021      0.301645     -0.565558
  C      -1.978878     -1.977774      0.123866
  C      -0.216381      0.157173     -0.155723
  C       0.240998     -1.046407      0.404333
  C      -0.652975     -2.094551      0.537993
  H      -1.903058      1.232948     -0.990268
  C       0.683206      1.246688     -0.313780
  O      -3.689899     -0.544346     -0.866339
  H      -2.649612     -2.820136      0.244012
  H       1.271886     -1.130154      0.724912
  H      -0.316242     -3.031023      0.972014
  N       0.999729      2.251655     -0.894472
  O       1.874078      3.141780     -0.850088
  O       2.141410      1.274627      1.106441
  S       3.281906      2.192637      0.685362
  O       4.283528      1.553961     -0.189564
  C      -4.618560     -1.625718     -0.808441
  H      -5.542435     -1.244765     -1.245524
  H      -4.806644     -1.934962      0.228127
  H      -4.265381     -2.485043     -1.393054
21
Coordinates from ORCA-job mol E -1062.635553997915
  C      -2.420776     -0.775587     -0.438059
  C      -1.543986      0.301818     -0.565770
  C      -1.978254     -1.977637      0.123107
  C      -0.217003      0.159424     -0.149825
  C       0.239025     -1.043179      0.413533
  C      -0.654331     -2.092270      0.544025
  H      -1.900985      1.232095     -0.993646
  C       0.681632      1.250142     -0.306438
  O      -3.685725     -0.547861     -0.878534
  H      -2.648310     -2.820928      0.240047
  H       1.268325     -1.125621      0.739385
  H      -0.318535     -3.027927      0.980497
  N       0.991603      2.259542     -0.882995
  O       1.864939      3.149998     -0.836984
  O       2.150909      1.258150      1.098874
  S       3.287579      2.181420      0.676249
  O       4.281840      1.553603     -0.214725
  C      -4.617065     -1.626519     -0.812473
  H      -5.541652     -1.245156     -1.247643
  H      -4.802005     -1.930855      0.226083
  H      -4.268167     -2.489195     -1.394700
21
Coordinates from ORCA-job mol E -1062.635215026444
  C      -2.399946     -0.801525     -0.487960
  C      -1.518496      0.273439     -0.598965
  C      -1.974382     -2.000699      0.092501
  C      -0.201619      0.132600     -0.149944
  C       0.235909     -1.066396      0.435007
  C      -0.662793     -2.112895      0.550648
  H      -1.862989      1.201307     -1.042212
  C       0.695680      1.227198     -0.290935
  O      -3.648858     -0.577996     -0.973602
  H      -2.646551     -2.844594      0.191411
  H       1.255076     -1.149689      0.789923
  H      -0.339962     -3.045739      1.002564
  N       0.976888      2.260242     -0.841906
  O       1.818010      3.180396     -0.801431
  O       2.162131      1.285519      1.088858
  S       3.297689      2.216268      0.680214
  O       4.280253      1.618085     -0.242564
  C      -4.625530     -1.602314     -0.797145
  H      -5.559493     -1.188235     -1.178797
  H      -4.747698     -1.858888      0.263126
  H      -4.364260     -2.502627     -1.368781
21
Coordinates from ORCA-job mol E -1062.634898759504
  C      -2.381915     -0.823797     -0.535100
  C      -1.505246      0.255363     -0.640029
  C      -1.964541     -2.010592      0.076333
  C      -0.200452      0.132286     -0.151202
  C       0.227908     -1.052547      0.466522
  C      -0.666157     -2.104161      0.573890
  H      -1.844285      1.173721     -1.106571
  C       0.687309      1.236238     -0.279808
  O      -3.615284     -0.621283     -1.067112
  H      -2.630902     -2.860516      0.163379
  H       1.237467     -1.123561      0.852150
  H      -0.348820     -3.027065      1.049537
  N       0.923238      2.299194     -0.790637
  O       1.751967      3.222828     -0.722031
  O       2.231161      1.170553      1.077329
  S       3.307215      2.173739      0.667276
  O       4.282308      1.666595     -0.315527
  C      -4.625315     -1.590854     -0.794867
  H      -5.560154     -1.148339     -1.141187
  H      -4.697628     -1.800021      0.280130
  H      -4.438813     -2.524325     -1.342468
21
Coordinates from ORCA-job mol E -1062.635317837859
  C      -2.401179     -0.794440     -0.486225
  C      -1.524724      0.284379     -0.600032
  C      -1.971598     -1.988863      0.101096
  C      -0.209189      0.151983     -0.144980
  C       0.232953     -1.041845      0.445958
  C      -0.660736     -2.092494      0.563115
  H      -1.872483      1.208650     -1.048093
  C       0.683826      1.249884     -0.287003
  O      -3.650100     -0.579374     -0.975578
  H      -2.640030     -2.835541      0.202114
  H       1.252187     -1.118433      0.803994
  H      -0.334352     -3.021694      1.020034
  N       0.949378      2.289856     -0.830217
  O       1.805303      3.191917     -0.768486
  O       2.194567      1.186783      1.080036
  S       3.296554      2.158545      0.662874
  O       4.278055      1.601093     -0.286394
  C      -4.617699     -1.613905     -0.807948
  H      -5.550815     -1.212178     -1.204898
  H      -4.751726     -1.866625      0.251883
  H      -4.339129     -2.514240     -1.371243
21
Coordinates from ORCA-job mol E -1062.635518470153
  C      -2.410167     -0.790563     -0.467724
  C      -1.529691      0.284082     -0.592440
  C      -1.974676     -1.992230      0.100092
  C      -0.205788      0.140253     -0.166441
  C       0.242198     -1.060982      0.405760
  C      -0.654504     -2.107781      0.532329
  H      -1.881823      1.214469     -1.024103
  C       0.692528      1.232366     -0.314657
  O      -3.669736     -0.561193     -0.922195
  H      -2.646162     -2.835076      0.211120
  H       1.268270     -1.145213      0.740933
  H      -0.324013     -3.042797      0.974179
  N       0.998641      2.246069     -0.886387
  O       1.852572      3.154601     -0.841499
  O       2.138261      1.297584      1.118235
  S       3.276982      2.220698      0.704909
  O       4.284409      1.591679     -0.169927
  C      -4.626763     -1.610128     -0.788910
  H      -5.558424     -1.211493     -1.192095
  H      -4.773450     -1.884644      0.263924
  H      -4.329606     -2.496242     -1.365094
21
Coordinates from ORCA-job mol E -1062.635564762093
  C      -2.422960     -0.766024     -0.409113
  C      -1.547280      0.312289     -0.538930
  C      -1.975319     -1.970669      0.142242
  C      -0.216877      0.167986     -0.136131
  C       0.245327     -1.038098      0.414646
  C      -0.646867     -2.087633      0.548333
  H      -1.908239      1.244790     -0.958603
  C       0.681016      1.259151     -0.300462
  O      -3.692734     -0.532646     -0.832210
  H      -2.644827     -2.813242      0.266154
  H       1.277924     -1.122298      0.729337
  H      -0.306907     -3.025459      0.976876
  N       0.984925      2.260578     -0.897051
  O       1.873329      3.137771     -0.843878
  O       2.118813      1.229768      1.064204
  S       3.262551      2.158763      0.658893
  O       4.263749      1.534023     -0.226821
  C      -4.607190     -1.626976     -0.827529
  H      -5.515903     -1.253084     -1.300718
  H      -4.836422     -1.950927      0.196395
  H      -4.217048     -2.474606     -1.405627
21
Coordinates from ORCA-job mol E -1062.635577088331
  C      -2.413784     -0.781008     -0.452930
  C      -1.535717      0.295510     -0.579210
  C      -1.973810     -1.983077      0.110175
  C      -0.209560      0.152252     -0.160685
  C       0.243476     -1.049818      0.405760
  C      -0.651156     -2.098017      0.534993
  H      -1.891191      1.226149     -1.007549
  C       0.688551      1.244046     -0.314086
  O      -3.676723     -0.552832     -0.898528
  H      -2.644358     -2.826366      0.224795
  H       1.271657     -1.133144      0.735182
  H      -0.317198     -3.033498      0.973262
  N       0.995389      2.252900     -0.893846
  O       1.860582      3.150226     -0.842422
  O       2.128694      1.269430      1.108574
  S       3.268972      2.193791      0.695769
  O       4.275759      1.564022     -0.179508
  C      -4.620020     -1.617969     -0.797081
  H      -5.548665     -1.230550     -1.218074
  H      -4.786281     -1.904887      0.249544
  H      -4.295558     -2.493701     -1.374127
21
Coordinates from ORCA-job mol E -1062.635572277892
  C      -2.413846     -0.784983     -0.460360
  C      -1.535618      0.291432     -0.586104
  C      -1.974651     -1.986627      0.104474
  C      -0.210078      0.148497     -0.165334
  C       0.241888     -1.052880      0.403371
  C      -0.652836     -2.101056      0.532040
  H      -1.890397      1.221743     -1.015737
  C       0.688320      1.240052     -0.317202
  O      -3.675689     -0.557712     -0.909739
  H      -2.644969     -2.830214      0.217486
  H       1.269456     -1.135809      0.734846
  H      -0.319543     -3.036157      0.971618
  N       0.999935      2.247250     -0.896628
  O       1.859592      3.149566     -0.846367
  O       2.138870      1.279505      1.119254
  S       3.274546      2.207151      0.704855
  O       4.286670      1.578777     -0.165218
  C      -4.624487     -1.616281     -0.791731
  H      -5.556465     -1.223915     -1.200513
  H      -4.777511     -1.899187      0.257963
  H      -4.314125     -2.495695     -1.370966
21
Coordinates from ORCA-job mol E -1062.635572889726
  C      -2.413422     -0.784979     -0.461174
  C      -1.535490      0.291683     -0.586761
  C      -1.974135     -1.986415      0.104005
  C      -0.210076      0.149131     -0.165472
  C       0.242025     -1.052059      0.403609
  C      -0.652480     -2.100453      0.532164
  H      -1.890361      1.221819     -1.016687
  C       0.688332      1.240645     -0.317129
  O      -3.675138     -0.558304     -0.911195
  H      -2.644317     -2.830180      0.216769
  H       1.269447     -1.134514      0.735586
  H      -0.319137     -3.035379      0.972073
  N       0.999976      2.248761     -0.894853
  O       1.859856      3.150864     -0.844789
  O       2.136485      1.281133      1.119890
  S       3.274646      2.204821      0.704279
  O       4.283589      1.573236     -0.167187
  C      -4.624011     -1.616640     -0.791518
  H      -5.556461     -1.224247     -1.199213
  H      -4.775644     -1.899123      0.258480
  H      -4.314623     -2.496341     -1.370869
21
Coordinates from ORCA-job mol E -1062.635573194535
  C      -2.414113     -0.784571     -0.459744
  C      -1.535989      0.291890     -0.585797
  C      -1.974711     -1.986218      0.104870
  C      -0.210369      0.148980     -0.165343
  C       0.241888     -1.052472      0.403105
  C      -0.652758     -2.100697      0.531999
  H      -1.890926      1.222177     -1.015340
  C       0.688263      1.240283     -0.317506
  O      -3.676201     -0.557375     -0.908480
  H      -2.645061     -2.829789      0.218074
  H       1.269563     -1.135247      0.734217
  H      -0.319316     -3.035820      0.971417
  N       1.000298      2.247716     -0.896244
  O       1.860711      3.149429     -0.846256
  O       2.138033      1.280678      1.119563
  S       3.274819      2.206384      0.704334
  O       4.285916      1.576072     -0.165570
  C      -4.624237     -1.616826     -0.791942
  H      -5.556242     -1.224956     -1.201166
  H      -4.777817     -1.900627      0.257416
  H      -4.312693     -2.495556     -1.371597
21
Coordinates from ORCA-job mol E -1062.635573413059
  C      -2.413751     -0.784844     -0.460672
  C      -1.535810      0.291800     -0.586327
  C      -1.974521     -1.986228      0.104649
  C      -0.210499      0.149333     -0.164726
  C       0.241587     -1.051846      0.404450
  C      -0.652913     -2.100251      0.532946
  H      -1.890620      1.221858     -1.016474
  C       0.688041      1.240743     -0.316472
  O      -3.675462     -0.558202     -0.910763
  H      -2.644742     -2.829957      0.217409
  H       1.268993     -1.134222      0.736462
  H      -0.319603     -3.035157      0.972923
  N       0.999195      2.249460     -0.893406
  O       1.859523      3.151229     -0.843432
  O       2.139001      1.279537      1.118698
  S       3.276155      2.204351      0.702850
  O       4.284721      1.574211     -0.170109
  C      -4.623964     -1.617044     -0.792457
  H      -5.556180     -1.224950     -1.200976
  H      -4.776561     -1.900005      0.257268
  H      -4.313530     -2.496359     -1.371832
