!DLPNO-CCSD(T) Extrapolate(3/4,cc) cc-pVQZ/C TightPNO TightSCF 
!CPCM(THF)
%geom maxiter 300 end
%maxcore 4000 
%pal nprocs 36
end

*xyz 0 1
6       -3.149257000     -1.636833000      0.166819000
6       -2.593143000     -0.367496000      0.186675000
6       -2.599034000     -2.653668000      0.942891000
6       -1.478540000     -0.114356000      0.987819000
6       -0.928859000     -1.129207000      1.768238000
6       -1.491924000     -2.398484000      1.743192000
1       -3.017966000      0.429054000     -0.412567000
6       -0.864424000      1.220705000      0.989884000
1       -4.015806000     -1.834731000     -0.454035000
1       -3.037474000     -3.645588000      0.923885000
1       -0.061630000     -0.927336000      2.384892000
1       -1.062910000     -3.188687000      2.349069000
7       -1.094565000      2.127403000      0.119311000
8       -0.315489000      3.253772000      0.461376000
8        0.035550000      1.512108000      1.957087000
16       0.938166000      2.877039000      1.493236000
7        2.157079000      2.425409000      0.746154000
6        2.109919000      1.460204000     -0.304600000
6        2.158229000      0.102655000      0.001979000
6        2.099208000     -0.836130000     -1.020537000
6        2.005033000     -0.425481000     -2.345584000
6        1.972219000      0.932547000     -2.645369000
6        2.025211000      1.878480000     -1.629357000
1        2.231739000     -0.207438000      1.038028000
1        2.125944000     -1.893005000     -0.777538000
1        1.960364000     -1.160286000     -3.141762000
1        1.901492000      1.260459000     -3.676947000
1        1.990869000      2.938889000     -1.852239000

*
