!DLPNO-CCSD(T) Extrapolate(3/4,cc) cc-pVQZ/C TightPNO TightSCF 
!CPCM(Benzene)
%geom maxiter 300 end
%maxcore 4000 
%pal nprocs 36
end

*xyz 0 1
6       -2.316311000     -0.825849000     -0.376407000
6       -1.476314000      0.262712000     -0.533258000
6       -1.894474000     -2.029602000      0.176605000
6       -0.140690000      0.120479000     -0.133521000
6        0.311557000     -1.083394000      0.428768000
6       -0.569945000     -2.144361000      0.582694000
1       -1.842328000      1.189597000     -0.957806000
6        0.757587000      1.210565000     -0.294722000
7       -3.724923000     -0.691480000     -0.806808000
1       -2.593170000     -2.850540000      0.284548000
1        1.346187000     -1.167505000      0.741361000
1       -0.220171000     -3.073878000      1.019403000
7        1.056542000      2.221482000     -0.873852000
8        1.912832000      3.125888000     -0.822321000
8        2.195018000      1.256691000      1.137219000
16       3.324805000      2.197760000      0.733935000
8        4.339167000      1.575366000     -0.140870000
8       -4.073226000      0.381129000     -1.282040000
8       -4.455194000     -1.662440000     -0.660517000

*
