3
Coordinates from ORCA-job mol
  S   0.00000000000000     -0.00000007066145      0.46442208348280
  O   0.00000000000000      1.35192180480476     -0.41379506295978
  O   0.00000000000000     -1.35192173414331     -0.41379502052302

