3
Coordinates from ORCA-job inp E -548.489743335842
  S       0.000000      0.000000      0.363168
  O       0.000000      1.228797     -0.363168
  O       0.000000     -1.228797     -0.363168
3
Coordinates from ORCA-job inp E -548.494050729123
  S       0.000000     -0.000000      0.397630
  O       0.000000      1.308388     -0.380399
  O       0.000000     -1.308388     -0.380399
3
Coordinates from ORCA-job inp E -548.496870968226
  S       0.000000     -0.000000      0.396326
  O       0.000000      1.272499     -0.379747
  O       0.000000     -1.272499     -0.379747
3
Coordinates from ORCA-job inp E -548.496968180249
  S       0.000000      0.000000      0.385406
  O       0.000000      1.272022     -0.374287
  O       0.000000     -1.272022     -0.374287
3
Coordinates from ORCA-job inp E -548.496986959841
  S       0.000000     -0.000001      0.390305
  O       0.000000      1.269305     -0.376737
  O       0.000000     -1.269305     -0.376736
3
Coordinates from ORCA-job inp E -548.496987447770
  S       0.000000      0.000000      0.389732
  O       0.000000      1.270183     -0.376450
  O       0.000000     -1.270183     -0.376450
3
Coordinates from ORCA-job inp E -548.496987468324
  S       0.000000     -0.000000      0.389752
  O       0.000000      1.270050     -0.376460
  O       0.000000     -1.270050     -0.376460
