17
Coordinates from ORCA-job mol
  C   0.05347100505460      0.07538921311465     -0.10872781662368
  C   1.05283094875853      1.03659962919993     -0.24719215701752
  C   0.34695686751130     -1.17117907536766      0.46153571553193
  C   2.36173803648983      0.75276759584424      0.18661762119366
  C   2.65676525883432     -0.49708923983696      0.75598846047018
  C   1.64794644356405     -1.45338849761809      0.89211577934293
  H   0.83716365809592      2.00244684327013     -0.68882009111592
  C   3.40782331228307      1.76171295541231      0.04403537760241
  H   -0.95353508932148      0.29633272112756     -0.44570968704654
  H   -0.43442150945607     -1.91640189254403      0.56789982284081
  H   3.66688394198091     -0.70786805217792      1.08447956879312
  H   1.87839802092937     -2.41719787211676      1.33307309771797
  N   3.21707703597448      2.93359228085407     -0.47958920264970
  O   4.37058989934538      3.74360995147806     -0.49279874289990
  O   4.67743767829713      1.41953402965198      0.51789781509984
  S   5.93080379595339      2.71231964649604      0.01473946571287
  O   6.65647069570523      2.22581976321243     -1.32484502695244

