17
Coordinates from ORCA-job mol
  C   0.97173208381625     -1.40738089009901      0.10821866489508
  C   1.65418734137132     -0.79757954649493     -0.93476544043710
  C   0.76509280876952     -0.77289996428471      1.32682882965728
  C   2.14444040499311      0.49502953820911     -0.74278248143784
  C   1.95061189171439      1.15946122437232      0.47232207557992
  C   1.26343539223326      0.51723912969607      1.49291920169761
  H   1.80833184495269     -1.30459738485816     -1.88034878358144
  C   3.40081307707629      2.12998200584548     -2.01079480882405
  Cl  0.35192777040576     -3.03306907218500     -0.12794857156056
  H   0.22853817716147     -1.27330471107632      2.12508701733708
  H   2.33932430657134      2.16358660596344      0.60992470325028
  H   1.11097327538851      1.02866579178045      2.43854353687656
  N   2.82465703141686      1.09068743172097     -1.80692720218250
  O   3.98181750378078      3.09262181908145     -2.34615293708587
  O   4.51467139059118      3.97225269364610      0.86412297912661
  S   5.68596293696860      3.17317540955752      0.46968905608758
  O   5.45319605978860      1.74982408812521      0.17386704160133
