17
 restart for step    4999 ; t =         4999.00 
     C    -4.8271647855   -2.4023652804    0.5894832327   12.0000000000   -0.0150864047    0.0052386741   -0.0016382783
     C    -3.6169248860   -2.0202399318    1.1517982076   12.0000000000   -0.0092484620   -0.0031333649    0.0143342025
     C    -4.8850273514   -2.8073349999   -0.7964332658   12.0000000000    0.0030215691    0.0041120810   -0.0076288194
     C    -2.4804001249   -2.0106998826    0.3616443413   12.0000000000    0.0064306263   -0.0133858873    0.0079814333
     C    -2.4978396705   -2.3069877994   -0.9602834809   12.0000000000    0.0079875426   -0.0012001765    0.0053208863
     C    -3.6672549383   -2.7960468431   -1.5129258667   12.0000000000    0.0051096240    0.0017374529   -0.0052654749
     H    -3.5336323398   -1.7631958716    2.2029068718    1.0078250322    0.0126675360    0.0118113925    0.0108899376
     C    -0.1555276612   -1.6754308138    0.3549850231   12.0000000000    0.0011160647    0.0029090562   -0.0032689572
     H    -5.7595344336   -2.3513937166    1.1675609442    1.0078250322   -0.0128390750    0.0070553005    0.0176593329
     H    -5.7942735172   -3.1168640926   -1.3210385663    1.0078250322   -0.0013020515   -0.0041719120   -0.0034061219
     H    -1.5843500143   -2.3742184616   -1.5432431263    1.0078250322    0.0147939295   -0.0128576390    0.0184812546
     H    -3.6021251679   -3.1461877589   -2.5529934414    1.0078250322    0.0177930476   -0.0086566182   -0.0032274043
     N    -1.2573703734   -1.6538142112    0.9796176210   14.0030740040    0.0054162878    0.0041029107   -0.0054001338
     O     3.5143153103    4.8641650463   -0.3196649511   15.9949146200   -0.0015431824   -0.0008097321   -0.0004254772
     O     0.8951237332   -1.4809547173   -0.3272538624   15.9949146200   -0.0037069841    0.0022681698   -0.0052435636
     S     4.3350045845    3.5463307358    0.0928791553   31.9720711740   -0.0001337168   -0.0002736006    0.0006851559
     O     5.9064777164    3.7975628763    0.3415972931   15.9949146200   -0.0006825343   -0.0012813173   -0.0008968207
