 28
  Energy -1159.299926475702  Dipole 7.58951  G(298) 103.01
 C   -3.55608500   0.58960100   0.70400600
 C   -2.37206700   1.29648100   0.87632300
 C   -3.66670400  -0.35515300  -0.31422200
 C   -1.29182900   1.06055900   0.01963200
 C   -1.40196000   0.11206900  -1.00312200
 C   -2.58951200  -0.59017400  -1.16665400
 H   -2.27366400   2.02390800   1.67610500
 C   -0.05204800   1.83237000   0.18756300
 H   -4.39276000   0.77206900   1.37190900
 H   -4.59184400  -0.90957400  -0.44298100
 H   -0.56697800  -0.06517400  -1.67451000
 H   -2.67471100  -1.32154900  -1.96484200
 N   -0.09176000   3.08816600   0.49599400
 O    1.23938600   3.57925900   0.60343700
 N    1.19700200   1.28583600  -0.04800400
 S    2.41915600   2.53770000  -0.09997000
 O    2.61228300   2.94355700  -1.51282900
 C    1.56752900  -0.08393900   0.07163500
 C    2.42372900  -0.64315100  -0.87632000
 C    1.09108800  -0.84314500   1.14112700
 C    2.80830000  -1.97423300  -0.74535200
 C    1.45847300  -2.17968100   1.24256500
 C    2.32047600  -2.74684300   0.30544200
 H    2.77167500  -0.04540400  -1.71408900
 H    0.43988900  -0.38829200   1.88174100
 H    3.47872500  -2.41113500  -1.47945800
 H    1.08182000  -2.77527900   2.06890600
 H    2.61239100  -3.78885000   0.39596800
