 28
  Energy -1159.265041507023  Dipole 8.72914  G(298) 98.66
 C   -2.17989300  -0.73970400  -1.24197800
 C   -1.77946800   0.44030500  -0.63190500
 C   -2.36996500  -1.89478800  -0.48571300
 C   -1.56417900   0.46389200   0.75565200
 C   -1.75673100  -0.70017200   1.51910600
 C   -2.15890500  -1.87059900   0.89228900
 H   -1.62299500   1.34221300  -1.21467800
 C   -1.13583700   1.65891600   1.38365500
 H   -2.33971700  -0.75873400  -2.31606300
 H   -2.68176700  -2.81532200  -0.97055500
 H   -1.58362100  -0.67335900   2.59019300
 H   -2.30609000  -2.77031400   1.48248700
 N   -0.78071700   2.63990500   1.89502400
 O   -0.38976800   3.65917000   2.42764900
 O    2.28639500   1.45229600   2.99507500
 S    2.52255800   2.50171700   1.94224700
 N    2.33130500   2.14342500   0.44058300
 C    1.97780600   0.95535500  -0.18552400
 C    1.85048000   1.02467800  -1.58634000
 C    1.52227400  -0.10757600  -2.31380200
 C    1.31878400  -1.32265800  -1.65987000
 C    1.44219200  -1.39800300  -0.27291400
 C    1.76536500  -0.27391200   0.47193300
 H    2.01807000   1.97860200  -2.07736300
 H    1.42464200  -0.04587700  -3.39377200
 H    1.05946100  -2.21013700  -2.22988500
 H    1.27631500  -2.34358900   0.23513900
 H    1.85400700  -0.33573000   1.54933000
