 28
  Energy -1159.248994764423  Dipole 5.70004  G(298) 99.14
 C   -4.47156900  -0.84545400  -0.68192300
 C   -3.55407300   0.15608200  -0.97523500
 C   -4.09620700  -1.92253900   0.12117100
 C   -2.27355700   0.07653300  -0.42661300
 C   -1.87504800  -1.01166100   0.35191500
 C   -2.80239200  -2.00607300   0.63685700
 H   -3.82306800   0.99599300  -1.60878800
 C   -1.32077500   1.29921400  -0.54623900
 H   -5.47646700  -0.79294900  -1.09009600
 H   -4.81339700  -2.70945700   0.33638400
 H   -0.85962900  -1.06312700   0.73412400
 H   -2.51332400  -2.85307400   1.25188300
 N   -0.77791600   0.87535900  -1.62030100
 O    0.43090600   2.31499600  -2.03181200
 O   -1.26862200   2.24596000   0.25432600
 S    0.92715100   3.17945100  -0.84413200
 N    1.99838000   2.60805200   0.11011500
 C    2.57684900   1.36085500   0.26379400
 C    2.37420100   0.26948600  -0.60604700
 C    3.01797200  -0.93020300  -0.34885900
 C    3.85870600  -1.06423400   0.75794500
 C    4.06566300   0.01585200   1.61664900
 C    3.43364100   1.22400400   1.37390800
 H    1.72151900   0.36991500  -1.46388500
 H    2.86433900  -1.77192600  -1.01779100
 H    4.35500300  -2.01130500   0.94872600
 H    4.72166700  -0.08759800   2.47574300
 H    3.58004700   2.07784600   2.02818000
