!DLPNO-CCSD(T) Extrapolate(3/4,cc) cc-pVQZ/C TightPNO TightSCF 
!CPCM(Benzene)
%geom maxiter 300 end
%maxcore 4000 
%pal nprocs 36
end

*xyz 0 1
6        0.051898000      0.072447000      0.091519000
6        0.967171000      1.066572000     -0.211691000
6        0.439020000     -1.201537000      0.494659000
6        2.315108000      0.750298000     -0.062769000
6        2.746088000     -0.527174000      0.305783000
6        1.795852000     -1.495626000      0.598896000
1        0.646275000      2.047542000     -0.542341000
6        3.363902000      1.888769000     -0.145975000
7       -1.389984000      0.376941000     -0.037768000
1       -0.315416000     -1.949156000      0.710570000
1        3.808181000     -0.741806000      0.369577000
1        2.110222000     -2.489135000      0.900614000
7        3.506408000      1.711839000     -1.384807000
8        4.811999000      3.268005000     -1.587521000
8        3.792018000      2.577760000      0.807055000
16       5.492315000      3.559574000     -0.263839000
8        6.570507000      2.627376000      0.098517000
8       -1.698532000      1.506073000     -0.391608000
8       -2.180261000     -0.520413000      0.220298000

*
