17
Coordinates from ORCA-job Intermediate_scan/Intermediate_scan
  C   0.14880395763944      0.15383168768298     -0.09690087604682
  C   1.19220145829819      1.06096936666457     -0.20070979214236
  C   0.38445747895986     -1.11574107455032      0.43589141170461
  C   2.46072719271333      0.64268337702134      0.23698340920799
  C   2.71938291963864     -0.60336193703134      0.76875606583180
  C   1.65175904891113     -1.49159919201004      0.86615124943500
  H   1.04036643287163      2.05288858025360     -0.59741874250003
  C   3.40039694577367      1.76528864020847      0.01653629220866
  H   -0.84972513836933      0.42398200602112     -0.42049510782823
  H   -0.43491702826334     -1.82053765220881      0.51929201169944
  H   3.71645932699051     -0.87367048501643      1.09217699308191
  H   1.81216925238483     -2.48073440831012      1.27785017855468
  N   3.19537226543169      2.80897971839688     -0.68735819160954
  O   4.34288533183598      3.63056397674619     -0.57846817272885
  O   4.62752597394462      1.67553234778044      0.62041835083288
  S   5.65314347541492      2.80216237790727     -0.03764010895537
  O   6.31339310582416      2.16576167044418     -1.14436397074578
