17
Coordinates from ORCA-job orca
  C   -0.08815266319403      0.08330239081243     -0.17533427532731
  C   0.70310880257509      1.21190335671229     -0.32615363324902
  C   0.44860308275445     -1.07870940357855      0.36878953544580
  C   2.03943474165772      1.16740471473688      0.07404916670567
  C   2.58396147126412      0.00379290079710      0.62123230922388
  C   1.78103561751893     -1.11725179168178      0.76571644559510
  H   0.29649786726140      2.12284260453758     -0.74924224660626
  C   2.87676096798080      2.32471905272429     -0.07342882100922
  H   -1.12691675765861      0.11122110755010     -0.48392713888740
  H   -0.17482062092108     -1.95843717602474      0.48412594830245
  H   3.62344332228666     -0.00916792188885      0.92704232457117
  H   2.19742164848774     -2.02375682289559      1.18979086308845
  N   3.55973666644249      3.24138012257781     -0.17259171636330
  O   4.32815450770201      4.19208712091701     -0.24456492054299
  O   5.56951290317851      2.22435533771136      1.68203034799148
  S   6.40972153464138      3.08881274923026      0.90031702303161
  O   6.98109690802208      2.53200165776229     -0.29045121197016
