!DLPNO-CCSD(T) Extrapolate(3/4,cc) cc-pVQZ/C TightPNO TightSCF 
!CPCM(Benzene)
%geom maxiter 300 end
%maxcore 4000 
%pal nprocs 36
end

*xyz 0 1
6       -0.083757000      0.079105000      0.192928000
6        0.826422000      1.076164000     -0.123323000
6        0.363451000     -1.185941000      0.571979000
6        2.201574000      0.788448000     -0.080214000
6        2.654843000     -0.483013000      0.304751000
6        1.728663000     -1.462114000      0.630742000
1        0.492427000      2.067774000     -0.411063000
6        3.142430000      1.794009000     -0.409004000
1       -1.147558000      0.292247000      0.151933000
1       -0.355814000     -1.958836000      0.826290000
1        3.720995000     -0.676364000      0.350824000
1        2.073154000     -2.446625000      0.931738000
7        3.578438000      2.698365000     -1.044976000
8        4.473394000      3.562875000     -1.135645000
8        4.737491000      1.862419000      1.120356000
34       5.962288000      2.826156000      0.547059000
8        7.005956000      1.962334000     -0.353677000

*
