17
Coordinates from ORCA-job inp E -948.031425665463
  C       1.301620      0.094981      1.728688
  C       2.142168      0.753415      0.828216
  C       0.477098     -0.952357      1.299170
  C       2.148988      0.348809     -0.517832
  C       1.326697     -0.698433     -0.958423
  C       0.493787     -1.346463     -0.044236
  C       3.839132      1.705752     -1.837065
  N       2.970923      0.995207     -1.436835
  O       6.866456      3.970139      0.094063
  O       4.680553      2.446266     -2.303726
  S       5.303991      4.210109     -0.207121
  O       4.328081      3.273669      0.675077
  H       2.786597      1.566696      1.142289
  H       1.292068      0.403640      2.768652
  H      -0.172464     -1.458193      2.005587
  H       1.351068     -0.989654     -2.001886
  H      -0.141264     -2.158685     -0.381715
17
Coordinates from ORCA-job inp E -948.057406795178
  C       1.320075      0.114008      1.715660
  C       2.150397      0.768994      0.804993
  C       0.496312     -0.939152      1.302591
  C       2.149483      0.355753     -0.538984
  C       1.324838     -0.696778     -0.963961
  C       0.502978     -1.340720     -0.037263
  C       3.838452      1.711593     -1.837051
  N       2.957975      0.988831     -1.474419
  O       6.753548      3.929328      0.136494
  O       4.671528      2.429775     -2.291640
  S       5.292771      4.152751     -0.145138
  O       4.356359      3.281253      0.660631
  H       2.801673      1.586404      1.115315
  H       1.321419      0.430650      2.760808
  H      -0.147483     -1.446913      2.023520
  H       1.340582     -0.997837     -2.012235
  H      -0.135407     -2.163038     -0.366418
17
Coordinates from ORCA-job inp E -948.059524870282
  C       1.352105      0.129327      1.686493
  C       2.164611      0.767712      0.748504
  C       0.514595     -0.925836      1.309303
  C       2.133821      0.334874     -0.588656
  C       1.294346     -0.719989     -0.976817
  C       0.490171     -1.346422     -0.023931
  C       3.816572      1.696164     -1.811019
  N       2.914895      0.938512     -1.571664
  O       6.747192      3.987130      0.189708
  O       4.676126      2.400516     -2.224461
  S       5.307432      4.166951     -0.053035
  O       4.376044      3.307595      0.699696
  H       2.821343      1.590320      1.039522
  H       1.377576      0.464070      2.727310
  H      -0.116882     -1.418917      2.052971
  H       1.285914     -1.036357     -2.022370
  H      -0.160362     -2.170751     -0.328653
17
Coordinates from ORCA-job inp E -948.060322049475
  C       1.387844      0.139069      1.660325
  C       2.183007      0.759478      0.696030
  C       0.532910     -0.913106      1.315480
  C       2.118567      0.310885     -0.634680
  C       1.260041     -0.739462     -0.990253
  C       0.472597     -1.347626     -0.012037
  C       3.802984      1.657575     -1.812261
  N       2.884961      0.890098     -1.648824
  O       6.756730      4.038232      0.264944
  O       4.682868      2.366588     -2.165478
  S       5.309637      4.211030      0.000575
  O       4.372735      3.345819      0.765714
  H       2.845101      1.587036      0.962165
  H       1.439265      0.487104      2.695912
  H      -0.085336     -1.391649      2.079521
  H       1.224706     -1.067662     -2.031732
  H      -0.193116     -2.168510     -0.292501
17
Coordinates from ORCA-job inp E -948.060507754737
  C       1.409597      0.138036      1.646817
  C       2.192409      0.749006      0.666210
  C       0.542207     -0.910623      1.319534
  C       2.104709      0.295624     -0.661475
  C       1.232195     -0.749241     -0.999717
  C       0.456061     -1.348457     -0.006011
  C       3.806496      1.621920     -1.824694
  N       2.867589      0.867289     -1.685519
  O       6.761729      4.080778      0.306638
  O       4.704270      2.330069     -2.128135
  S       5.315393      4.248112      0.029744
  O       4.373990      3.402538      0.810527
  H       2.859143      1.579403      0.915114
  H       1.479583      0.490524      2.680098
  H      -0.066397     -1.382685      2.095625
  H       1.177302     -1.082132     -2.039260
  H      -0.220776     -2.165260     -0.272593
17
Coordinates from ORCA-job inp E -948.060508217766
  C       1.419785      0.143671      1.634035
  C       2.208330      0.735075      0.646076
  C       0.539540     -0.898042      1.318434
  C       2.113620      0.269832     -0.677457
  C       1.229283     -0.768993     -1.002898
  C       0.447031     -1.348593     -0.002042
  C       3.779330      1.625323     -1.827719
  N       2.882929      0.821270     -1.712074
  O       6.773485      4.092239      0.312789
  O       4.658068      2.360396     -2.111143
  S       5.323114      4.266562      0.065004
  O       4.390795      3.423040      0.857446
  H       2.880811      1.563446      0.887192
  H       1.493816      0.507372      2.663030
  H      -0.074808     -1.353884      2.099607
  H       1.169991     -1.113480     -2.038282
  H      -0.239619     -2.160334     -0.259096
17
Coordinates from ORCA-job inp E -948.060543387807
  C       1.408953      0.138336      1.638681
  C       2.203856      0.729875      0.655896
  C       0.527765     -0.900404      1.315936
  C       2.113885      0.269440     -0.668898
  C       1.229790     -0.767173     -1.001842
  C       0.441593     -1.347976     -0.006187
  C       3.795950      1.617019     -1.820807
  N       2.885091      0.828335     -1.696894
  O       6.774391      4.146897      0.274529
  O       4.665255      2.359518     -2.117178
  S       5.314404      4.273977      0.057031
  O       4.431687      3.392596      0.865673
  H       2.884712      1.549452      0.902133
  H       1.480561      0.497727      2.669484
  H      -0.091226     -1.357366      2.093009
  H       1.174111     -1.107466     -2.038939
  H      -0.245279     -2.157887     -0.268727
17
Coordinates from ORCA-job inp E -948.060543138035
  C       1.409750      0.136281      1.645335
  C       2.200086      0.737711      0.664792
  C       0.534306     -0.905709      1.318459
  C       2.110268      0.283438     -0.662442
  C       1.231953     -0.756666     -0.999653
  C       0.448759     -1.347040     -0.005985
  C       3.798718      1.624851     -1.830858
  N       2.880314      0.846656     -1.686291
  O       6.767690      4.098434      0.306201
  O       4.686837      2.345753     -2.136959
  S       5.320000      4.259270      0.037355
  O       4.382167      3.416869      0.826079
  H       2.879194      1.557564      0.914731
  H       1.481364      0.489771      2.678046
  H      -0.079969     -1.370899      2.094187
  H       1.177269     -1.091720     -2.038405
  H      -0.233205     -2.159667     -0.271689
17
Coordinates from ORCA-job inp E -948.060572764785
  C       1.415655      0.137916      1.640746
  C       2.208101      0.731948      0.657493
  C       0.533920     -0.900150      1.318029
  C       2.114383      0.274239     -0.668548
  C       1.230053     -0.762260     -1.001148
  C       0.444628     -1.345179     -0.004794
  C       3.794857      1.620498     -1.828837
  N       2.884102      0.831601     -1.697553
  O       6.765851      4.109070      0.307564
  O       4.673975      2.352875     -2.126989
  S       5.315535      4.266737      0.049941
  O       4.387826      3.416256      0.840586
  H       2.889820      1.550573      0.904582
  H       1.489775      0.494892      2.672098
  H      -0.082750     -1.358882      2.095687
  H       1.172128     -1.100480     -2.038709
  H      -0.242360     -2.154753     -0.267247
17
Coordinates from ORCA-job inp E -948.060589339014
  C       1.421099      0.136031      1.641742
  C       2.212698      0.730087      0.657810
  C       0.537563     -0.900672      1.319275
  C       2.116306      0.274326     -0.668897
  C       1.230472     -0.761173     -1.000935
  C       0.445963     -1.344367     -0.003863
  C       3.796251      1.620493     -1.829783
  N       2.882503      0.834618     -1.700054
  O       6.761888      4.069838      0.327966
  O       4.674160      2.354130     -2.126540
  S       5.321735      4.270790      0.045671
  O       4.354662      3.450111      0.820303
  H       2.894687      1.548315      0.904658
  H       1.496912      0.492265      2.673212
  H      -0.078951     -1.359064      2.097251
  H       1.170054     -1.098040     -2.038787
  H      -0.242504     -2.152791     -0.266126
17
Coordinates from ORCA-job inp E -948.060605049522
  C       1.428954      0.133969      1.640131
  C       2.227063      0.717797      0.655368
  C       0.534271     -0.893658      1.318712
  C       2.126596      0.261621     -0.669906
  C       1.230462     -0.765136     -1.001329
  C       0.438845     -1.338394     -0.003892
  C       3.794930      1.620606     -1.829754
  N       2.900759      0.814359     -1.698833
  O       6.752484      4.065667      0.335722
  O       4.657418      2.370399     -2.127605
  S       5.314860      4.280310      0.049148
  O       4.341412      3.464033      0.821557
  H       2.918092      1.529108      0.899598
  H       1.508201      0.491054      2.671075
  H      -0.087815     -1.344134      2.097030
  H       1.167263     -1.102990     -2.038707
  H      -0.258294     -2.139710     -0.265413
17
Coordinates from ORCA-job inp E -948.060628999204
  C       1.436899      0.135078      1.640598
  C       2.231546      0.719723      0.653585
  C       0.541634     -0.892658      1.321399
  C       2.126754      0.264744     -0.672489
  C       1.230143     -0.762440     -1.001081
  C       0.442247     -1.336695     -0.001153
  C       3.797116      1.619214     -1.835828
  N       2.895598      0.819213     -1.705951
  O       6.740572      4.019001      0.371531
  O       4.661732      2.369325     -2.130929
  S       5.317991      4.276930      0.048748
  O       4.299627      3.493443      0.795208
  H       2.924009      1.530098      0.895563
  H       1.519591      0.491330      2.671512
  H      -0.077726     -1.343894      2.101424
  H       1.163140     -1.099379     -2.038464
  H      -0.255374     -2.138135     -0.260769
17
Coordinates from ORCA-job inp E -948.060650191920
  C       1.443902      0.142090      1.637932
  C       2.233381      0.727022      0.647000
  C       0.551789     -0.889963      1.323981
  C       2.125679      0.268673     -0.678198
  C       1.232864     -0.763451     -1.001018
  C       0.450478     -1.338145      0.003044
  C       3.790404      1.625106     -1.843866
  N       2.889478      0.822486     -1.716372
  O       6.729047      3.945663      0.402542
  O       4.656806      2.376580     -2.133314
  S       5.324792      4.266945      0.059009
  O       4.256686      3.530118      0.782579
  H       2.925423      1.539148      0.884179
  H       1.528499      0.500999      2.667702
  H      -0.063353     -1.341686      2.107015
  H       1.164024     -1.103400     -2.037229
  H      -0.244399     -2.143283     -0.252084
17
Coordinates from ORCA-job inp E -948.060673331822
  C       1.452234      0.147894      1.636526
  C       2.238664      0.732070      0.642868
  C       0.560895     -0.885897      1.325927
  C       2.127908      0.272177     -0.681147
  C       1.236673     -0.762240     -1.000801
  C       0.457549     -1.336582      0.005903
  C       3.787834      1.631983     -1.848342
  N       2.889434      0.825180     -1.720429
  O       6.707146      3.871098      0.424283
  O       4.654130      2.382453     -2.139260
  S       5.322493      4.257454      0.069162
  O       4.211604      3.561427      0.768447
  H       2.931899      1.544164      0.876007
  H       1.538812      0.508345      2.665620
  H      -0.051761     -1.337336      2.110948
  H       1.166275     -1.103818     -2.036417
  H      -0.236288     -2.143473     -0.246392
17
Coordinates from ORCA-job inp E -948.060696757785
  C       1.459979      0.148419      1.640922
  C       2.249777      0.731598      0.649416
  C       0.565089     -0.881397      1.327397
  C       2.138764      0.273928     -0.676302
  C       1.243626     -0.756504     -0.998419
  C       0.461263     -1.329315      0.006499
  C       3.794453      1.636678     -1.857913
  N       2.903670      0.824451     -1.714287
  O       6.672511      3.800467      0.441152
  O       4.649404      2.397349     -2.159462
  S       5.311421      4.252661      0.072133
  O       4.164927      3.580972      0.737492
  H       2.946334      1.540713      0.884942
  H       1.546966      0.506306      2.670925
  H      -0.049861     -1.332126      2.111000
  H       1.172693     -1.096275     -2.034651
  H      -0.235517     -2.133026     -0.247942
17
Coordinates from ORCA-job inp E -948.060245867317
  C       1.460217      0.156548      1.642243
  C       2.254742      0.750402      0.660015
  C       0.572775     -0.876884      1.321349
  C       2.149723      0.291204     -0.664201
  C       1.260704     -0.741107     -0.996907
  C       0.476152     -1.320661     -0.000239
  C       3.797043      1.649763     -1.841608
  N       2.923333      0.829162     -1.684794
  O       6.622401      3.700235      0.391889
  O       4.646507      2.386786     -2.198882
  S       5.276925      4.227217      0.064658
  O       4.125716      3.578961      0.757023
  H       2.946117      1.564888      0.922103
  H       1.539801      0.509038      2.675115
  H      -0.041287     -1.334757      2.101376
  H       1.199191     -1.078371     -2.035007
  H      -0.214561     -2.127525     -0.261231
17
Coordinates from ORCA-job inp E -948.060734058379
  C       1.463865      0.151696      1.639835
  C       2.249737      0.738536      0.647117
  C       0.573341     -0.882519      1.328580
  C       2.139974      0.278891     -0.676503
  C       1.247985     -0.754644     -0.997727
  C       0.469001     -1.330700      0.007901
  C       3.786883      1.647456     -1.858867
  N       2.904159      0.830691     -1.712651
  O       6.656598      3.734460      0.459211
  O       4.644750      2.400892     -2.164528
  S       5.318884      4.240668      0.071871
  O       4.139590      3.610143      0.721753
  H       2.936741      1.555866      0.883620
  H       1.549746      0.511406      2.669288
  H      -0.038464     -1.335626      2.113405
  H       1.177772     -1.095211     -2.033743
  H      -0.225061     -2.137107     -0.245661
17
Coordinates from ORCA-job inp E -948.060760900744
  C       1.480317      0.148506      1.640366
  C       2.260672      0.734547      0.643143
  C       0.583180     -0.881016      1.332368
  C       2.139503      0.280111     -0.681048
  C       1.240630     -0.748292     -0.999197
  C       0.466976     -1.324392      0.010666
  C       3.795698      1.639400     -1.859775
  N       2.897952      0.834730     -1.720721
  O       6.622435      3.701992      0.514447
  O       4.662913      2.385291     -2.161924
  S       5.316045      4.242688      0.072540
  O       4.096428      3.644373      0.674855
  H       2.953279      1.547996      0.872928
  H       1.575756      0.504848      2.670318
  H      -0.024645     -1.334162      2.120341
  H       1.160875     -1.084714     -2.036041
  H      -0.232514     -2.127007     -0.240363
17
Coordinates from ORCA-job inp E -948.060760503325
  C       1.488893      0.155445      1.641882
  C       2.258593      0.752704      0.642679
  C       0.601252     -0.882775      1.337006
  C       2.134054      0.297943     -0.683810
  C       1.243315     -0.738754     -0.997408
  C       0.481682     -1.324428      0.015583
  C       3.792895      1.640808     -1.877770
  N       2.881161      0.852862     -1.731185
  O       6.582360      3.608418      0.587001
  O       4.668825      2.380155     -2.179756
  S       5.329161      4.210996      0.077417
  O       4.047955      3.682044      0.611680
  H       2.944735      1.572687      0.876442
  H       1.586436      0.509510      2.672364
  H       0.003640     -1.344519      2.127774
  H       1.161164     -1.074355     -2.034216
  H      -0.210622     -2.133844     -0.232782
17
Coordinates from ORCA-job inp E -948.060816740259
  C       1.511341      0.148366      1.643102
  C       2.279552      0.741358      0.640472
  C       0.609639     -0.878512      1.339560
  C       2.140032      0.295679     -0.684844
  C       1.235486     -0.728782     -0.999113
  C       0.474851     -1.311662      0.016385
  C       3.807228      1.630563     -1.875836
  N       2.887261      0.854516     -1.727679
  O       6.533552      3.591328      0.635098
  O       4.687958      2.359260     -2.177300
  S       5.309777      4.211616      0.076555
  O       3.999341      3.704498      0.560980
  H       2.973649      1.555777      0.867456
  H       1.620084      0.497190      2.674342
  H       0.012348     -1.337217      2.132308
  H       1.142089     -1.057352     -2.037307
  H      -0.228689     -2.111727     -0.231278
17
Coordinates from ORCA-job inp E -948.060866543841
  C       1.520134      0.149523      1.645114
  C       2.285975      0.746152      0.642649
  C       0.618523     -0.877291      1.340890
  C       2.143993      0.303672     -0.683529
  C       1.238857     -0.720163     -0.998585
  C       0.480952     -1.306729      0.016962
  C       3.813382      1.633507     -1.872778
  N       2.887474      0.865999     -1.727981
  O       6.487197      3.523194      0.636511
  O       4.706330      2.345511     -2.177175
  S       5.296478      4.206115      0.080046
  O       3.964434      3.728513      0.536606
  H       2.977689      1.562089      0.872233
  H       1.630287      0.495817      2.676980
  H       0.023138     -1.338467      2.133671
  H       1.143238     -1.045890     -2.037414
  H      -0.222583     -2.106653     -0.231297
17
Coordinates from ORCA-job inp E -948.060895574958
  C       1.542916      0.148298      1.649620
  C       2.306851      0.743328      0.645038
  C       0.631787     -0.870094      1.345692
  C       2.155114      0.308684     -0.683790
  C       1.239399     -0.706178     -0.997568
  C       0.482990     -1.291673      0.020163
  C       3.831383      1.630358     -1.882498
  N       2.898236      0.870098     -1.733615
  O       6.399796      3.434220      0.668316
  O       4.733464      2.337718     -2.180213
  S       5.265764      4.196734      0.095282
  O       3.898066      3.762486      0.479649
  H       3.004154      1.553805      0.869752
  H       1.661740      0.489114      2.682327
  H       0.037472     -1.330709      2.139665
  H       1.134747     -1.026486     -2.037220
  H      -0.228380     -2.084804     -0.227697
17
Coordinates from ORCA-job inp E -948.060967054873
  C       1.561154      0.143093      1.657526
  C       2.325727      0.744815      0.656907
  C       0.643268     -0.866710      1.347592
  C       2.166927      0.322826     -0.676886
  C       1.242882     -0.682902     -0.995536
  C       0.486649     -1.273760      0.018763
  C       3.858317      1.621953     -1.877752
  N       2.910602      0.879678     -1.729551
  O       6.309339      3.344853      0.665965
  O       4.769510      2.318122     -2.181093
  S       5.226015      4.181110      0.094938
  O       3.827679      3.797210      0.417234
  H       3.027947      1.548339      0.893849
  H       1.686179      0.471919      2.693345
  H       0.050248     -1.332555      2.139590
  H       1.133137     -0.992850     -2.037742
  H      -0.230079     -2.060241     -0.234248
17
Coordinates from ORCA-job inp E -948.061105982644
  C       1.585360      0.144682      1.657502
  C       2.350614      0.743910      0.655807
  C       0.656809     -0.855258      1.348198
  C       2.180661      0.329232     -0.677353
  C       1.246377     -0.666373     -0.996259
  C       0.489792     -1.254952      0.018726
  C       3.883021      1.613838     -1.862509
  N       2.925698      0.881875     -1.728486
  O       6.211206      3.248446      0.638034
  O       4.801583      2.299759     -2.159571
  S       5.173419      4.167009      0.112818
  O       3.752244      3.828714      0.390483
  H       3.061636      1.539997      0.893554
  H       1.718809      0.467483      2.694017
  H       0.063938     -1.319313      2.141289
  H       1.129387     -0.970416     -2.039252
  H      -0.235053     -2.033733     -0.234095
17
Coordinates from ORCA-job inp E -948.061324368046
  C       1.620801      0.154007      1.651386
  C       2.376993      0.749879      0.640864
  C       0.683978     -0.841751      1.352993
  C       2.187969      0.337090     -0.689505
  C       1.246026     -0.654352     -0.997653
  C       0.499197     -1.240163      0.026008
  C       3.889346      1.606119     -1.875603
  N       2.920804      0.888988     -1.747605
  O       6.080481      3.128799      0.713804
  O       4.817374      2.283871     -2.150436
  S       5.144568      4.132121      0.158931
  O       3.688537      3.872487      0.317558
  H       3.091646      1.546113      0.870540
  H       1.767270      0.476354      2.686027
  H       0.098141     -1.302650      2.152857
  H       1.114684     -0.956836     -2.039122
  H      -0.232316     -2.015176     -0.218142
17
Coordinates from ORCA-job inp E -948.061558464124
  C       1.658792      0.156522      1.645371
  C       2.410310      0.739244      0.624364
  C       0.704125     -0.826500      1.358157
  C       2.200335      0.330165     -0.701772
  C       1.242050     -0.648762     -0.999620
  C       0.498838     -1.223575      0.033574
  C       3.898279      1.598929     -1.886091
  N       2.925645      0.884849     -1.764370
  O       5.953533      3.053598      0.809075
  O       4.822026      2.275882     -2.158396
  S       5.117046      4.113829      0.201559
  O       3.642714      3.916178      0.252567
  H       3.135358      1.529032      0.837065
  H       1.820974      0.479149      2.677556
  H       0.119696     -1.277079      2.164724
  H       1.092932     -0.948811     -2.039417
  H      -0.247153     -1.987751     -0.201445
17
Coordinates from ORCA-job inp E -948.061843671468
  C       1.698555      0.164374      1.643829
  C       2.444420      0.740243      0.615243
  C       0.730592     -0.808381      1.365078
  C       2.216201      0.335957     -0.710458
  C       1.244792     -0.632990     -0.999032
  C       0.507098     -1.201570      0.041942
  C       3.914211      1.595423     -1.907047
  N       2.934140      0.889927     -1.781847
  O       5.780194      2.926923      0.878334
  O       4.844222      2.271071     -2.164975
  S       5.064363      4.063664      0.252773
  O       3.584465      3.952349      0.172502
  H       3.177381      1.524131      0.818550
  H       1.874718      0.484651      2.674550
  H       0.149502     -1.253478      2.177042
  H       1.080274     -0.929838     -2.037575
  H      -0.249628     -1.957558     -0.186007
17
Coordinates from ORCA-job inp E -948.061774657012
  C       1.717463      0.172729      1.647398
  C       2.452865      0.758878      0.617159
  C       0.754087     -0.804824      1.371123
  C       2.218802      0.354208     -0.712340
  C       1.249613     -0.619333     -0.997344
  C       0.523190     -1.195252      0.047107
  C       3.910485      1.611862     -1.932295
  N       2.928843      0.908867     -1.792820
  O       5.623765      2.808104      0.961833
  O       4.871223      2.253608     -2.206817
  S       5.050477      3.985383      0.255352
  O       3.580296      4.027207      0.112832
  H       3.183201      1.543903      0.831984
  H       1.899285      0.490285      2.679205
  H       0.181701     -1.257496      2.185811
  H       1.080182     -0.916197     -2.036482
  H      -0.229978     -1.957033     -0.178804
17
Coordinates from ORCA-job inp E -948.062111798925
  C       1.743202      0.163698      1.651723
  C       2.487114      0.739023      0.621446
  C       0.758839     -0.792128      1.373114
  C       2.241571      0.349664     -0.707057
  C       1.252564     -0.601758     -0.994844
  C       0.516808     -1.169302      0.048107
  C       3.947471      1.593501     -1.915120
  N       2.959394      0.900300     -1.781916
  O       5.518804      2.756640      0.920848
  O       4.882719      2.260132     -2.193370
  S       4.990766      3.989198      0.285096
  O       3.521702      4.038579      0.060369
  H       3.237647      1.504809      0.828051
  H       1.935383      0.470410      2.684041
  H       0.179859     -1.237795      2.186697
  H       1.074234     -0.887190     -2.034648
  H      -0.252578     -1.912884     -0.179635
17
Coordinates from ORCA-job inp E -948.061916095471
  C       1.695426      0.129838      1.662737
  C       2.459664      0.706864      0.647805
  C       0.711013     -0.819336      1.363490
  C       2.232851      0.327546     -0.683423
  C       1.245597     -0.618139     -0.993331
  C       0.489850     -1.188391      0.033242
  C       3.941343      1.588474     -1.878649
  N       2.969236      0.879084     -1.736872
  O       5.755299      2.956886      0.825092
  O       4.846079      2.275442     -2.190715
  S       5.058266      4.106061      0.201760
  O       3.572465      4.024577      0.118050
  H       3.220926      1.458612      0.867578
  H       1.873819      0.427708      2.699705
  H       0.117485     -1.267348      2.165126
  H       1.084508     -0.895966     -2.037436
  H      -0.278327     -1.927014     -0.211258
17
Coordinates from ORCA-job inp E -948.062228530443
  C       1.745768      0.133634      1.654158
  C       2.502517      0.696024      0.626451
  C       0.738623     -0.796421      1.369676
  C       2.244595      0.323627     -0.703578
  C       1.234560     -0.602882     -0.998078
  C       0.487247     -1.159921      0.042026
  C       3.958311      1.572025     -1.892249
  N       2.975279      0.867752     -1.768301
  O       5.586471      2.890555      0.922293
  O       4.887554      2.247611     -2.171968
  S       4.983682      4.072419      0.255404
  O       3.516232      4.059097      0.048301
  H       3.285264      1.430423      0.829003
  H       1.948674      0.426203      2.688773
  H       0.150774     -1.234929      2.180887
  H       1.048962     -0.876029     -2.040084
  H      -0.299014     -1.884288     -0.189814
17
Coordinates from ORCA-job inp E -948.062088841556
  C       1.750779      0.131550      1.665042
  C       2.509897      0.710526      0.647015
  C       0.748433     -0.800429      1.371575
  C       2.257846      0.343044     -0.690780
  C       1.250682     -0.587085     -0.990443
  C       0.501892     -1.154370      0.042071
  C       3.954685      1.583792     -1.921409
  N       2.979392      0.880409     -1.768416
  O       5.481960      2.793198      0.922771
  O       4.885810      2.251642     -2.208875
  S       4.982738      4.029203      0.263232
  O       3.529391      4.085092     -0.016618
  H       3.270800      1.460127      0.889493
  H       1.944925      0.419511      2.702560
  H       0.158877     -1.245232      2.177811
  H       1.068672     -0.856217     -2.034247
  H      -0.281280     -1.879862     -0.197879
17
Coordinates from ORCA-job inp E -948.062300001268
  C       1.760880      0.122694      1.661768
  C       2.523528      0.687145      0.639174
  C       0.742663     -0.792905      1.370731
  C       2.261230      0.327254     -0.694534
  C       1.239733     -0.585420     -0.994686
  C       0.486048     -1.142019      0.040737
  C       3.977663      1.570007     -1.885247
  N       2.996343      0.864642     -1.761257
  O       5.505819      2.842367      0.884267
  O       4.909789      2.235931     -2.176587
  S       4.944687      4.066546      0.258100
  O       3.480286      4.082701      0.010549
  H       3.308789      1.415613      0.857868
  H       1.966333      0.405140      2.698630
  H       0.149762     -1.230418      2.178697
  H       1.050739     -0.849152     -2.038524
  H      -0.308792     -1.855228     -0.196784
17
Coordinates from ORCA-job inp E -948.062150888794
  C       1.775481      0.111801      1.655455
  C       2.543058      0.658693      0.627004
  C       0.738317     -0.784853      1.371225
  C       2.265696      0.306189     -0.703874
  C       1.228275     -0.590093     -0.996986
  C       0.469816     -1.131872      0.043314
  C       3.973701      1.550422     -1.911862
  N       3.000056      0.836880     -1.772358
  O       5.516787      2.945467      1.008921
  O       4.881477      2.251482     -2.186880
  S       4.939220      4.094570      0.270962
  O       3.487668      4.052633     -0.028297
  H       3.351774      1.363223      0.830983
  H       1.993328      0.389978      2.690439
  H       0.141666     -1.210070      2.182749
  H       1.028230     -0.849474     -2.039169
  H      -0.339049     -1.830077     -0.188724
17
Coordinates from ORCA-job inp E -948.062352539563
  C       1.775552      0.109619      1.661630
  C       2.541739      0.667950      0.638220
  C       0.742876     -0.789869      1.371011
  C       2.267058      0.320039     -0.696057
  C       1.232178     -0.577656     -0.995461
  C       0.475706     -1.129097      0.040718
  C       3.984592      1.556232     -1.890453
  N       3.000802      0.855003     -1.763851
  O       5.487962      2.890958      0.934846
  O       4.913588      2.228102     -2.174468
  S       4.922402      4.086651      0.259926
  O       3.468725      4.067585     -0.032348
  H       3.340728      1.381076      0.856894
  H       1.990154      0.383327      2.698850
  H       0.147502     -1.222781      2.179564
  H       1.034064     -0.832538     -2.039619
  H      -0.330129     -1.829703     -0.196501
17
Coordinates from ORCA-job inp E -948.062373229276
  C       1.787610      0.099899      1.664605
  C       2.556937      0.656387      0.642501
  C       0.744568     -0.786716      1.371435
  C       2.275067      0.319526     -0.692988
  C       1.229920     -0.565403     -0.994960
  C       0.470284     -1.115022      0.039869
  C       3.998416      1.550248     -1.884766
  N       3.012716      0.851531     -1.759717
  O       5.458217      2.895903      0.928006
  O       4.932298      2.215819     -2.166552
  S       4.889125      4.091929      0.256471
  O       3.439336      4.061505     -0.057440
  H       3.363355      1.360245      0.864060
  H       2.007807      0.365042      2.702908
  H       0.146752     -1.218137      2.179004
  H       1.026597     -0.812143     -2.040103
  H      -0.343504     -1.805714     -0.199432
17
Coordinates from ORCA-job inp E -948.062409486042
  C       1.818181      0.063327      1.674886
  C       2.595141      0.622642      0.659780
  C       0.747693     -0.786080      1.371188
  C       2.291375      0.324379     -0.681862
  C       1.218395     -0.523276     -0.993437
  C       0.452470     -1.075170      0.035244
  C       4.039003      1.525173     -1.861921
  N       3.033069      0.856247     -1.745830
  O       5.407846      2.964380      0.924008
  O       4.992087      2.165917     -2.138010
  S       4.796169      4.123120      0.225397
  O       3.364958      4.004625     -0.150017
  H       3.423227      1.298526      0.896478
  H       2.054441      0.297148      2.717195
  H       0.144936     -1.219226      2.174177
  H       0.999112     -0.739937     -2.041999
  H      -0.382604     -1.736895     -0.212374
17
Coordinates from ORCA-job inp E -948.062449246932
  C       1.850138      0.040251      1.678628
  C       2.635914      0.590883      0.665410
  C       0.751224     -0.770480      1.371745
  C       2.314140      0.322825     -0.675883
  C       1.213462     -0.486866     -0.991515
  C       0.437168     -1.029617      0.034223
  C       4.071893      1.512486     -1.854766
  N       3.070102      0.837038     -1.737967
  O       5.362262      3.025583      0.940734
  O       5.031966      2.143316     -2.127768
  S       4.687321      4.129761      0.212642
  O       3.280439      3.902025     -0.205904
  H       3.484104      1.237332      0.906239
  H       2.101705      0.250794      2.722103
  H       0.141611     -1.196901      2.173108
  H       0.981672     -0.682198     -2.041319
  H      -0.419620     -1.661333     -0.216807
17
Coordinates from ORCA-job inp E -948.062453490769
  C       1.871442      0.041392      1.671731
  C       2.655351      0.578756      0.650836
  C       0.759865     -0.755727      1.373390
  C       2.319843      0.314545     -0.689013
  C       1.206834     -0.481243     -0.995373
  C       0.432241     -1.012667      0.038030
  C       4.086952      1.495254     -1.850653
  N       3.074686      0.828668     -1.753922
  O       5.321420      3.039090      0.976003
  O       5.049611      2.130689     -2.103700
  S       4.638635      4.131026      0.236370
  O       3.249965      3.870264     -0.219254
  H       3.515678      1.214840      0.874153
  H       2.134175      0.250024      2.712903
  H       0.150685     -1.173253      2.179709
  H       0.963032     -0.673498     -2.043122
  H      -0.434915     -1.633261     -0.205185
17
Coordinates from ORCA-job inp E -948.062457778628
  C       1.844413      0.050710      1.672592
  C       2.625722      0.597133      0.654199
  C       0.751583     -0.770764      1.371723
  C       2.306034      0.317696     -0.685060
  C       1.211226     -0.502334     -0.994371
  C       0.439399     -1.042741      0.036068
  C       4.061778      1.508830     -1.862477
  N       3.054457      0.838233     -1.748287
  O       5.384835      3.037224      0.977344
  O       5.014202      2.146125     -2.136942
  S       4.715573      4.135486      0.232928
  O       3.311106      3.909061     -0.186973
  H       3.469583      1.251858      0.884006
  H       2.094823      0.271687      2.714367
  H       0.144885     -1.195212      2.176353
  H       0.979207     -0.705948     -2.042774
  H      -0.413326     -1.682145     -0.209794
17
Coordinates from ORCA-job inp E -948.062471394044
  C       1.848804      0.045241      1.676126
  C       2.631711      0.593846      0.660013
  C       0.752243     -0.770111      1.372238
  C       2.309817      0.321125     -0.681568
  C       1.211228     -0.492993     -0.993278
  C       0.437849     -1.034608      0.035464
  C       4.069170      1.509145     -1.860228
  N       3.061625      0.839999     -1.744965
  O       5.371301      3.036367      0.965674
  O       5.027531      2.142354     -2.133604
  S       4.695893      4.132725      0.225889
  O       3.294121      3.894654     -0.202254
  H       3.478615      1.244118      0.894179
  H       2.100824      0.260181      2.718755
  H       0.144370     -1.195793      2.175361
  H       0.977982     -0.691816     -2.042294
  H      -0.417586     -1.669533     -0.212606
17
Coordinates from ORCA-job inp E -948.062472540927
  C       1.857775      0.042755      1.674415
  C       2.640904      0.588349      0.656845
  C       0.755623     -0.765795      1.372375
  C       2.313206      0.320166     -0.683400
  C       1.209183     -0.486925     -0.993885
  C       0.435776     -1.026155      0.036049
  C       4.076269      1.502539     -1.855459
  N       3.064953      0.838367     -1.745993
  O       5.351754      3.038350      0.967749
  O       5.037986      2.133258     -2.120839
  S       4.672252      4.133939      0.229711
  O       3.278156      3.884651     -0.213355
  H       3.492232      1.233841      0.888811
  H       2.114110      0.254443      2.716647
  H       0.147675     -1.189339      2.176558
  H       0.971712     -0.681946     -2.042658
  H      -0.424064     -1.655599     -0.210668
17
Coordinates from ORCA-job inp E -948.062474162491
  C       1.853642      0.046216      1.673761
  C       2.635932      0.591595      0.655547
  C       0.754415     -0.766573      1.372469
  C       2.311015      0.318983     -0.684689
  C       1.209859     -0.492376     -0.994148
  C       0.436944     -1.031278      0.036405
  C       4.071667      1.505188     -1.859041
  N       3.062841      0.836540     -1.748326
  O       5.361846      3.035942      0.971515
  O       5.030563      2.138791     -2.127250
  S       4.685411      4.133708      0.234089
  O       3.287807      3.891684     -0.203491
  H       3.484911      1.240220      0.885618
  H       2.108194      0.261389      2.715707
  H       0.146902     -1.190047      2.177005
  H       0.974181     -0.691028     -2.042633
  H      -0.420630     -1.664055     -0.209636
17
Coordinates from ORCA-job inp E -948.062474468059
  C       1.854133      0.044351      1.674690
  C       2.637007      0.590453      0.657263
  C       0.754238     -0.767153      1.372424
  C       2.311680      0.319726     -0.683468
  C       1.209792     -0.490371     -0.993797
  C       0.436494     -1.029928      0.036076
  C       4.072957      1.504681     -1.858482
  N       3.063404      0.837663     -1.746838
  O       5.360495      3.038610      0.970075
  O       5.032394      2.137130     -2.127721
  S       4.682384      4.134929      0.232075
  O       3.286355      3.889333     -0.208543
  H       3.486618      1.237968      0.889014
  H       2.108854      0.257930      2.716941
  H       0.146414     -1.191157      2.176457
  H       0.973879     -0.687538     -2.042527
  H      -0.421598     -1.661726     -0.210739
17
Coordinates from ORCA-job inp E -948.062474595443
  C       1.854361      0.044628      1.674508
  C       2.637179      0.590489      0.656904
  C       0.754360     -0.766815      1.372464
  C       2.311774      0.319585     -0.683653
  C       1.209807     -0.490456     -0.993839
  C       0.436503     -1.029774      0.036162
  C       4.073003      1.504684     -1.858459
  N       3.063728      0.837201     -1.746938
  O       5.359918      3.037481      0.969534
  O       5.032497      2.137170     -2.127533
  S       4.681524      4.135006      0.233595
  O       3.286008      3.889365     -0.208468
  H       3.486871      1.237946      0.888350
  H       2.109211      0.258350      2.716697
  H       0.146562     -1.190647      2.176609
  H       0.973856     -0.687780     -2.042530
  H      -0.421661     -1.661533     -0.210505
