21

C          0.01781        0.20228        0.20557
C          1.00594        1.13979       -0.05328
C          0.33814       -1.12399        0.49231
C          2.33426        0.71896        0.02059
C          2.68611       -0.60844        0.26870
C          1.67320       -1.52125        0.52260
H          0.76337        2.16851       -0.29439
C          3.45545        1.79970        0.04785
O         -1.65776        0.68668        0.14787
H         -0.45567       -1.84021        0.67580
H          3.73064       -0.90066        0.27188
H          1.91758       -2.55736        0.73374
N          3.53578        1.69595       -1.20188
O          4.95900        3.24877       -1.31362
O          3.93208        2.36693        1.04985
S          5.69586        3.36913       -0.00137
O          6.73098        2.35442        0.24157
C         -2.63192        0.00578        0.27933
H         -3.50733        0.61428        0.18826
H         -2.61704       -0.45550        1.24468
H         -2.64308       -0.75071       -0.47731
