21

C         -1.57298       -0.21839       -0.31200
C         -0.73090        0.87124       -0.46806
C         -1.04762       -1.43949        0.12815
C          0.64365        0.75011       -0.21940
C          1.16069       -0.47983        0.22911
C          0.32291       -1.55847        0.40375
O         -1.21323        2.18793       -0.93452
C          1.50558        1.85792       -0.39122
H         -2.62920       -0.10281       -0.52328
H         -1.71060       -2.43601        0.30312
H          2.22072       -0.56033        0.44430
H          0.70254       -2.51332        0.75202
N          1.87447        2.80786       -1.03603
O          2.68085        3.76195       -0.91753
O          2.70752        2.12780        1.23298
S          3.85127        3.07477        0.88902
O          5.01056        2.41581        0.25539
C         -2.39483        2.15066       -1.13224
H         -2.73049        3.10918       -1.46909
H         -2.90041        1.89439       -0.22471
H         -2.60840        1.41514       -1.87944
