21
Coordinates from ORCA-job mol E -1062.562893133009
  C      -1.572980     -0.218390     -0.312000
  C      -0.730900      0.871240     -0.468060
  C      -1.047620     -1.439490      0.128150
  C       0.643650      0.750110     -0.219400
  C       1.160690     -0.479830      0.229110
  C       0.322910     -1.558470      0.403750
  O      -1.213230      2.187930     -0.934520
  C       1.505580      1.857920     -0.391220
  H      -2.629200     -0.102810     -0.523280
  H      -1.710600     -2.436010      0.303120
  H       2.220720     -0.560330      0.444300
  H       0.702540     -2.513320      0.752020
  N       1.874470      2.807860     -1.036030
  O       2.680850      3.761950     -0.917530
  O       2.707520      2.127800      1.232980
  S       3.851270      3.074770      0.889020
  O       5.010560      2.415810      0.255390
  C      -2.394830      2.150660     -1.132240
  H      -2.730490      3.109180     -1.469090
  H      -2.900410      1.894390     -0.224710
  H      -2.608400      1.415140     -1.879440
21
Coordinates from ORCA-job mol E -1062.604585993599
  C      -1.571443     -0.251652     -0.301060
  C      -0.732943      0.842037     -0.457232
  C      -1.037687     -1.463079      0.143774
  C       0.642108      0.731062     -0.202936
  C       1.163794     -0.492547      0.250221
  C       0.329169     -1.576609      0.424672
  O      -1.196656      2.139516     -0.919117
  C       1.498056      1.844201     -0.372988
  H      -2.627817     -0.150805     -0.514194
  H      -1.678820     -2.414851      0.308100
  H       2.223643     -0.564149      0.469306
  H       0.714419     -2.527593      0.777034
  N       1.862206      2.795924     -1.016327
  O       2.665245      3.750650     -0.897640
  O       2.818562      1.947740      1.110880
  S       3.840884      3.059610      0.905864
  O       5.101859      2.612404      0.281989
  C      -2.438210      2.191201     -1.159199
  H      -2.696289      3.186799     -1.495904
  H      -3.020489      1.971244     -0.267734
  H      -2.717491      1.485007     -1.937188
21
Coordinates from ORCA-job mol E -1062.617096099902
  C      -1.568521     -0.267886     -0.258619
  C      -0.747797      0.842830     -0.392510
  C      -1.011878     -1.476350      0.159993
  C       0.629848      0.749794     -0.144181
  C       1.172561     -0.472594      0.283195
  C       0.355496     -1.574251      0.436895
  O      -1.220836      2.138181     -0.824866
  C       1.466851      1.880544     -0.291251
  H      -2.626590     -0.185122     -0.466942
  H      -1.624670     -2.413686      0.300427
  H       2.233821     -0.529449      0.500076
  H       0.757597     -2.525171      0.769932
  N       1.804681      2.860053     -0.905881
  O       2.600394      3.817442     -0.769654
  O       2.855613      1.946760      1.147999
  S       3.935266      2.975592      0.834703
  O       5.057340      2.445729      0.035160
  C      -2.450266      2.201507     -1.226815
  H      -2.679851      3.224691     -1.522905
  H      -3.160406      1.919952     -0.438547
  H      -2.636555      1.557543     -2.095888
21
Coordinates from ORCA-job mol E -1062.614784083421
  C      -1.543012     -0.323472     -0.279318
  C      -0.734007      0.796574     -0.425128
  C      -0.970085     -1.519840      0.151467
  C       0.640861      0.721160     -0.164352
  C       1.197817     -0.488428      0.277469
  C       0.395366     -1.598129      0.438991
  O      -1.207641      2.110345     -0.914019
  C       1.465948      1.860181     -0.313762
  H      -2.600695     -0.257340     -0.478342
  H      -1.549888     -2.444522      0.300805
  H       2.256849     -0.527491      0.511109
  H       0.803849     -2.539549      0.790776
  N       1.808826      2.829680     -0.940648
  O       2.592079      3.796739     -0.810095
  O       2.750402      2.106673      1.266146
  S       3.906255      2.999384      0.834571
  O       4.951953      2.300738      0.061807
  C      -2.457652      2.272330     -1.218033
  H      -2.630240      3.305344     -1.549469
  H      -3.139571      2.095758     -0.359910
  H      -2.795314      1.619977     -2.049745
21
Coordinates from ORCA-job mol E -1062.616177183996
  C      -1.532951     -0.313276     -0.276339
  C      -0.725509      0.801509     -0.432861
  C      -0.948576     -1.507451      0.140696
  C       0.647609      0.745815     -0.173882
  C       1.215105     -0.459332      0.264359
  C       0.420027     -1.576919      0.421415
  O      -1.197689      2.081529     -0.984878
  C       1.461714      1.895286     -0.300246
  H      -2.600597     -0.239940     -0.433887
  H      -1.521527     -2.433888      0.292632
  H       2.269431     -0.482616      0.521927
  H       0.833241     -2.513695      0.779856
  N       1.842336      2.852986     -0.921106
  O       2.615022      3.821592     -0.762314
  O       2.705052      2.120258      1.291763
  S       3.906059      2.932892      0.841128
  O       4.876847      2.159783      0.042248
  C      -2.470178      2.250798     -1.229173
  H      -2.648818      3.272260     -1.600545
  H      -3.121940      2.129109     -0.331947
  H      -2.882559      1.579408     -2.018529
21
Coordinates from ORCA-job mol E -1062.618956597058
  C      -1.561000     -0.310030     -0.260932
  C      -0.743289      0.788100     -0.465206
  C      -0.970996     -1.504602      0.144588
  C       0.630004      0.741762     -0.212388
  C       1.201032     -0.464220      0.221896
  C       0.405166     -1.582074      0.384615
  O      -1.203133      2.027037     -1.067822
  C       1.438594      1.897553     -0.316054
  H      -2.634816     -0.216236     -0.347503
  H      -1.541358     -2.416023      0.307024
  H       2.250920     -0.479766      0.496593
  H       0.821536     -2.519166      0.738401
  N       1.853729      2.848725     -0.923262
  O       2.638442      3.809749     -0.757348
  O       2.844471      2.157024      1.419810
  S       3.991226      2.989753      0.880888
  O       4.963813      2.204819      0.094921
  C      -2.492868      2.219833     -1.248497
  H      -2.670082      3.239673     -1.626640
  H      -3.107200      2.124643     -0.321748
  H      -2.972093      1.559557     -2.011016
21
Coordinates from ORCA-job mol E -1062.630552755360
  C      -1.568310     -0.263885     -0.243063
  C      -0.734821      0.816151     -0.486474
  C      -0.992859     -1.464331      0.160003
  C       0.649062      0.745364     -0.261115
  C       1.203453     -0.470774      0.170368
  C       0.386784     -1.573653      0.352654
  O      -1.168510      1.990625     -1.040648
  C       1.467021      1.890786     -0.363329
  H      -2.644961     -0.149799     -0.291439
  H      -1.591829     -2.332746      0.329281
  H       2.257826     -0.501583      0.422743
  H       0.801565     -2.517868      0.688601
  N       1.923100      2.825399     -0.963757
  O       2.709631      3.785685     -0.823198
  O       2.761222      2.190268      1.387896
  S       3.944078      3.016744      0.935162
  O       4.990078      2.239934      0.240820
  C      -2.503334      2.162348     -1.220237
  H      -2.683355      3.188057     -1.568818
  H      -3.109516      2.033707     -0.300629
  H      -2.954221      1.505682     -1.994499
21
Coordinates from ORCA-job mol E -1062.634672775937
  C      -1.570230     -0.280037     -0.234133
  C      -0.737549      0.790051     -0.551923
  C      -0.994888     -1.475579      0.187717
  C       0.657550      0.698099     -0.353444
  C       1.209282     -0.514501      0.093793
  C       0.387944     -1.604907      0.320819
  O      -1.163448      1.951386     -1.092922
  C       1.479229      1.834253     -0.473447
  H      -2.645531     -0.158907     -0.235369
  H      -1.629174     -2.344534      0.398118
  H       2.270929     -0.550233      0.314156
  H       0.809690     -2.550078      0.645497
  N       2.008037      2.722488     -1.075665
  O       2.787877      3.687977     -0.971135
  O       2.671749      2.329923      1.449041
  S       3.862028      3.145752      1.018192
  O       5.003796      2.351375      0.522837
  C      -2.520393      2.197270     -1.179941
  H      -2.653721      3.233419     -1.505670
  H      -3.053864      2.086686     -0.222403
  H      -3.037216      1.566207     -1.923797
21
Coordinates from ORCA-job mol E -1062.637707315362
  C      -1.574579     -0.285202     -0.238064
  C      -0.731855      0.778129     -0.563727
  C      -1.020444     -1.488705      0.187702
  C       0.669064      0.638643     -0.403882
  C       1.199141     -0.583254      0.041033
  C       0.358497     -1.651095      0.302135
  O      -1.144372      1.961606     -1.044789
  C       1.516009      1.751820     -0.562024
  H      -2.650345     -0.160972     -0.259900
  H      -1.672367     -2.318524      0.411445
  H       2.268954     -0.651323      0.207189
  H       0.769381     -2.604626      0.616241
  N       2.091936      2.588866     -1.188685
  O       2.873272      3.553555     -1.131895
  O       2.594838      2.481606      1.473222
  S       3.768031      3.325604      1.048609
  O       5.010413      2.576938      0.772865
  C      -2.514413      2.227867     -1.113694
  H      -2.622030      3.273804     -1.408784
  H      -3.023160      2.093736     -0.148865
  H      -3.023874      1.607637     -1.865812
21
Coordinates from ORCA-job mol E -1062.638312456718
  C      -1.576738     -0.274645     -0.211179
  C      -0.727722      0.791967     -0.511367
  C      -1.037228     -1.492925      0.190084
  C       0.674374      0.621032     -0.384616
  C       1.191252     -0.615186      0.032046
  C       0.339672     -1.674115      0.295252
  O      -1.131040      2.002372     -0.923454
  C       1.535059      1.723761     -0.557128
  H      -2.651613     -0.151045     -0.255332
  H      -1.713108     -2.325944      0.408477
  H       2.264328     -0.707822      0.159584
  H       0.743242     -2.635882      0.593166
  N       2.087840      2.563151     -1.202903
  O       2.869864      3.527629     -1.166793
  O       2.605402      2.482084      1.450792
  S       3.743024      3.382580      1.033923
  O       5.028745      2.700702      0.786655
  C      -2.502817      2.235960     -1.110528
  H      -2.604802      3.289144     -1.376573
  H      -3.084167      2.053315     -0.196832
  H      -2.911465      1.619977     -1.922953
21
Coordinates from ORCA-job mol E -1062.636910490817
  C      -1.576914     -0.267249     -0.188469
  C      -0.724677      0.800544     -0.471109
  C      -1.040788     -1.492084      0.195797
  C       0.676645      0.624902     -0.353011
  C       1.190091     -0.616877      0.048560
  C       0.335951     -1.677436      0.297554
  O      -1.126999      2.026378     -0.833117
  C       1.540695      1.727156     -0.524679
  H      -2.651508     -0.140328     -0.231631
  H      -1.708057     -2.318401      0.398302
  H       2.263395     -0.716136      0.168958
  H       0.736865     -2.643255      0.585663
  N       2.026582      2.601721     -1.182385
  O       2.802407      3.573024     -1.126878
  O       2.634795      2.382564      1.412466
  S       3.732725      3.347424      1.012149
  O       5.034520      2.725216      0.701087
  C      -2.479121      2.235388     -1.131373
  H      -2.580059      3.287656     -1.402970
  H      -3.133936      2.042584     -0.269809
  H      -2.810510      1.613318     -1.974784
21
Coordinates from ORCA-job mol E -1062.635242797727
  C      -1.568812     -0.256112     -0.150850
  C      -0.712793      0.809046     -0.428761
  C      -1.035957     -1.489451      0.210983
  C       0.688940      0.623103     -0.336321
  C       1.199301     -0.626042      0.044914
  C       0.341387     -1.684052      0.291259
  O      -1.116660      2.047191     -0.755161
  C       1.559389      1.721540     -0.506142
  H      -2.642946     -0.118415     -0.171103
  H      -1.708310     -2.322487      0.410932
  H       2.273290     -0.733766      0.151826
  H       0.739293     -2.656522      0.560639
  N       1.977428      2.632207     -1.170217
  O       2.741427      3.616076     -1.080227
  O       2.596940      2.288979      1.332829
  S       3.671042      3.311715      0.996507
  O       4.988820      2.741702      0.654759
  C      -2.442373      2.244839     -1.147683
  H      -2.528417      3.288882     -1.455342
  H      -3.158160      2.078393     -0.329397
  H      -2.720729      1.599286     -1.993123
21
Coordinates from ORCA-job mol E -1062.634171911961
  C      -1.561338     -0.242233     -0.127759
  C      -0.709301      0.826847     -0.397227
  C      -1.022241     -1.475638      0.223746
  C       0.692594      0.651080     -0.303717
  C       1.209424     -0.598960      0.066264
  C       0.356548     -1.663509      0.301988
  O      -1.126792      2.063236     -0.713797
  C       1.559353      1.756140     -0.458610
  H      -2.636008     -0.103518     -0.137514
  H      -1.684692     -2.310647      0.417415
  H       2.283635     -0.701544      0.176559
  H       0.758422     -2.637384      0.560328
  N       1.893389      2.720814     -1.103547
  O       2.652028      3.707266     -0.944206
  O       2.615625      2.120686      1.241648
  S       3.674087      3.190876      0.980181
  O       4.971254      2.668124      0.508102
  C      -2.426662      2.232712     -1.186895
  H      -2.504916      3.260879     -1.548000
  H      -3.192135      2.100421     -0.406857
  H      -2.660174      1.550462     -2.017782
21
Coordinates from ORCA-job mol E -1062.635066820726
  C      -1.554440     -0.243565     -0.146994
  C      -0.709900      0.837087     -0.392855
  C      -1.010845     -1.472663      0.212128
  C       0.691278      0.673305     -0.272835
  C       1.213195     -0.573515      0.100497
  C       0.367408     -1.646508      0.323595
  O      -1.138999      2.074991     -0.715696
  C       1.553132      1.784690     -0.421274
  H      -2.630237     -0.120292     -0.196192
  H      -1.672384     -2.312092      0.396577
  H       2.287238     -0.668149      0.220385
  H       0.774833     -2.616444      0.587848
  N       1.882640      2.755505     -1.063691
  O       2.650616      3.735295     -0.897407
  O       2.615098      2.071858      1.173456
  S       3.700086      3.128668      0.966106
  O       4.972195      2.598062      0.437846
  C      -2.446118      2.228502     -1.192974
  H      -2.527255      3.250892     -1.568965
  H      -3.205210      2.099690     -0.406565
  H      -2.670230      1.530793     -2.012669
21
Coordinates from ORCA-job mol E -1062.635857061556
  C      -1.564851     -0.257644     -0.198726
  C      -0.727724      0.833661     -0.418511
  C      -1.016350     -1.478018      0.181339
  C       0.670459      0.687808     -0.261343
  C       1.198224     -0.552173      0.124754
  C       0.359262     -1.631873      0.343260
  O      -1.156505      2.062786     -0.767287
  C       1.524908      1.803865     -0.416497
  H      -2.637611     -0.161373     -0.321408
  H      -1.673454     -2.315984      0.365574
  H       2.272219     -0.638361      0.251414
  H       0.771918     -2.594763      0.624249
  N       1.916492      2.737379     -1.069161
  O       2.703742      3.700976     -0.952262
  O       2.702295      2.149065      1.295231
  S       3.796496      3.155633      0.961347
  O       5.040605      2.558629      0.436921
  C      -2.491278      2.215632     -1.175230
  H      -2.593824      3.246319     -1.522755
  H      -3.203615      2.059857     -0.350335
  H      -2.749310      1.534688     -2.000254
21
Coordinates from ORCA-job mol E -1062.636541363048
  C      -1.552254     -0.275719     -0.280486
  C      -0.743498      0.847115     -0.448147
  C      -0.985770     -1.474425      0.141184
  C       0.644839      0.750230     -0.200229
  C       1.192433     -0.470222      0.217869
  C       0.379719     -1.576792      0.398362
  O      -1.185170      2.058249     -0.842050
  C       1.475618      1.886372     -0.333803
  H      -2.611768     -0.228353     -0.501122
  H      -1.631827     -2.334644      0.297266
  H       2.260441     -0.518667      0.401931
  H       0.808226     -2.520558      0.717413
  N       1.877715      2.829246     -0.964009
  O       2.703359      3.759753     -0.845352
  O       2.790486      2.068098      1.289622
  S       3.928617      3.005890      0.908994
  O       5.056996      2.347182      0.221204
  C      -2.550004      2.196234     -1.188413
  H      -2.667508      3.219363     -1.550658
  H      -3.209302      2.047927     -0.321152
  H      -2.839251      1.499831     -1.988105
21
Coordinates from ORCA-job mol E -1062.636606902290
  C      -1.544503     -0.277910     -0.289792
  C      -0.738719      0.849342     -0.444848
  C      -0.978479     -1.476514      0.133171
  C       0.648182      0.754021     -0.184191
  C       1.195288     -0.465350      0.237480
  C       0.384283     -1.575490      0.404040
  O      -1.180838      2.062329     -0.838878
  C       1.479714      1.890630     -0.316441
  H      -2.603815     -0.231417     -0.512385
  H      -1.620830     -2.338605      0.272370
  H       2.260695     -0.509435      0.435957
  H       0.812118     -2.517641      0.728873
  N       1.857621      2.846004     -0.946830
  O       2.694033      3.770599     -0.825301
  O       2.770435      2.059895      1.263255
  S       3.924413      2.985197      0.889087
  O       5.031310      2.314250      0.178586
  C      -2.547685      2.200054     -1.189457
  H      -2.660040      3.218786     -1.564617
  H      -3.205105      2.063068     -0.319572
  H      -2.835976      1.494297     -1.980186
21
Coordinates from ORCA-job mol E -1062.636578423320
  C      -1.533026     -0.282094     -0.303568
  C      -0.721735      0.841300     -0.462892
  C      -0.973825     -1.482573      0.124775
  C       0.664434      0.739119     -0.190316
  C       1.203062     -0.478348      0.247883
  C       0.387524     -1.587553      0.397792
  O      -1.151060      2.053257     -0.870794
  C       1.501281      1.870055     -0.329636
  H      -2.599247     -0.220829     -0.484610
  H      -1.616697     -2.352847      0.237631
  H       2.261542     -0.518055      0.479904
  H       0.807151     -2.527488      0.739714
  N       1.841792      2.844618     -0.954718
  O       2.686914      3.766718     -0.843266
  O       2.691676      2.086055      1.214451
  S       3.868838      2.999348      0.882515
  O       4.985377      2.314126      0.201711
  C      -2.526132      2.215050     -1.174566
  H      -2.630998      3.230926     -1.557465
  H      -3.150337      2.098933     -0.279043
  H      -2.854435      1.506391     -1.945182
21
Coordinates from ORCA-job mol E -1062.636794303588
  C      -1.541714     -0.287501     -0.318971
  C      -0.736686      0.841258     -0.471007
  C      -0.979467     -1.482164      0.121040
  C       0.646872      0.749547     -0.183156
  C       1.189060     -0.463495      0.262309
  C       0.378894     -1.576821      0.411891
  O      -1.169022      2.047783     -0.889351
  C       1.476982      1.886716     -0.311478
  H      -2.603933     -0.238407     -0.526182
  H      -1.618318     -2.351143      0.235854
  H       2.247017     -0.497460      0.498297
  H       0.802124     -2.513703      0.757592
  N       1.839174      2.856068     -0.928534
  O       2.680094      3.778284     -0.815089
  O       2.798222      2.046496      1.255144
  S       3.938708      2.985547      0.878721
  O       5.042095      2.329999      0.148779
  C      -2.547736      2.204463     -1.186047
  H      -2.659195      3.224450     -1.555875
  H      -3.167073      2.073213     -0.289236
  H      -2.873997      1.502979     -1.964382
21
Coordinates from ORCA-job mol E -1062.636842713771
  C      -1.537338     -0.281591     -0.305651
  C      -0.731405      0.846117     -0.458608
  C      -0.975852     -1.479366      0.126606
  C       0.654526      0.748098     -0.185344
  C       1.196584     -0.467898      0.251084
  C       0.383779     -1.578268      0.409487
  O      -1.165196      2.056320     -0.867572
  C       1.487301      1.883469     -0.320441
  H      -2.599308     -0.231718     -0.514369
  H      -1.619684     -2.345404      0.250124
  H       2.257943     -0.507607      0.470261
  H       0.807680     -2.517163      0.748735
  N       1.841180      2.852766     -0.943743
  O       2.679976      3.776337     -0.826732
  O       2.755879      2.050851      1.243995
  S       3.909490      2.982600      0.883758
  O       5.020036      2.318644      0.172595
  C      -2.543832      2.207082     -1.184896
  H      -2.652121      3.226963     -1.556121
  H      -3.173707      2.073248     -0.295629
  H      -2.853832      1.502632     -1.967219
21
Coordinates from ORCA-job mol E -1062.636817893160
  C      -1.543206     -0.276901     -0.283879
  C      -0.729191      0.843707     -0.445935
  C      -0.987108     -1.481206      0.137023
  C       0.660258      0.731089     -0.195606
  C       1.196535     -0.491266      0.229300
  C       0.375777     -1.594308      0.398006
  O      -1.160088      2.061447     -0.833228
  C       1.500171      1.861596     -0.334017
  H      -2.607072     -0.217780     -0.480143
  H      -1.638027     -2.339580      0.272018
  H       2.261224     -0.543036      0.429244
  H       0.796221     -2.538229      0.727496
  N       1.852286      2.826991     -0.967368
  O       2.675438      3.766086     -0.849810
  O       2.742995      2.081331      1.238153
  S       3.891120      3.028002      0.897080
  O       5.026201      2.373630      0.216416
  C      -2.533285      2.211011     -1.184462
  H      -2.636057      3.236757     -1.540183
  H      -3.185172      2.059848     -0.314396
  H      -2.816921      1.516921     -1.985390
21
Coordinates from ORCA-job mol E -1062.636872211314
  C      -1.540125     -0.276679     -0.288534
  C      -0.728921      0.845637     -0.452853
  C      -0.981158     -1.478000      0.137375
  C       0.660407      0.737733     -0.199047
  C       1.199441     -0.481493      0.231733
  C       0.381576     -1.586459      0.401363
  O      -1.161825      2.060685     -0.847907
  C       1.497373      1.869313     -0.338203
  H      -2.604200     -0.220711     -0.484659
  H      -1.629227     -2.339016      0.271451
  H       2.263452     -0.528716      0.436692
  H       0.803741     -2.528061      0.735251
  N       1.852292      2.834992     -0.966906
  O       2.677169      3.769927     -0.846411
  O       2.738334      2.064735      1.244492
  S       3.888446      3.005538      0.897855
  O       5.019260      2.347766      0.213416
  C      -2.538068      2.209732     -1.184640
  H      -2.645034      3.235154     -1.540198
  H      -3.180672      2.058787     -0.307614
  H      -2.830162      1.515244     -1.982335
21
Coordinates from ORCA-job mol E -1062.636172407181
  C      -1.537325     -0.297350     -0.354886
  C      -0.738350      0.840649     -0.465902
  C      -0.981436     -1.491645      0.093297
  C       0.634082      0.757244     -0.128794
  C       1.169092     -0.452672      0.330450
  C       0.363816     -1.575196      0.438698
  O      -1.157759      2.040122     -0.909791
  C       1.463693      1.903210     -0.229638
  H      -2.595988     -0.251357     -0.580607
  H      -1.613838     -2.371275      0.161000
  H       2.214171     -0.474639      0.617462
  H       0.780942     -2.508398      0.801401
  N       1.771609      2.908927     -0.831054
  O       2.633777      3.823063     -0.708739
  O       2.891057      1.998634      1.208535
  S       4.018501      2.956664      0.809498
  O       5.043046      2.327429     -0.048147
  C      -2.544557      2.199581     -1.206412
  H      -2.648675      3.218460     -1.580243
  H      -3.154321      2.069209     -0.303778
  H      -2.869437      1.495450     -1.982033
21
Coordinates from ORCA-job mol E -1062.636648942042
  C      -1.515321     -0.296842     -0.355600
  C      -0.720847      0.841679     -0.488786
  C      -0.953428     -1.483946      0.105603
  C       0.653777      0.765735     -0.155983
  C       1.196622     -0.438264      0.310576
  C       0.394983     -1.560786      0.441001
  O      -1.146135      2.039722     -0.949753
  C       1.476058      1.911841     -0.275559
  H      -2.573306     -0.260557     -0.585054
  H      -1.585095     -2.361487      0.197428
  H       2.245977     -0.456275      0.582176
  H       0.818189     -2.489140      0.808908
  N       1.795597      2.908070     -0.878211
  O       2.654504      3.815890     -0.763081
  O       2.733700      2.007880      1.195627
  S       3.920928      2.902155      0.839268
  O       4.964300      2.220888      0.047477
  C      -2.544504      2.213864     -1.186434
  H      -2.653411      3.237699     -1.544785
  H      -3.114838      2.078058     -0.259198
  H      -2.905649      1.519925     -1.955301
21
Coordinates from ORCA-job mol E -1062.636429391459
  C      -1.510069     -0.314308     -0.401132
  C      -0.706804      0.816197     -0.535706
  C      -0.967950     -1.495188      0.097274
  C       0.654808      0.745151     -0.157077
  C       1.183577     -0.456889      0.326765
  C       0.372362     -1.572722      0.462501
  O      -1.115268      2.005355     -1.037029
  C       1.482609      1.893141     -0.278881
  H      -2.554309     -0.287047     -0.690664
  H      -1.614472     -2.358253      0.218487
  H       2.233120     -0.484540      0.595638
  H       0.785635     -2.498331      0.848185
  N       1.759834      2.901590     -0.889090
  O       2.622142      3.809016     -0.783297
  O       2.756733      2.014336      1.203654
  S       3.913003      2.957083      0.838701
  O       4.987012      2.303674      0.064352
  C      -2.527001      2.227894     -1.159880
  H      -2.624608      3.257496     -1.505851
  H      -3.018747      2.103259     -0.186457
  H      -2.969504      1.549196     -1.900171
21
Coordinates from ORCA-job mol E -1062.636562491163
  C      -1.522617     -0.297011     -0.357619
  C      -0.716868      0.831731     -0.498903
  C      -0.971965     -1.488268      0.105216
  C       0.658248      0.742741     -0.174898
  C       1.191761     -0.467233      0.284727
  C       0.378208     -1.579663      0.429703
  O      -1.137457      2.036658     -0.947032
  C       1.492207      1.882005     -0.308532
  H      -2.578779     -0.254497     -0.597615
  H      -1.616889     -2.351457      0.221788
  H       2.247278     -0.502063      0.529359
  H       0.795139     -2.512142      0.794305
  N       1.800954      2.871312     -0.930361
  O       2.655442      3.784083     -0.816806
  O       2.753105      2.048062      1.246615
  S       3.905351      2.983301      0.864617
  O       5.001537      2.312663      0.137371
  C      -2.538931      2.219342     -1.166304
  H      -2.640743      3.234238     -1.552662
  H      -3.094669      2.117723     -0.224624
  H      -2.918213      1.504587     -1.908027
21
Coordinates from ORCA-job mol E -1062.636885214032
  C      -1.526523     -0.289916     -0.338173
  C      -0.721128      0.839047     -0.484789
  C      -0.971440     -1.482771      0.116214
  C       0.657471      0.748583     -0.172797
  C       1.193940     -0.462454      0.281819
  C       0.381832     -1.575466      0.427920
  O      -1.142698      2.039956     -0.929602
  C       1.487638      1.889726     -0.292985
  H      -2.584669     -0.245743     -0.565374
  H      -1.617409     -2.350665      0.234813
  H       2.249730     -0.496016      0.526921
  H       0.801725     -2.509779      0.784365
  N       1.810730      2.879746     -0.905867
  O       2.649540      3.805299     -0.780484
  O       2.752759      2.016168      1.197514
  S       3.912763      2.956227      0.867731
  O       5.003392      2.311874      0.109320
  C      -2.539022      2.212093     -1.183468
  H      -2.642935      3.231234     -1.555941
  H      -3.120800      2.091535     -0.261533
  H      -2.892796      1.507432     -1.945284
21
Coordinates from ORCA-job mol E -1062.636412081996
  C      -1.543460     -0.271560     -0.261130
  C      -0.725135      0.839335     -0.463020
  C      -0.981930     -1.473902      0.158598
  C       0.669603      0.725094     -0.240310
  C       1.208705     -0.494122      0.192397
  C       0.387181     -1.592671      0.383359
  O      -1.154604      2.049893     -0.882556
  C       1.503566      1.859630     -0.360686
  H      -2.614407     -0.202637     -0.410433
  H      -1.627809     -2.331155      0.312482
  H       2.272627     -0.541954      0.396904
  H       0.809252     -2.538047      0.706621
  N       1.860955      2.831944     -0.975839
  O       2.647155      3.791040     -0.810474
  O       2.737991      2.061269      1.298023
  S       3.872492      3.009651      0.922817
  O       5.000080      2.355519      0.229235
  C      -2.529098      2.210972     -1.199192
  H      -2.634014      3.230746     -1.573165
  H      -3.167431      2.089038     -0.313491
  H      -2.849616      1.508027     -1.979819
21
Coordinates from ORCA-job mol E -1062.636934582180
  C      -1.533498     -0.282326     -0.310900
  C      -0.720249      0.838181     -0.475951
  C      -0.979460     -1.480730      0.129576
  C       0.665438      0.733432     -0.200848
  C       1.199530     -0.482895      0.243203
  C       0.380060     -1.587425      0.409267
  O      -1.144329      2.046504     -0.901349
  C       1.502388      1.867110     -0.333219
  H      -2.596083     -0.227659     -0.515303
  H      -1.628361     -2.340728      0.261913
  H       2.260114     -0.527434      0.465200
  H       0.798583     -2.526824      0.753767
  N       1.842527      2.841963     -0.959560
  O       2.661523      3.782549     -0.829724
  O       2.728089      2.060556      1.233602
  S       3.881883      3.003725      0.897114
  O       5.006500      2.347946      0.200603
  C      -2.534544      2.214299     -1.176939
  H      -2.639228      3.236750     -1.541275
  H      -3.135333      2.084340     -0.267715
  H      -2.873450      1.514776     -1.951141
21
Coordinates from ORCA-job mol E -1062.636943183096
  C      -1.534947     -0.284206     -0.316377
  C      -0.720392      0.835137     -0.482097
  C      -0.982923     -1.481595      0.129443
  C       0.664672      0.730395     -0.204112
  C       1.196838     -0.485115      0.244559
  C       0.375977     -1.588309      0.412586
  O      -1.143166      2.042542     -0.911896
  C       1.502899      1.862436     -0.340007
  H      -2.596587     -0.229901     -0.525807
  H      -1.632583     -2.341947      0.261816
  H       2.257058     -0.530476      0.468237
  H       0.792836     -2.526928      0.761216
  N       1.847804      2.832985     -0.969108
  O       2.664340      3.775283     -0.846367
  O       2.736514      2.069316      1.240690
  S       3.884608      3.016708      0.899799
  O       5.017914      2.363431      0.215123
  C      -2.535302      2.214819     -1.172546
  H      -2.644283      3.245138     -1.512839
  H      -3.129134      2.063584     -0.262041
  H      -2.880045      1.532812     -1.959954
21
Coordinates from ORCA-job mol E -1062.636959499035
  C      -1.535648     -0.286324     -0.322395
  C      -0.720842      0.832755     -0.489932
  C      -0.984819     -1.481588      0.130693
  C       0.663924      0.728438     -0.209645
  C       1.194511     -0.484517      0.248002
  C       0.373184     -1.586899      0.418650
  O      -1.142280      2.037783     -0.924789
  C       1.502585      1.858799     -0.348639
  H      -2.596782     -0.232773     -0.534164
  H      -1.633620     -2.342054      0.260739
  H       2.253698     -0.528238      0.477322
  H       0.788595     -2.523258      0.775022
  N       1.851774      2.827292     -0.976338
  O       2.664999      3.771252     -0.859077
  O       2.744766      2.067970      1.243130
  S       3.886274      3.020675      0.901337
  O       5.027996      2.374909      0.223649
  C      -2.536741      2.215089     -1.169863
  H      -2.650443      3.255952     -1.474168
  H      -3.124144      2.031583     -0.261480
  H      -2.884890      1.559267     -1.977734
21
Coordinates from ORCA-job mol E -1062.636965606506
  C      -1.535017     -0.286283     -0.321829
  C      -0.720996      0.833734     -0.487525
  C      -0.983918     -1.481664      0.130584
  C       0.663620      0.729598     -0.206464
  C       1.194599     -0.483408      0.250427
  C       0.373874     -1.586493      0.419551
  O      -1.142886      2.039524     -0.921137
  C       1.502237      1.860358     -0.344636
  H      -2.596085     -0.233144     -0.534180
  H      -1.633006     -2.342942      0.259254
  H       2.253714     -0.526527      0.480054
  H       0.789657     -2.522812      0.775574
  N       1.847633      2.831690     -0.970649
  O       2.662543      3.774717     -0.851640
  O       2.746678      2.063863      1.240119
  S       3.889135      3.015864      0.897880
  O       5.026095      2.370058      0.212264
  C      -2.537221      2.215065     -1.172315
  H      -2.650294      3.255497     -1.478333
  H      -3.127721      2.031898     -0.265897
  H      -2.880541      1.557517     -1.980783
21
Coordinates from ORCA-job mol E -1062.636971137737
  C      -1.534966     -0.285446     -0.320050
  C      -0.720837      0.834546     -0.485401
  C      -0.983910     -1.481365      0.130933
  C       0.663992      0.729613     -0.205722
  C       1.194920     -0.483873      0.249906
  C       0.374027     -1.586856      0.418922
  O      -1.142890      2.040986     -0.916686
  C       1.503071      1.860107     -0.344100
  H      -2.596201     -0.231793     -0.531517
  H      -1.633223     -2.342206      0.259505
  H       2.254244     -0.527407      0.478452
  H       0.789827     -2.523519      0.774007
  N       1.846740      2.832559     -0.969630
  O       2.661744      3.775684     -0.849352
  O       2.745494      2.062980      1.238337
  S       3.888321      3.015199      0.897200
  O       5.024591      2.369630      0.210216
  C      -2.536843      2.214783     -1.173201
  H      -2.649557      3.254624     -1.481299
  H      -3.130269      2.032607     -0.268498
  H      -2.876177      1.555256     -1.981703
21
Coordinates from ORCA-job mol E -1062.636975445101
  C      -1.535147     -0.285042     -0.318818
  C      -0.720841      0.834850     -0.484093
  C      -0.984225     -1.481283      0.131454
  C       0.664170      0.729245     -0.205566
  C       1.194945     -0.484521      0.249492
  C       0.373828     -1.587299      0.418725
  O      -1.142975      2.041919     -0.913770
  C       1.503680      1.859375     -0.344389
  H      -2.596471     -0.231002     -0.529735
  H      -1.633820     -2.342056      0.259959
  H       2.254417     -0.528424      0.477279
  H       0.789531     -2.524168      0.773375
  N       1.846452      2.832434     -0.969543
  O       2.661031      3.775978     -0.848742
  O       2.745853      2.062925      1.237930
  S       3.888151      3.015839      0.896874
  O       5.024551      2.370944      0.209471
  C      -2.536605      2.214768     -1.173817
  H      -2.649315      3.254905     -1.480886
  H      -3.132250      2.031010     -0.270902
  H      -2.872862      1.555714     -1.983980
21
Coordinates from ORCA-job mol E -1062.636978714871
  C      -1.535402     -0.284683     -0.317747
  C      -0.720905      0.835080     -0.483023
  C      -0.984599     -1.481201      0.131919
  C       0.664283      0.728869     -0.205574
  C       1.194904     -0.485140      0.249035
  C       0.373560     -1.587699      0.418529
  O      -1.143051      2.042607     -0.911321
  C       1.504170      1.858634     -0.344874
  H      -2.596815     -0.230287     -0.528119
  H      -1.634367     -2.341819      0.260381
  H       2.254506     -0.529394      0.476158
  H       0.789147     -2.524743      0.772849
  N       1.846344      2.832146     -0.969635
  O       2.660425      3.776111     -0.848550
  O       2.746467      2.062823      1.237745
  S       3.888008      3.016613      0.896761
  O       5.024881      2.372650      0.209271
  C      -2.536377      2.214708     -1.174293
  H      -2.649116      3.255162     -1.480246
  H      -3.133904      2.029414     -0.272951
  H      -2.870059      1.556257     -1.985995
21
Coordinates from ORCA-job mol E -1062.636981308554
  C      -1.535632     -0.284457     -0.316986
  C      -0.721006      0.835230     -0.482225
  C      -0.984925     -1.481158      0.132302
  C       0.664303      0.728593     -0.205492
  C       1.194801     -0.485572      0.248863
  C       0.373297     -1.587979      0.418512
  O      -1.143165      2.043118     -0.909506
  C       1.504462      1.858078     -0.345146
  H      -2.597104     -0.229818     -0.526992
  H      -1.634816     -2.341725      0.260666
  H       2.254482     -0.530060      0.475576
  H       0.788781     -2.525133      0.772658
  N       1.846025      2.832120     -0.969359
  O       2.659705      3.776407     -0.848106
  O       2.747578      2.062388      1.237642
  S       3.888277      3.017061      0.896533
  O       5.025415      2.374146      0.208502
  C      -2.536237      2.214655     -1.174808
  H      -2.649044      3.255459     -1.479521
  H      -3.135292      2.027799     -0.274817
  H      -2.867805      1.556957     -1.987976
21
Coordinates from ORCA-job mol E -1062.636983440233
  C      -1.535817     -0.284276     -0.316407
  C      -0.721106      0.835371     -0.481543
  C      -0.985184     -1.481121      0.132588
  C       0.664282      0.728431     -0.205276
  C       1.194687     -0.485856      0.248879
  C       0.373070     -1.588168      0.418566
  O      -1.143270      2.043534     -0.908029
  C       1.504640      1.857711     -0.345171
  H      -2.597327     -0.229464     -0.526172
  H      -1.635146     -2.341657      0.260818
  H       2.254418     -0.530508      0.475329
  H       0.788473     -2.525405      0.772582
  N       1.845495      2.832382     -0.968736
  O       2.658892      3.776886     -0.847332
  O       2.748816      2.061663      1.237444
  S       3.888733      3.017155      0.896193
  O       5.025905      2.375291      0.207243
  C      -2.536118      2.214574     -1.175347
  H      -2.648967      3.255624     -1.479180
  H      -3.136469      2.026544     -0.276477
  H      -2.865905      1.557400     -1.989652
21
Coordinates from ORCA-job mol E -1062.636985265659
  C      -1.535960     -0.284137     -0.315973
  C      -0.721197      0.835500     -0.480952
  C      -0.985389     -1.481092      0.132802
  C       0.664234      0.728354     -0.204946
  C       1.194565     -0.486027      0.249049
  C       0.372872     -1.588286      0.418687
  O      -1.143366      2.043883     -0.906824
  C       1.504733      1.857491     -0.344985
  H      -2.597486     -0.229207     -0.525616
  H      -1.635397     -2.341626      0.260874
  H       2.254323     -0.530792      0.475350
  H       0.788208     -2.525590      0.772605
  N       1.844791      2.832873     -0.967831
  O       2.657988      3.777524     -0.846273
  O       2.750149      2.060715      1.237153
  S       3.889345      3.016973      0.895758
  O       5.026349      2.376155      0.205566
  C      -2.536014      2.214478     -1.175908
  H      -2.648887      3.255699     -1.479135
  H      -3.137481      2.025567     -0.277979
  H      -2.864281      1.557654     -1.991100
21
Coordinates from ORCA-job mol E -1062.636986847184
  C      -1.536069     -0.284025     -0.315648
  C      -0.721272      0.835615     -0.480442
  C      -0.985560     -1.481070      0.132963
  C       0.664179      0.728324     -0.204559
  C       1.194444     -0.486134      0.249312
  C       0.372692     -1.588365      0.418847
  O      -1.143439      2.044177     -0.905827
  C       1.504786      1.857359     -0.344679
  H      -2.597598     -0.229010     -0.525250
  H      -1.635596     -2.341611      0.260870
  H       2.254212     -0.530982      0.475541
  H       0.787969     -2.525721      0.772693
  N       1.843983      2.833498     -0.966775
  O       2.657030      3.778255     -0.845054
  O       2.751489      2.059635      1.236784
  S       3.890010      3.016629      0.895277
  O       5.026743      2.376852      0.203678
  C      -2.535904      2.214379     -1.176460
  H      -2.648783      3.255708     -1.479302
  H      -3.138336      2.024833     -0.279318
  H      -2.862880      1.557763     -1.992331
21
Coordinates from ORCA-job mol E -1062.636988251474
  C      -1.536152     -0.283935     -0.315405
  C      -0.721331      0.835717     -0.479994
  C      -0.985704     -1.481055      0.133083
  C       0.664122      0.728324     -0.204134
  C       1.194324     -0.486199      0.249638
  C       0.372525     -1.588416      0.419035
  O      -1.143492      2.044429     -0.904987
  C       1.504814      1.857285     -0.344290
  H      -2.597671     -0.228860     -0.525036
  H      -1.635760     -2.341610      0.260822
  H       2.254090     -0.531111      0.475848
  H       0.787748     -2.525816      0.772827
  N       1.843116      2.834201     -0.965629
  O       2.656038      3.779042     -0.843741
  O       2.752808      2.058493      1.236363
  S       3.890701      3.016186      0.894766
  O       5.027088      2.377425      0.201667
  C      -2.535788      2.214282     -1.176993
  H      -2.648657      3.255674     -1.479610
  H      -3.139066      2.024282     -0.280521
  H      -2.861653      1.557772     -1.993389
21
Coordinates from ORCA-job mol E -1062.636989502599
  C      -1.536216     -0.283861     -0.315225
  C      -0.721377      0.835805     -0.479599
  C      -0.985832     -1.481045      0.133174
  C       0.664066      0.728339     -0.203695
  C       1.194205     -0.486241      0.249998
  C       0.372367     -1.588452      0.419242
  O      -1.143526      2.044644     -0.904274
  C       1.504830      1.857243     -0.343862
  H      -2.597717     -0.228742     -0.524933
  H      -1.635904     -2.341617      0.260748
  H       2.253963     -0.531206      0.476224
  H       0.787537     -2.525890      0.772995
  N       1.842226      2.834937     -0.964452
  O       2.655035      3.779853     -0.842395
  O       2.754090      2.057334      1.235916
  S       3.891392      3.015698      0.894247
  O       5.027397      2.377923      0.199619
  C      -2.535664      2.214189     -1.177499
  H      -2.648514      3.255617     -1.479995
  H      -3.139690      2.023860     -0.281604
  H      -2.860567      1.557724     -1.994311
21
Coordinates from ORCA-job mol E -1062.636990633755
  C      -1.536267     -0.283802     -0.315092
  C      -0.721411      0.835881     -0.479249
  C      -0.985949     -1.481041      0.133244
  C       0.664014      0.728360     -0.203256
  C       1.194088     -0.486269      0.250377
  C       0.372213     -1.588479      0.419459
  O      -1.143545      2.044828     -0.903662
  C       1.504839      1.857218     -0.343416
  H      -2.597743     -0.228650     -0.524914
  H      -1.636035     -2.341629      0.260657
  H       2.253833     -0.531280      0.476642
  H       0.787332     -2.525949      0.773188
  N       1.841336      2.835680     -0.963274
  O       2.654034      3.780667     -0.841050
  O       2.755331      2.056182      1.235458
  S       3.892071      3.015192      0.893732
  O       5.027680      2.378377      0.197582
  C      -2.535534      2.214102     -1.177978
  H      -2.648360      3.255547     -1.480418
  H      -3.140228      2.023532     -0.282587
  H      -2.859599      1.557644     -1.995125
21
Coordinates from ORCA-job mol E -1062.636991662219
  C      -1.536307     -0.283754     -0.314996
  C      -0.721437      0.835946     -0.478939
  C      -0.986058     -1.481042      0.133299
  C       0.663965      0.728384     -0.202824
  C       1.193973     -0.486290      0.250763
  C       0.372063     -1.588501      0.419684
  O      -1.143552      2.044986     -0.903134
  C       1.504845      1.857203     -0.342967
  H      -2.597755     -0.228578     -0.524956
  H      -1.636158     -2.341645      0.260556
  H       2.253702     -0.531343      0.477086
  H       0.787131     -2.525997      0.773400
  N       1.840458      2.836414     -0.962113
  O       2.653045      3.781473     -0.839726
  O       2.756530      2.055051      1.234998
  S       3.892733      3.014687      0.893228
  O       5.027943      2.378804      0.195581
  C      -2.535401      2.214021     -1.178430
  H      -2.648198      3.255473     -1.480857
  H      -3.140694      2.023272     -0.283482
  H      -2.858727      1.557547     -1.995853
21
Coordinates from ORCA-job mol E -1062.636992607202
  C      -1.536340     -0.283716     -0.314929
  C      -0.721456      0.836002     -0.478661
  C      -0.986161     -1.481046      0.133343
  C       0.663918      0.728408     -0.202402
  C       1.193861     -0.486305      0.251152
  C       0.371917     -1.588518      0.419911
  O      -1.143548      2.045123     -0.902675
  C       1.504848      1.857194     -0.342522
  H      -2.597756     -0.228521     -0.525046
  H      -1.636274     -2.341663      0.260448
  H       2.253570     -0.531396      0.477544
  H       0.786935     -2.526038      0.773625
  N       1.839598      2.837132     -0.960978
  O       2.652073      3.782264     -0.838431
  O       2.757687      2.053948      1.234544
  S       3.893374      3.014187      0.892738
  O       5.028189      2.379210      0.193629
  C      -2.535266      2.213946     -1.178856
  H      -2.648031      3.255396     -1.481299
  H      -3.141101      2.023063     -0.284304
  H      -2.857937      1.557441     -1.996511
21
Coordinates from ORCA-job mol E -1062.636993465127
  C      -1.536368     -0.283685     -0.314885
  C      -0.721469      0.836049     -0.478412
  C      -0.986258     -1.481053      0.133377
  C       0.663875      0.728430     -0.201994
  C       1.193750     -0.486318      0.251538
  C       0.371774     -1.588533      0.420139
  O      -1.143537      2.045242     -0.902273
  C       1.504850      1.857188     -0.342085
  H      -2.597749     -0.228476     -0.525170
  H      -1.636385     -2.341682      0.260338
  H       2.253438     -0.531443      0.478009
  H       0.786743     -2.526073      0.773859
  N       1.838761      2.837831     -0.959872
  O       2.651122      3.783035     -0.837171
  O       2.758805      2.052874      1.234097
  S       3.893994      3.013699      0.892263
  O       5.028422      2.379602      0.191732
  C      -2.535130      2.213877     -1.179258
  H      -2.647862      3.255320     -1.481739
  H      -3.141459      2.022894     -0.285062
  H      -2.857217      1.557330     -1.997110
21
Coordinates from ORCA-job mol E -1062.636994248336
  C      -1.536390     -0.283661     -0.314858
  C      -0.721479      0.836090     -0.478187
  C      -0.986351     -1.481061      0.133405
  C       0.663833      0.728452     -0.201599
  C       1.193643     -0.486328      0.251919
  C       0.371635     -1.588546      0.420365
  O      -1.143521      2.045345     -0.901919
  C       1.504851      1.857184     -0.341658
  H      -2.597736     -0.228441     -0.525318
  H      -1.636492     -2.341701      0.260226
  H       2.253309     -0.531485      0.478474
  H       0.786556     -2.526103      0.774097
  N       1.837948      2.838510     -0.958798
  O       2.650196      3.783787     -0.835946
  O       2.759882      2.051832      1.233661
  S       3.894593      3.013223      0.891803
  O       5.028642      2.379981      0.189892
  C      -2.534996      2.213813     -1.179641
  H      -2.647692      3.255244     -1.482172
  H      -3.141776      2.022757     -0.285765
  H      -2.856556      1.557218     -1.997659
21
Coordinates from ORCA-job mol E -1062.636994978852
  C      -1.536409     -0.283641     -0.314846
  C      -0.721486      0.836125     -0.477983
  C      -0.986439     -1.481072      0.133427
  C       0.663794      0.728473     -0.201218
  C       1.193538     -0.486337      0.252293
  C       0.371500     -1.588558      0.420589
  O      -1.143500      2.045436     -0.901606
  C       1.504851      1.857182     -0.341242
  H      -2.597718     -0.228414     -0.525485
  H      -1.636596     -2.341722      0.260113
  H       2.253181     -0.531523      0.478936
  H       0.786374     -2.526129      0.774339
  N       1.837160      2.839167     -0.957756
  O       2.649295      3.784516     -0.834757
  O       2.760922      2.050822      1.233234
  S       3.895171      3.012761      0.891360
  O       5.028852      2.380350      0.188110
  C      -2.534863      2.213753     -1.180004
  H      -2.647523      3.255170     -1.482597
  H      -3.142058      2.022646     -0.286421
  H      -2.855947      1.557105     -1.998167
21
Coordinates from ORCA-job mol E -1062.636995642387
  C      -1.536425     -0.283626     -0.314844
  C      -0.721490      0.836156     -0.477795
  C      -0.986524     -1.481083      0.133445
  C       0.663757      0.728493     -0.200850
  C       1.193436     -0.486345      0.252658
  C       0.371370     -1.588569      0.420809
  O      -1.143475      2.045517     -0.901326
  C       1.504850      1.857182     -0.340837
  H      -2.597698     -0.228392     -0.525664
  H      -1.636695     -2.341742      0.260002
  H       2.253056     -0.531557      0.479392
  H       0.786198     -2.526152      0.774580
  N       1.836397      2.839803     -0.956746
  O       2.648421      3.785223     -0.833604
  O       2.761925      2.049843      1.232819
  S       3.895728      3.012312      0.890932
  O       5.029051      2.380706      0.186386
  C      -2.534733      2.213696     -1.180350
  H      -2.647355      3.255097     -1.483014
  H      -3.142312      2.022555     -0.287035
  H      -2.855381      1.556993     -1.998638
21
Coordinates from ORCA-job mol E -1062.636996253400
  C      -1.536439     -0.283613     -0.314851
  C      -0.721492      0.836183     -0.477623
  C      -0.986605     -1.481095      0.133460
  C       0.663721      0.728511     -0.200496
  C       1.193336     -0.486351      0.253014
  C       0.371243     -1.588578      0.421025
  O      -1.143448      2.045589     -0.901075
  C       1.504848      1.857183     -0.340445
  H      -2.597675     -0.228376     -0.525850
  H      -1.636791     -2.341761      0.259893
  H       2.252934     -0.531589      0.479841
  H       0.786026     -2.526172      0.774819
  N       1.835659      2.840418     -0.955768
  O       2.647574      3.785908     -0.832487
  O       2.762893      2.048895      1.232415
  S       3.896266      3.011877      0.890520
  O       5.029241      2.381053      0.184718
  C      -2.534605      2.213643     -1.180680
  H      -2.647191      3.255025     -1.483420
  H      -3.142542      2.022480     -0.287612
  H      -2.854853      1.556881     -1.999077
21
Coordinates from ORCA-job mol E -1062.636996817532
  C      -1.536450     -0.283603     -0.314863
  C      -0.721492      0.836207     -0.477464
  C      -0.986682     -1.481108      0.133472
  C       0.663687      0.728529     -0.200154
  C       1.193240     -0.486356      0.253361
  C       0.371120     -1.588587      0.421235
  O      -1.143420      2.045653     -0.900848
  C       1.504846      1.857184     -0.340064
  H      -2.597651     -0.228363     -0.526042
  H      -1.636884     -2.341781      0.259785
  H       2.252814     -0.531617      0.480280
  H       0.785859     -2.526190      0.775056
  N       1.834945      2.841012     -0.954821
  O       2.646754      3.786570     -0.831405
  O       2.763827      2.047976      1.232022
  S       3.896784      3.011455      0.890122
  O       5.029422      2.381390      0.183106
  C      -2.534480      2.213593     -1.180997
  H      -2.647030      3.254956     -1.483816
  H      -3.142751      2.022419     -0.288157
  H      -2.854360      1.556771     -1.999489
21
Coordinates from ORCA-job mol E -1062.636997340272
  C      -1.536460     -0.283595     -0.314881
  C      -0.721492      0.836228     -0.477316
  C      -0.986757     -1.481120      0.133482
  C       0.663655      0.728546     -0.199824
  C       1.193147     -0.486361      0.253698
  C       0.371001     -1.588595      0.421440
  O      -1.143390      2.045711     -0.900642
  C       1.504843      1.857186     -0.339695
  H      -2.597626     -0.228353     -0.526236
  H      -1.636973     -2.341799      0.259681
  H       2.252698     -0.531644      0.480710
  H       0.785698     -2.526206      0.775288
  N       1.834256      2.841587     -0.953904
  O       2.645961      3.787211     -0.830357
  O       2.764728      2.047088      1.231641
  S       3.897285      3.011046      0.889739
  O       5.029595      2.381718      0.181548
  C      -2.534359      2.213545     -1.181300
  H      -2.646872      3.254888     -1.484202
  H      -3.142943      2.022369     -0.288672
  H      -2.853896      1.556662     -1.999877
21
Coordinates from ORCA-job mol E -1062.636997824975
  C      -1.536469     -0.283589     -0.314903
  C      -0.721490      0.836247     -0.477178
  C      -0.986829     -1.481133      0.133491
  C       0.663623      0.728562     -0.199507
  C       1.193057     -0.486365      0.254025
  C       0.370886     -1.588602      0.421640
  O      -1.143359      2.045764     -0.900453
  C       1.504839      1.857189     -0.339338
  H      -2.597600     -0.228346     -0.526430
  H      -1.637060     -2.341818      0.259579
  H       2.252585     -0.531668      0.481128
  H       0.785542     -2.526221      0.775517
  N       1.833591      2.842141     -0.953017
  O       2.645194      3.787830     -0.829343
  O       2.765599      2.046227      1.231270
  S       3.897767      3.010650      0.889369
  O       5.029761      2.382037      0.180042
  C      -2.534242      2.213499     -1.181590
  H      -2.646718      3.254823     -1.484576
  H      -3.143120      2.022328     -0.289162
  H      -2.853459      1.556556     -2.000244
21
Coordinates from ORCA-job mol E -1062.636998266491
  C      -1.536477     -0.283584     -0.314927
  C      -0.721488      0.836264     -0.477049
  C      -0.986898     -1.481146      0.133498
  C       0.663593      0.728578     -0.199201
  C       1.192969     -0.486369      0.254342
  C       0.370774     -1.588609      0.421834
  O      -1.143329      2.045812     -0.900280
  C       1.504835      1.857192     -0.338992
  H      -2.597574     -0.228341     -0.526624
  H      -1.637143     -2.341836      0.259481
  H       2.252475     -0.531691      0.481535
  H       0.785391     -2.526234      0.775740
  N       1.832948      2.842677     -0.952159
  O       2.644453      3.788427     -0.828361
  O       2.766439      2.045394      1.230911
  S       3.898233      3.010267      0.889013
  O       5.029920      2.382347      0.178587
  C      -2.534127      2.213456     -1.181870
  H      -2.646568      3.254759     -1.484940
  H      -3.143284      2.022294     -0.289628
  H      -2.853045      1.556452     -2.000591
21
Coordinates from ORCA-job mol E -1062.636998685801
  C      -1.536484     -0.283580     -0.314953
  C      -0.721486      0.836279     -0.476927
  C      -0.986964     -1.481159      0.133504
  C       0.663564      0.728593     -0.198906
  C       1.192885     -0.486372      0.254649
  C       0.370667     -1.588615      0.422022
  O      -1.143298      2.045856     -0.900120
  C       1.504831      1.857196     -0.338658
  H      -2.597548     -0.228337     -0.526814
  H      -1.637224     -2.341853      0.259385
  H       2.252369     -0.531712      0.481931
  H       0.785245     -2.526246      0.775957
  N       1.832328      2.843193     -0.951330
  O       2.643738      3.789005     -0.827411
  O       2.767250      2.044589      1.230562
  S       3.898683      3.009897      0.888670
  O       5.030073      2.382648      0.177182
  C      -2.534017      2.213414     -1.182138
  H      -2.646422      3.254696     -1.485293
  H      -3.143436      2.022266     -0.290072
  H      -2.852653      1.556351     -2.000921
21
Coordinates from ORCA-job mol E -1062.636999066422
  C      -1.536490     -0.283577     -0.314980
  C      -0.721483      0.836294     -0.476812
  C      -0.987028     -1.481171      0.133510
  C       0.663536      0.728607     -0.198622
  C       1.192803     -0.486375      0.254946
  C       0.370563     -1.588620      0.422204
  O      -1.143267      2.045896     -0.899972
  C       1.504825      1.857201     -0.338334
  H      -2.597522     -0.228334     -0.527002
  H      -1.637302     -2.341869      0.259293
  H       2.252265     -0.531732      0.482315
  H       0.785104     -2.526257      0.776169
  N       1.831729      2.843693     -0.950527
  O       2.643047      3.789562     -0.826491
  O       2.768034      2.043810      1.230224
  S       3.899117      3.009538      0.888339
  O       5.030219      2.382941      0.175824
  C      -2.533910      2.213374     -1.182397
  H      -2.646281      3.254636     -1.485635
  H      -3.143579      2.022243     -0.290497
  H      -2.852280      1.556252     -2.001235
21
Coordinates from ORCA-job mol E -1062.636999418021
  C      -1.536496     -0.283575     -0.315008
  C      -0.721480      0.836307     -0.476703
  C      -0.987090     -1.481183      0.133515
  C       0.663509      0.728621     -0.198347
  C       1.192723     -0.486377      0.255233
  C       0.370462     -1.588625      0.422381
  O      -1.143237      2.045934     -0.899833
  C       1.504819      1.857206     -0.338020
  H      -2.597497     -0.228333     -0.527186
  H      -1.637377     -2.341885      0.259204
  H       2.252165     -0.531750      0.482688
  H       0.784968     -2.526267      0.776375
  N       1.831152      2.844175     -0.949750
  O       2.642381      3.790100     -0.825602
  O       2.768792      2.043055      1.229897
  S       3.899537      3.009190      0.888020
  O       5.030361      2.383225      0.174512
  C      -2.533807      2.213336     -1.182646
  H      -2.646144      3.254578     -1.485967
  H      -3.143714      2.022223     -0.290904
  H      -2.851925      1.556156     -2.001536
21
Coordinates from ORCA-job mol E -1062.636999742282
  C      -1.536502     -0.283573     -0.315037
  C      -0.721478      0.836319     -0.476600
  C      -0.987149     -1.481195      0.133520
  C       0.663482      0.728634     -0.198083
  C       1.192646     -0.486378      0.255511
  C       0.370365     -1.588630      0.422552
  O      -1.143208      2.045969     -0.899704
  C       1.504813      1.857211     -0.337716
  H      -2.597472     -0.228332     -0.527366
  H      -1.637450     -2.341901      0.259118
  H       2.252068     -0.531767      0.483049
  H       0.784836     -2.526276      0.776575
  N       1.830593      2.844641     -0.948999
  O       2.641737      3.790619     -0.824741
  O       2.769524      2.042326      1.229580
  S       3.899943      3.008854      0.887713
  O       5.030497      2.383502      0.173243
  C      -2.533707      2.213299     -1.182886
  H      -2.646011      3.254521     -1.486288
  H      -3.143841      2.022206     -0.291294
  H      -2.851586      1.556062     -2.001824
21
Coordinates from ORCA-job mol E -1062.637000043863
  C      -1.536507     -0.283572     -0.315066
  C      -0.721475      0.836330     -0.476502
  C      -0.987206     -1.481207      0.133524
  C       0.663457      0.728647     -0.197828
  C       1.192572     -0.486380      0.255780
  C       0.370271     -1.588635      0.422717
  O      -1.143179      2.046002     -0.899583
  C       1.504806      1.857218     -0.337422
  H      -2.597448     -0.228333     -0.527542
  H      -1.637520     -2.341916      0.259035
  H       2.251974     -0.531782      0.483399
  H       0.784709     -2.526284      0.776769
  N       1.830055      2.845091     -0.948272
  O       2.641115      3.791121     -0.823908
  O       2.770232      2.041619      1.229272
  S       3.900335      3.008528      0.887415
  O       5.030628      2.383770      0.172017
  C      -2.533610      2.213264     -1.183118
  H      -2.645883      3.254466     -1.486599
  H      -3.143962      2.022192     -0.291669
  H      -2.851262      1.555971     -2.002099
21
Coordinates from ORCA-job mol E -1062.637000329339
  C      -1.536512     -0.283572     -0.315095
  C      -0.721472      0.836340     -0.476408
  C      -0.987262     -1.481218      0.133528
  C       0.663432      0.728660     -0.197581
  C       1.192500     -0.486381      0.256040
  C       0.370180     -1.588638      0.422878
  O      -1.143151      2.046033     -0.899469
  C       1.504799      1.857224     -0.337137
  H      -2.597425     -0.228333     -0.527713
  H      -1.637588     -2.341930      0.258954
  H       2.251882     -0.531796      0.483739
  H       0.784586     -2.526292      0.776958
  N       1.829534      2.845526     -0.947567
  O       2.640515      3.791605     -0.823101
  O       2.770918      2.040935      1.228975
  S       3.900716      3.008212      0.887129
  O       5.030754      2.384031      0.170830
  C      -2.533517      2.213229     -1.183343
  H      -2.645759      3.254412     -1.486901
  H      -3.144076      2.022179     -0.292029
  H      -2.850952      1.555883     -2.002365
21
Coordinates from ORCA-job mol E -1062.637000585576
  C      -1.536517     -0.283571     -0.315124
  C      -0.721470      0.836350     -0.476319
  C      -0.987315     -1.481229      0.133531
  C       0.663407      0.728673     -0.197343
  C       1.192430     -0.486381      0.256292
  C       0.370092     -1.588642      0.423033
  O      -1.143124      2.046061     -0.899362
  C       1.504791      1.857231     -0.336861
  H      -2.597402     -0.228334     -0.527880
  H      -1.637653     -2.341945      0.258877
  H       2.251793     -0.531809      0.484069
  H       0.784467     -2.526299      0.777141
  N       1.829031      2.845947     -0.946885
  O       2.639936      3.792073     -0.822320
  O       2.771581      2.040273      1.228686
  S       3.901084      3.007906      0.886852
  O       5.030877      2.384284      0.169682
  C      -2.533428      2.213196     -1.183559
  H      -2.645640      3.254360     -1.487193
  H      -3.144185      2.022168     -0.292376
  H      -2.850655      1.555797     -2.002620
21
Coordinates from ORCA-job mol E -1062.637000831784
  C      -1.536522     -0.283571     -0.315153
  C      -0.721467      0.836359     -0.476233
  C      -0.987367     -1.481239      0.133535
  C       0.663383      0.728685     -0.197113
  C       1.192362     -0.486381      0.256536
  C       0.370007     -1.588645      0.423183
  O      -1.143098      2.046088     -0.899261
  C       1.504782      1.857239     -0.336593
  H      -2.597380     -0.228336     -0.528042
  H      -1.637716     -2.341958      0.258801
  H       2.251707     -0.531821      0.484388
  H       0.784352     -2.526305      0.777318
  N       1.828545      2.846354     -0.946225
  O       2.639377      3.792526     -0.821564
  O       2.772223      2.039632      1.228406
  S       3.901440      3.007609      0.886584
  O       5.030995      2.384529      0.168571
  C      -2.533341      2.213163     -1.183769
  H      -2.645524      3.254310     -1.487475
  H      -3.144290      2.022158     -0.292710
  H      -2.850369      1.555714     -2.002865
