14
Coordinates from ORCA-job mol
  C   1.79503727477416     -0.41636405700789      0.36362465551106
  C   2.86645312652270      0.39816511090499      0.02571271650023
  C   1.96128049486549     -1.76437555496472      0.65815385820247
  C   4.14474776164348     -0.15994070957730     -0.01731679645197
  C   4.33842676608779     -1.51377300898283      0.27497715717363
  C   3.24494838468286     -2.30017201441493      0.60912093914013
  H   2.72431840549492      1.44811932961999     -0.20166021146715
  C   6.40057286059128      0.55849448758236     -0.49304873250744
  Cl  0.18969627604075      0.28139652813839      0.41971957932795
  H   1.10645876824048     -2.37763891156843      0.91915900016417
  H   5.33748651141379     -1.93781788887701      0.23869513645756
  H   3.39218747379987     -3.35161319211006      0.83641036718790
  N   5.20499448666228      0.68127023003467     -0.36013056013093
  O   7.55897140918015      0.57948965122278     -0.65717710910762
