19
C7N2H4SO5
C        0.609018000     -0.013887000     -0.476905000
C        1.316305000      1.086192000      0.003737000
C        1.060368000     -1.298410000     -0.234044000
C        2.507707000      0.914204000      0.741419000
C        2.954528000     -0.397805000      0.951059000
C        2.242808000     -1.486245000      0.479299000
N        0.769213000      2.405039000     -0.317790000
C        3.283304000      3.109365000      1.416388000
H       -0.296365000      0.167471000     -1.043308000
H        0.497572000     -2.147236000     -0.607471000
H        3.886245000     -0.528956000      1.490421000
H        2.618398000     -2.487774000      0.664639000
N        3.347532000      1.904159000      1.219260000
O        3.584788000      1.751184000     -2.036651000
O        3.476124000      4.220006000      1.703595000
S        4.901739000      1.850504000     -1.383003000
O        5.579507000      0.589330000     -1.041899000
O       -0.102820000      2.475544000     -1.167713000
O        1.207713000      3.380218000      0.298117000
