! r2scan-3c d4 TightSCF OptTS freq SlowConv Mass2016
%pal nprocs 28 end
%scf maxiter 200 end
%geom
Calc_Hess true
maxiter 200 # calculation of the exact Hessian
# before the first optimization step
end
*xyz 0 1
C       -2.418703000     -0.453666000      0.159337000
C       -1.446630000      0.502347000     -0.093709000
C       -2.045850000     -1.769883000      0.416414000
C       -0.109908000      0.116631000     -0.059298000
C        0.276457000     -1.203582000      0.164327000
C       -0.704835000     -2.147369000      0.417952000
C        0.997312000      1.191764000     -0.115979000
H       -3.466009000     -0.175940000      0.146205000
H       -2.810600000     -2.515028000      0.606234000
H        1.326975000     -1.470244000      0.146409000
H       -0.427496000     -3.178052000      0.605018000
N        1.061904000      1.134047000     -1.367517000
O        2.525968000      2.565894000     -1.446185000
O        1.562517000      1.769425000      0.837294000
S        3.236616000      2.594631000     -0.157440000
O        4.151554000      1.507770000      0.050243000
C       -1.819908722      1.964665156     -0.400121480
F       -0.817411233      2.809302025     -0.076006326
F       -2.088891543      2.142043201     -1.711475447
F       -2.913041414      2.351455149      0.291917187
*
