17
Coordinates from ORCA-job mol
  C   0.08761007817202      0.11714677048969     -0.09139041509735
  C   1.06687450003756      1.08503072948783     -0.23252286966518
  C   0.36861952924297     -1.13618307218020      0.44851564607850
  C   2.37277575788050      0.78485179761833      0.17543458680075
  C   2.67472123270567     -0.46665948923383      0.71923831000134
  C   1.66862561834974     -1.41591463396811      0.85135808867327
  H   0.83207959084545      2.05717715781909     -0.65066158999237
  C   3.41662393114914      1.79547605351839      0.03151920267177
  Cl  -1.54742858411317      0.47952511469440     -0.59896011392099
  H   -0.41975151653043     -1.87425396929891      0.54969150409983
  H   3.68824160617771     -0.69267236442528      1.02990820608556
  H   1.89844111888824     -2.38978735715908      1.27206259783165
  N   3.25966318012766      2.91402296720264     -0.57893527129006
  O   4.44736987974415      3.65392952862361     -0.50486107650051
  O   4.63826770426937      1.52932355547674      0.59092334611287
  S   5.79050739934687      2.67261444478957     -0.00624216062107
  O   6.41952897370653      2.08560276654508     -1.19125799126801
