17
Coordinates from ORCA-job TS1/TS1
  C   -2.41135118999778     -0.66920323614687     -0.10350245727921
  C   -1.52763405355379      0.37054424722847     -0.34416483139853
  C   -1.92607319958052     -1.93569145065645      0.20629593717517
  C   -0.15471671649010      0.12098393021974     -0.28664039383887
  C   0.33799949847496     -1.14752421970388      0.02903780699671
  C   -0.55640093877528     -2.17523011474647      0.27477997580433
  H   -1.88513482121323      1.36618992513938     -0.57864294834257
  C   0.76928569446354      1.18526371822696     -0.52965922581307
  H   -3.47914471638832     -0.49046820224830     -0.15037846049253
  H   -2.62236959521312     -2.74409070228930      0.40051217875373
  H   1.40813124357644     -1.30702523168022      0.08795081661729
  H   -0.18753438736337     -3.16382467876586      0.52145155739623
  N   1.34155568663474      1.98718769489116     -1.19196085948622
  O   2.24125342288625      2.87213107523924     -0.97630691563909
  O   1.69141355614613      1.70308769857793      1.23025307494164
  S   2.92436975221860      2.44310284538162      0.87111803260371
  O   4.03635076317486      1.58456670133286      0.53985671000131
