-------------------------------------------------------------
----------------------- !PROPERTIES! ------------------------
-------------------------------------------------------------
# -----------------------------------------------------------
$ PAL_Flags
   description: The PAL Flags
   geom. index: 1
   prop. index: 1
        Diskflag:     2
# -----------------------------------------------------------
$ SCF_Energy
   description: The SCF energy
   geom. index: 1
   prop. index: 1
        SCF Energy:    -1152.6819882761
# -----------------------------------------------------------
$ DFT_Energy
   description: The DFT energy
   geom. index: 1
   prop. index: 1
   Number of Alpha Electrons                 57.9999637536 
   Number of Beta  Electrons                 57.9999637536 
   Total number of  Electrons               115.9999275071 
   Exchange energy                         -117.4970521171 
   Correlation energy                        -4.0114370600 
   Correlation energy NL                      0.0000000000 
   Exchange-Correlation energy             -121.5084891772 
   Embedding correction                       0.0000000000 
   Total DFT Energy (No VdW correction)   -1152.6819882761 
# -----------------------------------------------------------
$ VdW_Correction
   description: The Van der Waals Correction
   geom. index: 1
   prop. index: 1
        Van der Waals Correction:       -0.0082287591
# -----------------------------------------------------------
$ PAL_Flags
   description: The PAL Flags
   geom. index: 2
   prop. index: 1
        Diskflag:     2
# -----------------------------------------------------------
$ SCF_Energy
   description: The SCF energy
   geom. index: 2
   prop. index: 1
        SCF Energy:    -1152.6819882304
# -----------------------------------------------------------
$ DFT_Energy
   description: The DFT energy
   geom. index: 2
   prop. index: 1
   Number of Alpha Electrons                 57.9999637706 
   Number of Beta  Electrons                 57.9999637706 
   Total number of  Electrons               115.9999275412 
   Exchange energy                         -117.4968431813 
   Correlation energy                        -4.0114241911 
   Correlation energy NL                      0.0000000000 
   Exchange-Correlation energy             -121.5082673724 
   Embedding correction                       0.0000000000 
   Total DFT Energy (No VdW correction)   -1152.6819882304 
# -----------------------------------------------------------
$ VdW_Correction
   description: The Van der Waals Correction
   geom. index: 2
   prop. index: 1
        Van der Waals Correction:       -0.0082286551
# -----------------------------------------------------------
$ SCF_Electric_Properties
   description: The SCF Calculated Electric Properties
   geom. index: 2
   prop. index: 1
       Filename                          : mol.scfp 
       Do Dipole Moment Calculation      : true 
       Do Quadrupole Moment Calculation  : false 
       Do Polarizability Calculation     : false 
** Dipole moment part of electric properties **
        Magnitude of dipole moment (Debye) :        3.0444965565
        Electronic Contribution:
                  0    
      0       5.147785
      1       3.576914
      2      -0.155259
        Nuclear Contribution:
                  0    
      0      -4.318173
      1      -2.944028
      2       0.743356
        Total Dipole moment:
                  0    
      0       0.829613
      1       0.632886
      2       0.588097
# -----------------------------------------------------------
$ PAL_Flags
   description: The PAL Flags
   geom. index: 3
   prop. index: 1
        Diskflag:     2
# -----------------------------------------------------------
$ SCF_Energy
   description: The SCF energy
   geom. index: 3
   prop. index: 1
        SCF Energy:    -1152.6819882400
# -----------------------------------------------------------
$ DFT_Energy
   description: The DFT energy
   geom. index: 3
   prop. index: 1
   Number of Alpha Electrons                 57.9999637705 
   Number of Beta  Electrons                 57.9999637705 
   Total number of  Electrons               115.9999275410 
   Exchange energy                         -117.4968456118 
   Correlation energy                        -4.0114244578 
   Correlation energy NL                      0.0000000000 
   Exchange-Correlation energy             -121.5082700695 
   Embedding correction                       0.0000000000 
   Total DFT Energy (No VdW correction)   -1152.6819882400 
# -----------------------------------------------------------
$ VdW_Correction
   description: The Van der Waals Correction
   geom. index: 3
   prop. index: 1
        Van der Waals Correction:       -0.0082286551
# -----------------------------------------------------------
$ THERMOCHEMISTRY_Energies
   description: The Thermochemistry energies
   geom. index: 3
   prop. index: 1
        Temperature (Kelvin)           :        298.1500000000
        Pressure (atm)                 :          1.0000000000
        Total Mass (AMU)               :        227.9840924101
        Spin Degeneracy                :          1.0000000000
        Electronic Energy (Hartree)    :      -1152.6648539075
        Translational Energy (Hartree) :          0.0014162714
        Rotational Energy (Hartree)    :          0.0014162714
        Vibrational Energy (Hartree)   :          0.0095402310
        Number of frequencies          :     57      
        Scaling Factor for frequencies :          1.0000000000
        Vibrational frequencies        :     
                  0    
      0       0.000000
      1       0.000000
      2       0.000000
      3       0.000000
      4       0.000000
      5       0.000000
      6      31.597766
      7      50.611977
      8      57.533183
      9      97.959458
     10     121.697655
     11     195.731275
     12     239.025173
     13     259.702878
     14     284.759401
     15     316.851642
     16     396.298961
     17     406.782695
     18     430.245367
     19     459.470657
     20     485.134252
     21     500.853252
     22     540.095830
     23     642.779684
     24     645.997301
     25     651.450206
     26     671.592449
     27     695.229010
     28     740.986773
     29     765.268083
     30     844.453406
     31     867.962146
     32     873.078569
     33     909.639324
     34     944.274831
     35     978.579842
     36     989.065516
     37     1038.333597
     38     1074.772764
     39     1119.382552
     40     1137.268678
     41     1207.705470
     42     1237.979372
     43     1321.870556
     44     1341.569152
     45     1354.473231
     46     1374.519575
     47     1437.270066
     48     1521.532378
     49     1572.468371
     50     1611.272358
     51     1635.127253
     52     1644.260630
     53     3200.747882
     54     3203.908817
     55     3220.874262
     56     3221.507437
        Zero Point Energy (Hartree)    :          0.1152104749
        Inner Energy (Hartree)         :      -1152.5372706587
        Enthalpy (Hartree)             :      -1152.5363264497
        Electronic entropy             :          0.0000000000
        Rotational entropy             :          0.0154584699
        Vibrational entropy            :          0.0165948052
        Translational entropy          :          0.0154584699
        Entropy                        :          0.0520916745
        Gibbs Energy (Hartree)         :      -1152.5884181242
        Is Linear                      :                 false
# -------------------------------------------------------------
----------------------- !GEOMETRIES! ------------------------
# -------------------------------------------------------------
------------------------ !GEOMETRY! -------------------------
    Number of atoms:    19 
    Geometry Index:     1 
    Coordinates:
               0 C      0.086992576317    0.113240841879   -0.101669002065
               1 C      1.080148538909    1.065932617290   -0.236895813704
               2 C      0.410869400047   -1.118124838152    0.459142413403
               3 C      2.387634709407    0.779871628188    0.182814759407
               4 C      2.690054226559   -0.466395650295    0.742775372580
               5 C      1.695918282763   -1.423194458485    0.883749430382
               6 H      0.855053167660    2.035439573816   -0.667758171768
               7 C      3.430849134058    1.789628459908    0.040034059102
               8 H     -0.930083917283    0.308618747835   -0.419496941348
               9 N     -0.650753278238   -2.136589609858    0.607595130159
              10 H      3.702007854876   -0.686001207500    1.063540724696
              11 H      1.904601506096   -2.395458454615    1.313554468778
              12 N      3.262564363528    2.916203018839   -0.553592598800
              13 O      4.443266334888    3.654983948650   -0.497455875804
              14 O      4.660098483626    1.519136438080    0.577971206551
              15 S      5.804635629192    2.670805061521   -0.020665229621
              16 O      6.417194039715    2.103262609548   -1.222201506139
              17 O     -1.773787786923   -1.839392402307    0.222703756469
              18 O     -0.336923265198   -3.209576324342    1.105653817721
------------------------ !GEOMETRY! -------------------------
    Number of atoms:    19 
    Geometry Index:     2 
    Coordinates:
               0 C      0.086902540057    0.113278806027   -0.101513378996
               1 C      1.080052564430    1.065981893295   -0.236813187626
               2 C      0.410792303042   -1.118103510621    0.459281388524
               3 C      2.387586287613    0.779907930567    0.182783378174
               4 C      2.690018913177   -0.466371736626    0.742736009157
               5 C      1.695888607932   -1.423168572672    0.883802254472
               6 H      0.854920222715    2.035491226051   -0.667648156717
               7 C      3.430854784554    1.789624765618    0.039937989513
               8 H     -0.930216625052    0.308614346187   -0.419240639770
               9 N     -0.650778645125   -2.136536963004    0.607792656233
              10 H      3.701994769855   -0.685963837675    1.063426721940
              11 H      1.904540181436   -2.395442110815    1.313599994782
              12 N      3.262650965121    2.916108959770   -0.553902209573
              13 O      4.443350657919    3.654948756643   -0.497804091392
              14 O      4.660090000254    1.519207040208    0.578051481628
              15 S      5.804699445136    2.670890217083   -0.020561210694
              16 O      6.417500093703    2.103200579773   -1.221919931023
              17 O     -1.773798061363   -1.839461558680    0.222574891760
              18 O     -0.336709005405   -3.209816231128    1.105216039608
------------------------ !GEOMETRY! -------------------------
    Number of atoms:    19 
    Geometry Index:     3 
    Coordinates:
               0 C      0.086902540057    0.113278806027   -0.101513378996
               1 C      1.080052564430    1.065981893295   -0.236813187626
               2 C      0.410792303042   -1.118103510621    0.459281388524
               3 C      2.387586287613    0.779907930567    0.182783378174
               4 C      2.690018913177   -0.466371736626    0.742736009157
               5 C      1.695888607932   -1.423168572672    0.883802254472
               6 H      0.854920222715    2.035491226051   -0.667648156717
               7 C      3.430854784554    1.789624765618    0.039937989513
               8 H     -0.930216625052    0.308614346187   -0.419240639770
               9 N     -0.650778645125   -2.136536963004    0.607792656233
              10 H      3.701994769855   -0.685963837675    1.063426721940
              11 H      1.904540181436   -2.395442110815    1.313599994782
              12 N      3.262650965121    2.916108959770   -0.553902209573
              13 O      4.443350657919    3.654948756643   -0.497804091392
              14 O      4.660090000254    1.519207040208    0.578051481628
              15 S      5.804699445136    2.670890217083   -0.020561210694
              16 O      6.417500093703    2.103200579773   -1.221919931023
              17 O     -1.773798061363   -1.839461558680    0.222574891760
              18 O     -0.336709005405   -3.209816231128    1.105216039608
