
                                 *****************
                                 * O   R   C   A *
                                 *****************

                                            #,                                       
                                            ###                                      
                                            ####                                     
                                            #####                                    
                                            ######                                   
                                           ########,                                 
                                     ,,################,,,,,                         
                               ,,#################################,,                 
                          ,,##########################################,,             
                       ,#########################################, ''#####,          
                    ,#############################################,,   '####,        
                  ,##################################################,,,,####,       
                ,###########''''           ''''###############################       
              ,#####''   ,,,,##########,,,,          '''####'''          '####       
            ,##' ,,,,###########################,,,                        '##       
           ' ,,###''''                  '''############,,,                           
         ,,##''                                '''############,,,,        ,,,,,,###''
      ,#''                                            '''#######################'''  
     '                                                          ''''####''''         
             ,#######,   #######,   ,#######,      ##                                
            ,#'     '#,  ##    ##  ,#'     '#,    #''#        ######   ,####,        
            ##       ##  ##   ,#'  ##            #'  '#       #        #'  '#        
            ##       ##  #######   ##           ,######,      #####,   #    #        
            '#,     ,#'  ##    ##  '#,     ,#' ,#      #,         ##   #,  ,#        
             '#######'   ##     ##  '#######'  #'      '#     #####' # '####'        



                  #######################################################
                  #                        -***-                        #
                  #          Department of theory and spectroscopy      #
                  #    Directorship and core code : Frank Neese         #
                  #        Max Planck Institute fuer Kohlenforschung    #
                  #                Kaiser Wilhelm Platz 1               #
                  #                 D-45470 Muelheim/Ruhr               #
                  #                      Germany                        #
                  #                                                     #
                  #                  All rights reserved                #
                  #                        -***-                        #
                  #######################################################


                         Program Version 5.0.4 -  RELEASE  -


 With contributions from (in alphabetic order):
   Daniel Aravena         : Magnetic Suceptibility
   Michael Atanasov       : Ab Initio Ligand Field Theory (pilot matlab implementation)
   Alexander A. Auer      : GIAO ZORA, VPT2 properties, NMR spectrum
   Ute Becker             : Parallelization
   Giovanni Bistoni       : ED, misc. LED, open-shell LED, HFLD
   Martin Brehm           : Molecular dynamics
   Dmytro Bykov           : SCF Hessian
   Vijay G. Chilkuri      : MRCI spin determinant printing, contributions to CSF-ICE
   Dipayan Datta          : RHF DLPNO-CCSD density
   Achintya Kumar Dutta   : EOM-CC, STEOM-CC
   Dmitry Ganyushin       : Spin-Orbit,Spin-Spin,Magnetic field MRCI
   Miquel Garcia          : C-PCM and meta-GGA Hessian, CC/C-PCM, Gaussian charge scheme
   Yang Guo               : DLPNO-NEVPT2, F12-NEVPT2, CIM, IAO-localization
   Andreas Hansen         : Spin unrestricted coupled pair/coupled cluster methods
   Benjamin Helmich-Paris : MC-RPA, TRAH-SCF, COSX integrals
   Lee Huntington         : MR-EOM, pCC
   Robert Izsak           : Overlap fitted RIJCOSX, COSX-SCS-MP3, EOM
   Marcus Kettner         : VPT2
   Christian Kollmar      : KDIIS, OOCD, Brueckner-CCSD(T), CCSD density, CASPT2, CASPT2-K
   Simone Kossmann        : Meta GGA functionals, TD-DFT gradient, OOMP2, MP2 Hessian
   Martin Krupicka        : Initial AUTO-CI
   Lucas Lang             : DCDCAS
   Marvin Lechner         : AUTO-CI (C++ implementation), FIC-MRCC
   Dagmar Lenk            : GEPOL surface, SMD
   Dimitrios Liakos       : Extrapolation schemes; Compound Job, initial MDCI parallelization
   Dimitrios Manganas     : Further ROCIS development; embedding schemes
   Dimitrios Pantazis     : SARC Basis sets
   Anastasios Papadopoulos: AUTO-CI, single reference methods and gradients
   Taras Petrenko         : DFT Hessian,TD-DFT gradient, ASA, ECA, R-Raman, ABS, FL, XAS/XES, NRVS
   Peter Pinski           : DLPNO-MP2, DLPNO-MP2 Gradient
   Christoph Reimann      : Effective Core Potentials
   Marius Retegan         : Local ZFS, SOC
   Christoph Riplinger    : Optimizer, TS searches, QM/MM, DLPNO-CCSD(T), (RO)-DLPNO pert. Triples
   Tobias Risthaus        : Range-separated hybrids, TD-DFT gradient, RPA, STAB
   Michael Roemelt        : Original ROCIS implementation
   Masaaki Saitow         : Open-shell DLPNO-CCSD energy and density
   Barbara Sandhoefer     : DKH picture change effects
   Avijit Sen             : IP-ROCIS
   Kantharuban Sivalingam : CASSCF convergence, NEVPT2, FIC-MRCI
   Bernardo de Souza      : ESD, SOC TD-DFT
   Georgi Stoychev        : AutoAux, RI-MP2 NMR, DLPNO-MP2 response
   Willem Van den Heuvel  : Paramagnetic NMR
   Boris Wezisla          : Elementary symmetry handling
   Frank Wennmohs         : Technical directorship


 We gratefully acknowledge several colleagues who have allowed us to
 interface, adapt or use parts of their codes:
   Stefan Grimme, W. Hujo, H. Kruse, P. Pracht,  : VdW corrections, initial TS optimization,
                  C. Bannwarth, S. Ehlert          DFT functionals, gCP, sTDA/sTD-DF
   Ed Valeev, F. Pavosevic, A. Kumar             : LibInt (2-el integral package), F12 methods
   Garnet Chan, S. Sharma, J. Yang, R. Olivares  : DMRG
   Ulf Ekstrom                                   : XCFun DFT Library
   Mihaly Kallay                                 : mrcc  (arbitrary order and MRCC methods)
   Jiri Pittner, Ondrej Demel                    : Mk-CCSD
   Frank Weinhold                                : gennbo (NPA and NBO analysis)
   Christopher J. Cramer and Donald G. Truhlar   : smd solvation model
   Lars Goerigk                                  : TD-DFT with DH, B97 family of functionals
   V. Asgeirsson, H. Jonsson                     : NEB implementation
   FAccTs GmbH                                   : IRC, NEB, NEB-TS, DLPNO-Multilevel, CI-OPT
                                                   MM, QMMM, 2- and 3-layer-ONIOM, Crystal-QMMM,
                                                   LR-CPCM, SF, NACMEs, symmetry and pop. for TD-DFT,
                                                   nearIR, NL-DFT gradient (VV10), updates on ESD,
                                                   ML-optimized integration grids
   S Lehtola, MJT Oliveira, MAL Marques          : LibXC Library
   Liviu Ungur et al                             : ANISO software


 Your calculation uses the libint2 library for the computation of 2-el integrals
 For citations please refer to: http://libint.valeyev.net

 Your ORCA version has been built with support for libXC version: 5.1.0
 For citations please refer to: https://tddft.org/programs/libxc/

 This ORCA versions uses:
   CBLAS   interface :  Fast vector & matrix operations
   LAPACKE interface :  Fast linear algebra routines
   SCALAPACK package :  Parallel linear algebra routines
   Shared memory     :  Shared parallel matrices
   BLAS/LAPACK       :  OpenBLAS 0.3.15  USE64BITINT DYNAMIC_ARCH NO_AFFINITY Zen SINGLE_THREADED
        Core in use  :  Zen
   Copyright (c) 2011-2014, The OpenBLAS Project




***************************************
The coordinates will be read from file: ini.xyz
***************************************


Your calculation utilizes the geometrical counterpoise correction gCP
Please cite in your paper:
H.Kruse, S. Grimme J.Chem.Phys., 136, (2012), 154101 
   

Your calculation utilizes the atom-pairwise dispersion correction
based on tight binding partial charges (D4)
Cite in your paper:
E.Caldeweyher, C.Bannwarth, S.Grimme, J.Chem.Phys., (2017), 147, 034112.
E.Caldeweyher, S.Ehlert, A.Hansen, H.Neugebauer, S.Grimme, J.Chem.Phys., (2018), in progress.
   

================================================================================

----- Orbital basis set information -----
Your calculation utilizes the basis: def2-mTZVPP
   Stefan Grimme, Andreas Hansen, Sebastian Ehlert, and Jan-Michael Mewes 
   J. Chem. Phys. 154, 000000 (2021). DOI: 10.1063/5.0040021

----- AuxJ basis set information -----
Your calculation utilizes the basis: def2-mTZVPP/J
   Stefan Grimme, Andreas Hansen, Sebastian Ehlert, and Jan-Michael Mewes 
   J. Chem. Phys. 154, 000000 (2021). DOI: 10.1063/5.0040021

================================================================================
                                        WARNINGS
                       Please study these warnings very carefully!
================================================================================

Using LibXC functional ID 497 : Re-regularized SCAN exchange by Furness et al
[ 1]  J. W. Furness, A. D. Kaplan, J. Ning, J. P. Perdew, and J. Sun, J. Phys. Chem. Lett. 11, 8208 (2020)
[ 2]  J. W. Furness, A. D. Kaplan, J. Ning, J. P. Perdew, and J. Sun, J. Phys. Chem. Lett. 11, 9248 (2020)
Using LibXC functional ID 498 : Re-regularized SCAN correlation by Furness et al
[ 1]  J. W. Furness, A. D. Kaplan, J. Ning, J. P. Perdew, and J. Sun, J. Phys. Chem. Lett. 11, 8208 (2020)
[ 2]  J. W. Furness, A. D. Kaplan, J. Ning, J. P. Perdew, and J. Sun, J. Phys. Chem. Lett. 11, 9248 (2020)
Using LibXC functional ID 497 : Re-regularized SCAN exchange by Furness et al
[ 1]  J. W. Furness, A. D. Kaplan, J. Ning, J. P. Perdew, and J. Sun, J. Phys. Chem. Lett. 11, 8208 (2020)
[ 2]  J. W. Furness, A. D. Kaplan, J. Ning, J. P. Perdew, and J. Sun, J. Phys. Chem. Lett. 11, 9248 (2020)
Using LibXC functional ID 498 : Re-regularized SCAN correlation by Furness et al
[ 1]  J. W. Furness, A. D. Kaplan, J. Ning, J. P. Perdew, and J. Sun, J. Phys. Chem. Lett. 11, 8208 (2020)
[ 2]  J. W. Furness, A. D. Kaplan, J. Ning, J. P. Perdew, and J. Sun, J. Phys. Chem. Lett. 11, 9248 (2020)

INFO   : the flag for use of the SHARK integral package has been found!

================================================================================
                                       INPUT FILE
================================================================================
NAME = mol.inp
|  1> ! r2SCAN-3c CPCM(benzene) tightSCF
|  2> ! Hirshfeld
|  3> 
|  4> %maxcore 10000
|  5> 
|  6> %pal
|  7> nprocs 18    # parallel execution
|  8> end
|  9> 
| 10> %output
| 11>    Print[ P_BondOrder_M ] 1
| 12>    Print[ P_BondOrder_L ] 1
| 13> end
| 14> 
| 15> * xyzfile 0 1  ini.xyz
| 16> 
| 17>                          ****END OF INPUT****
================================================================================

                       ****************************
                       * Single Point Calculation *
                       ****************************

---------------------------------
CARTESIAN COORDINATES (ANGSTROEM)
---------------------------------
  C     -0.113309   -0.048990    0.350004
  C      0.752201    1.032217    0.412225
  C      0.400615   -1.341516    0.406071
  C      2.141968    0.847280    0.530689
  C      2.638136   -0.469077    0.585714
  C      1.773323   -1.549626    0.523693
  Br     0.048048    2.800352    0.337194
  C      3.030278    1.942819    0.595351
  H     -1.181010    0.118473    0.258703
  H     -0.279536   -2.186215    0.357357
  H      3.708976   -0.617603    0.677544
  H      2.171607   -2.558372    0.567346
  N      3.849820    2.767007    0.652667
  O      4.680053    3.639242    0.713972

----------------------------
CARTESIAN COORDINATES (A.U.)
----------------------------
  NO LB      ZA    FRAG     MASS         X           Y           Z
   0 C     6.0000    0    12.011   -0.214123   -0.092577    0.661413
   1 C     6.0000    0    12.011    1.421453    1.950608    0.778993
   2 C     6.0000    0    12.011    0.757053   -2.535097    0.767363
   3 C     6.0000    0    12.011    4.047733    1.601127    1.002857
   4 C     6.0000    0    12.011    4.985355   -0.886428    1.106840
   5 C     6.0000    0    12.011    3.351096   -2.928370    0.989637
   6 Br   35.0000    0    79.900    0.090797    5.291897    0.637205
   7 C     6.0000    0    12.011    5.726396    3.671395    1.125050
   8 H     1.0000    0     1.008   -2.231786    0.223881    0.488878
   9 H     1.0000    0     1.008   -0.528247   -4.131347    0.675306
  10 H     1.0000    0     1.008    7.008948   -1.167101    1.280372
  11 H     1.0000    0     1.008    4.103743   -4.834622    1.072128
  12 N     7.0000    0    14.007    7.275106    5.228885    1.233362
  13 O     8.0000    0    15.999    8.844019    6.877171    1.349211

--------------------------------
INTERNAL COORDINATES (ANGSTROEM)
--------------------------------
 C      0   0   0     0.000000000000     0.00000000     0.00000000
 C      1   0   0     1.386357477130     0.00000000     0.00000000
 C      1   2   0     1.392079467059   119.46094188     0.00000000
 C      2   1   3     1.407014500390   121.19301297     0.00000000
 C      4   2   1     1.407837705110   118.31390969   359.96979665
 C      5   4   2     1.385400173200   120.49902839     0.02294431
 Br     2   1   3     1.904667759246   119.43346391   180.06060240
 C      4   2   1     1.411906709909   121.55470959   180.03157922
 H      1   2   3     1.084603751548   119.86374088   179.98219076
 H      3   1   2     1.085585536087   119.29792302   179.98613301
 H      5   4   2     1.084983797828   118.62944770   180.02936502
 H      6   5   4     1.085404266669   119.60441919   179.99779635
 N      8   4   2     1.163709776819   174.20175091   181.96191089
 O     13   8   4     1.205752576552   178.74690314   186.02539847

---------------------------
INTERNAL COORDINATES (A.U.)
---------------------------
 C      0   0   0     0.000000000000     0.00000000     0.00000000
 C      1   0   0     2.619835955489     0.00000000     0.00000000
 C      1   2   0     2.630648949396   119.46094188     0.00000000
 C      2   1   3     2.658872072194   121.19301297     0.00000000
 C      4   2   1     2.660427703667   118.31390969   359.96979665
 C      5   4   2     2.618026913235   120.49902839     0.02294431
 Br     2   1   3     3.599300441085   119.43346391   180.06060240
 C      4   2   1     2.668117008375   121.55470959   180.03157922
 H      1   2   3     2.049604054250   119.86374088   179.98219076
 H      3   1   2     2.051459358150   119.29792302   179.98613301
 H      5   4   2     2.050322237637   118.62944770   180.02936502
 H      6   5   4     2.051116808594   119.60441919   179.99779635
 N      8   4   2     2.199092777555   174.20175091   181.96191089
 O     13   8   4     2.278542154953   178.74690314   186.02539847

---------------------
BASIS SET INFORMATION
---------------------
There are 5 groups of distinct atoms

 Group   1 Type C   : 11s6p1d contracted to 5s3p1d pattern {62111/411/1}
 Group   2 Type Br  : 17s13p7d contracted to 6s5p3d pattern {842111/64111/511}
 Group   3 Type H   : 4s1p contracted to 2s1p pattern {31/1}
 Group   4 Type N   : 11s6p2d contracted to 5s3p2d pattern {62111/411/11}
 Group   5 Type O   : 11s6p2d contracted to 5s3p2d pattern {62111/411/11}

Atom   0C    basis set group =>   1
Atom   1C    basis set group =>   1
Atom   2C    basis set group =>   1
Atom   3C    basis set group =>   1
Atom   4C    basis set group =>   1
Atom   5C    basis set group =>   1
Atom   6Br   basis set group =>   2
Atom   7C    basis set group =>   1
Atom   8H    basis set group =>   3
Atom   9H    basis set group =>   3
Atom  10H    basis set group =>   3
Atom  11H    basis set group =>   3
Atom  12N    basis set group =>   4
Atom  13O    basis set group =>   5
---------------------------------
AUXILIARY/J BASIS SET INFORMATION
---------------------------------
There are 5 groups of distinct atoms

 Group   1 Type C   : 8s3p3d contracted to 6s3p3d pattern {311111/111/111}
 Group   2 Type Br  : 19s5p5d3f1g contracted to 8s4p3d2f1g pattern {121111111/2111/311/21/1}
 Group   3 Type H   : 5s2p1d contracted to 3s1p1d pattern {311/2/1}
 Group   4 Type N   : 8s3p3d contracted to 6s3p3d pattern {311111/111/111}
 Group   5 Type O   : 8s3p3d contracted to 6s3p3d pattern {311111/111/111}

Atom   0C    basis set group =>   1
Atom   1C    basis set group =>   1
Atom   2C    basis set group =>   1
Atom   3C    basis set group =>   1
Atom   4C    basis set group =>   1
Atom   5C    basis set group =>   1
Atom   6Br   basis set group =>   2
Atom   7C    basis set group =>   1
Atom   8H    basis set group =>   3
Atom   9H    basis set group =>   3
Atom  10H    basis set group =>   3
Atom  11H    basis set group =>   3
Atom  12N    basis set group =>   4
Atom  13O    basis set group =>   5


           ************************************************************
           *        Program running with 18 parallel MPI-processes    *
           *              working on a common directory               *
           ************************************************************
------------------------------------------------------------------------------
                           ORCA GTO INTEGRAL CALCULATION
                           -- RI-GTO INTEGRALS CHOSEN --
------------------------------------------------------------------------------
------------------------------------------------------------------------------
                   ___                                                        
                  /   \      - P O W E R E D   B Y -                         
                 /     \                                                     
                 |  |  |   _    _      __       _____    __    __             
                 |  |  |  | |  | |    /  \     |  _  \  |  |  /  |          
                  \  \/   | |  | |   /    \    | | | |  |  | /  /          
                 / \  \   | |__| |  /  /\  \   | |_| |  |  |/  /          
                |  |  |   |  __  | /  /__\  \  |    /   |      \           
                |  |  |   | |  | | |   __   |  |    \   |  |\   \          
                \     /   | |  | | |  |  |  |  | |\  \  |  | \   \       
                 \___/    |_|  |_| |__|  |__|  |_| \__\ |__|  \__/        
                                                                              
                      - O R C A' S   B I G   F R I E N D -                    
                                      &                                       
                       - I N T E G R A L  F E E D E R -                       
                                                                              
 v1 FN, 2020, v2 2021                                                         
------------------------------------------------------------------------------


Reading SHARK input file mol.SHARKINP.tmp ... ok
----------------------
SHARK INTEGRAL PACKAGE
----------------------

Number of atoms                             ...     14
Number of basis functions                   ...    237
Number of shells                            ...    109
Maximum angular momentum                    ...      2
Integral batch strategy                     ... SHARK/LIBINT Hybrid
RI-J (if used) integral strategy            ... SPLIT-RIJ (Revised 2003 algorithm where possible)
Printlevel                                  ...      1
Contraction scheme used                     ... SEGMENTED contraction
Coulomb Range Separation                    ... NOT USED
Exchange Range Separation                   ... NOT USED
Finite Nucleus Model                        ... NOT USED
Auxiliary Coulomb fitting basis             ... AVAILABLE
   # of basis functions in Aux-J            ...    372
   # of shells in Aux-J                     ...    146
   Maximum angular momentum in Aux-J        ...      4
Auxiliary J/K fitting basis                 ... NOT available
Auxiliary Correlation fitting basis         ... NOT available
Auxiliary 'external' fitting basis          ... NOT available
Integral threshold                          ...     2.500000e-11
Primitive cut-off                           ...     2.500000e-12
Primitive pair pre-selection threshold      ...     2.500000e-12

Calculating pre-screening integrals         ... done (  0.0 sec) Dimension = 109
Organizing shell pair data                  ... done (  0.0 sec)
Shell pair information
Total number of shell pairs                 ...      5995
Shell pairs after pre-screening             ...      5065
Total number of primitive shell pairs       ...     24807
Primitive shell pairs kept                  ...     14112
          la=0 lb=0:   1403 shell pairs
          la=1 lb=0:   1834 shell pairs
          la=1 lb=1:    609 shell pairs
          la=2 lb=0:    681 shell pairs
          la=2 lb=1:    448 shell pairs
          la=2 lb=2:     90 shell pairs

Calculating one electron integrals          ... done (  0.0 sec)
Calculating RI/J V-Matrix + Cholesky decomp.... done (  0.0 sec)
Calculating Nuclear repulsion               ... done (  0.0 sec) ENN=    687.688714468762 Eh

SHARK setup successfully completed in   0.2 seconds

Maximum memory used throughout the entire GTOINT-calculation: 18.2 MB


           ************************************************************
           *        Program running with 18 parallel MPI-processes    *
           *              working on a common directory               *
           ************************************************************
-------------------------------------------------------------------------------
                                 ORCA SCF
-------------------------------------------------------------------------------

------------
SCF SETTINGS
------------
Hamiltonian:
 Density Functional     Method          .... DFT(GTOs)
  Functional kind                       .... Exchange
  Functional name                       .... Re-regularized SCAN exchange by Furness et al
  Functional family                     .... MGGA
  Functional refs                              
    [ 0] J. W. Furness, A. D. Kaplan, J. Ning, J. P. Perdew, and J. Sun, J. Phys. Chem. Lett. 11, 8208 (2020)
    [ 1] J. W. Furness, A. D. Kaplan, J. Ning, J. P. Perdew, and J. Sun, J. Phys. Chem. Lett. 11, 9248 (2020)
  Functional external parameters         .... 8
 Parameter  0 :         c1 parameter
 Parameter  1 :         c2 parameter
 Parameter  2 :          d parameter
 Parameter  3 :         k1 parameter
 Parameter  4 :       taur parameter
 Parameter  5 :     alphar parameter
 Parameter  6 :        eta parameter
 Parameter  7 :        dp2 parameter
  Functional kind                       .... Correlation
  Functional name                       .... Re-regularized SCAN correlation by Furness et al
  Functional family                     .... MGGA
  Functional refs                              
    [ 0] J. W. Furness, A. D. Kaplan, J. Ning, J. P. Perdew, and J. Sun, J. Phys. Chem. Lett. 11, 8208 (2020)
    [ 1] J. W. Furness, A. D. Kaplan, J. Ning, J. P. Perdew, and J. Sun, J. Phys. Chem. Lett. 11, 9248 (2020)
  Functional external parameters         .... 0
 Gradients option       PostSCFGGA      .... off
   Density functional embedding theory  .... OFF
 RI-approximation to the Coulomb term is turned on
   Number of AuxJ basis functions       .... 372


General Settings:
 Integral files         IntName         .... mol
 Hartree-Fock type      HFTyp           .... RHF
 Total Charge           Charge          ....    0
 Multiplicity           Mult            ....    1
 Number of Electrons    NEL             ....   96
 Basis Dimension        Dim             ....  237
 Nuclear Repulsion      ENuc            ....    687.6887144688 Eh

Convergence Acceleration:
 DIIS                   CNVDIIS         .... on
   Start iteration      DIISMaxIt       ....    12
   Startup error        DIISStart       ....  0.200000
   # of expansion vecs  DIISMaxEq       ....     5
   Bias factor          DIISBfac        ....   1.050
   Max. coefficient     DIISMaxC        ....  10.000
 Trust-Rad. Augm. Hess. CNVTRAH         .... auto
   Auto Start mean grad. ratio tolernc. ....  1.125000
   Auto Start start iteration           ....    20
   Auto Start num. interpolation iter.  ....    10
   Max. Number of Micro iterations      ....    16
   Max. Number of Macro iterations      .... Maxiter - #DIIS iter
   Number of Davidson start vectors     ....     2
   Converg. threshold I  (grad. norm)   ....   1.000e-05
   Converg. threshold II (energy diff.) ....   1.000e-08
   Grad. Scal. Fac. for Micro threshold ....   0.100
   Minimum threshold for Micro iter.    ....   0.010
   NR start threshold (gradient norm)   ....   0.001
   Initial trust radius                 ....   0.400
   Minimum AH scaling param. (alpha)    ....   1.000
   Maximum AH scaling param. (alpha)    .... 1000.000
   Orbital update algorithm             .... Taylor
   White noise on init. David. guess    .... on
   Maximum white noise                  ....   0.010
   Quad. conv. algorithm                .... NR
   COSX micro iterations for RIJONX calc.... off
 SOSCF                  CNVSOSCF        .... on
   Start iteration      SOSCFMaxIt      ....   150
   Startup grad/error   SOSCFStart      ....  0.003300
 Level Shifting         CNVShift        .... on
   Level shift para.    LevelShift      ....    0.2500
   Turn off err/grad.   ShiftErr        ....    0.0010
 Zerner damping         CNVZerner       .... off
 Static damping         CNVDamp         .... on
   Fraction old density DampFac         ....    0.7000
   Max. Damping (<1)    DampMax         ....    0.9800
   Min. Damping (>=0)   DampMin         ....    0.0000
   Turn off err/grad.   DampErr         ....    0.1000
 Fernandez-Rico         CNVRico         .... off

SCF Procedure:
 Maximum # iterations   MaxIter         ....   125
 SCF integral mode      SCFMode         .... Direct
   Integral package                     .... SHARK and LIBINT hybrid scheme
 Reset frequency        DirectResetFreq ....    20
 Integral Threshold     Thresh          ....  2.500e-11 Eh
 Primitive CutOff       TCut            ....  2.500e-12 Eh

Convergence Tolerance:
 Convergence Check Mode ConvCheckMode   .... Total+1el-Energy
 Convergence forced     ConvForced      .... 0
 Energy Change          TolE            ....  1.000e-08 Eh
 1-El. energy change                    ....  1.000e-05 Eh
 Orbital Gradient       TolG            ....  1.000e-05
 Orbital Rotation angle TolX            ....  1.000e-05
 DIIS Error             TolErr          ....  5.000e-07


Diagonalization of the overlap matrix:
Smallest eigenvalue                        ... 2.615e-05
Time for diagonalization                   ...    0.005 sec
Threshold for overlap eigenvalues          ... 1.000e-08
Number of eigenvalues below threshold      ... 0
Time for construction of square roots      ...    0.009 sec
Total time needed                          ...    0.014 sec

Time for model grid setup =    0.077 sec

------------------------------
INITIAL GUESS: MODEL POTENTIAL
------------------------------
Loading Hartree-Fock densities                     ... done
Calculating cut-offs                               ... done
Initializing the effective Hamiltonian             ... done
Setting up the integral package (SHARK)            ... done
Starting the Coulomb interaction                   ... done (   0.0 sec)
Reading the grid                                   ... done
Mapping shells                                     ... done
Starting the XC term evaluation                    ... done (   0.0 sec)
  promolecular density results
     # of electrons  =     95.998110477
     EX              =   -140.941111802
     EC              =     -3.759761042
     EX+EC           =   -144.700872844
Transforming the Hamiltonian                       ... done (   0.0 sec)
Diagonalizing the Hamiltonian                      ... done (   0.0 sec)
Back transforming the eigenvectors                 ... done (   0.0 sec)
Now organizing SCF variables                       ... done
                      ------------------
                      INITIAL GUESS DONE (   0.2 sec)
                      ------------------
-------------------
DFT GRID GENERATION
-------------------

General Integration Accuracy     IntAcc      ... 4.388
Radial Grid Type                 RadialGrid  ... OptM3 with GC (2021)
Angular Grid (max. ang.)         AngularGrid ... 4 (Lebedev-302)
Angular grid pruning method      GridPruning ... 4 (adaptive)
Weight generation scheme         WeightScheme... Becke
Basis function cutoff            BFCut       ... 1.0000e-11
Integration weight cutoff        WCut        ... 1.0000e-14
Angular grids for H and He will be reduced by one unit
Partially contracted basis set               ... off
Rotationally invariant grid construction     ... off

Total number of grid points                  ...    78778
Total number of batches                      ...     1239
Average number of points per batch           ...       63
Average number of grid points per atom       ...     5627
Time for grid setup =    0.337 sec


--------------------
CPCM SOLVATION MODEL
--------------------
CPCM parameters:
  Epsilon                                         ...       2.2800
  Refrac                                          ...       1.5010
  Rsolv                                           ...       1.3000
  Surface type                                    ... GAUSSIAN VDW
  Epsilon function type                           ...         CPCM
Radii:
 Radius for C  used is    3.8550 Bohr (=   2.0400 Ang.)
 Radius for Br used is    4.1952 Bohr (=   2.2200 Ang.)
 Radius for H  used is    2.4944 Bohr (=   1.3200 Ang.)
 Radius for N  used is    3.5149 Bohr (=   1.8600 Ang.)
 Radius for O  used is    3.4469 Bohr (=   1.8240 Ang.)
Calculating surface                               ...        done! (  0.0s)
GEPOL surface points                              ...          842
GEPOL Volume                                      ...    1209.3470
GEPOL Surface-area                                ...     669.0139
Calculating surface distance matrix               ...        done! (  0.0s)
Performing Cholesky decomposition & store         ...        done! (  0.0s)
Overall time for CPCM initialization              ...                 0.0s
--------------
SCF ITERATIONS
--------------
ITER       Energy         Delta-E        Max-DP      RMS-DP      [F,P]     Damp
               ***  Starting incremental Fock matrix formation  ***
  0  -2972.9390281410   0.000000000000 0.11342868  0.00160118  0.1694391 0.7000
  1  -2973.0159321958  -0.076904054808 0.09144795  0.00117836  0.0647231 0.7000
                               ***Turning on DIIS***
  2  -2973.0453876952  -0.029455499318 0.12709020  0.00211657  0.0298528 0.0000
  3  -2973.0907501833  -0.045362488122 0.06007419  0.00094360  0.0403412 0.0000
  4  -2973.1024665432  -0.011716359946 0.01611312  0.00033822  0.0119703 0.0000
  5  -2973.1031888659  -0.000722322714 0.01288603  0.00016758  0.0081152 0.0000
                      *** Initiating the SOSCF procedure ***
                           *** Shutting down DIIS ***
                      *** Re-Reading the Fockian *** 
                      *** Removing any level shift *** 
ITER      Energy       Delta-E        Grad      Rot      Max-DP    RMS-DP
  6  -2973.10331315  -0.0001242809  0.000451  0.000451  0.003505  0.000059
               *** Restarting incremental Fock matrix formation ***
  7  -2973.10332249  -0.0000093421  0.000215  0.000696  0.001608  0.000034
  8  -2973.10332014   0.0000023468  0.000531  0.000455  0.000835  0.000013
  9  -2973.10332367  -0.0000035282  0.000171  0.000669  0.000376  0.000011
 10  -2973.10332203   0.0000016425  0.000461  0.000511  0.000305  0.000007
 11  -2973.10332388  -0.0000018525  0.000019  0.000033  0.000100  0.000002
 12  -2973.10332387   0.0000000071  0.000014  0.000030  0.000045  0.000001
 13  -2973.10332388  -0.0000000026  0.000007  0.000023  0.000042  0.000001
 14  -2973.10332388  -0.0000000050  0.000009  0.000009  0.000021  0.000001
                  ***Gradient check signals convergence***
              ***Rediagonalizing the Fockian in SOSCF/NRSCF***

               *****************************************************
               *                     SUCCESS                       *
               *           SCF CONVERGED AFTER  15 CYCLES          *
               *****************************************************


----------------
TOTAL SCF ENERGY
----------------

Total Energy       :        -2973.10332388 Eh          -80902.25443 eV

Components:
Nuclear Repulsion  :          687.68871447 Eh           18712.96127 eV
Electronic Energy  :        -3660.79203835 Eh          -99615.21570 eV
One Electron Energy:        -5488.97720941 Eh         -149362.66332 eV
Two Electron Energy:         1828.18517107 Eh           49747.44762 eV
CPCM Dielectric    :           -0.00501353 Eh              -0.13642 eV

Virial components:
Potential Energy   :        -5941.07542455 Eh         -161664.88119 eV
Kinetic Energy     :         2967.97210068 Eh           80762.62675 eV
Virial Ratio       :            2.00172887


DFT components:
N(Alpha)           :       47.999986215694 electrons
N(Beta)            :       47.999986215694 electrons
N(Total)           :       95.999972431388 electrons
E(X)               :     -142.328150672909 Eh       
E(C)               :       -3.740166573185 Eh       
E(XC)              :     -146.068317246094 Eh       
DFET-embed. en.    :        0.000000000000 Eh       
CPCM Solvation Model Properties:
Surface-charge          :           -0.02053766
Charge-correction       :            0.00004284 Eh               0.00117 eV
Free-energy (cav+disp)  :  This term is not implemented in the current solvation scheme

---------------
SCF CONVERGENCE
---------------

  Last Energy change         ...    2.7276e-09  Tolerance :   1.0000e-08
  Last MAX-Density change    ...    3.7663e-05  Tolerance :   1.0000e-07
  Last RMS-Density change    ...    8.8909e-07  Tolerance :   5.0000e-09
  Last Orbital Gradient      ...    1.1033e-06  Tolerance :   1.0000e-05
  Last Orbital Rotation      ...    4.3048e-06  Tolerance :   1.0000e-05

             **** THE GBW FILE WAS UPDATED (mol.gbw) ****
             **** DENSITY mol.scfp WAS UPDATED ****
             **** ENERGY FILE WAS UPDATED (mol.en.tmp) ****
             **** THE GBW FILE WAS UPDATED (mol.gbw) ****
             **** DENSITY mol.scfp WAS UPDATED ****
----------------
ORBITAL ENERGIES
----------------

  NO   OCC          E(Eh)            E(eV) 
   0   2.0000    -482.245101    -13122.5563 
   1   2.0000     -62.316124     -1695.7079 
   2   2.0000     -56.097290     -1526.4849 
   3   2.0000     -56.093513     -1526.3821 
   4   2.0000     -56.093464     -1526.3807 
   5   2.0000     -18.996571      -516.9230 
   6   2.0000     -14.307541      -389.3280 
   7   2.0000     -10.120073      -275.3812 
   8   2.0000     -10.104674      -274.9622 
   9   2.0000     -10.100398      -274.8458 
  10   2.0000     -10.069859      -274.0148 
  11   2.0000     -10.067007      -273.9372 
  12   2.0000     -10.064409      -273.8665 
  13   2.0000     -10.061019      -273.7743 
  14   2.0000      -8.647986      -235.3237 
  15   2.0000      -6.455865      -175.6730 
  16   2.0000      -6.441828      -175.2910 
  17   2.0000      -6.441231      -175.2748 
  18   2.0000      -2.553264       -69.4779 
  19   2.0000      -2.550070       -69.3909 
  20   2.0000      -2.549648       -69.3794 
  21   2.0000      -2.538962       -69.0887 
  22   2.0000      -2.538947       -69.0883 
  23   2.0000      -1.127565       -30.6826 
  24   2.0000      -0.893029       -24.3005 
  25   2.0000      -0.863272       -23.4908 
  26   2.0000      -0.790341       -21.5063 
  27   2.0000      -0.762330       -20.7440 
  28   2.0000      -0.715650       -19.4738 
  29   2.0000      -0.632251       -17.2044 
  30   2.0000      -0.596988       -16.2449 
  31   2.0000      -0.539251       -14.6738 
  32   2.0000      -0.505533       -13.7562 
  33   2.0000      -0.474962       -12.9244 
  34   2.0000      -0.469509       -12.7760 
  35   2.0000      -0.462523       -12.5859 
  36   2.0000      -0.446129       -12.1398 
  37   2.0000      -0.429527       -11.6880 
  38   2.0000      -0.411275       -11.1914 
  39   2.0000      -0.390004       -10.6126 
  40   2.0000      -0.357618        -9.7313 
  41   2.0000      -0.346087        -9.4175 
  42   2.0000      -0.310581        -8.4513 
  43   2.0000      -0.296724        -8.0743 
  44   2.0000      -0.282515        -7.6876 
  45   2.0000      -0.249155        -6.7798 
  46   2.0000      -0.244894        -6.6639 
  47   2.0000      -0.225400        -6.1335 
  48   0.0000      -0.086741        -2.3603 
  49   0.0000      -0.060653        -1.6505 
  50   0.0000      -0.040615        -1.1052 
  51   0.0000      -0.006253        -0.1702 
  52   0.0000       0.032949         0.8966 
  53   0.0000       0.060334         1.6418 
  54   0.0000       0.091058         2.4778 
  55   0.0000       0.105115         2.8603 
  56   0.0000       0.111948         3.0463 
  57   0.0000       0.112364         3.0576 
  58   0.0000       0.123017         3.3475 
  59   0.0000       0.131290         3.5726 
  60   0.0000       0.152184         4.1411 
  61   0.0000       0.177932         4.8418 
  62   0.0000       0.192112         5.2276 
  63   0.0000       0.193595         5.2680 
  64   0.0000       0.205606         5.5948 
  65   0.0000       0.213660         5.8140 
  66   0.0000       0.216196         5.8830 
  67   0.0000       0.231933         6.3112 
  68   0.0000       0.235732         6.4146 
  69   0.0000       0.243164         6.6168 
  70   0.0000       0.244081         6.6418 
  71   0.0000       0.272518         7.4156 
  72   0.0000       0.281619         7.6632 
  73   0.0000       0.288375         7.8471 
  74   0.0000       0.289914         7.8890 
  75   0.0000       0.299197         8.1416 
  76   0.0000       0.300484         8.1766 
  77   0.0000       0.310663         8.4536 
  78   0.0000       0.317425         8.6376 
  79   0.0000       0.319075         8.6825 
  80   0.0000       0.348121         9.4728 
  81   0.0000       0.356034         9.6882 
  82   0.0000       0.371930        10.1207 
  83   0.0000       0.391492        10.6530 
  84   0.0000       0.401505        10.9255 
  85   0.0000       0.410851        11.1798 
  86   0.0000       0.417025        11.3478 
  87   0.0000       0.432446        11.7674 
  88   0.0000       0.446982        12.1630 
  89   0.0000       0.476948        12.9784 
  90   0.0000       0.479839        13.0571 
  91   0.0000       0.482156        13.1201 
  92   0.0000       0.497458        13.5365 
  93   0.0000       0.508945        13.8491 
  94   0.0000       0.525757        14.3066 
  95   0.0000       0.544092        14.8055 
  96   0.0000       0.547713        14.9040 
  97   0.0000       0.562274        15.3002 
  98   0.0000       0.576861        15.6972 
  99   0.0000       0.577895        15.7253 
 100   0.0000       0.596691        16.2368 
 101   0.0000       0.620085        16.8734 
 102   0.0000       0.627401        17.0724 
 103   0.0000       0.635766        17.3001 
 104   0.0000       0.646048        17.5798 
 105   0.0000       0.652285        17.7496 
 106   0.0000       0.670489        18.2449 
 107   0.0000       0.675651        18.3854 
 108   0.0000       0.700085        19.0503 
 109   0.0000       0.711134        19.3509 
 110   0.0000       0.740422        20.1479 
 111   0.0000       0.786358        21.3979 
 112   0.0000       0.804368        21.8880 
 113   0.0000       0.818277        22.2665 
 114   0.0000       0.911617        24.8064 
 115   0.0000       0.949974        25.8501 
 116   0.0000       0.993666        27.0390 
 117   0.0000       1.029434        28.0123 
 118   0.0000       1.043967        28.4078 
 119   0.0000       1.050942        28.5976 
 120   0.0000       1.056925        28.7604 
 121   0.0000       1.067465        29.0472 
 122   0.0000       1.103177        30.0190 
 123   0.0000       1.140755        31.0415 
 124   0.0000       1.193871        32.4869 
 125   0.0000       1.228615        33.4323 
 126   0.0000       1.275134        34.6982 
 127   0.0000       1.281725        34.8775 
 128   0.0000       1.307295        35.5733 
 129   0.0000       1.331723        36.2380 
 130   0.0000       1.336020        36.3550 
 131   0.0000       1.345258        36.6063 
 132   0.0000       1.372924        37.3592 
 133   0.0000       1.389001        37.7966 
 134   0.0000       1.403273        38.1850 
 135   0.0000       1.412574        38.4381 
 136   0.0000       1.420005        38.6403 
 137   0.0000       1.433778        39.0151 
 138   0.0000       1.456177        39.6246 
 139   0.0000       1.464039        39.8385 
 140   0.0000       1.467616        39.9359 
 141   0.0000       1.471810        40.0500 
 142   0.0000       1.476442        40.1760 
 143   0.0000       1.497835        40.7582 
 144   0.0000       1.526817        41.5468 
 145   0.0000       1.533163        41.7195 
 146   0.0000       1.541157        41.9370 
 147   0.0000       1.560389        42.4603 
 148   0.0000       1.576173        42.8898 
 149   0.0000       1.590105        43.2690 
 150   0.0000       1.619493        44.0686 
 151   0.0000       1.665916        45.3319 
 152   0.0000       1.679509        45.7018 
 153   0.0000       1.705121        46.3987 
 154   0.0000       1.706300        46.4308 
 155   0.0000       1.754369        47.7388 
 156   0.0000       1.779648        48.4267 
 157   0.0000       1.788259        48.6610 
 158   0.0000       1.829431        49.7813 
 159   0.0000       1.871254        50.9194 
 160   0.0000       1.944722        52.9186 
 161   0.0000       1.965688        53.4891 
 162   0.0000       2.009266        54.6749 
 163   0.0000       2.011759        54.7428 
 164   0.0000       2.033445        55.3328 
 165   0.0000       2.053254        55.8719 
 166   0.0000       2.058963        56.0272 
 167   0.0000       2.109932        57.4142 
 168   0.0000       2.123279        57.7774 
 169   0.0000       2.129496        57.9465 
 170   0.0000       2.152671        58.5772 
 171   0.0000       2.164476        58.8984 
 172   0.0000       2.190308        59.6013 
 173   0.0000       2.223807        60.5129 
 174   0.0000       2.225118        60.5485 
 175   0.0000       2.240624        60.9705 
 176   0.0000       2.246400        61.1277 
 177   0.0000       2.279616        62.0315 
 178   0.0000       2.305936        62.7477 
 179   0.0000       2.324085        63.2416 
 180   0.0000       2.324479        63.2523 
 181   0.0000       2.335033        63.5395 
 182   0.0000       2.339030        63.6482 
 183   0.0000       2.344946        63.8092 
 184   0.0000       2.370826        64.5134 
 185   0.0000       2.392814        65.1118 
 186   0.0000       2.436259        66.2940 
 187   0.0000       2.475216        67.3541 
 188   0.0000       2.511335        68.3369 
 189   0.0000       2.539135        69.0934 
 190   0.0000       2.584062        70.3159 
 191   0.0000       2.622330        71.3572 
 192   0.0000       2.626686        71.4757 
 193   0.0000       2.644791        71.9684 
 194   0.0000       2.648871        72.0794 
 195   0.0000       2.672747        72.7291 
 196   0.0000       2.691077        73.2279 
 197   0.0000       2.736318        74.4590 
 198   0.0000       2.743004        74.6409 
 199   0.0000       2.774044        75.4856 
 200   0.0000       2.803261        76.2806 
 201   0.0000       2.827388        76.9371 
 202   0.0000       2.844200        77.3946 
 203   0.0000       2.890494        78.6543 
 204   0.0000       2.892522        78.7095 
 205   0.0000       2.899823        78.9082 
 206   0.0000       2.937150        79.9239 
 207   0.0000       2.956028        80.4376 
 208   0.0000       2.977601        81.0246 
 209   0.0000       3.024590        82.3033 
 210   0.0000       3.107565        84.5612 
 211   0.0000       3.151965        85.7693 
 212   0.0000       3.185099        86.6710 
 213   0.0000       3.203911        87.1829 
 214   0.0000       3.235862        88.0523 
 215   0.0000       3.283858        89.3583 
 216   0.0000       3.366097        91.5962 
 217   0.0000       3.399560        92.5067 
 218   0.0000       3.527660        95.9925 
 219   0.0000       3.563914        96.9790 
 220   0.0000       3.594831        97.8203 
 221   0.0000       3.614955        98.3679 
 222   0.0000       3.676992       100.0560 
 223   0.0000       3.753134       102.1280 
 224   0.0000       3.883296       105.6699 
 225   0.0000       4.015515       109.2677 
 226   0.0000       5.274580       143.5286 
 227   0.0000       7.517032       204.5488 
 228   0.0000      21.313422       579.9677 
 229   0.0000      21.779311       592.6452 
 230   0.0000      21.872139       595.1712 
 231   0.0000      22.065646       600.4368 
 232   0.0000      22.126361       602.0889 
 233   0.0000      22.258283       605.6787 
 234   0.0000      22.446787       610.8081 
 235   0.0000      31.955609       869.5563 
 236   0.0000      44.000984      1197.3276 

                    ********************************
                    * MULLIKEN POPULATION ANALYSIS *
                    ********************************

-----------------------
MULLIKEN ATOMIC CHARGES
-----------------------
   0 C :   -0.162437
   1 C :   -0.030440
   2 C :   -0.121994
   3 C :    0.001114
   4 C :   -0.206881
   5 C :   -0.165593
   6 Br:   -0.098322
   7 C :    0.152456
   8 H :    0.181726
   9 H :    0.171709
  10 H :    0.175837
  11 H :    0.169666
  12 N :    0.348985
  13 O :   -0.415827
Sum of atomic charges:    0.0000000

--------------------------------
MULLIKEN REDUCED ORBITAL CHARGES
--------------------------------
  0 C s       :     3.190386  s :     3.190386
      pz      :     0.982093  p :     2.934131
      px      :     1.032234
      py      :     0.919804
      dz2     :     0.003300  d :     0.037920
      dxz     :     0.002707
      dyz     :     0.006713
      dx2y2   :     0.011988
      dxy     :     0.013212
  1 C s       :     3.255151  s :     3.255151
      pz      :     1.042596  p :     2.726832
      px      :     0.909455
      py      :     0.774781
      dz2     :     0.003528  d :     0.048457
      dxz     :     0.007163
      dyz     :     0.006481
      dx2y2   :     0.016564
      dxy     :     0.014721
  2 C s       :     3.197847  s :     3.197847
      pz      :     0.961570  p :     2.885729
      px      :     0.952654
      py      :     0.971505
      dz2     :     0.003244  d :     0.038419
      dxz     :     0.004970
      dyz     :     0.004161
      dx2y2   :     0.012450
      dxy     :     0.013594
  3 C s       :     3.282726  s :     3.282726
      pz      :     1.037373  p :     2.662067
      px      :     0.777498
      py      :     0.847197
      dz2     :     0.004026  d :     0.054092
      dxz     :     0.007359
      dyz     :     0.007264
      dx2y2   :     0.017640
      dxy     :     0.017804
  4 C s       :     3.248155  s :     3.248155
      pz      :     0.971029  p :     2.920827
      px      :     1.040176
      py      :     0.909621
      dz2     :     0.003269  d :     0.037899
      dxz     :     0.002461
      dyz     :     0.006868
      dx2y2   :     0.013616
      dxy     :     0.011684
  5 C s       :     3.217676  s :     3.217676
      pz      :     0.978012  p :     2.909619
      px      :     0.917594
      py      :     1.014013
      dz2     :     0.003245  d :     0.038298
      dxz     :     0.005931
      dyz     :     0.003064
      dx2y2   :     0.012889
      dxy     :     0.013170
  6 Brs       :     7.979757  s :     7.979757
      pz      :     5.925401  p :    17.069659
      px      :     5.842246
      py      :     5.302012
      dz2     :     2.006214  d :    10.048906
      dxz     :     2.002150
      dyz     :     2.012934
      dx2y2   :     2.014323
      dxy     :     2.013285
  7 C s       :     3.109912  s :     3.109912
      pz      :     1.005630  p :     2.681745
      px      :     0.855913
      py      :     0.820202
      dz2     :     0.004955  d :     0.055887
      dxz     :     0.009014
      dyz     :     0.010185
      dx2y2   :     0.017393
      dxy     :     0.014340
  8 H s       :     0.798846  s :     0.798846
      pz      :     0.003954  p :     0.019428
      px      :     0.012276
      py      :     0.003198
  9 H s       :     0.809055  s :     0.809055
      pz      :     0.003907  p :     0.019235
      px      :     0.006665
      py      :     0.008664
 10 H s       :     0.804735  s :     0.804735
      pz      :     0.003976  p :     0.019428
      px      :     0.012326
      py      :     0.003126
 11 H s       :     0.811074  s :     0.811074
      pz      :     0.003943  p :     0.019260
      px      :     0.004248
      py      :     0.011069
 12 N s       :     3.046499  s :     3.046499
      pz      :     1.235198  p :     3.358999
      px      :     1.067134
      py      :     1.056667
      dz2     :     0.007097  d :     0.245517
      dxz     :     0.047551
      dyz     :     0.050616
      dx2y2   :     0.121144
      dxy     :     0.019109
 13 O s       :     3.932133  s :     3.932133
      pz      :     1.624457  p :     4.436693
      px      :     1.421652
      py      :     1.390584
      dz2     :     0.003194  d :     0.047000
      dxz     :     0.008145
      dyz     :     0.008854
      dx2y2   :     0.017196
      dxy     :     0.009612

------------------------
MULLIKEN OVERLAP CHARGES
------------------------
B(  0-C ,  1-C ) :   0.5916 B(  0-C ,  2-C ) :   0.7928 B(  0-C ,  3-C ) :  -0.1399 
B(  0-C ,  4-C ) :  -0.1183 B(  0-C ,  5-C ) :  -0.1365 B(  0-C ,  6-Br) :  -0.2049 
B(  0-C ,  7-C ) :   0.0764 B(  0-C ,  8-H ) :   0.8125 B(  0-C ,  9-H ) :  -0.0675 
B(  1-C ,  2-C ) :  -0.1260 B(  1-C ,  3-C ) :   0.8512 B(  1-C ,  4-C ) :  -0.2277 
B(  1-C ,  6-Br) :   0.8053 B(  1-C ,  7-C ) :  -0.4364 B(  1-C ,  8-H ) :  -0.0676 
B(  2-C ,  4-C ) :  -0.1234 B(  2-C ,  5-C ) :   0.9258 B(  2-C ,  9-H ) :   0.8083 
B(  2-C , 11-H ) :  -0.0659 B(  3-C ,  4-C ) :   0.7991 B(  3-C ,  5-C ) :  -0.1185 
B(  3-C ,  6-Br) :  -0.2817 B(  3-C ,  7-C ) :   0.5961 B(  3-C , 10-H ) :  -0.0635 
B(  3-C , 12-N ) :  -0.0529 B(  4-C ,  5-C ) :   0.7548 B(  4-C ,  7-C ) :  -0.2146 
B(  4-C , 10-H ) :   0.8063 B(  4-C , 11-H ) :  -0.0603 B(  5-C ,  9-H ) :  -0.0631 
B(  5-C , 11-H ) :   0.8116 B(  7-C , 12-N ) :   1.0219 B(  7-C , 13-O ) :   0.0802 
B( 12-N , 13-O ) :   0.7165 


                     *******************************
                     * LOEWDIN POPULATION ANALYSIS *
                     *******************************

----------------------
LOEWDIN ATOMIC CHARGES
----------------------
   0 C :   -0.166838
   1 C :   -0.205958
   2 C :   -0.142288
   3 C :   -0.075198
   4 C :   -0.116063
   5 C :   -0.155037
   6 Br:    0.230688
   7 C :    0.285829
   8 H :    0.188453
   9 H :    0.181237
  10 H :    0.188676
  11 H :    0.181490
  12 N :   -0.350592
  13 O :   -0.044401

-------------------------------
LOEWDIN REDUCED ORBITAL CHARGES
-------------------------------
  0 C s       :     2.908773  s :     2.908773
      pz      :     0.977269  p :     3.176545
      px      :     1.106366
      py      :     1.092911
      dz2     :     0.005863  d :     0.081519
      dxz     :     0.004161
      dyz     :     0.012491
      dx2y2   :     0.028688
      dxy     :     0.030316
  1 C s       :     2.928189  s :     2.928189
      pz      :     1.035079  p :     3.180066
      px      :     1.100734
      py      :     1.044253
      dz2     :     0.007037  d :     0.097702
      dxz     :     0.012681
      dyz     :     0.010713
      dx2y2   :     0.035386
      dxy     :     0.031885
  2 C s       :     2.910734  s :     2.910734
      pz      :     0.954822  p :     3.150603
      px      :     1.099949
      py      :     1.095832
      dz2     :     0.005541  d :     0.080951
      dxz     :     0.008748
      dyz     :     0.007127
      dx2y2   :     0.027956
      dxy     :     0.031579
  3 C s       :     2.843144  s :     2.843144
      pz      :     1.023867  p :     3.123038
      px      :     1.048440
      py      :     1.050731
      dz2     :     0.007362  d :     0.109016
      dxz     :     0.013044
      dyz     :     0.012494
      dx2y2   :     0.039009
      dxy     :     0.037107
  4 C s       :     2.903725  s :     2.903725
      pz      :     0.963585  p :     3.132242
      px      :     1.110163
      py      :     1.058494
      dz2     :     0.005665  d :     0.080096
      dxz     :     0.003711
      dyz     :     0.012607
      dx2y2   :     0.031505
      dxy     :     0.026609
  5 C s       :     2.907616  s :     2.907616
      pz      :     0.967928  p :     3.166194
      px      :     1.093726
      py      :     1.104541
      dz2     :     0.005576  d :     0.081227
      dxz     :     0.010850
      dyz     :     0.004875
      dx2y2   :     0.029666
      dxy     :     0.030259
  6 Brs       :     7.670091  s :     7.670091
      pz      :     5.907543  p :    17.030340
      px      :     5.812460
      py      :     5.310337
      dz2     :     2.009876  d :    10.068880
      dxz     :     2.002418
      dyz     :     2.015745
      dx2y2   :     2.021115
      dxy     :     2.019726
  7 C s       :     2.790678  s :     2.790678
      pz      :     0.902281  p :     2.819264
      px      :     0.954361
      py      :     0.962622
      dz2     :     0.009829  d :     0.104229
      dxz     :     0.016251
      dyz     :     0.018743
      dx2y2   :     0.030388
      dxy     :     0.029018
  8 H s       :     0.766214  s :     0.766214
      pz      :     0.008718  p :     0.045332
      px      :     0.029833
      py      :     0.006782
  9 H s       :     0.773950  s :     0.773950
      pz      :     0.008465  p :     0.044812
      px      :     0.015711
      py      :     0.020637
 10 H s       :     0.765988  s :     0.765988
      pz      :     0.008771  p :     0.045335
      px      :     0.029860
      py      :     0.006704
 11 H s       :     0.773770  s :     0.773770
      pz      :     0.008553  p :     0.044740
      px      :     0.009687
      py      :     0.026500
 12 N s       :     2.990647  s :     2.990647
      pz      :     1.152905  p :     3.471522
      px      :     1.159495
      py      :     1.159122
      dz2     :     0.060384  d :     0.888424
      dxz     :     0.155120
      dyz     :     0.164073
      dx2y2   :     0.330438
      dxy     :     0.178409
 13 O s       :     3.472049  s :     3.472049
      pz      :     1.517639  p :     4.316681
      px      :     1.405788
      py      :     1.393254
      dz2     :     0.023749  d :     0.255671
      dxz     :     0.038781
      dyz     :     0.042670
      dx2y2   :     0.079966
      dxy     :     0.070505

---------------------------------
LOEWDIN BOND ORDERS (THRESH 0.050000)
---------------------------------
B(  0-C ,  1-C ) :   1.4817 B(  0-C ,  2-C ) :   1.4976 B(  0-C ,  3-C ) :   0.0862 
B(  0-C ,  4-C ) :   0.1202 B(  0-C ,  5-C ) :   0.0867 B(  0-C ,  6-Br) :   0.1348 
B(  0-C ,  8-H ) :   0.8634 B(  0-C ,  9-H ) :   0.0535 B(  1-C ,  2-C ) :   0.0927 
B(  1-C ,  3-C ) :   1.3360 B(  1-C ,  4-C ) :   0.0825 B(  1-C ,  5-C ) :   0.1135 
B(  1-C ,  6-Br) :   1.3312 B(  1-C ,  7-C ) :   0.0945 B(  1-C ,  8-H ) :   0.0529 
B(  2-C ,  3-C ) :   0.1091 B(  2-C ,  4-C ) :   0.0889 B(  2-C ,  5-C ) :   1.4865 
B(  2-C ,  8-H ) :   0.0519 B(  2-C ,  9-H ) :   0.8693 B(  2-C , 11-H ) :   0.0521 
B(  3-C ,  4-C ) :   1.3686 B(  3-C ,  5-C ) :   0.0871 B(  3-C ,  6-Br) :   0.1281 
B(  3-C ,  7-C ) :   1.0937 B(  3-C , 10-H ) :   0.0502 B(  3-C , 12-N ) :   0.1872 
B(  4-C ,  5-C ) :   1.5318 B(  4-C ,  7-C ) :   0.0984 B(  4-C , 10-H ) :   0.8605 
B(  4-C , 11-H ) :   0.0550 B(  5-C ,  9-H ) :   0.0522 B(  5-C , 10-H ) :   0.0521 
B(  5-C , 11-H ) :   0.8684 B(  6-Br,  7-C ) :   0.0580 B(  7-C , 12-N ) :   2.4998 
B(  7-C , 13-O ) :   0.4832 B( 12-N , 13-O ) :   2.9168 


                      *****************************
                      * MAYER POPULATION ANALYSIS *
                      *****************************

  NA   - Mulliken gross atomic population
  ZA   - Total nuclear charge
  QA   - Mulliken gross atomic charge
  VA   - Mayer's total valence
  BVA  - Mayer's bonded valence
  FA   - Mayer's free valence

  ATOM       NA         ZA         QA         VA         BVA        FA
  0 C      6.1624     6.0000    -0.1624     3.7033     3.7033     0.0000
  1 C      6.0304     6.0000    -0.0304     3.7936     3.7936     0.0000
  2 C      6.1220     6.0000    -0.1220     3.7854     3.7854    -0.0000
  3 C      5.9989     6.0000     0.0011     3.7985     3.7985     0.0000
  4 C      6.2069     6.0000    -0.2069     3.7512     3.7512     0.0000
  5 C      6.1656     6.0000    -0.1656     3.8032     3.8032    -0.0000
  6 Br    35.0983    35.0000    -0.0983     1.1662     1.1662     0.0000
  7 C      5.8475     6.0000     0.1525     3.7800     3.7800     0.0000
  8 H      0.8183     1.0000     0.1817     0.9595     0.9595     0.0000
  9 H      0.8283     1.0000     0.1717     0.9610     0.9610    -0.0000
 10 H      0.8242     1.0000     0.1758     0.9617     0.9617     0.0000
 11 H      0.8303     1.0000     0.1697     0.9627     0.9627    -0.0000
 12 N      6.6510     7.0000     0.3490     3.9543     3.9543     0.0000
 13 O      8.4158     8.0000    -0.4158     2.1096     2.1096     0.0000

  Mayer bond orders larger than 0.100000
B(  0-C ,  1-C ) :   1.3475 B(  0-C ,  2-C ) :   1.3846 B(  0-C ,  8-H ) :   0.9416 
B(  1-C ,  3-C ) :   1.3299 B(  1-C ,  6-Br) :   1.1461 B(  1-C ,  7-C ) :  -0.1191 
B(  2-C ,  5-C ) :   1.3778 B(  2-C ,  9-H ) :   0.9483 B(  3-C ,  4-C ) :   1.3465 
B(  3-C ,  7-C ) :   1.2029 B(  4-C ,  5-C ) :   1.4154 B(  4-C , 10-H ) :   0.9493 
B(  5-C , 11-H ) :   0.9509 B(  7-C , 12-N ) :   2.3374 B(  7-C , 13-O ) :   0.3905 
B( 12-N , 13-O ) :   1.5790 


------------------
HIRSHFELD ANALYSIS
------------------

Total integrated alpha density =     47.999986216
Total integrated beta density  =     47.999986216

  ATOM     CHARGE      SPIN    
   0 C   -0.032823    0.000000
   1 C    0.024097    0.000000
   2 C   -0.021130    0.000000
   3 C    0.006319    0.000000
   4 C   -0.019915    0.000000
   5 C   -0.029613    0.000000
   6 Br  -0.052063    0.000000
   7 C    0.038194    0.000000
   8 H    0.057931    0.000000
   9 H    0.057005    0.000000
  10 H    0.058953    0.000000
  11 H    0.055992    0.000000
  12 N    0.074514    0.000000
  13 O   -0.217433    0.000000

  TOTAL   0.000028    0.000000

-------
TIMINGS
-------

Total SCF time: 0 days 0 hours 0 min 6 sec 

Total time                  ....       6.952 sec
Sum of individual times     ....       6.557 sec  ( 94.3%)

Fock matrix formation       ....       5.519 sec  ( 79.4%)
  Split-RI-J                ....       0.518 sec  (  9.4% of F)
  XC integration            ....       3.497 sec  ( 63.4% of F)
    Basis function eval.    ....       0.207 sec  (  5.9% of XC)
    Density eval.           ....       0.386 sec  ( 11.0% of XC)
    XC-Functional eval.     ....       0.202 sec  (  5.8% of XC)
    XC-Potential eval.      ....       0.424 sec  ( 12.1% of XC)
Diagonalization             ....       0.079 sec  (  1.1%)
Density matrix formation    ....       0.037 sec  (  0.5%)
Population analysis         ....       0.238 sec  (  3.4%)
Initial guess               ....       0.106 sec  (  1.5%)
Orbital Transformation      ....       0.000 sec  (  0.0%)
Orbital Orthonormalization  ....       0.000 sec  (  0.0%)
DIIS solution               ....       0.088 sec  (  1.3%)
SOSCF solution              ....       0.076 sec  (  1.1%)
Grid generation             ....       0.415 sec  (  6.0%)

Maximum memory used throughout the entire SCF-calculation: 28.5 MB


-------------------------------------------------------------------------------
                          DFT DISPERSION CORRECTION                            
                                                                               
                                 DFTD4 V2.5                                    
-------------------------------------------------------------------------------
The R2SCAN3C composite method is recognized
Using three-body term ABC
Active option DFTDOPT                   ...         5   

Starting D4
-------------------------   ----------------
Dispersion correction           -0.005590392
-------------------------   ----------------

------------------   -----------------
gCP correction             0.004924478
------------------   -----------------

-------------------------   --------------------
FINAL SINGLE POINT ENERGY     -2973.103989792437
-------------------------   --------------------


                            ***************************************
                            *     ORCA property calculations      *
                            ***************************************

                                    ---------------------
                                    Active property flags
                                    ---------------------
   (+) Dipole Moment


------------------------------------------------------------------------------
                       ORCA ELECTRIC PROPERTIES CALCULATION
------------------------------------------------------------------------------

Dipole Moment Calculation                       ... on
Quadrupole Moment Calculation                   ... off
Polarizability Calculation                      ... off
GBWName                                         ... mol.gbw
Electron density                                ... mol.scfp
The origin for moment calculation is the CENTER OF MASS  = ( 2.526033,  3.057746  0.861429)

-------------
DIPOLE MOMENT
-------------
                                X             Y             Z
Electronic contribution:    -12.06519      19.96652      -1.19784
Nuclear contribution   :     11.15906     -21.93284       1.14184
                        -----------------------------------------
Total Dipole Moment    :     -0.90613      -1.96631      -0.05601
                        -----------------------------------------
Magnitude (a.u.)       :      2.16578
Magnitude (Debye)      :      5.50497



--------------------
Rotational spectrum 
--------------------
 
Rotational constants in cm-1:     0.034130     0.028632     0.015570 
Rotational constants in MHz :  1023.191134   858.371698   466.781391 

 Dipole components along the rotational axes: 
x,y,z [a.u.] :    -2.137408    -0.349404     0.000239 
x,y,z [Debye]:    -5.432859    -0.888115     0.000608 

 

Timings for individual modules:

Sum of individual times         ...        8.108 sec (=   0.135 min)
GTO integral calculation        ...        0.659 sec (=   0.011 min)   8.1 %
SCF iterations                  ...        7.449 sec (=   0.124 min)  91.9 %
                             ****ORCA TERMINATED NORMALLY****
TOTAL RUN TIME: 0 days 0 hours 0 minutes 8 seconds 794 msec
