17
Coordinates from ORCA-job mol
  C   1.31345376814531      0.11905178250098      1.71310371684857
  C   2.15665325260215      0.75629228144299      0.80113837992149
  C   0.48434561034831     -0.93268703602353      1.30296605919931
  C   2.16150068843991      0.32812329635502     -0.53742140285648
  C   1.33738600925956     -0.72529614863869     -0.95850323826276
  C   0.50065806624600     -1.35239464226460     -0.03241727984140
  C   3.79090422861094      1.74837636506946     -1.85178758878132
  N   2.98939554673704      0.95255967356226     -1.46847692117091
  O   6.86857766433636      3.89652111203135      0.17449140238740
  O   4.59766318873247      2.52289114340190     -2.32180870904942
  S   5.32396723984347      4.18920219112083     -0.16690364486530
  O   4.30165790667784      3.27325454163252      0.68216068798919
  H   2.80709899220220      1.56999798456158      1.10148478516290
  H   1.30591070779215      0.44666568117239      2.74729367516886
  H   -0.16791113600342     -1.42168676955135      2.01862557655726
  H   1.36156401745979     -1.03778137924803     -1.99575804021669
  H   -0.13732575143020     -2.16819107712509     -0.35528545819073
