! Opt TightOpt AnFreq
! r2SCAN-3c
! TightSCF DEFGRID3 CPCM(Benzene)

%scf
	AutoTRAH false
	AutoTRAHIter 80
	Convergence Tight
end
%geom
	MaxIter 10000
	MaxStep 0.12
	Calc_Hess true
	NumHess false
end

%pal
	nprocs 16
end
%MaxCore 6250

* xyzfile 0 1 guess.xyz
