!DLPNO-CCSD(T) Extrapolate(3/4,cc) cc-pVQZ/C TightPNO TightSCF 
!CPCM(Benzene)
%geom maxiter 300 end
%maxcore 4000 
%pal nprocs 36
end

*xyz 0 1
6       -0.034190000      0.131066000      0.063990000
6        0.920523000      1.087637000     -0.242931000
6        0.396390000     -1.120800000      0.490054000
6        2.269105000      0.765074000     -0.082734000
6        2.694343000     -0.506320000      0.308313000
6        1.739468000     -1.461908000      0.615451000
1        0.631327000      2.073512000     -0.591246000
6        3.324721000      1.900980000     -0.166137000
1       -1.092438000      0.341020000     -0.033717000
7       -0.624223000     -2.146884000      0.807693000
1        3.753476000     -0.730603000      0.380237000
1        2.022988000     -2.457361000      0.935271000
7        3.489267000      1.701170000     -1.397677000
8        4.795710000      3.258771000     -1.604715000
8        3.728630000      2.607284000      0.783887000
16       5.451200000      3.577489000     -0.275038000
8        6.525642000      2.657323000      0.125513000
8       -1.799302000     -1.836739000      0.667622000
8       -0.226819000     -3.238318000      1.191114000

*
