17
Coordinates from ORCA-job mol E -1407.708867832929
  C       0.091690      0.110630     -0.099620
  C       1.083240      1.066760     -0.233990
  C       0.410550     -1.128250      0.453100
  C       2.393590      0.787340      0.176790
  C       2.694930     -0.461350      0.728520
  C       1.703260     -1.422640      0.868950
  H       0.849430      2.037070     -0.659210
  C       3.432840      1.799020      0.032270
  Cl     -1.787730      0.644570     -0.666540
  H      -0.471490     -2.053210      0.567330
  H       3.707660     -0.684770      1.045230
  H       1.931490     -2.393130      1.295330
  N       3.271980      2.919130     -0.575960
  O       4.459750      3.662230     -0.499480
  O       4.657050      1.535700      0.588860
  S       5.804320      2.682250     -0.009730
  O       6.430210      2.097880     -1.198030
17
Coordinates from ORCA-job mol E -1407.736093692417
  C       0.101910      0.105571     -0.094856
  C       1.076310      1.069881     -0.235815
  C       0.393576     -1.131254      0.449866
  C       2.384782      0.784859      0.176133
  C       2.683852     -0.465088      0.727515
  C       1.686234     -1.423727      0.864666
  H       0.838427      2.039417     -0.661229
  C       3.424251      1.796707      0.031772
  Cl     -1.684666      0.591560     -0.630567
  H      -0.425979     -1.961657      0.547177
  H       3.696273     -0.690179      1.044837
  H       1.910770     -2.395102      1.289852
  N       3.263357      2.916376     -0.576090
  O       4.450553      3.658470     -0.499854
  O       4.647234      1.531729      0.588595
  S       5.795404      2.678068     -0.009935
  O       6.420480      2.093600     -1.198247
17
Coordinates from ORCA-job mol E -1407.749499192061
  C       0.103133      0.105941     -0.092946
  C       1.068164      1.078478     -0.239144
  C       0.372350     -1.136451      0.446702
  C       2.374891      0.785115      0.174378
  C       2.672322     -0.465646      0.724922
  C       1.670196     -1.420861      0.858782
  H       0.829544      2.047022     -0.663594
  C       3.417219      1.795541      0.031201
  Cl     -1.576654      0.525769     -0.589737
  H      -0.397226     -1.890416      0.531310
  H       3.684473     -0.691246      1.042006
  H       1.895666     -2.392875      1.283363
  N       3.258655      2.915682     -0.575814
  O       4.446499      3.655539     -0.499352
  O       4.639102      1.527529      0.588313
  S       5.790115      2.672446     -0.009079
  O       6.414318      2.087665     -1.197492
17
Coordinates from ORCA-job mol E -1407.750225231868
  C       0.095749      0.114292     -0.088456
  C       1.064756      1.087681     -0.234912
  C       0.363879     -1.136393      0.445715
  C       2.371120      0.787887      0.175427
  C       2.668965     -0.463437      0.723169
  C       1.665216     -1.416230      0.852828
  H       0.828370      2.057080     -0.657431
  C       3.415985      1.796610      0.031662
  Cl     -1.514433      0.482770     -0.586977
  H      -0.421161     -1.886974      0.538056
  H       3.681382     -0.689530      1.038264
  H       1.893363     -2.389560      1.274580
  N       3.258495      2.917399     -0.574449
  O       4.447647      3.655176     -0.501092
  O       4.638394      1.526366      0.586772
  S       5.790515      2.670500     -0.010417
  O       6.414528      2.085591     -1.198921
17
Coordinates from ORCA-job mol E -1407.750701656114
  C       0.091326      0.115106     -0.089023
  C       1.065881      1.086508     -0.233164
  C       0.366723     -1.137098      0.447187
  C       2.372349      0.786572      0.176228
  C       2.671801     -0.464727      0.722422
  C       1.668074     -1.416667      0.852783
  H       0.830709      2.056881     -0.654143
  C       3.417130      1.795655      0.032452
  Cl     -1.545127      0.484321     -0.600542
  H      -0.413864     -1.880327      0.544423
  H       3.684567     -0.690570      1.036215
  H       1.897403     -2.390107      1.274212
  N       3.259358      2.916333     -0.573922
  O       4.448371      3.654570     -0.501155
  O       4.639931      1.526101      0.587361
  S       5.791585      2.670652     -0.009642
  O       6.416552      2.086026     -1.197872
17
Coordinates from ORCA-job mol E -1407.750737663011
  C       0.089412      0.116016     -0.091276
  C       1.066652      1.085873     -0.233475
  C       0.367452     -1.136623      0.447766
  C       2.372623      0.785744      0.175865
  C       2.673216     -0.465761      0.720584
  C       1.668342     -1.415976      0.852261
  H       0.831877      2.057270     -0.652802
  C       3.417122      1.795509      0.032547
  Cl     -1.546530      0.481062     -0.601108
  H      -0.417571     -1.877689      0.548802
  H       3.686273     -0.691732      1.033083
  H       1.897899     -2.389482      1.273742
  N       3.259468      2.915715     -0.574738
  O       4.448029      3.654540     -0.501459
  O       4.639715      1.526966      0.588525
  S       5.791425      2.671333     -0.008422
  O       6.417365      2.086462     -1.196074
17
Coordinates from ORCA-job mol E -1407.750747861632
  C       0.087599      0.117103     -0.091836
  C       1.067019      1.085149     -0.232911
  C       0.368275     -1.136181      0.448472
  C       2.372766      0.784855      0.175516
  C       2.674472     -0.466655      0.719420
  C       1.668467     -1.415719      0.851615
  H       0.832427      2.057262     -0.651155
  C       3.416840      1.795306      0.031897
  Cl     -1.547182      0.478779     -0.600221
  H      -0.419493     -1.874117      0.550473
  H       3.687901     -0.692743      1.030351
  H       1.898228     -2.389532      1.272526
  N       3.259531      2.914514     -0.577304
  O       4.447447      3.654179     -0.503451
  O       4.638832      1.528457      0.590124
  S       5.790787      2.672289     -0.006839
  O       6.418853      2.086283     -1.192855
17
Coordinates from ORCA-job mol E -1407.750748519645
  C       0.087610      0.117147     -0.091390
  C       1.066875      1.085031     -0.232523
  C       0.368620     -1.136183      0.448516
  C       2.372776      0.784852      0.175435
  C       2.674721     -0.466659      0.719238
  C       1.668626     -1.415915      0.851358
  H       0.832080      2.057177     -0.650662
  C       3.416624      1.795476      0.031519
  Cl     -1.547429      0.479525     -0.598960
  H      -0.419752     -1.874254      0.549692
  H       3.688242     -0.692672      1.029908
  H       1.898441     -2.389787      1.272063
  N       3.259663      2.914023     -0.578935
  O       4.447370      3.653930     -0.504861
  O       4.638268      1.529324      0.590923
  S       5.790507      2.672614     -0.006242
  O       6.419529      2.085603     -1.191258
