14
Coordinates from ORCA-job mol E -859.202282614637
  C       1.806710     -0.418490      0.362680
  C       2.891780      0.379630      0.027030
  C       2.011790     -1.762570      0.650850
  C       4.175360     -0.165490     -0.019810
  C       4.367980     -1.519360      0.272400
  C       3.285670     -2.319650      0.608190
  H       2.752000      1.430940     -0.200990
  C       6.432130      0.558180     -0.497290
  Cl     -0.125030      0.325120      0.451390
  H       1.043550     -2.327460      0.915960
  H       5.366950     -1.944650      0.236290
  H       3.429430     -3.370350      0.835650
  N       5.236560      0.675150     -0.362650
  O       7.590700      0.584240     -0.663460
14
Coordinates from ORCA-job mol E -859.223797564396
  C       1.818671     -0.424800      0.362516
  C       2.880348      0.389631      0.026198
  C       1.989660     -1.766050      0.654692
  C       4.161133     -0.162122     -0.018698
  C       4.350876     -1.517400      0.274252
  C       3.264827     -2.315877      0.610141
  H       2.735630      1.440967     -0.201152
  C       6.414689      0.560729     -0.495500
  Cl      0.030556      0.289319      0.438658
  H       1.069913     -2.323270      0.911395
  H       5.349651     -1.943459      0.238356
  H       3.407931     -3.366449      0.837673
  N       5.219176      0.678185     -0.361015
  O       7.572518      0.585836     -0.661276
14
Coordinates from ORCA-job mol E -859.233870407177
  C       1.816715     -0.425369      0.362829
  C       2.867026      0.400663      0.025253
  C       1.966765     -1.769495      0.658614
  C       4.147149     -0.157776     -0.017949
  C       4.336330     -1.512678      0.275048
  C       3.247944     -2.308604      0.610693
  H       2.720112      1.450188     -0.201352
  C       6.402129      0.560591     -0.493676
  Cl      0.181802      0.261810      0.424811
  H       1.082510     -2.340897      0.913912
  H       5.335367     -1.937720      0.238927
  H       3.395499     -3.359402      0.837740
  N       5.206289      0.681082     -0.360002
  O       7.559944      0.582848     -0.658607
14
Coordinates from ORCA-job mol E -859.234275753678
  C       1.805325     -0.421378      0.363459
  C       2.864419      0.402368      0.025216
  C       1.961911     -1.769661      0.659364
  C       4.144372     -0.157564     -0.017602
  C       4.335194     -1.511375      0.274940
  C       3.245805     -2.304463      0.610057
  H       2.720192      1.451664     -0.201712
  C       6.400944      0.558477     -0.493064
  Cl      0.201033      0.267043      0.420969
  H       1.091308     -2.359143      0.916885
  H       5.334465     -1.935477      0.238544
  H       3.396305     -3.355455      0.836680
  N       5.205254      0.680861     -0.359826
  O       7.559055      0.579341     -0.657671
14
Coordinates from ORCA-job mol E -859.234422658658
  C       1.797570     -0.418367      0.363693
  C       2.864933      0.400954      0.025277
  C       1.961397     -1.768359      0.659075
  C       4.144310     -0.158765     -0.017479
  C       4.336715     -1.511957      0.274810
  C       3.245908     -2.302002      0.609433
  H       2.722862      1.450530     -0.201968
  C       6.401299      0.557479     -0.492824
  Cl      0.192538      0.276895      0.420281
  H       1.099819     -2.370868      0.918472
  H       5.336021     -1.935722      0.238419
  H       3.396840     -3.353112      0.836124
  N       5.205737      0.680323     -0.359864
  O       7.559630      0.578212     -0.657209
14
Coordinates from ORCA-job mol E -859.234452985149
  C       1.794601     -0.416637      0.363724
  C       2.866012      0.398867      0.025612
  C       1.961354     -1.765833      0.658458
  C       4.144567     -0.159890     -0.017266
  C       4.337957     -1.513197      0.274954
  C       3.245279     -2.300436      0.609147
  H       2.724542      1.448792     -0.201824
  C       6.400950      0.558084     -0.492967
  Cl      0.189505      0.281329      0.419752
  H       1.104496     -2.376816      0.919161
  H       5.337083     -1.937192      0.238671
  H       3.394455     -3.351712      0.836126
  N       5.205435      0.680540     -0.359946
  O       7.559343      0.579340     -0.657362
14
Coordinates from ORCA-job mol E -859.234456230352
  C       1.794663     -0.416374      0.363666
  C       2.866373      0.398205      0.025722
  C       1.961316     -1.764787      0.658226
  C       4.144698     -0.160093     -0.017249
  C       4.338314     -1.513718      0.275008
  C       3.244966     -2.300218      0.609133
  H       2.724605      1.448179     -0.201697
  C       6.400697      0.558488     -0.493049
  Cl      0.189435      0.281681      0.419681
  H       1.106005     -2.377414      0.919122
  H       5.337361     -1.937815      0.238757
  H       3.392912     -3.351603      0.836310
  N       5.205146      0.680916     -0.360030
  O       7.559088      0.579794     -0.657362
14
Coordinates from ORCA-job mol E -859.234456924127
  C       1.795037     -0.416364      0.363625
  C       2.866453      0.398165      0.025713
  C       1.961280     -1.764376      0.658154
  C       4.144748     -0.159941     -0.017317
  C       4.338427     -1.513773      0.274977
  C       3.244948     -2.300172      0.609121
  H       2.724318      1.448119     -0.201660
  C       6.400573      0.558494     -0.493049
  Cl      0.189696      0.281397      0.419720
  H       1.106459     -2.377639      0.919159
  H       5.337487     -1.937818      0.238695
  H       3.392187     -3.351613      0.836410
  N       5.204994      0.681270     -0.360131
  O       7.558971      0.579490     -0.657177
