 28
  Energy -1159.294645218511  Dipole 6.73253  G(298) 103.09
 C   -3.57007500   0.61666100   0.70125300
 C   -2.38281600   1.31810900   0.87000200
 C   -3.67947600  -0.34634400  -0.29945100
 C   -1.29681700   1.05951800   0.02743700
 C   -1.40675600   0.09344600  -0.97829200
 C   -2.59751100  -0.60373000  -1.13836400
 H   -2.28576900   2.06356900   1.65299600
 C   -0.05428700   1.82747400   0.19265800
 H   -4.41130100   0.81879300   1.35758400
 H   -4.60752300  -0.89630300  -0.42573300
 H   -0.56815000  -0.10135500  -1.63998500
 H   -2.68145700  -1.34851600  -1.92409200
 N   -0.09159200   3.08292800   0.49960900
 O    1.23523100   3.57538400   0.59734200
 N    1.19508800   1.27991500  -0.04733700
 S    2.41769600   2.53584000  -0.10826000
 O    2.61377100   2.93020700  -1.52142100
 C    1.56970600  -0.08644100   0.06774300
 C    2.45103500  -0.63183700  -0.86594400
 C    1.07572100  -0.86204200   1.11780400
 C    2.84272800  -1.96090900  -0.73950900
 C    1.45065700  -2.19641600   1.21383600
 C    2.33765400  -2.74813400   0.29156100
 H    2.81268300  -0.02281500  -1.68970100
 H    0.40349000  -0.42032800   1.84725600
 H    3.53300000  -2.38495200  -1.46259900
 H    1.05967000  -2.80305300   2.02527600
 H    2.63540200  -3.78866900   0.37833200
