! r2SCAN-3c TightSCF Opt Freq CPCM(benzene)  # OptTS VeryTightOpt Freq SP NMR

* xyz 0 1
 C   -3.65136789   0.72321895   0.67206528
 C   -2.43800265   1.38736560   0.83917387
 C   -3.77490965  -0.28540665  -0.28843895
 C   -1.33190018   1.05054571   0.04007178
 C   -1.46110216   0.03960949  -0.92610960
 C   -2.67847347  -0.62191551  -1.08645991
 H   -2.32860284   2.17833858   1.58430127
 C   -0.07227685   1.79916922   0.20860348
 H   -4.50585451   0.99232720   1.29812214
 H   -4.72633818  -0.80824632  -0.41565233
 H   -0.61097320  -0.22073506  -1.56015365
 H   -2.77110965  -1.40357018  -1.84458295
 N   -0.10519416   3.06095211   0.51435140
 O    1.21091091   3.56631848   0.59855418
 N    1.18593667   1.25101441  -0.02675568
 S    2.42599925   2.51948317  -0.11010571
 O    2.65362282   2.90458186  -1.52216004
 C    1.58614487  -0.10854914   0.06856362
 C    2.51419860  -0.61566687  -0.85365191
 C    1.09426794  -0.93252836   1.09231930
 C    2.95459336  -1.93536909  -0.74013012
 C    1.51871868  -2.25778182   1.17603575
 C    2.45366302  -2.76294643   0.26730967
 H    2.87647204   0.02740496  -1.65986194
 H    0.38142073  -0.52975861   1.81513406
 H    3.68331842  -2.32155616  -1.45723300
 H    1.12619103  -2.89693167   1.97100238
 H    2.79064705  -3.79936789   0.34568762
*
