 14
  Energy -759.685541165235  Dipole 3.25379  G(298) 41.70
 N    2.49394300   1.25969100   1.42343000
 S    3.08539500   2.64088000   1.01834500
 O    3.53124700   2.88428300  -0.39587200
 C    2.27479900   0.10745500   0.68134200
 C    2.57085800  -0.03977800  -0.68961800
 C    1.71298400  -0.97091400   1.39145200
 C    2.30280500  -1.24739800  -1.31698800
 C    1.45211100  -2.16957400   0.74820600
 C    1.74609100  -2.31178300  -0.60785500
 H    3.00305400   0.78469000  -1.24250800
 H    1.49227700  -0.83806000   2.44607900
 H    2.53075800  -1.36092700  -2.37287500
 H    1.01861800  -2.99678600   1.30237400
 H    1.54145300  -3.25146700  -1.11248700
