! r2SCAN-3c TightSCF Opt Freq CPCM(benzene)  # OptTS VeryTightOpt Freq SP NMR

* xyz 0 1
 O     1.660019     1.962990     2.164672
 S     1.832468     0.585539     2.667660
 O     2.697918    -0.300592     1.864021
*
