15
Coordinates from ORCA-job mol E -474.462214952722
  C      -2.967910      3.327610     -1.305133
  C      -1.988057      4.281899     -1.537888
  C      -2.630446      2.101943     -0.734000
  C      -0.657842      4.008981     -1.198128
  C      -0.317584      2.776181     -0.635269
  C      -1.306127      1.829285     -0.401405
  H      -2.244301      5.237923     -1.983904
  C       0.391937      5.008899     -1.459644
  H      -3.999244      3.539308     -1.570529
  H      -3.400489      1.357909     -0.552349
  H       0.717746      2.572941     -0.382263
  H      -1.041417      0.873597      0.040835
  N      -0.005798      6.295963     -1.645268
  O       0.922809      7.146044     -1.896135
  O       1.621062      4.689385     -1.395848
15
Coordinates from ORCA-job mol E -474.473154715386
  C      -2.968226      3.339826     -1.303020
  C      -1.979197      4.302396     -1.499711
  C      -2.634571      2.094141     -0.758345
  C      -0.642224      4.012690     -1.160733
  C      -0.309592      2.759545     -0.619403
  C      -1.305815      1.807764     -0.416083
  H      -2.229079      5.273895     -1.908664
  C       0.419060      5.004176     -1.386211
  H      -3.996842      3.560949     -1.567253
  H      -3.407601      1.349440     -0.598429
  H       0.722757      2.549694     -0.365707
  H      -1.048894      0.842850      0.007755
  N      -0.031641      6.313542     -1.725321
  O       0.867015      7.137279     -2.037626
  O       1.639188      4.699681     -1.318177
15
Coordinates from ORCA-job mol E -474.478325542653
  C      -2.971023      3.348065     -1.297860
  C      -1.972638      4.305709     -1.505714
  C      -2.640310      2.098504     -0.751507
  C      -0.627812      4.003454     -1.180424
  C      -0.302738      2.743592     -0.631772
  C      -1.305845      1.799503     -0.416369
  H      -2.215771      5.278463     -1.909679
  C       0.452007      4.963930     -1.419803
  H      -3.999784      3.575239     -1.553007
  H      -3.417377      1.360633     -0.582424
  H       0.731093      2.529219     -0.390035
  H      -1.055655      0.834335      0.009339
  N      -0.061028      6.328088     -1.787878
  O       0.828699      7.144415     -2.011324
  O       1.652521      4.734718     -1.228471
15
Coordinates from ORCA-job mol E -474.479746519589
  C      -2.969041      3.351890     -1.283459
  C      -1.973885      4.315285     -1.469422
  C      -2.638486      2.091922     -0.767907
  C      -0.632382      4.011530     -1.143378
  C      -0.308102      2.737946     -0.626567
  C      -1.306897      1.786946     -0.437337
  H      -2.217995      5.296605     -1.852198
  C       0.451611      4.975587     -1.343032
  H      -3.997851      3.582317     -1.536497
  H      -3.414284      1.347419     -0.621149
  H       0.726648      2.523067     -0.385053
  H      -1.057166      0.811274     -0.034935
  N      -0.063913      6.324991     -1.873796
  O       0.845630      7.112682     -2.122848
  O       1.650453      4.778407     -1.159352
15
Coordinates from ORCA-job mol E -474.480074041024
  C      -2.969426      3.351748     -1.274553
  C      -1.975324      4.313463     -1.466047
  C      -2.638963      2.090563     -0.764999
  C      -0.635004      4.007572     -1.147966
  C      -0.310171      2.733565     -0.634432
  C      -1.307593      1.782693     -0.443092
  H      -2.220151      5.293775     -1.852051
  C       0.448989      4.971771     -1.342826
  H      -3.999419      3.584589     -1.521421
  H      -3.415161      1.346672     -0.616708
  H       0.725880      2.518260     -0.397287
  H      -1.057246      0.804985     -0.045762
  N      -0.058522      6.326722     -1.912254
  O       0.861584      7.120844     -2.129930
  O       1.644866      4.800646     -1.107600
15
Coordinates from ORCA-job mol E -474.480117675275
  C      -2.969344      3.352474     -1.271241
  C      -1.975018      4.312866     -1.466838
  C      -2.639007      2.090747     -0.763032
  C      -0.635323      4.005701     -1.150526
  C      -0.309659      2.731916     -0.637720
  C      -1.307116      1.781183     -0.445239
  H      -2.219792      5.291565     -1.857281
  C       0.446034      4.971036     -1.341630
  H      -3.999810      3.586794     -1.514935
  H      -3.415638      1.347643     -0.613337
  H       0.726520      2.516806     -0.401141
  H      -1.056512      0.802726     -0.050107
  N      -0.058873      6.329344     -1.924251
  O       0.867007      7.118234     -2.127582
  O       1.640868      4.808833     -1.092065
15
Coordinates from ORCA-job mol E -474.480125056522
  C      -2.969219      3.352532     -1.270929
  C      -1.974382      4.312291     -1.467786
  C      -2.639208      2.090791     -0.762209
  C      -0.634840      4.004349     -1.151370
  C      -0.309054      2.730906     -0.638135
  C      -1.307111      1.780560     -0.445238
  H      -2.219121      5.290207     -1.860182
  C       0.444372      4.971040     -1.342011
  H      -3.999771      3.587625     -1.513542
  H      -3.416289      1.348387     -0.611531
  H       0.726896      2.515560     -0.401179
  H      -1.056621      0.801896     -0.050598
  N      -0.058999      6.332117     -1.926176
  O       0.868407      7.119132     -2.124769
  O       1.639279      4.810476     -1.091275
15
Coordinates from ORCA-job mol E -474.480126270313
  C      -2.969062      3.352481     -1.271417
  C      -1.973827      4.311974     -1.468160
  C      -2.639327      2.090842     -0.762101
  C      -0.634328      4.003680     -1.151206
  C      -0.308756      2.730496     -0.637516
  C      -1.307319      1.780524     -0.444632
  H      -2.218487      5.289770     -1.860866
  C       0.443908      4.971065     -1.342785
  H      -3.999500      3.587741     -1.514326
  H      -3.416645      1.348724     -0.611251
  H       0.726994      2.514759     -0.400178
  H      -1.057041      0.801906     -0.049734
  N      -0.059569      6.333633     -1.924995
  O       0.867941      7.120360     -2.122855
  O       1.639359      4.809912     -1.094906
15
Coordinates from ORCA-job mol E -474.480126533199
  C      -2.968972      3.352383     -1.271888
  C      -1.973488      4.311674     -1.468619
  C      -2.639411      2.090927     -0.761950
  C      -0.633996      4.003255     -1.151330
  C      -0.308659      2.730320     -0.637163
  C      -1.307524      1.780673     -0.444043
  H      -2.218076      5.289496     -1.861318
  C       0.443940      4.970880     -1.343698
  H      -3.999314      3.587613     -1.515207
  H      -3.416837      1.348957     -0.610916
  H       0.726972      2.514295     -0.399602
  H      -1.057398      0.802245     -0.048549
  N      -0.060013      6.334398     -1.923981
  O       0.867321      7.121642     -2.120438
  O       1.639793      4.809111     -1.098226
