19
Coordinates from ORCA-job mol
  C   1.01992982878568     -1.43705397356109      0.14371972923728
  C   1.66969527954498     -0.80395535804124     -0.90169144090301
  C   0.79478937936640     -0.73279038990598      1.32231707700742
  C   2.09100073331281      0.52245111704367     -0.75982242184643
  C   1.85098133236098      1.22029047515665      0.43252142928418
  C   1.20124057477744      0.58994956941934      1.47790244696086
  H   1.86084370754453     -1.32720086762607     -1.83238309330174
  C   3.34120990477560      2.15076290286963     -2.01786192866658
  H   0.68962623705247     -2.46495148358943      0.05422890771484
  N   0.10923429061929     -1.40126887628160      2.43176252925412
  H   2.17618303511216      2.25116530500035      0.53188906469180
  H   1.00658161324818      1.11170793255672      2.40739440272846
  N   2.73902704928087      1.11707941738337     -1.83587477877182
  O   3.94440940230244      3.09933031608026     -2.33907489040395
  O   4.50632336495802      3.65079187813384      1.05563594557972
  S   5.59658860736703      2.67747632416601      0.88552368812029
  O   5.28279255490627      1.44950780174490      0.13640819456957
  O   -0.24283780865319     -2.56631832448791      2.27084637180285
  O   -0.07514908666217     -0.76017376606147      3.46265876694212
