17
Coordinates from ORCA-job orca_IRC_Full E -2951.491533883458
  C      -0.124981      0.048156      0.209519
  C       0.763612      1.049845     -0.145508
  C       0.349866     -1.205811      0.590491
  C       2.140739      0.780748     -0.134738
  C       2.626737     -0.472830      0.270555
  C       1.720522     -1.459352      0.630727
  H       0.416507      2.035695     -0.436914
  C       3.036248      1.795263     -0.531681
  H      -1.191231      0.248929      0.188447
  H      -0.352732     -1.988094      0.860397
  H       3.696753     -0.649185      0.304751
  H       2.084411     -2.434015      0.941578
  N       3.605362      2.692094     -1.010753
  O       4.430778      3.582231     -1.202995
  O       4.868106      1.905480      1.238645
  Se      6.052219      2.836530      0.591682
  O       7.034338      1.961985     -0.365501
17
Coordinates from ORCA-job orca_IRC_Full E -2951.491496146934
  C      -0.124460      0.048495      0.209443
  C       0.764353      1.050145     -0.145088
  C       0.350116     -1.205601      0.590308
  C       2.141448      0.780793     -0.134062
  C       2.627180     -0.472976      0.271066
  C       1.720713     -1.459406      0.630824
  H       0.417520      2.036108     -0.436420
  C       3.037167      1.795166     -0.530594
  H      -1.190683      0.249403      0.188070
  H      -0.352676     -1.987814      0.859911
  H       3.697151     -0.649443      0.305413
  H       2.084362     -2.434209      0.941521
  N       3.604807      2.692106     -1.011504
  O       4.430965      3.582141     -1.202571
  O       4.865823      1.904520      1.236780
  Se      6.050100      2.836200      0.591204
  O       7.033367      1.962039     -0.365602
17
Coordinates from ORCA-job orca_IRC_Full E -2951.491458017035
  C      -0.123949      0.048843      0.209364
  C       0.765108      1.050443     -0.144669
  C       0.350368     -1.205395      0.590129
  C       2.142121      0.780786     -0.133361
  C       2.627600     -0.473099      0.271569
  C       1.720916     -1.459458      0.630919
  H       0.418521      2.036522     -0.435935
  C       3.038110      1.795100     -0.529502
  H      -1.190132      0.249872      0.187693
  H      -0.352618     -1.987533      0.859430
  H       3.697560     -0.649701      0.306068
  H       2.084312     -2.434399      0.941462
  N       3.604307      2.692180     -1.012279
  O       4.431112      3.581971     -1.202100
  O       4.863405      1.903460      1.234982
  Se      6.048244      2.835861      0.590497
  O       7.032267      1.962213     -0.365564
17
Coordinates from ORCA-job orca_IRC_Full E -2951.491422772272
  C      -0.123483      0.049136      0.209298
  C       0.765773      1.050721     -0.144301
  C       0.350588     -1.205207      0.589970
  C       2.142779      0.780859     -0.132763
  C       2.627996     -0.473218      0.272019
  C       1.721084     -1.459504      0.631003
  H       0.419414      2.036885     -0.435506
  C       3.038778      1.794793     -0.528396
  H      -1.189650      0.250289      0.187356
  H      -0.352562     -1.987278      0.859003
  H       3.697914     -0.649925      0.306646
  H       2.084272     -2.434572      0.941409
  N       3.603963      2.692405     -1.013051
  O       4.431277      3.581836     -1.201677
  O       4.861437      1.902663      1.233268
  Se      6.046225      2.835555      0.590106
  O       7.031449      1.962228     -0.365683
17
Coordinates from ORCA-job orca_IRC_Full E -2951.491399463452
  C      -0.123196      0.049292      0.209264
  C       0.766142      1.050892     -0.144088
  C       0.350712     -1.205092      0.589877
  C       2.143206      0.780977     -0.132443
  C       2.628259     -0.473315      0.272290
  C       1.721168     -1.459529      0.631052
  H       0.419940      2.037090     -0.435255
  C       3.039144      1.794573     -0.527723
  H      -1.189378      0.250535      0.187158
  H      -0.352527     -1.987127      0.858754
  H       3.698106     -0.650050      0.306981
  H       2.084250     -2.434676      0.941378
  N       3.603663      2.692430     -1.013473
  O       4.431474      3.581858     -1.201453
  O       4.860501      1.902367      1.232143
  Se      6.044621      2.835380      0.590184
  O       7.031170      1.962064     -0.365944
17
Coordinates from ORCA-job orca_IRC_Full E -2951.491332085187
  C      -0.122348      0.049950      0.209107
  C       0.767469      1.051386     -0.143352
  C       0.351181     -1.204728      0.589574
  C       2.144239      0.780771     -0.131125
  C       2.628915     -0.473478      0.273147
  C       1.721568     -1.459622      0.631217
  H       0.421643      2.037822     -0.434454
  C       3.041125      1.794909     -0.525949
  H      -1.188389      0.251327      0.186497
  H      -0.352426     -1.986634      0.857937
  H       3.698853     -0.650496      0.308086
  H       2.084162     -2.434990      0.941261
  N       3.602725      2.692442     -1.014769
  O       4.431643      3.581295     -1.200431
  O       4.855623      1.900001      1.229314
  Se      6.042486      2.834929      0.588015
  O       7.028782      1.962783     -0.365372
17
Coordinates from ORCA-job orca_IRC_Full E -2951.491263159688
  C      -0.121414      0.050495      0.208982
  C       0.768719      1.051948     -0.142646
  C       0.351606     -1.204351      0.589279
  C       2.145538      0.781021     -0.129987
  C       2.629727     -0.473737      0.274022
  C       1.721881     -1.459691      0.631373
  H       0.423339      2.038501     -0.433673
  C       3.042553      1.794441     -0.523737
  H      -1.187483      0.252117      0.185839
  H      -0.352297     -1.986119      0.857131
  H       3.699519     -0.650901      0.309151
  H       2.084093     -2.435329      0.941148
  N       3.601689      2.692482     -1.016175
  O       4.432291      3.581144     -1.199470
  O       4.852217      1.898790      1.225709
  Se      6.037756      2.834298      0.587593
  O       7.027521      1.962558     -0.365836
17
Coordinates from ORCA-job orca_IRC_Full E -2951.491187424178
  C      -0.120499      0.051171      0.208822
  C       0.770086      1.052498     -0.141869
  C       0.352112     -1.203940      0.588965
  C       2.146713      0.780948     -0.128614
  C       2.630473     -0.473936      0.274938
  C       1.722296     -1.459784      0.631546
  H       0.425114      2.039257     -0.432875
  C       3.044554      1.794616     -0.521662
  H      -1.186448      0.252940      0.185133
  H      -0.352171     -1.985572      0.856280
  H       3.700296     -0.651346      0.310268
  H       2.084003     -2.435662      0.941013
  N       3.600611      2.692480     -1.017614
  O       4.432696      3.580547     -1.198214
  O       4.847303      1.896466      1.222512
  Se      6.034791      2.833954      0.585554
  O       7.025323      1.963032     -0.365480
17
Coordinates from ORCA-job orca_IRC_Full E -2951.491110213518
  C      -0.119519      0.051780      0.208681
  C       0.771422      1.053099     -0.141112
  C       0.352590     -1.203527      0.588658
  C       2.148016      0.781132     -0.127333
  C       2.631308     -0.474168      0.275858
  C       1.722665     -1.459848      0.631709
  H       0.426866      2.039972     -0.432109
  C       3.046200      1.794273     -0.519287
  H      -1.185477      0.253754      0.184430
  H      -0.352022     -1.985001      0.855438
  H       3.701037     -0.651765      0.311344
  H       2.083923     -2.436018      0.940883
  N       3.599471      2.692523     -1.019150
  O       4.433441      3.580183     -1.196936
  O       4.843450      1.894960      1.218786
  Se      6.030121      2.833321      0.584503
  O       7.023762      1.962998     -0.365661
17
Coordinates from ORCA-job orca_IRC_Full E -2951.491029407914
  C      -0.118579      0.052452      0.208522
  C       0.772779      1.053683     -0.140319
  C       0.353119     -1.203090      0.588340
  C       2.149244      0.781153     -0.125933
  C       2.632102     -0.474372      0.276794
  C       1.723093     -1.459931      0.631878
  H       0.428617      2.040714     -0.431368
  C       3.048151      1.794345     -0.517057
  H      -1.184439      0.254565      0.183713
  H      -0.351874     -1.984409      0.854588
  H       3.701833     -0.652193      0.312410
  H       2.083824     -2.436360      0.940740
  N       3.598305      2.692519     -1.020667
  O       4.434056      3.579519     -1.195438
  O       4.838678      1.892691      1.215450
  Se      6.026598      2.833088      0.582439
  O       7.021746      1.963295     -0.365391
17
Coordinates from ORCA-job orca_IRC_Full E -2951.490947455412
  C      -0.117593      0.053088      0.208373
  C       0.774121      1.054305     -0.139534
  C       0.353639     -1.202653      0.588019
  C       2.150513      0.781315     -0.124566
  C       2.632953     -0.474576      0.277732
  C       1.723504     -1.459987      0.632034
  H       0.430324      2.041414     -0.430672
  C       3.049848      1.794084     -0.514650
  H      -1.183449      0.255361      0.183004
  H      -0.351710     -1.983786      0.853751
  H       3.702619     -0.652606      0.313427
  H       2.083721     -2.436721      0.940604
  N       3.597101      2.692554     -1.022254
  O       4.434932      3.578992     -1.193868
  O       4.834732      1.891011      1.211781
  Se      6.021919      2.832535      0.580871
  O       7.020081      1.963336     -0.365348
17
Coordinates from ORCA-job orca_IRC_Full E -2951.490863369070
  C      -0.116651      0.053746      0.208213
  C       0.775445      1.054910     -0.138718
  C       0.354193     -1.202199      0.587678
  C       2.151739      0.781403     -0.123121
  C       2.633781     -0.474760      0.278684
  C       1.723951     -1.460062      0.632187
  H       0.431989      2.042122     -0.430027
  C       3.051684      1.794117     -0.512415
  H      -1.182421      0.256140      0.182298
  H      -0.351541     -1.983129      0.852921
  H       3.703446     -0.653025      0.314404
  H       2.083596     -2.437077      0.940467
  N       3.595900      2.692550     -1.023786
  O       4.435736      3.578249     -1.192115
  O       4.830185      1.888726      1.208510
  Se      6.017997      2.832453      0.578565
  O       7.018224      1.963503     -0.365043
17
Coordinates from ORCA-job orca_IRC_Full E -2951.490778052304
  C      -0.115666      0.054390      0.208044
  C       0.776753      1.055556     -0.137893
  C       0.354761     -1.201745      0.587304
  C       2.152953      0.781576     -0.121653
  C       2.634664     -0.474934      0.279653
  C       1.724413     -1.460116      0.632313
  H       0.433591      2.042776     -0.429439
  C       3.053277      1.793926     -0.510120
  H      -1.181428      0.256902      0.181608
  H      -0.351369     -1.982430      0.852115
  H       3.704279     -0.653445      0.315319
  H       2.083448     -2.437452      0.940348
  N       3.594713      2.692563     -1.025326
  O       4.436768      3.577627     -1.190271
  O       4.826390      1.886911      1.205045
  Se      6.013131      2.832013      0.576431
  O       7.016577      1.963550     -0.364776
17
Coordinates from ORCA-job orca_IRC_Full E -2951.490690919780
  C      -0.114730      0.055016      0.207859
  C       0.778024      1.056183     -0.137022
  C       0.355351     -1.201287      0.586877
  C       2.154142      0.781734     -0.120096
  C       2.635537     -0.475087      0.280648
  C       1.724886     -1.460201      0.632420
  H       0.435113      2.043430     -0.428927
  C       3.054861      1.793983     -0.508082
  H      -1.180401      0.257642      0.180938
  H      -0.351178     -1.981660      0.851332
  H       3.705167     -0.653883      0.316170
  H       2.083269     -2.437836      0.940247
  N       3.593642      2.692520     -1.026712
  O       4.437737      3.576866     -1.188283
  O       4.822136      1.884518      1.202070
  Se      6.008781      2.832130      0.573603
  O       7.014917      1.963598     -0.364340
17
Coordinates from ORCA-job orca_IRC_Full E -2951.490601607979
  C      -0.113740      0.055668      0.207615
  C       0.779279      1.056879     -0.136114
  C       0.355973     -1.200825      0.586358
  C       2.155265      0.781921     -0.118432
  C       2.636475     -0.475249      0.281684
  C       1.725403     -1.460277      0.632476
  H       0.436524      2.044007     -0.428498
  C       3.056093      1.793899     -0.506149
  H      -1.179399      0.258355      0.180309
  H      -0.351006     -1.980850      0.850612
  H       3.706061     -0.654340      0.316935
  H       2.083050     -2.438238      0.940183
  N       3.592793      2.692412     -1.027905
  O       4.438915      3.576337     -1.186253
  O       4.818690      1.882596      1.199046
  Se      6.003422      2.831749      0.570649
  O       7.013457      1.963624     -0.363814
17
Coordinates from ORCA-job orca_IRC_Full E -2951.490507792816
  C      -0.112764      0.056372      0.207223
  C       0.780610      1.057628     -0.135108
  C       0.356460     -1.200286      0.585701
  C       2.156462      0.782062     -0.116596
  C       2.637384     -0.475544      0.282800
  C       1.725729     -1.460456      0.632496
  H       0.437685      2.044565     -0.428205
  C       3.056939      1.794116     -0.504709
  H      -1.178341      0.258951      0.179779
  H      -0.350731     -1.979974      0.849981
  H       3.707068     -0.654768      0.317565
  H       2.082872     -2.438634      0.940165
  N       3.592559      2.692098     -1.028515
  O       4.439974      3.575915     -1.184220
  O       4.814865      1.880136      1.196761
  Se      5.998184      2.831900      0.566775
  O       7.012297      1.963586     -0.363191
17
Coordinates from ORCA-job orca_IRC_Full E -2951.490418612630
  C      -0.111846      0.057209      0.206688
  C       0.781986      1.058438     -0.134232
  C       0.356803     -1.199722      0.585061
  C       2.157602      0.781974     -0.114908
  C       2.638173     -0.475995      0.283814
  C       1.725953     -1.460651      0.632475
  H       0.438408      2.044962     -0.428028
  C       3.056939      1.794000     -0.503546
  H      -1.177552      0.259322      0.179431
  H      -0.350523     -1.979381      0.849570
  H       3.707826     -0.655028      0.317990
  H       2.082770     -2.438888      0.940155
  N       3.593104      2.692026     -1.028762
  O       4.440856      3.575801     -1.182607
  O       4.812129      1.878418      1.194949
  Se      5.993135      2.831519      0.563190
  O       7.011491      1.963665     -0.362538
17
Coordinates from ORCA-job orca_IRC_Full E -2951.490368992731
  C      -0.111345      0.057713      0.206359
  C       0.782740      1.058892     -0.133797
  C       0.356959     -1.199414      0.584726
  C       2.158166      0.781842     -0.114041
  C       2.638581     -0.476296      0.284335
  C       1.726063     -1.460744      0.632450
  H       0.438689      2.045126     -0.427957
  C       3.056863      1.794017     -0.503056
  H      -1.177216      0.259466      0.179290
  H      -0.350442     -1.979151      0.849408
  H       3.708147     -0.655120      0.318168
  H       2.082734     -2.438985      0.940149
  N       3.593356      2.691776     -1.028717
  O       4.441411      3.575944     -1.181869
  O       4.811103      1.877840      1.193985
  Se      5.990277      2.831030      0.561472
  O       7.011168      1.963729     -0.362204
17
Coordinates from ORCA-job orca_IRC_Full E -2951.490314720845
  C      -0.110874      0.058203      0.206039
  C       0.783417      1.059311     -0.133454
  C       0.357086     -1.199146      0.584447
  C       2.158647      0.781719     -0.113343
  C       2.638954     -0.476609      0.284773
  C       1.726157     -1.460800      0.632415
  H       0.438858      2.045224     -0.427907
  C       3.056561      1.793810     -0.502573
  H      -1.177013      0.259553      0.179200
  H      -0.350407     -1.979032      0.849313
  H       3.708334     -0.655159      0.318288
  H       2.082716     -2.439042      0.940144
  N       3.593626      2.691567     -1.028650
  O       4.442008      3.576276     -1.181347
  O       4.810800      1.877824      1.193002
  Se      5.987352      2.830210      0.560344
  O       7.011032      1.963759     -0.361991
17
Coordinates from ORCA-job orca_IRC_Full E -2951.490207354231
  C      -0.110509      0.058567      0.205802
  C       0.783931      1.059631     -0.133242
  C       0.357184     -1.198957      0.584259
  C       2.159128      0.781804     -0.112935
  C       2.639269     -0.476853      0.285069
  C       1.726201     -1.460822      0.632379
  H       0.438939      2.045262     -0.427874
  C       3.055443      1.792424     -0.501638
  H      -1.176939      0.259597      0.179153
  H      -0.350411     -1.979001      0.849273
  H       3.708391     -0.655160      0.318355
  H       2.082711     -2.439071      0.940140
  N       3.594607      2.692498     -1.029077
  O       4.442345      3.576486     -1.181049
  O       4.811163      1.878289      1.192096
  Se      5.984685      2.829279      0.559960
  O       7.011115      1.963694     -0.361969
17
Coordinates from ORCA-job orca_IRC_Full E -2951.489262598408
  C      -0.083757      0.079105      0.192928
  C       0.826422      1.076164     -0.123323
  C       0.363451     -1.185941      0.571979
  C       2.201574      0.788448     -0.080214
  C       2.654843     -0.483013      0.304751
  C       1.728663     -1.462114      0.630742
  H       0.492427      2.067774     -0.411063
  C       3.142430      1.794009     -0.409004
  H      -1.147558      0.292247      0.151933
  H      -0.355814     -1.958836      0.826290
  H       3.720995     -0.676364      0.350824
  H       2.073154     -2.446625      0.931738
  N       3.578438      2.698365     -1.044976
  O       4.473394      3.562875     -1.135645
  O       4.737491      1.862419      1.120356
  Se      5.962288      2.826156      0.547059
  O       7.005956      1.962334     -0.353677
17
Coordinates from ORCA-job orca_IRC_Full E -2951.492118184325
  C      -0.057005      0.099642      0.180053
  C       0.868913      1.092697     -0.113404
  C       0.369718     -1.172925      0.559699
  C       2.244020      0.795091     -0.047494
  C       2.670416     -0.489174      0.324433
  C       1.731126     -1.463406      0.629105
  H       0.545914      2.090285     -0.394253
  C       3.229416      1.795593     -0.316369
  H      -1.118177      0.324896      0.124714
  H      -0.361217     -1.938671      0.803307
  H       3.733600     -0.697569      0.383293
  H       2.063598     -2.454178      0.923335
  N       3.562268      2.704232     -1.060875
  O       4.504443      3.549265     -1.090240
  O       4.663820      1.846550      1.048615
  Se      5.939892      2.823032      0.534159
  O       7.000798      1.960975     -0.345386
17
Coordinates from ORCA-job orca_IRC_Full E -2951.492984452130
  C      -0.055909      0.100379      0.179641
  C       0.871325      1.093181     -0.113290
  C       0.369931     -1.172337      0.559142
  C       2.246310      0.795802     -0.045814
  C       2.670869     -0.488835      0.325326
  C       1.731136     -1.463362      0.628978
  H       0.546212      2.090223     -0.394112
  C       3.238124      1.796949     -0.309353
  H      -1.117702      0.324992      0.124662
  H      -0.361081     -1.938434      0.803128
  H       3.733575     -0.697758      0.383414
  H       2.063535     -2.454170      0.923279
  N       3.560032      2.703907     -1.061203
  O       4.507146      3.547194     -1.086258
  O       4.652457      1.842766      1.041743
  Se      5.935705      2.824827      0.527940
  O       6.999878      1.961010     -0.344529
17
Coordinates from ORCA-job orca_IRC_Full E -2951.494885476974
  C      -0.053868      0.101565      0.178865
  C       0.875129      1.094203     -0.113169
  C       0.370357     -1.171655      0.558421
  C       2.250677      0.797443     -0.042736
  C       2.671496     -0.488412      0.326865
  C       1.731275     -1.463195      0.628715
  H       0.547115      2.090273     -0.393846
  C       3.254325      1.798139     -0.294017
  H      -1.116373      0.325383      0.124447
  H      -0.360770     -1.937772      0.802718
  H       3.733870     -0.698302      0.383830
  H       2.063394     -2.454130      0.923100
  N       3.554861      2.703781     -1.063529
  O       4.513065      3.543731     -1.078646
  O       4.632636      1.837583      1.026692
  Se      5.926422      2.826613      0.518126
  O       6.997931      1.961088     -0.343141
17
Coordinates from ORCA-job orca_IRC_Full E -2951.497390786950
  C      -0.051773      0.102454      0.178103
  C       0.878859      1.095285     -0.113148
  C       0.370908     -1.171080      0.557929
  C       2.255339      0.799411     -0.039426
  C       2.672179     -0.487930      0.328237
  C       1.731425     -1.463177      0.628459
  H       0.548356      2.090616     -0.393580
  C       3.270715      1.797936     -0.275835
  H      -1.114675      0.326024      0.124073
  H      -0.360535     -1.937046      0.802306
  H       3.734300     -0.699078      0.384482
  H       2.063271     -2.454123      0.922830
  N       3.549962      2.705226     -1.067481
  O       4.518887      3.539499     -1.070628
  O       4.611274      1.832687      1.009072
  Se      5.917724      2.828318      0.509045
  O       6.995329      1.961312     -0.341747
17
Coordinates from ORCA-job orca_IRC_Full E -2951.500312779339
  C      -0.049789      0.103296      0.177376
  C       0.882193      1.096183     -0.113143
  C       0.371393     -1.170642      0.557570
  C       2.259250      0.800981     -0.036318
  C       2.672750     -0.487614      0.329470
  C       1.731637     -1.463121      0.628206
  H       0.549583      2.090996     -0.393324
  C       3.287148      1.800080     -0.260191
  H      -1.113094      0.326669      0.123677
  H      -0.360360     -1.936401      0.801968
  H       3.734682     -0.699858      0.385142
  H       2.063193     -2.454178      0.922559
  N       3.544214      2.704251     -1.069636
  O       4.524642      3.535969     -1.063386
  O       4.590866      1.828172      0.992100
  Se      5.910355      2.830051      0.501209
  O       6.992881      1.961502     -0.340584
17
Coordinates from ORCA-job orca_IRC_Full E -2951.503911044457
  C      -0.047781      0.104029      0.176675
  C       0.885874      1.097189     -0.113210
  C       0.371924     -1.170148      0.557223
  C       2.263876      0.803080     -0.033049
  C       2.673427     -0.487068      0.330683
  C       1.731769     -1.463204      0.627942
  H       0.550942      2.091408     -0.393038
  C       3.303331      1.799840     -0.241538
  H      -1.111390      0.327389      0.123217
  H      -0.360223     -1.935758      0.801655
  H       3.735050     -0.700744      0.385887
  H       2.063137     -2.454259      0.922244
  N       3.539765      2.705469     -1.072930
  O       4.530141      3.531891     -1.056074
  O       4.568426      1.823421      0.973267
  Se      5.903082      2.832045      0.493111
  O       6.990194      1.961755     -0.339370
17
Coordinates from ORCA-job orca_IRC_Full E -2951.507823013888
  C      -0.045824      0.104837      0.175976
  C       0.889129      1.097987     -0.113247
  C       0.372365     -1.169793      0.556949
  C       2.267608      0.804593     -0.029968
  C       2.673931     -0.486778      0.331844
  C       1.732002     -1.463146      0.627662
  H       0.552214      2.091801     -0.392768
  C       3.319712      1.803023     -0.226812
  H      -1.109838      0.328061      0.122782
  H      -0.360096     -1.935165      0.801384
  H       3.735390     -0.701581      0.386583
  H       2.063101     -2.454364      0.921947
  N       3.534194      2.703238     -1.073456
  O       4.535768      3.528715     -1.049490
  O       4.547447      1.819017      0.955697
  Se      5.896677      2.833919      0.485935
  O       6.987765      1.961970     -0.338325
17
Coordinates from ORCA-job orca_IRC_Full E -2951.512189329789
  C      -0.043805      0.105565      0.175298
  C       0.892795      1.098928     -0.113309
  C       0.372878     -1.169330      0.556640
  C       2.272082      0.806676     -0.026703
  C       2.674614     -0.486244      0.333027
  C       1.732140     -1.463232      0.627369
  H       0.553629      2.092204     -0.392465
  C       3.335073      1.803507     -0.209531
  H      -1.108114      0.328810      0.122287
  H      -0.359991     -1.934550      0.801118
  H       3.735728     -0.702523      0.387369
  H       2.063075     -2.454465      0.921600
  N       3.529919      2.703212     -1.075139
  O       4.541326      3.525066     -1.042733
  O       4.525079      1.814422      0.936825
  Se      5.890040      2.836022      0.478213
  O       6.985078      1.962265     -0.337172
17
Coordinates from ORCA-job orca_IRC_Full E -2951.516609658782
  C      -0.041688      0.106467      0.174569
  C       0.896166      1.099703     -0.113316
  C       0.373308     -1.169008      0.556384
  C       2.275802      0.808144     -0.023448
  C       2.675092     -0.485989      0.334250
  C       1.732458     -1.463103      0.627027
  H       0.555023      2.092614     -0.392168
  C       3.350866      1.807634     -0.196135
  H      -1.106455      0.329546      0.121797
  H      -0.359869     -1.933924      0.800858
  H       3.736095     -0.703452      0.388141
  H       2.063061     -2.454601      0.921264
  N       3.524458      2.699742     -1.074020
  O       4.547224      3.522057     -1.036284
  O       4.503717      1.809924      0.918941
  Se      5.883749      2.838059      0.470965
  O       6.982536      1.962521     -0.336131
17
Coordinates from ORCA-job orca_IRC_Full E -2951.521024458407
  C      -0.039491      0.107360      0.173834
  C       0.899769      1.100560     -0.113312
  C       0.373784     -1.168623      0.556101
  C       2.279877      0.809870     -0.020056
  C       2.675671     -0.485627      0.335517
  C       1.732754     -1.463027      0.626671
  H       0.556526      2.093037     -0.391849
  C       3.365931      1.810600     -0.181859
  H      -1.104665      0.330341      0.121264
  H      -0.359748     -1.933264      0.800589
  H       3.736479     -0.704451      0.388978
  H       2.063051     -2.454734      0.920893
  N       3.519517      2.697176     -1.073359
  O       4.553218      3.518783     -1.029619
  O       4.481864      1.805286      0.900610
  Se      5.877183      2.840231      0.463309
  O       6.979823      1.962820     -0.335020
17
Coordinates from ORCA-job orca_IRC_Full E -2951.525152598273
  C      -0.037142      0.108249      0.173084
  C       0.903774      1.101559     -0.113257
  C       0.374367     -1.168110      0.555760
  C       2.284425      0.811989     -0.016429
  C       2.676484     -0.485101      0.336872
  C       1.732997     -1.463058      0.626297
  H       0.558241      2.093486     -0.391492
  C       3.379069      1.811810     -0.166991
  H      -1.102624      0.331247      0.120649
  H      -0.359633     -1.932540      0.800300
  H       3.736887     -0.705579      0.389935
  H       2.063049     -2.454855      0.920459
  N       3.515122      2.695719     -1.073340
  O       4.559617      3.515223     -1.022528
  O       4.459968      1.800427      0.882249
  Se      5.870150      2.842675      0.454915
  O       6.976792      1.963194     -0.333787
17
Coordinates from ORCA-job orca_IRC_Full E -2951.528719096553
  C      -0.034306      0.109405      0.172198
  C       0.908234      1.102643     -0.113070
  C       0.375022     -1.167555      0.555373
  C       2.289059      0.814032     -0.012275
  C       2.677389     -0.484619      0.338495
  C       1.733434     -1.462949      0.625818
  H       0.560326      2.094016     -0.391069
  C       3.390700      1.814284     -0.154392
  H      -1.100185      0.332351      0.119891
  H      -0.359480     -1.931648      0.799951
  H       3.737423     -0.706930      0.391100
  H       2.063065     -2.455014      0.919929
  N       3.510077      2.692738     -1.071901
  O       4.567149      3.511445     -1.014553
  O       4.438133      1.794946      0.864240
  Se      5.862200      2.845572      0.445391
  O       6.973304      1.963619     -0.332431
17
Coordinates from ORCA-job orca_IRC_Full E -2951.531512668297
  C      -0.030829      0.110807      0.171174
  C       0.913524      1.103977     -0.112659
  C       0.375952     -1.166729      0.554832
  C       2.293902      0.816292     -0.007443
  C       2.678797     -0.483999      0.340543
  C       1.733977     -1.462864      0.625260
  H       0.563109      2.094671     -0.390532
  C       3.398519      1.815587     -0.143102
  H      -1.096972      0.333822      0.118872
  H      -0.359285     -1.930479      0.799490
  H       3.738131     -0.708660      0.392634
  H       2.063109     -2.455170      0.919206
  N       3.504677      2.690497     -1.071230
  O       4.576172      3.506779     -1.004895
  O       4.417289      1.788420      0.847567
  Se      5.852526      2.849243      0.433822
  O       6.968946      1.964141     -0.330844
17
Coordinates from ORCA-job orca_IRC_Full E -2951.533595355460
  C      -0.026214      0.112806      0.169892
  C       0.919553      1.105555     -0.111809
  C       0.377227     -1.165597      0.554067
  C       2.298199      0.818071     -0.001659
  C       2.680647     -0.483505      0.343426
  C       1.735071     -1.462498      0.624545
  H       0.567157      2.095583     -0.389799
  C       3.400419      1.818126     -0.137493
  H      -1.092471      0.335959      0.117383
  H      -0.358934     -1.928722      0.798782
  H       3.739309     -0.711009      0.394813
  H       2.063219     -2.455381      0.918153
  N       3.497785      2.687208     -1.070091
  O       4.587499      3.500930     -0.992721
  O       4.399719      1.779969      0.834844
  Se      5.840239      2.854069      0.419361
  O       6.963122      1.964771     -0.329001
17
Coordinates from ORCA-job orca_IRC_Full E -2951.535151916424
  C      -0.021094      0.114999      0.168668
  C       0.925482      1.107307     -0.110345
  C       0.379324     -1.163733      0.552881
  C       2.300428      0.819174      0.003951
  C       2.683755     -0.483026      0.347213
  C       1.736382     -1.462298      0.624014
  H       0.572939      2.096889     -0.388851
  C       3.394925      1.816688     -0.133902
  H      -1.086391      0.339034      0.115245
  H      -0.358380     -1.926183      0.797674
  H       3.741015     -0.713946      0.397816
  H       2.063457     -2.455533      0.916614
  N       3.490634      2.688266     -1.073890
  O       4.599154      3.493540     -0.978966
  O       4.388767      1.770097      0.828430
  Se      5.825686      2.859642      0.403364
  O       6.955460      1.965416     -0.327222
17
Coordinates from ORCA-job orca_IRC_Full E -2951.536155552971
  C      -0.016460      0.117270      0.167761
  C       0.929046      1.108775     -0.108527
  C       0.381774     -1.161867      0.551540
  C       2.300974      0.818118      0.008412
  C       2.686339     -0.483446      0.351661
  C       1.738645     -1.461813      0.623922
  H       0.580310      2.098989     -0.387725
  C       3.391250      1.819058     -0.134898
  H      -1.079968      0.343104      0.112454
  H      -0.357318     -1.922582      0.795892
  H       3.743630     -0.716935      0.401645
  H       2.063906     -2.456014      0.914707
  N       3.482677      2.685476     -1.074218
  O       4.607448      3.487700     -0.968550
  O       4.380627      1.760591      0.823708
  Se      5.812557      2.864129      0.391315
  O       6.946106      1.965784     -0.326404
17
Coordinates from ORCA-job orca_IRC_Full E -2951.536859518416
  C      -0.011351      0.120019      0.167021
  C       0.934090      1.110709     -0.106254
  C       0.385312     -1.159195      0.549695
  C       2.302548      0.816826      0.012917
  C       2.690399     -0.483832      0.357232
  C       1.741315     -1.461861      0.624551
  H       0.591074      2.102632     -0.386051
  C       3.385556      1.816786     -0.133895
  H      -1.072765      0.349214      0.108282
  H      -0.355806     -1.917530      0.792872
  H       3.747145     -0.720412      0.407598
  H       2.064727     -2.457261      0.912034
  N       3.474031      2.684191     -1.076125
  O       4.611671      3.482108     -0.960382
  O       4.372410      1.749902      0.818267
  Se      5.798440      2.868548      0.381752
  O       6.932747      1.965490     -0.326821
17
Coordinates from ORCA-job orca_IRC_Full E -2951.537359735954
  C      -0.006527      0.124296      0.166178
  C       0.939441      1.112774     -0.104177
  C       0.389117     -1.155763      0.547633
  C       2.304197      0.813179      0.016520
  C       2.694819     -0.485873      0.363348
  C       1.744406     -1.462173      0.625967
  H       0.605145      2.107420     -0.383590
  C       3.382981      1.814242     -0.134785
  H      -1.066185      0.356804      0.103045
  H      -0.354386     -1.912116      0.788347
  H       3.751415     -0.723403      0.415939
  H       2.065757     -2.459537      0.908969
  N       3.464579      2.681455     -1.076636
  O       4.604898      3.480002     -0.959757
  O       4.367844      1.741646      0.814524
  Se      5.787061      2.869512      0.380838
  O       6.916982      1.963869     -0.329668
17
Coordinates from ORCA-job orca_IRC_Full E -2951.537755111212
  C      -0.002268      0.128434      0.165179
  C       0.946885      1.114044     -0.102703
  C       0.391574     -1.152861      0.545683
  C       2.308385      0.809506      0.019278
  C       2.699111     -0.488451      0.368743
  C       1.745623     -1.463073      0.627548
  H       0.620323      2.112748     -0.380833
  C       3.379684      1.808664     -0.136060
  H      -1.061196      0.364370      0.097906
  H      -0.353491     -1.907233      0.782519
  H       3.755619     -0.725785      0.425812
  H       2.065804     -2.462640      0.906602
  N       3.457189      2.678727     -1.075543
  O       4.592611      3.480785     -0.960164
  O       4.367113      1.738339      0.812714
  Se      5.776445      2.869418      0.379841
  O       6.902133      1.961341     -0.333828
17
Coordinates from ORCA-job orca_IRC_Full E -2951.537845342371
  C      -0.001456      0.129714      0.164708
  C       0.948299      1.114252     -0.102421
  C       0.392360     -1.152053      0.544919
  C       2.309164      0.808275      0.019902
  C       2.700240     -0.489721      0.370308
  C       1.745866     -1.463594      0.627929
  H       0.624552      2.113700     -0.380042
  C       3.380221      1.807587     -0.135409
  H      -1.059502      0.366230      0.096698
  H      -0.353798     -1.906349      0.780818
  H       3.756510     -0.726593      0.428656
  H       2.065232     -2.463295      0.906218
  N       3.454536      2.677904     -1.076058
  O       4.589393      3.481731     -0.959758
  O       4.366553      1.737717      0.812428
  Se      5.774899      2.870302      0.379175
  O       6.898475      1.960529     -0.335377
