17
Coordinates from ORCA-job orca
  C   1.33407318302433      0.41140821655105      1.57556104793804
  C   2.07009196973571      1.04671585983103      0.58490174846148
  C   0.73499650411305     -0.82308328987387      1.33336599684728
  C   2.20230591524601      0.43297775792659     -0.66428813128720
  C   1.61139842229360     -0.80508580500161     -0.91501443155583
  C   0.87734204060435     -1.42703027850118      0.08765444371692
  C   3.47842793085710      2.07939834520362     -1.92402395188860
  N   2.93467693838514      1.03463822699500     -1.69296930708117
  O   5.65854029779807      1.79249537805019      0.19284150119634
  O   4.04754543643543      3.05256469188470     -2.26845300042672
  Se  5.63463791419039      3.41467638196785      0.19530187879507
  O   4.31664729180896      4.03491946584120      0.91076335458196
  H   2.55233945781779      2.00165912580671      0.77372760099431
  H   1.23231392524879      0.88579572192932      2.54716445158647
  H   0.16227317074083     -1.31288250286484      2.11479377819071
  H   1.73216343921459     -1.26394028911070     -1.89080874875314
  H   0.41572616248542     -2.39032800663512     -0.10761623131595
