17
C7NH5SO3
C        0.228599000      0.006310000     -0.493573000
C        1.321999000      0.872359000     -0.513824000
C        0.223505000     -1.094580000      0.376555000
C        2.413876000      0.597190000      0.324081000
C        2.409314000     -0.481437000      1.221494000
C        1.308387000     -1.338778000      1.231865000
H        1.344172000      1.740756000     -1.161365000
C        3.812503000      1.324930000      0.006146000
H       -0.620989000      0.194216000     -1.140124000
H       -0.635184000     -1.757192000      0.397120000
H        3.252060000     -0.636192000      1.884526000
H        1.288103000     -2.184414000      1.909879000
N        3.413123000      2.139488000      0.901641000
O        5.182368000      3.451771000      0.637470000
O        4.695208000      1.027993000     -0.839434000
S        6.069349000      3.041337000     -0.682555000
O        5.668009000      3.893244000     -1.989201000
