3
O2S optimized with ADF in AMS.
 S        0.00000000000000      -0.00000001488034       0.36589195072032
 O        0.00000000000000       1.24134495833513      -0.36452998231003
 O        0.00000000000000      -1.24134494345479      -0.36452996841029
