!r2scan-3c TightSCF opt freq
!Mass2016
%geom maxiter 300 end
%maxcore 4000 
%pal nprocs 36
end

*xyz 0 1

S        0.000000000     -0.000000071      0.464422083
O        0.000000000      1.351921805     -0.413795063
O        0.000000000     -1.351921734     -0.413795021
*
