!DLPNO-CCSD(T) Extrapolate(3/4,cc) cc-pVQZ/C TightPNO TightSCF 
!CPCM(Benzene)
%geom maxiter 300 end
%maxcore 4000 
%pal nprocs 36
end

*xyz 0 1
6       -2.396744000     -0.767407000     -0.454934000
6       -1.523143000      0.300823000     -0.535973000
6       -1.944656000     -1.965868000      0.088143000
6       -0.199494000      0.151742000     -0.080458000
6        0.236212000     -1.065859000      0.463348000
6       -0.644371000     -2.130838000      0.549126000
1       -1.850131000      1.248461000     -0.949849000
6        0.695760000      1.249590000     -0.173443000
1       -3.419586000     -0.677790000     -0.800877000
7       -2.880779000     -3.100795000      0.178622000
1        1.257023000     -1.162687000      0.812665000
1       -0.330194000     -3.080841000      0.964314000
7        0.934387000      2.335625000     -0.634621000
8        1.800799000      3.224879000     -0.581885000
8        2.298881000      1.103496000      1.069491000
16       3.393283000      2.080926000      0.659589000
8        4.280051000      1.578493000     -0.408373000
8       -4.026800000     -2.925122000     -0.218289000
8       -2.457489000     -4.151499000      0.644936000

*
