! wB97X-D3BJ def2-TZVP OptTS freq SlowConv tightSCF
!CPCM(Toluene)
%pal nprocs 28 end
%scf maxiter 200 end
%geom
Calc_Hess true
maxiter 200 # calculation of the exact Hessian
# before the first optimization step
end
*xyz 0 1
C       -2.489540568     -0.518121403      0.134876111
C       -1.558773766      0.490228003     -0.128702892
C       -2.051400107     -1.819216666      0.420736281
C       -0.193097935      0.175172389     -0.074634077
C        0.256580349     -1.136543715      0.149558745
C       -0.682703365     -2.129593422      0.426308702
H       -1.874585660      1.496962552     -0.374444992
C        0.913040255      1.327198685     -0.013258334
H       -3.550254522     -0.293815304      0.112667436
H       -2.778340010     -2.597999812      0.625404017
H        1.317642985     -1.355411641      0.120504452
H       -0.353014606     -3.141006833      0.635478831
N        0.920213386      1.268417258     -1.291952147
O        2.624517368      2.528334164     -1.548820782
O        1.500066359      1.828974020      0.990800620
S        3.514976434      2.577849021     -0.160390049
O        4.484673403      1.298572705     -0.024131921
*
