14
Coordinates from ORCA-job mol
  C   1.80390682991694     -0.43001464712415      0.36551503808530
  C   2.88548729000142      0.37642880337220      0.02920138607209
  C   1.99193719494134     -1.77854151387602      0.65681836755744
  C   4.16683955134426     -0.17440365212176     -0.01555871997072
  C   4.36493188129316     -1.52789956192641      0.27589623116538
  C   3.27478249807017     -2.32132327367754      0.61034103284135
  H   2.75003305595824      1.42869158126493     -0.19944701560923
  C   6.42684156632620      0.55833876947498     -0.49767553649726
  H   0.80768504620726      0.00117762711796      0.39960137185140
  H   1.14451569417842     -2.40454258941297      0.91889187914329
  H   5.36632340657826     -1.94812294450493      0.23857199952180
  H   3.43095239886593     -3.37233896381799      0.83593602984983
  N   5.23287527577089      0.66625481019821     -0.35885456522648
  O   7.58648831054746      0.59689555503352     -0.66823749878420
