16
Coordinates from ORCA-job mol E -604.146807251378
  C       1.827958     -0.587427      0.311926
  C       2.915271      0.228478      0.021078
  C       2.023646     -1.935711      0.563445
  C       4.224724     -0.276265      0.009106
  C       4.403089     -1.637578      0.290314
  C       3.316827     -2.456493      0.552011
  N       2.635710      1.642158     -0.281923
  C       6.499052      0.440595     -0.333706
  H       0.838333     -0.145053      0.326042
  H       1.173630     -2.576611      0.771690
  H       5.413029     -2.037140      0.304346
  H       3.482720     -3.509879      0.756381
  N       5.303092      0.557769     -0.211552
  O       7.659174      0.469767     -0.475199
  O       3.353325      2.204548     -1.095584
  O       1.678022      2.149475      0.290706
16
Coordinates from ORCA-job mol E -604.146832266899
  C       1.825777     -0.588760      0.310721
  C       2.913836      0.226930      0.018606
  C       2.022650     -1.936321      0.564345
  C       4.224076     -0.277521      0.006072
  C       4.403300     -1.637749      0.290474
  C       3.316780     -2.456337      0.553926
  N       2.634705      1.639360     -0.283999
  C       6.498849      0.441346     -0.334208
  H       0.834613     -0.149349      0.319315
  H       1.172743     -2.577704      0.771971
  H       5.413347     -2.036997      0.305676
  H       3.483189     -3.509393      0.759756
  N       5.303035      0.557290     -0.215018
  O       7.659701      0.473160     -0.473504
  O       3.352115      2.206452     -1.096029
  O       1.688885      2.156227      0.300978
16
Coordinates from ORCA-job mol E -604.146620133622
  C       1.824250     -0.586131      0.314478
  C       2.916672      0.227127      0.022066
  C       2.020918     -1.933559      0.566590
  C       4.227507     -0.280321      0.002906
  C       4.405571     -1.639510      0.288507
  C       3.316169     -2.455204      0.554195
  N       2.643000      1.638005     -0.269055
  C       6.504984      0.439777     -0.330678
  H       0.830025     -0.152592      0.311546
  H       1.169782     -2.574821      0.770629
  H       5.414647     -2.041150      0.303116
  H       3.481178     -3.508912      0.758311
  N       5.310103      0.554674     -0.217438
  O       7.667734      0.477329     -0.465496
  O       3.321184      2.204193     -1.119012
  O       1.693879      2.161728      0.308416
16
Coordinates from ORCA-job mol E -604.146858877291
  C       1.825362     -0.587703      0.311307
  C       2.914855      0.226921      0.020059
  C       2.022006     -1.935349      0.564446
  C       4.224760     -0.278301      0.006583
  C       4.403626     -1.638430      0.290323
  C       3.316164     -2.456008      0.553952
  N       2.638581      1.638048     -0.279304
  C       6.499534      0.442179     -0.334193
  H       0.833539     -0.149743      0.317785
  H       1.171749     -2.576453      0.771476
  H       5.413229     -2.038682      0.305030
  H       3.481936     -3.509210      0.759585
  N       5.303716      0.556792     -0.216176
  O       7.660641      0.476885     -0.472852
  O       3.348503      2.204221     -1.099949
  O       1.689400      2.155465      0.301009
16
Coordinates from ORCA-job mol E -604.146859639899
  C       1.825385     -0.587468      0.311359
  C       2.914834      0.226967      0.019425
  C       2.022062     -1.935139      0.564488
  C       4.224699     -0.278534      0.005863
  C       4.403581     -1.638615      0.289775
  C       3.316063     -2.455951      0.553752
  N       2.638577      1.637700     -0.279767
  C       6.499604      0.442282     -0.333630
  H       0.833548     -0.149669      0.318766
  H       1.171848     -2.576108      0.772099
  H       5.413082     -2.039100      0.304361
  H       3.481735     -3.509117      0.759668
  N       5.303567      0.556432     -0.216900
  O       7.660778      0.477859     -0.471165
  O       3.348124      2.203905     -1.100795
  O       1.690116      2.155188      0.301781
16
Coordinates from ORCA-job mol E -604.146860195904
  C       1.825386     -0.587189      0.311625
  C       2.914846      0.227051      0.019016
  C       2.022063     -1.934906      0.564745
  C       4.224606     -0.278953      0.005176
  C       4.403474     -1.639020      0.289082
  C       3.315833     -2.456010      0.553574
  N       2.638965      1.637314     -0.280158
  C       6.499634      0.442700     -0.332974
  H       0.833426     -0.149781      0.319985
  H       1.171847     -2.575710      0.772876
  H       5.412799     -2.039926      0.303233
  H       3.481302     -3.509193      0.759588
  N       5.303254      0.555842     -0.218338
  O       7.660923      0.480000     -0.468728
  O       3.347907      2.203091     -1.102112
  O       1.691339      2.155321      0.302490
