
                                 *****************
                                 * O   R   C   A *
                                 *****************

                                            #,                                       
                                            ###                                      
                                            ####                                     
                                            #####                                    
                                            ######                                   
                                           ########,                                 
                                     ,,################,,,,,                         
                               ,,#################################,,                 
                          ,,##########################################,,             
                       ,#########################################, ''#####,          
                    ,#############################################,,   '####,        
                  ,##################################################,,,,####,       
                ,###########''''           ''''###############################       
              ,#####''   ,,,,##########,,,,          '''####'''          '####       
            ,##' ,,,,###########################,,,                        '##       
           ' ,,###''''                  '''############,,,                           
         ,,##''                                '''############,,,,        ,,,,,,###''
      ,#''                                            '''#######################'''  
     '                                                          ''''####''''         
             ,#######,   #######,   ,#######,      ##                                
            ,#'     '#,  ##    ##  ,#'     '#,    #''#        ######   ,####,        
            ##       ##  ##   ,#'  ##            #'  '#       #        #'  '#        
            ##       ##  #######   ##           ,######,      #####,   #    #        
            '#,     ,#'  ##    ##  '#,     ,#' ,#      #,         ##   #,  ,#        
             '#######'   ##     ##  '#######'  #'      '#     #####' # '####'        



                  #######################################################
                  #                        -***-                        #
                  #          Department of theory and spectroscopy      #
                  #    Directorship and core code : Frank Neese         #
                  #        Max Planck Institute fuer Kohlenforschung    #
                  #                Kaiser Wilhelm Platz 1               #
                  #                 D-45470 Muelheim/Ruhr               #
                  #                      Germany                        #
                  #                                                     #
                  #                  All rights reserved                #
                  #                        -***-                        #
                  #######################################################


                         Program Version 5.0.4 -  RELEASE  -


 With contributions from (in alphabetic order):
   Daniel Aravena         : Magnetic Suceptibility
   Michael Atanasov       : Ab Initio Ligand Field Theory (pilot matlab implementation)
   Alexander A. Auer      : GIAO ZORA, VPT2 properties, NMR spectrum
   Ute Becker             : Parallelization
   Giovanni Bistoni       : ED, misc. LED, open-shell LED, HFLD
   Martin Brehm           : Molecular dynamics
   Dmytro Bykov           : SCF Hessian
   Vijay G. Chilkuri      : MRCI spin determinant printing, contributions to CSF-ICE
   Dipayan Datta          : RHF DLPNO-CCSD density
   Achintya Kumar Dutta   : EOM-CC, STEOM-CC
   Dmitry Ganyushin       : Spin-Orbit,Spin-Spin,Magnetic field MRCI
   Miquel Garcia          : C-PCM and meta-GGA Hessian, CC/C-PCM, Gaussian charge scheme
   Yang Guo               : DLPNO-NEVPT2, F12-NEVPT2, CIM, IAO-localization
   Andreas Hansen         : Spin unrestricted coupled pair/coupled cluster methods
   Benjamin Helmich-Paris : MC-RPA, TRAH-SCF, COSX integrals
   Lee Huntington         : MR-EOM, pCC
   Robert Izsak           : Overlap fitted RIJCOSX, COSX-SCS-MP3, EOM
   Marcus Kettner         : VPT2
   Christian Kollmar      : KDIIS, OOCD, Brueckner-CCSD(T), CCSD density, CASPT2, CASPT2-K
   Simone Kossmann        : Meta GGA functionals, TD-DFT gradient, OOMP2, MP2 Hessian
   Martin Krupicka        : Initial AUTO-CI
   Lucas Lang             : DCDCAS
   Marvin Lechner         : AUTO-CI (C++ implementation), FIC-MRCC
   Dagmar Lenk            : GEPOL surface, SMD
   Dimitrios Liakos       : Extrapolation schemes; Compound Job, initial MDCI parallelization
   Dimitrios Manganas     : Further ROCIS development; embedding schemes
   Dimitrios Pantazis     : SARC Basis sets
   Anastasios Papadopoulos: AUTO-CI, single reference methods and gradients
   Taras Petrenko         : DFT Hessian,TD-DFT gradient, ASA, ECA, R-Raman, ABS, FL, XAS/XES, NRVS
   Peter Pinski           : DLPNO-MP2, DLPNO-MP2 Gradient
   Christoph Reimann      : Effective Core Potentials
   Marius Retegan         : Local ZFS, SOC
   Christoph Riplinger    : Optimizer, TS searches, QM/MM, DLPNO-CCSD(T), (RO)-DLPNO pert. Triples
   Tobias Risthaus        : Range-separated hybrids, TD-DFT gradient, RPA, STAB
   Michael Roemelt        : Original ROCIS implementation
   Masaaki Saitow         : Open-shell DLPNO-CCSD energy and density
   Barbara Sandhoefer     : DKH picture change effects
   Avijit Sen             : IP-ROCIS
   Kantharuban Sivalingam : CASSCF convergence, NEVPT2, FIC-MRCI
   Bernardo de Souza      : ESD, SOC TD-DFT
   Georgi Stoychev        : AutoAux, RI-MP2 NMR, DLPNO-MP2 response
   Willem Van den Heuvel  : Paramagnetic NMR
   Boris Wezisla          : Elementary symmetry handling
   Frank Wennmohs         : Technical directorship


 We gratefully acknowledge several colleagues who have allowed us to
 interface, adapt or use parts of their codes:
   Stefan Grimme, W. Hujo, H. Kruse, P. Pracht,  : VdW corrections, initial TS optimization,
                  C. Bannwarth, S. Ehlert          DFT functionals, gCP, sTDA/sTD-DF
   Ed Valeev, F. Pavosevic, A. Kumar             : LibInt (2-el integral package), F12 methods
   Garnet Chan, S. Sharma, J. Yang, R. Olivares  : DMRG
   Ulf Ekstrom                                   : XCFun DFT Library
   Mihaly Kallay                                 : mrcc  (arbitrary order and MRCC methods)
   Jiri Pittner, Ondrej Demel                    : Mk-CCSD
   Frank Weinhold                                : gennbo (NPA and NBO analysis)
   Christopher J. Cramer and Donald G. Truhlar   : smd solvation model
   Lars Goerigk                                  : TD-DFT with DH, B97 family of functionals
   V. Asgeirsson, H. Jonsson                     : NEB implementation
   FAccTs GmbH                                   : IRC, NEB, NEB-TS, DLPNO-Multilevel, CI-OPT
                                                   MM, QMMM, 2- and 3-layer-ONIOM, Crystal-QMMM,
                                                   LR-CPCM, SF, NACMEs, symmetry and pop. for TD-DFT,
                                                   nearIR, NL-DFT gradient (VV10), updates on ESD,
                                                   ML-optimized integration grids
   S Lehtola, MJT Oliveira, MAL Marques          : LibXC Library
   Liviu Ungur et al                             : ANISO software


 Your calculation uses the libint2 library for the computation of 2-el integrals
 For citations please refer to: http://libint.valeyev.net

 Your ORCA version has been built with support for libXC version: 5.1.0
 For citations please refer to: https://tddft.org/programs/libxc/

 This ORCA versions uses:
   CBLAS   interface :  Fast vector & matrix operations
   LAPACKE interface :  Fast linear algebra routines
   SCALAPACK package :  Parallel linear algebra routines
   Shared memory     :  Shared parallel matrices
   BLAS/LAPACK       :  OpenBLAS 0.3.15  USE64BITINT DYNAMIC_ARCH NO_AFFINITY Zen SINGLE_THREADED
        Core in use  :  Zen
   Copyright (c) 2011-2014, The OpenBLAS Project




***************************************
The coordinates will be read from file: ini.xyz
***************************************


Your calculation utilizes the geometrical counterpoise correction gCP
Please cite in your paper:
H.Kruse, S. Grimme J.Chem.Phys., 136, (2012), 154101 
   

Your calculation utilizes the atom-pairwise dispersion correction
based on tight binding partial charges (D4)
Cite in your paper:
E.Caldeweyher, C.Bannwarth, S.Grimme, J.Chem.Phys., (2017), 147, 034112.
E.Caldeweyher, S.Ehlert, A.Hansen, H.Neugebauer, S.Grimme, J.Chem.Phys., (2018), in progress.
   

================================================================================

----- Orbital basis set information -----
Your calculation utilizes the basis: def2-mTZVPP
   Stefan Grimme, Andreas Hansen, Sebastian Ehlert, and Jan-Michael Mewes 
   J. Chem. Phys. 154, 000000 (2021). DOI: 10.1063/5.0040021

----- AuxJ basis set information -----
Your calculation utilizes the basis: def2-mTZVPP/J
   Stefan Grimme, Andreas Hansen, Sebastian Ehlert, and Jan-Michael Mewes 
   J. Chem. Phys. 154, 000000 (2021). DOI: 10.1063/5.0040021

================================================================================
                                        WARNINGS
                       Please study these warnings very carefully!
================================================================================

Using LibXC functional ID 497 : Re-regularized SCAN exchange by Furness et al
[ 1]  J. W. Furness, A. D. Kaplan, J. Ning, J. P. Perdew, and J. Sun, J. Phys. Chem. Lett. 11, 8208 (2020)
[ 2]  J. W. Furness, A. D. Kaplan, J. Ning, J. P. Perdew, and J. Sun, J. Phys. Chem. Lett. 11, 9248 (2020)
Using LibXC functional ID 498 : Re-regularized SCAN correlation by Furness et al
[ 1]  J. W. Furness, A. D. Kaplan, J. Ning, J. P. Perdew, and J. Sun, J. Phys. Chem. Lett. 11, 8208 (2020)
[ 2]  J. W. Furness, A. D. Kaplan, J. Ning, J. P. Perdew, and J. Sun, J. Phys. Chem. Lett. 11, 9248 (2020)
Using LibXC functional ID 497 : Re-regularized SCAN exchange by Furness et al
[ 1]  J. W. Furness, A. D. Kaplan, J. Ning, J. P. Perdew, and J. Sun, J. Phys. Chem. Lett. 11, 8208 (2020)
[ 2]  J. W. Furness, A. D. Kaplan, J. Ning, J. P. Perdew, and J. Sun, J. Phys. Chem. Lett. 11, 9248 (2020)
Using LibXC functional ID 498 : Re-regularized SCAN correlation by Furness et al
[ 1]  J. W. Furness, A. D. Kaplan, J. Ning, J. P. Perdew, and J. Sun, J. Phys. Chem. Lett. 11, 8208 (2020)
[ 2]  J. W. Furness, A. D. Kaplan, J. Ning, J. P. Perdew, and J. Sun, J. Phys. Chem. Lett. 11, 9248 (2020)

INFO   : the flag for use of the SHARK integral package has been found!

================================================================================
                                       INPUT FILE
================================================================================
NAME = mol.inp
|  1> ! r2SCAN-3c CPCM(benzene) tightSCF
|  2> ! Hirshfeld
|  3> 
|  4> %maxcore 10000
|  5> 
|  6> %pal
|  7> nprocs 18    # parallel execution
|  8> end
|  9> 
| 10> %output
| 11>    Print[ P_BondOrder_M ] 1
| 12>    Print[ P_BondOrder_L ] 1
| 13> end
| 14> 
| 15> * xyzfile 0 1  ini.xyz
| 16> 
| 17>                          ****END OF INPUT****
================================================================================

                       ****************************
                       * Single Point Calculation *
                       ****************************

---------------------------------
CARTESIAN COORDINATES (ANGSTROEM)
---------------------------------
  C     -0.073838   -0.040990    0.353278
  C      0.798206    1.035290    0.418069
  C      0.439204   -1.332629    0.408253
  C      2.181723    0.819942    0.537211
  C      2.675386   -0.494699    0.591254
  C      1.804267   -1.571778    0.526583
  H      0.411993    2.048314    0.376542
  C      3.071227    1.918624    0.602463
  H     -1.141509    0.125484    0.260910
  Br    -0.761733   -2.815231    0.318681
  H      3.742686   -0.666107    0.683699
  H      2.185832   -2.586133    0.567893
  N      3.810651    2.815771    0.648461
  O      4.576035    3.748752    0.697473

----------------------------
CARTESIAN COORDINATES (A.U.)
----------------------------
  NO LB      ZA    FRAG     MASS         X           Y           Z
   0 C     6.0000    0    12.011   -0.139533   -0.077459    0.667599
   1 C     6.0000    0    12.011    1.508391    1.956415    0.790035
   2 C     6.0000    0    12.011    0.829975   -2.518304    0.771486
   3 C     6.0000    0    12.011    4.122859    1.549465    1.015182
   4 C     6.0000    0    12.011    5.055747   -0.934846    1.117308
   5 C     6.0000    0    12.011    3.409570   -2.970229    0.995097
   6 H     1.0000    0     1.008    0.778554    3.870753    0.711562
   7 C     6.0000    0    12.011    5.803777    3.625675    1.138489
   8 H     1.0000    0     1.008   -2.157140    0.237131    0.493049
   9 Br   35.0000    0    79.900   -1.439468   -5.320016    0.602220
  10 H     1.0000    0     1.008    7.072652   -1.258760    1.292004
  11 H     1.0000    0     1.008    4.130624   -4.887084    1.073162
  12 N     7.0000    0    14.007    7.201087    5.321035    1.225414
  13 O     8.0000    0    15.999    8.647453    7.084115    1.318033

--------------------------------
INTERNAL COORDINATES (ANGSTROEM)
--------------------------------
 C      0   0   0     0.000000000000     0.00000000     0.00000000
 C      1   0   0     1.386735706741     0.00000000     0.00000000
 C      1   2   0     1.390886906138   119.13974845     0.00000000
 C      2   1   3     1.405236064875   120.27490100     0.02295384
 C      4   2   1     1.405312942480   119.50332071   359.95312812
 C      5   4   2     1.386769415844   120.27244496     0.04528764
 H      2   1   3     1.084943645328   119.93612361   180.01299966
 C      4   2   1     1.415124745475   120.25070300   179.96129276
 H      1   2   3     1.084512861347   120.25996351   180.00275845
 Br     3   1   2     1.910074040552   119.14658619   180.01194422
 H      5   4   2     1.084922003261   119.77874897   180.02935930
 H      6   5   4     1.084534994869   120.24137996   179.97291875
 N      8   4   2     1.163501711377   179.37309879   221.05767660
 O     13   8   4     1.207753989869   179.85596883   167.63974088

---------------------------
INTERNAL COORDINATES (A.U.)
---------------------------
 C      0   0   0     0.000000000000     0.00000000     0.00000000
 C      1   0   0     2.620550705870     0.00000000     0.00000000
 C      1   2   0     2.628395335857   119.13974845     0.00000000
 C      2   1   3     2.655511316123   120.27490100     0.02295384
 C      4   2   1     2.655656593742   119.50332071   359.95312812
 C      5   4   2     2.620614406844   120.27244496     0.04528764
 H      2   1   3     2.050246360408   119.93612361   180.01299966
 C      4   2   1     2.674198214284   120.25070300   179.96129276
 H      1   2   3     2.049432296660   120.25996351   180.00275845
 Br     3   1   2     3.609516832155   119.14658619   180.01194422
 H      5   4   2     2.050205462828   119.77874897   180.02935930
 H      6   5   4     2.049474122956   120.24137996   179.97291875
 N      8   4   2     2.198699590851   179.37309879   221.05767660
 O     13   8   4     2.282324278003   179.85596883   167.63974088

---------------------
BASIS SET INFORMATION
---------------------
There are 5 groups of distinct atoms

 Group   1 Type C   : 11s6p1d contracted to 5s3p1d pattern {62111/411/1}
 Group   2 Type H   : 4s1p contracted to 2s1p pattern {31/1}
 Group   3 Type Br  : 17s13p7d contracted to 6s5p3d pattern {842111/64111/511}
 Group   4 Type N   : 11s6p2d contracted to 5s3p2d pattern {62111/411/11}
 Group   5 Type O   : 11s6p2d contracted to 5s3p2d pattern {62111/411/11}

Atom   0C    basis set group =>   1
Atom   1C    basis set group =>   1
Atom   2C    basis set group =>   1
Atom   3C    basis set group =>   1
Atom   4C    basis set group =>   1
Atom   5C    basis set group =>   1
Atom   6H    basis set group =>   2
Atom   7C    basis set group =>   1
Atom   8H    basis set group =>   2
Atom   9Br   basis set group =>   3
Atom  10H    basis set group =>   2
Atom  11H    basis set group =>   2
Atom  12N    basis set group =>   4
Atom  13O    basis set group =>   5
---------------------------------
AUXILIARY/J BASIS SET INFORMATION
---------------------------------
There are 5 groups of distinct atoms

 Group   1 Type C   : 8s3p3d contracted to 6s3p3d pattern {311111/111/111}
 Group   2 Type H   : 5s2p1d contracted to 3s1p1d pattern {311/2/1}
 Group   3 Type Br  : 19s5p5d3f1g contracted to 8s4p3d2f1g pattern {121111111/2111/311/21/1}
 Group   4 Type N   : 8s3p3d contracted to 6s3p3d pattern {311111/111/111}
 Group   5 Type O   : 8s3p3d contracted to 6s3p3d pattern {311111/111/111}

Atom   0C    basis set group =>   1
Atom   1C    basis set group =>   1
Atom   2C    basis set group =>   1
Atom   3C    basis set group =>   1
Atom   4C    basis set group =>   1
Atom   5C    basis set group =>   1
Atom   6H    basis set group =>   2
Atom   7C    basis set group =>   1
Atom   8H    basis set group =>   2
Atom   9Br   basis set group =>   3
Atom  10H    basis set group =>   2
Atom  11H    basis set group =>   2
Atom  12N    basis set group =>   4
Atom  13O    basis set group =>   5


           ************************************************************
           *        Program running with 18 parallel MPI-processes    *
           *              working on a common directory               *
           ************************************************************
------------------------------------------------------------------------------
                           ORCA GTO INTEGRAL CALCULATION
                           -- RI-GTO INTEGRALS CHOSEN --
------------------------------------------------------------------------------
------------------------------------------------------------------------------
                   ___                                                        
                  /   \      - P O W E R E D   B Y -                         
                 /     \                                                     
                 |  |  |   _    _      __       _____    __    __             
                 |  |  |  | |  | |    /  \     |  _  \  |  |  /  |          
                  \  \/   | |  | |   /    \    | | | |  |  | /  /          
                 / \  \   | |__| |  /  /\  \   | |_| |  |  |/  /          
                |  |  |   |  __  | /  /__\  \  |    /   |      \           
                |  |  |   | |  | | |   __   |  |    \   |  |\   \          
                \     /   | |  | | |  |  |  |  | |\  \  |  | \   \       
                 \___/    |_|  |_| |__|  |__|  |_| \__\ |__|  \__/        
                                                                              
                      - O R C A' S   B I G   F R I E N D -                    
                                      &                                       
                       - I N T E G R A L  F E E D E R -                       
                                                                              
 v1 FN, 2020, v2 2021                                                         
------------------------------------------------------------------------------


Reading SHARK input file mol.SHARKINP.tmp ... ok
----------------------
SHARK INTEGRAL PACKAGE
----------------------

Number of atoms                             ...     14
Number of basis functions                   ...    237
Number of shells                            ...    109
Maximum angular momentum                    ...      2
Integral batch strategy                     ... SHARK/LIBINT Hybrid
RI-J (if used) integral strategy            ... SPLIT-RIJ (Revised 2003 algorithm where possible)
Printlevel                                  ...      1
Contraction scheme used                     ... SEGMENTED contraction
Coulomb Range Separation                    ... NOT USED
Exchange Range Separation                   ... NOT USED
Finite Nucleus Model                        ... NOT USED
Auxiliary Coulomb fitting basis             ... AVAILABLE
   # of basis functions in Aux-J            ...    372
   # of shells in Aux-J                     ...    146
   Maximum angular momentum in Aux-J        ...      4
Auxiliary J/K fitting basis                 ... NOT available
Auxiliary Correlation fitting basis         ... NOT available
Auxiliary 'external' fitting basis          ... NOT available
Integral threshold                          ...     2.500000e-11
Primitive cut-off                           ...     2.500000e-12
Primitive pair pre-selection threshold      ...     2.500000e-12

Calculating pre-screening integrals         ... done (  0.0 sec) Dimension = 109
Organizing shell pair data                  ... done (  0.0 sec)
Shell pair information
Total number of shell pairs                 ...      5995
Shell pairs after pre-screening             ...      4938
Total number of primitive shell pairs       ...     24807
Primitive shell pairs kept                  ...     13681
          la=0 lb=0:   1384 shell pairs
          la=1 lb=0:   1799 shell pairs
          la=1 lb=1:    597 shell pairs
          la=2 lb=0:    648 shell pairs
          la=2 lb=1:    428 shell pairs
          la=2 lb=2:     82 shell pairs

Calculating one electron integrals          ... done (  0.0 sec)
Calculating RI/J V-Matrix + Cholesky decomp.... done (  0.1 sec)
Calculating Nuclear repulsion               ... done (  0.0 sec) ENN=    644.692262865854 Eh

SHARK setup successfully completed in   0.2 seconds

Maximum memory used throughout the entire GTOINT-calculation: 18.0 MB


           ************************************************************
           *        Program running with 18 parallel MPI-processes    *
           *              working on a common directory               *
           ************************************************************
-------------------------------------------------------------------------------
                                 ORCA SCF
-------------------------------------------------------------------------------

------------
SCF SETTINGS
------------
Hamiltonian:
 Density Functional     Method          .... DFT(GTOs)
  Functional kind                       .... Exchange
  Functional name                       .... Re-regularized SCAN exchange by Furness et al
  Functional family                     .... MGGA
  Functional refs                              
    [ 0] J. W. Furness, A. D. Kaplan, J. Ning, J. P. Perdew, and J. Sun, J. Phys. Chem. Lett. 11, 8208 (2020)
    [ 1] J. W. Furness, A. D. Kaplan, J. Ning, J. P. Perdew, and J. Sun, J. Phys. Chem. Lett. 11, 9248 (2020)
  Functional external parameters         .... 8
 Parameter  0 :         c1 parameter
 Parameter  1 :         c2 parameter
 Parameter  2 :          d parameter
 Parameter  3 :         k1 parameter
 Parameter  4 :       taur parameter
 Parameter  5 :     alphar parameter
 Parameter  6 :        eta parameter
 Parameter  7 :        dp2 parameter
  Functional kind                       .... Correlation
  Functional name                       .... Re-regularized SCAN correlation by Furness et al
  Functional family                     .... MGGA
  Functional refs                              
    [ 0] J. W. Furness, A. D. Kaplan, J. Ning, J. P. Perdew, and J. Sun, J. Phys. Chem. Lett. 11, 8208 (2020)
    [ 1] J. W. Furness, A. D. Kaplan, J. Ning, J. P. Perdew, and J. Sun, J. Phys. Chem. Lett. 11, 9248 (2020)
  Functional external parameters         .... 0
 Gradients option       PostSCFGGA      .... off
   Density functional embedding theory  .... OFF
 RI-approximation to the Coulomb term is turned on
   Number of AuxJ basis functions       .... 372


General Settings:
 Integral files         IntName         .... mol
 Hartree-Fock type      HFTyp           .... RHF
 Total Charge           Charge          ....    0
 Multiplicity           Mult            ....    1
 Number of Electrons    NEL             ....   96
 Basis Dimension        Dim             ....  237
 Nuclear Repulsion      ENuc            ....    644.6922628659 Eh

Convergence Acceleration:
 DIIS                   CNVDIIS         .... on
   Start iteration      DIISMaxIt       ....    12
   Startup error        DIISStart       ....  0.200000
   # of expansion vecs  DIISMaxEq       ....     5
   Bias factor          DIISBfac        ....   1.050
   Max. coefficient     DIISMaxC        ....  10.000
 Trust-Rad. Augm. Hess. CNVTRAH         .... auto
   Auto Start mean grad. ratio tolernc. ....  1.125000
   Auto Start start iteration           ....    20
   Auto Start num. interpolation iter.  ....    10
   Max. Number of Micro iterations      ....    16
   Max. Number of Macro iterations      .... Maxiter - #DIIS iter
   Number of Davidson start vectors     ....     2
   Converg. threshold I  (grad. norm)   ....   1.000e-05
   Converg. threshold II (energy diff.) ....   1.000e-08
   Grad. Scal. Fac. for Micro threshold ....   0.100
   Minimum threshold for Micro iter.    ....   0.010
   NR start threshold (gradient norm)   ....   0.001
   Initial trust radius                 ....   0.400
   Minimum AH scaling param. (alpha)    ....   1.000
   Maximum AH scaling param. (alpha)    .... 1000.000
   Orbital update algorithm             .... Taylor
   White noise on init. David. guess    .... on
   Maximum white noise                  ....   0.010
   Quad. conv. algorithm                .... NR
   COSX micro iterations for RIJONX calc.... off
 SOSCF                  CNVSOSCF        .... on
   Start iteration      SOSCFMaxIt      ....   150
   Startup grad/error   SOSCFStart      ....  0.003300
 Level Shifting         CNVShift        .... on
   Level shift para.    LevelShift      ....    0.2500
   Turn off err/grad.   ShiftErr        ....    0.0010
 Zerner damping         CNVZerner       .... off
 Static damping         CNVDamp         .... on
   Fraction old density DampFac         ....    0.7000
   Max. Damping (<1)    DampMax         ....    0.9800
   Min. Damping (>=0)   DampMin         ....    0.0000
   Turn off err/grad.   DampErr         ....    0.1000
 Fernandez-Rico         CNVRico         .... off

SCF Procedure:
 Maximum # iterations   MaxIter         ....   125
 SCF integral mode      SCFMode         .... Direct
   Integral package                     .... SHARK and LIBINT hybrid scheme
 Reset frequency        DirectResetFreq ....    20
 Integral Threshold     Thresh          ....  2.500e-11 Eh
 Primitive CutOff       TCut            ....  2.500e-12 Eh

Convergence Tolerance:
 Convergence Check Mode ConvCheckMode   .... Total+1el-Energy
 Convergence forced     ConvForced      .... 0
 Energy Change          TolE            ....  1.000e-08 Eh
 1-El. energy change                    ....  1.000e-05 Eh
 Orbital Gradient       TolG            ....  1.000e-05
 Orbital Rotation angle TolX            ....  1.000e-05
 DIIS Error             TolErr          ....  5.000e-07


Diagonalization of the overlap matrix:
Smallest eigenvalue                        ... 2.881e-05
Time for diagonalization                   ...    0.005 sec
Threshold for overlap eigenvalues          ... 1.000e-08
Number of eigenvalues below threshold      ... 0
Time for construction of square roots      ...    0.008 sec
Total time needed                          ...    0.014 sec

Time for model grid setup =    0.071 sec

------------------------------
INITIAL GUESS: MODEL POTENTIAL
------------------------------
Loading Hartree-Fock densities                     ... done
Calculating cut-offs                               ... done
Initializing the effective Hamiltonian             ... done
Setting up the integral package (SHARK)            ... done
Starting the Coulomb interaction                   ... done (   0.0 sec)
Reading the grid                                   ... done
Mapping shells                                     ... done
Starting the XC term evaluation                    ... done (   0.0 sec)
  promolecular density results
     # of electrons  =     95.999171887
     EX              =   -140.939353872
     EC              =     -3.758470778
     EX+EC           =   -144.697824650
Transforming the Hamiltonian                       ... done (   0.0 sec)
Diagonalizing the Hamiltonian                      ... done (   0.0 sec)
Back transforming the eigenvectors                 ... done (   0.0 sec)
Now organizing SCF variables                       ... done
                      ------------------
                      INITIAL GUESS DONE (   0.2 sec)
                      ------------------
-------------------
DFT GRID GENERATION
-------------------

General Integration Accuracy     IntAcc      ... 4.388
Radial Grid Type                 RadialGrid  ... OptM3 with GC (2021)
Angular Grid (max. ang.)         AngularGrid ... 4 (Lebedev-302)
Angular grid pruning method      GridPruning ... 4 (adaptive)
Weight generation scheme         WeightScheme... Becke
Basis function cutoff            BFCut       ... 1.0000e-11
Integration weight cutoff        WCut        ... 1.0000e-14
Angular grids for H and He will be reduced by one unit
Partially contracted basis set               ... off
Rotationally invariant grid construction     ... off

Total number of grid points                  ...    78784
Total number of batches                      ...     1237
Average number of points per batch           ...       63
Average number of grid points per atom       ...     5627
Time for grid setup =    0.337 sec


--------------------
CPCM SOLVATION MODEL
--------------------
CPCM parameters:
  Epsilon                                         ...       2.2800
  Refrac                                          ...       1.5010
  Rsolv                                           ...       1.3000
  Surface type                                    ... GAUSSIAN VDW
  Epsilon function type                           ...         CPCM
Radii:
 Radius for C  used is    3.8550 Bohr (=   2.0400 Ang.)
 Radius for H  used is    2.4944 Bohr (=   1.3200 Ang.)
 Radius for Br used is    4.1952 Bohr (=   2.2200 Ang.)
 Radius for N  used is    3.5149 Bohr (=   1.8600 Ang.)
 Radius for O  used is    3.4469 Bohr (=   1.8240 Ang.)
Calculating surface                               ...        done! (  0.0s)
GEPOL surface points                              ...          850
GEPOL Volume                                      ...    1212.5659
GEPOL Surface-area                                ...     676.5040
Calculating surface distance matrix               ...        done! (  0.0s)
Performing Cholesky decomposition & store         ...        done! (  0.0s)
Overall time for CPCM initialization              ...                 0.0s
--------------
SCF ITERATIONS
--------------
ITER       Energy         Delta-E        Max-DP      RMS-DP      [F,P]     Damp
               ***  Starting incremental Fock matrix formation  ***
  0  -2972.9457258018   0.000000000000 0.11276343  0.00148540  0.1732419 0.7000
  1  -2973.0194855340  -0.073759732258 0.09219845  0.00111169  0.0625606 0.7000
                               ***Turning on DIIS***
  2  -2973.0482423299  -0.028756795909 0.12498985  0.00201614  0.0297357 0.0000
  3  -2973.0935193324  -0.045277002463 0.06640359  0.00090686  0.0377137 0.0000
  4  -2973.1040743555  -0.010555023153 0.01938924  0.00033861  0.0116488 0.0000
  5  -2973.1047284515  -0.000654096000 0.01362063  0.00016254  0.0068776 0.0000
                      *** Initiating the SOSCF procedure ***
                           *** Shutting down DIIS ***
                      *** Re-Reading the Fockian *** 
                      *** Removing any level shift *** 
ITER      Energy       Delta-E        Grad      Rot      Max-DP    RMS-DP
  6  -2973.10482222  -0.0000937694  0.000568  0.000568  0.002940  0.000051
               *** Restarting incremental Fock matrix formation ***
  7  -2973.10483314  -0.0000109157  0.000201  0.000701  0.001694  0.000031
  8  -2973.10483027   0.0000028709  0.000542  0.000463  0.000764  0.000012
  9  -2973.10483405  -0.0000037846  0.000167  0.000603  0.000364  0.000008
 10  -2973.10483254   0.0000015150  0.000449  0.000461  0.000296  0.000006
 11  -2973.10483423  -0.0000016952  0.000014  0.000051  0.000110  0.000002
 12  -2973.10483423   0.0000000004  0.000022  0.000037  0.000044  0.000001
 13  -2973.10483424  -0.0000000080  0.000005  0.000014  0.000025  0.000001
 14  -2973.10483424  -0.0000000024  0.000006  0.000009  0.000021  0.000000
                  ***Gradient check signals convergence***
              ***Rediagonalizing the Fockian in SOSCF/NRSCF***

               *****************************************************
               *                     SUCCESS                       *
               *           SCF CONVERGED AFTER  15 CYCLES          *
               *****************************************************


----------------
TOTAL SCF ENERGY
----------------

Total Energy       :        -2973.10483424 Eh          -80902.29553 eV

Components:
Nuclear Repulsion  :          644.69226287 Eh           17542.96834 eV
Electronic Energy  :        -3617.79709711 Eh          -98445.26387 eV
One Electron Energy:        -5402.77046338 Eh         -147016.85850 eV
Two Electron Energy:         1784.97336627 Eh           48571.59463 eV
CPCM Dielectric    :           -0.00513837 Eh              -0.13982 eV

Virial components:
Potential Energy   :        -5941.08062455 Eh         -161665.02268 eV
Kinetic Energy     :         2967.97579031 Eh           80762.72715 eV
Virial Ratio       :            2.00172813


DFT components:
N(Alpha)           :       47.999984065060 electrons
N(Beta)            :       47.999984065060 electrons
N(Total)           :       95.999968130120 electrons
E(X)               :     -142.328317038012 Eh       
E(C)               :       -3.738860882874 Eh       
E(XC)              :     -146.067177920886 Eh       
DFET-embed. en.    :        0.000000000000 Eh       
CPCM Solvation Model Properties:
Surface-charge          :           -0.02094198
Charge-correction       :            0.00006804 Eh               0.00185 eV
Free-energy (cav+disp)  :  This term is not implemented in the current solvation scheme

---------------
SCF CONVERGENCE
---------------

  Last Energy change         ...   -1.4147e-09  Tolerance :   1.0000e-08
  Last MAX-Density change    ...    2.5642e-05  Tolerance :   1.0000e-07
  Last RMS-Density change    ...    4.7833e-07  Tolerance :   5.0000e-09
  Last Orbital Gradient      ...    1.3615e-06  Tolerance :   1.0000e-05
  Last Orbital Rotation      ...    6.9152e-07  Tolerance :   1.0000e-05

             **** THE GBW FILE WAS UPDATED (mol.gbw) ****
             **** DENSITY mol.scfp WAS UPDATED ****
             **** ENERGY FILE WAS UPDATED (mol.en.tmp) ****
             **** THE GBW FILE WAS UPDATED (mol.gbw) ****
             **** DENSITY mol.scfp WAS UPDATED ****
----------------
ORBITAL ENERGIES
----------------

  NO   OCC          E(Eh)            E(eV) 
   0   2.0000    -482.243478    -13122.5122 
   1   2.0000     -62.314633     -1695.6674 
   2   2.0000     -56.095876     -1526.4464 
   3   2.0000     -56.091979     -1526.3403 
   4   2.0000     -56.091943     -1526.3394 
   5   2.0000     -18.994826      -516.8755 
   6   2.0000     -14.306621      -389.3029 
   7   2.0000     -10.116767      -275.2912 
   8   2.0000     -10.100179      -274.8398 
   9   2.0000     -10.099674      -274.8261 
  10   2.0000     -10.071657      -274.0637 
  11   2.0000     -10.071625      -274.0629 
  12   2.0000     -10.068889      -273.9884 
  13   2.0000     -10.068847      -273.9873 
  14   2.0000      -8.646490      -235.2829 
  15   2.0000      -6.454256      -175.6292 
  16   2.0000      -6.440395      -175.2520 
  17   2.0000      -6.439803      -175.2359 
  18   2.0000      -2.551694       -69.4351 
  19   2.0000      -2.548544       -69.3494 
  20   2.0000      -2.548124       -69.3380 
  21   2.0000      -2.537553       -69.0503 
  22   2.0000      -2.537543       -69.0501 
  23   2.0000      -1.125393       -30.6235 
  24   2.0000      -0.891191       -24.2505 
  25   2.0000      -0.864341       -23.5199 
  26   2.0000      -0.797174       -21.6922 
  27   2.0000      -0.749958       -20.4074 
  28   2.0000      -0.728905       -19.8345 
  29   2.0000      -0.616425       -16.7738 
  30   2.0000      -0.611545       -16.6410 
  31   2.0000      -0.544546       -14.8179 
  32   2.0000      -0.504664       -13.7326 
  33   2.0000      -0.474464       -12.9108 
  34   2.0000      -0.461334       -12.5535 
  35   2.0000      -0.460643       -12.5347 
  36   2.0000      -0.447076       -12.1656 
  37   2.0000      -0.431611       -11.7447 
  38   2.0000      -0.421210       -11.4617 
  39   2.0000      -0.389004       -10.5853 
  40   2.0000      -0.358307        -9.7500 
  41   2.0000      -0.351005        -9.5513 
  42   2.0000      -0.325202        -8.8492 
  43   2.0000      -0.279984        -7.6187 
  44   2.0000      -0.270368        -7.3571 
  45   2.0000      -0.269092        -7.3224 
  46   2.0000      -0.245685        -6.6854 
  47   2.0000      -0.222058        -6.0425 
  48   0.0000      -0.085967        -2.3393 
  49   0.0000      -0.063124        -1.7177 
  50   0.0000      -0.037093        -1.0093 
  51   0.0000      -0.006296        -0.1713 
  52   0.0000       0.029699         0.8081 
  53   0.0000       0.052268         1.4223 
  54   0.0000       0.088731         2.4145 
  55   0.0000       0.107459         2.9241 
  56   0.0000       0.109519         2.9802 
  57   0.0000       0.110277         3.0008 
  58   0.0000       0.112159         3.0520 
  59   0.0000       0.137530         3.7424 
  60   0.0000       0.159710         4.3459 
  61   0.0000       0.170744         4.6462 
  62   0.0000       0.193038         5.2528 
  63   0.0000       0.195076         5.3083 
  64   0.0000       0.197144         5.3646 
  65   0.0000       0.210264         5.7216 
  66   0.0000       0.211846         5.7646 
  67   0.0000       0.227972         6.2034 
  68   0.0000       0.233485         6.3534 
  69   0.0000       0.234405         6.3785 
  70   0.0000       0.243796         6.6340 
  71   0.0000       0.272242         7.4081 
  72   0.0000       0.277442         7.5496 
  73   0.0000       0.279663         7.6100 
  74   0.0000       0.291112         7.9216 
  75   0.0000       0.303712         8.2644 
  76   0.0000       0.309287         8.4161 
  77   0.0000       0.313940         8.5427 
  78   0.0000       0.316617         8.6156 
  79   0.0000       0.323116         8.7924 
  80   0.0000       0.340616         9.2686 
  81   0.0000       0.358505         9.7554 
  82   0.0000       0.369331        10.0500 
  83   0.0000       0.383053        10.4234 
  84   0.0000       0.393191        10.6993 
  85   0.0000       0.409180        11.1344 
  86   0.0000       0.409387        11.1400 
  87   0.0000       0.424831        11.5602 
  88   0.0000       0.453873        12.3505 
  89   0.0000       0.467980        12.7344 
  90   0.0000       0.473235        12.8774 
  91   0.0000       0.491667        13.3789 
  92   0.0000       0.499460        13.5910 
  93   0.0000       0.510341        13.8871 
  94   0.0000       0.526556        14.3283 
  95   0.0000       0.538419        14.6511 
  96   0.0000       0.543673        14.7941 
  97   0.0000       0.558722        15.2036 
  98   0.0000       0.563287        15.3278 
  99   0.0000       0.575789        15.6680 
 100   0.0000       0.601414        16.3653 
 101   0.0000       0.613250        16.6874 
 102   0.0000       0.616984        16.7890 
 103   0.0000       0.618618        16.8335 
 104   0.0000       0.639588        17.4041 
 105   0.0000       0.644350        17.5336 
 106   0.0000       0.660779        17.9807 
 107   0.0000       0.668698        18.1962 
 108   0.0000       0.687020        18.6948 
 109   0.0000       0.716932        19.5087 
 110   0.0000       0.723200        19.6793 
 111   0.0000       0.744884        20.2693 
 112   0.0000       0.801497        21.8098 
 113   0.0000       0.826430        22.4883 
 114   0.0000       0.900300        24.4984 
 115   0.0000       0.934088        25.4178 
 116   0.0000       0.989325        26.9209 
 117   0.0000       1.022306        27.8184 
 118   0.0000       1.047882        28.5143 
 119   0.0000       1.053012        28.6539 
 120   0.0000       1.055372        28.7181 
 121   0.0000       1.071212        29.1492 
 122   0.0000       1.084671        29.5154 
 123   0.0000       1.192703        32.4551 
 124   0.0000       1.203198        32.7407 
 125   0.0000       1.208974        32.8978 
 126   0.0000       1.260418        34.2977 
 127   0.0000       1.308341        35.6018 
 128   0.0000       1.319190        35.8970 
 129   0.0000       1.323857        36.0240 
 130   0.0000       1.332448        36.2577 
 131   0.0000       1.332722        36.2652 
 132   0.0000       1.366316        37.1794 
 133   0.0000       1.401840        38.1460 
 134   0.0000       1.403104        38.1804 
 135   0.0000       1.417013        38.5589 
 136   0.0000       1.430801        38.9341 
 137   0.0000       1.440946        39.2101 
 138   0.0000       1.453209        39.5438 
 139   0.0000       1.462961        39.8092 
 140   0.0000       1.471131        40.0315 
 141   0.0000       1.477420        40.2026 
 142   0.0000       1.480681        40.2914 
 143   0.0000       1.481979        40.3267 
 144   0.0000       1.512174        41.1483 
 145   0.0000       1.525910        41.5221 
 146   0.0000       1.543529        42.0016 
 147   0.0000       1.574094        42.8333 
 148   0.0000       1.587291        43.1924 
 149   0.0000       1.595639        43.4195 
 150   0.0000       1.609564        43.7985 
 151   0.0000       1.675523        45.5933 
 152   0.0000       1.695769        46.1442 
 153   0.0000       1.707834        46.4725 
 154   0.0000       1.714227        46.6465 
 155   0.0000       1.746497        47.5246 
 156   0.0000       1.777262        48.3618 
 157   0.0000       1.785176        48.5771 
 158   0.0000       1.806950        49.1696 
 159   0.0000       1.863501        50.7084 
 160   0.0000       1.937913        52.7333 
 161   0.0000       1.938790        52.7571 
 162   0.0000       1.969586        53.5952 
 163   0.0000       2.002730        54.4971 
 164   0.0000       2.029649        55.2296 
 165   0.0000       2.041213        55.5442 
 166   0.0000       2.085869        56.7594 
 167   0.0000       2.090475        56.8847 
 168   0.0000       2.105882        57.3040 
 169   0.0000       2.123916        57.7947 
 170   0.0000       2.140804        58.2542 
 171   0.0000       2.143453        58.3263 
 172   0.0000       2.200800        59.8868 
 173   0.0000       2.210228        60.1434 
 174   0.0000       2.213264        60.2260 
 175   0.0000       2.260082        61.5000 
 176   0.0000       2.264441        61.6186 
 177   0.0000       2.267387        61.6987 
 178   0.0000       2.289305        62.2952 
 179   0.0000       2.308546        62.8187 
 180   0.0000       2.327495        63.3344 
 181   0.0000       2.341582        63.7177 
 182   0.0000       2.358838        64.1872 
 183   0.0000       2.364841        64.3506 
 184   0.0000       2.366761        64.4028 
 185   0.0000       2.379250        64.7427 
 186   0.0000       2.500767        68.0493 
 187   0.0000       2.516140        68.4676 
 188   0.0000       2.525379        68.7190 
 189   0.0000       2.536240        69.0146 
 190   0.0000       2.553177        69.4755 
 191   0.0000       2.608462        70.9799 
 192   0.0000       2.614787        71.1520 
 193   0.0000       2.642710        71.9118 
 194   0.0000       2.649033        72.0839 
 195   0.0000       2.650523        72.1244 
 196   0.0000       2.690187        73.2037 
 197   0.0000       2.705643        73.6243 
 198   0.0000       2.728122        74.2360 
 199   0.0000       2.778317        75.6018 
 200   0.0000       2.824701        76.8640 
 201   0.0000       2.826507        76.9132 
 202   0.0000       2.833888        77.1140 
 203   0.0000       2.854775        77.6824 
 204   0.0000       2.890440        78.6529 
 205   0.0000       2.895866        78.8005 
 206   0.0000       2.939219        79.9802 
 207   0.0000       2.948433        80.2310 
 208   0.0000       2.950715        80.2930 
 209   0.0000       2.993887        81.4678 
 210   0.0000       3.091870        84.1341 
 211   0.0000       3.171241        86.2938 
 212   0.0000       3.186947        86.7212 
 213   0.0000       3.206073        87.2417 
 214   0.0000       3.230210        87.8985 
 215   0.0000       3.265136        88.8489 
 216   0.0000       3.385127        92.1140 
 217   0.0000       3.434610        93.4605 
 218   0.0000       3.547921        96.5438 
 219   0.0000       3.567875        97.0868 
 220   0.0000       3.600278        97.9685 
 221   0.0000       3.617031        98.4244 
 222   0.0000       3.674529        99.9890 
 223   0.0000       3.742683       101.8436 
 224   0.0000       3.833073       104.3032 
 225   0.0000       4.015755       109.2742 
 226   0.0000       5.275897       143.5645 
 227   0.0000       7.477575       203.4751 
 228   0.0000      21.334805       580.5496 
 229   0.0000      21.729367       591.2861 
 230   0.0000      21.902500       595.9973 
 231   0.0000      22.048190       599.9618 
 232   0.0000      22.127933       602.1317 
 233   0.0000      22.253683       605.5535 
 234   0.0000      22.439710       610.6155 
 235   0.0000      31.951297       869.4390 
 236   0.0000      44.002670      1197.3735 

                    ********************************
                    * MULLIKEN POPULATION ANALYSIS *
                    ********************************

-----------------------
MULLIKEN ATOMIC CHARGES
-----------------------
   0 C :   -0.207143
   1 C :   -0.163768
   2 C :    0.130247
   3 C :   -0.044466
   4 C :   -0.166019
   5 C :   -0.205671
   6 H :    0.175986
   7 C :    0.165096
   8 H :    0.181988
   9 Br:   -0.125771
  10 H :    0.176108
  11 H :    0.181968
  12 N :    0.320415
  13 O :   -0.418969
Sum of atomic charges:   -0.0000000

--------------------------------
MULLIKEN REDUCED ORBITAL CHARGES
--------------------------------
  0 C s       :     3.227847  s :     3.227847
      pz      :     0.980452  p :     2.941397
      px      :     1.061370
      py      :     0.899574
      dz2     :     0.003298  d :     0.037900
      dxz     :     0.002724
      dyz     :     0.006686
      dx2y2   :     0.013235
      dxy     :     0.011956
  1 C s       :     3.215377  s :     3.215377
      pz      :     0.967936  p :     2.910525
      px      :     0.914704
      py      :     1.027885
      dz2     :     0.003326  d :     0.037866
      dxz     :     0.006233
      dyz     :     0.003097
      dx2y2   :     0.013414
      dxy     :     0.011797
  2 C s       :     3.117318  s :     3.117318
      pz      :     1.027710  p :     2.703366
      px      :     0.862864
      py      :     0.812792
      dz2     :     0.003480  d :     0.049069
      dxz     :     0.006827
      dyz     :     0.006652
      dx2y2   :     0.015843
      dxy     :     0.016267
  3 C s       :     3.283835  s :     3.283835
      pz      :     1.036550  p :     2.706416
      px      :     0.841982
      py      :     0.827885
      dz2     :     0.003970  d :     0.054214
      dxz     :     0.007007
      dyz     :     0.007194
      dx2y2   :     0.017238
      dxy     :     0.018805
  4 C s       :     3.217205  s :     3.217205
      pz      :     0.968631  p :     2.910948
      px      :     1.030922
      py      :     0.911395
      dz2     :     0.003275  d :     0.037867
      dxz     :     0.002541
      dyz     :     0.006815
      dx2y2   :     0.013233
      dxy     :     0.012003
  5 C s       :     3.226696  s :     3.226696
      pz      :     0.979534  p :     2.941076
      px      :     0.903917
      py      :     1.057626
      dz2     :     0.003346  d :     0.037899
      dxz     :     0.006242
      dyz     :     0.003146
      dx2y2   :     0.013551
      dxy     :     0.011614
  6 H s       :     0.804604  s :     0.804604
      pz      :     0.003910  p :     0.019410
      px      :     0.004170
      py      :     0.011331
  7 C s       :     3.102184  s :     3.102184
      pz      :     0.999394  p :     2.677051
      px      :     0.866169
      py      :     0.811488
      dz2     :     0.004900  d :     0.055668
      dxz     :     0.007791
      dyz     :     0.011521
      dx2y2   :     0.017404
      dxy     :     0.014052
  8 H s       :     0.798577  s :     0.798577
      pz      :     0.003951  p :     0.019435
      px      :     0.012344
      py      :     0.003139
  9 Brs       :     7.982451  s :     7.982451
      pz      :     5.931381  p :    17.096429
      px      :     5.660337
      py      :     5.504711
      dz2     :     2.006010  d :    10.046891
      dxz     :     2.005865
      dyz     :     2.008848
      dx2y2   :     2.008274
      dxy     :     2.017893
 10 H s       :     0.804484  s :     0.804484
      pz      :     0.003965  p :     0.019408
      px      :     0.012274
      py      :     0.003169
 11 H s       :     0.798598  s :     0.798598
      pz      :     0.003895  p :     0.019434
      px      :     0.004094
      py      :     0.011445
 12 N s       :     3.054606  s :     3.054606
      pz      :     1.241350  p :     3.374288
      px      :     1.095466
      py      :     1.037472
      dz2     :     0.006973  d :     0.250691
      dxz     :     0.040156
      dyz     :     0.059194
      dx2y2   :     0.120548
      dxy     :     0.023820
 13 O s       :     3.927245  s :     3.927245
      pz      :     1.630115  p :     4.444548
      px      :     1.456369
      py      :     1.358064
      dz2     :     0.003152  d :     0.047176
      dxz     :     0.006917
      dyz     :     0.010254
      dx2y2   :     0.017002
      dxy     :     0.009852

------------------------
MULLIKEN OVERLAP CHARGES
------------------------
B(  0-C ,  1-C ) :   0.6099 B(  0-C ,  2-C ) :   0.9440 B(  0-C ,  3-C ) :  -0.0811 
B(  0-C ,  5-C ) :  -0.2765 B(  0-C ,  6-H ) :  -0.0586 B(  0-C ,  8-H ) :   0.8072 
B(  0-C ,  9-Br) :  -0.1589 B(  1-C ,  2-C ) :  -0.1364 B(  1-C ,  3-C ) :   0.9648 
B(  1-C ,  4-C ) :  -0.3233 B(  1-C ,  6-H ) :   0.8351 B(  1-C ,  7-C ) :  -0.1566 
B(  2-C ,  3-C ) :  -0.0823 B(  2-C ,  4-C ) :  -0.1386 B(  2-C ,  5-C ) :   0.9453 
B(  2-C ,  8-H ) :  -0.0705 B(  2-C ,  9-Br) :   0.5760 B(  2-C , 11-H ) :  -0.0707 
B(  3-C ,  4-C ) :   0.9634 B(  3-C ,  5-C ) :  -0.0809 B(  3-C ,  6-H ) :  -0.0875 
B(  3-C ,  7-C ) :   0.4696 B(  3-C , 10-H ) :  -0.0870 B(  3-C , 12-N ) :  -0.0648 
B(  4-C ,  5-C ) :   0.6188 B(  4-C ,  7-C ) :  -0.1483 B(  4-C , 10-H ) :   0.8345 
B(  5-C ,  9-Br) :  -0.1592 B(  5-C , 10-H ) :  -0.0585 B(  5-C , 11-H ) :   0.8071 
B(  7-C , 12-N ) :   1.0734 B(  7-C , 13-O ) :   0.0689 B( 12-N , 13-O ) :   0.7392 



                     *******************************
                     * LOEWDIN POPULATION ANALYSIS *
                     *******************************

----------------------
LOEWDIN ATOMIC CHARGES
----------------------
   0 C :   -0.165498
   1 C :   -0.115264
   2 C :   -0.223215
   3 C :   -0.060833
   4 C :   -0.115102
   5 C :   -0.165486
   6 H :    0.189250
   7 C :    0.302483
   8 H :    0.189219
   9 Br:    0.196046
  10 H :    0.189286
  11 H :    0.189218
  12 N :   -0.357261
  13 O :   -0.052844

-------------------------------
LOEWDIN REDUCED ORBITAL CHARGES
-------------------------------
  0 C s       :     2.908655  s :     2.908655
      pz      :     0.977182  p :     3.175375
      px      :     1.114799
      py      :     1.083394
      dz2     :     0.005869  d :     0.081468
      dxz     :     0.004070
      dyz     :     0.012530
      dx2y2   :     0.031452
      dxy     :     0.027548
  1 C s       :     2.903221  s :     2.903221
      pz      :     0.962144  p :     3.132053
      px      :     1.062123
      py      :     1.107786
      dz2     :     0.005772  d :     0.079989
      dxz     :     0.011390
      dyz     :     0.004914
      dx2y2   :     0.030507
      dxy     :     0.027408
  2 C s       :     2.934019  s :     2.934019
      pz      :     1.023315  p :     3.190849
      px      :     1.097165
      py      :     1.070369
      dz2     :     0.006774  d :     0.098347
      dxz     :     0.011750
      dyz     :     0.011230
      dx2y2   :     0.033960
      dxy     :     0.034632
  3 C s       :     2.841752  s :     2.841752
      pz      :     1.009903  p :     3.110529
      px      :     1.062356
      py      :     1.038270
      dz2     :     0.007002  d :     0.108552
      dxz     :     0.012194
      dyz     :     0.012426
      dx2y2   :     0.037627
      dxy     :     0.039303
  4 C s       :     2.903231  s :     2.903231
      pz      :     0.962518  p :     3.131884
      px      :     1.107834
      py      :     1.061532
      dz2     :     0.005672  d :     0.079987
      dxz     :     0.003859
      dyz     :     0.012486
      dx2y2   :     0.030679
      dxy     :     0.027291
  5 C s       :     2.908656  s :     2.908656
      pz      :     0.976990  p :     3.175367
      px      :     1.081065
      py      :     1.117312
      dz2     :     0.005959  d :     0.081462
      dxz     :     0.011678
      dyz     :     0.004901
      dx2y2   :     0.031657
      dxy     :     0.027269
  6 H s       :     0.765435  s :     0.765435
      pz      :     0.008589  p :     0.045315
      px      :     0.009358
      py      :     0.027367
  7 C s       :     2.790950  s :     2.790950
      pz      :     0.899730  p :     2.802587
      px      :     0.937493
      py      :     0.965364
      dz2     :     0.009752  d :     0.103979
      dxz     :     0.014161
      dyz     :     0.021020
      dx2y2   :     0.030761
      dxy     :     0.028285
  8 H s       :     0.765435  s :     0.765435
      pz      :     0.008688  p :     0.045346
      px      :     0.029934
      py      :     0.006724
  9 Brs       :     7.676607  s :     7.676607
      pz      :     5.909666  p :    17.061238
      px      :     5.648999
      py      :     5.502574
      dz2     :     2.009560  d :    10.066109
      dxz     :     2.007003
      dyz     :     2.010603
      dx2y2   :     2.010569
      dxy     :     2.028373
 10 H s       :     0.765395  s :     0.765395
      pz      :     0.008730  p :     0.045319
      px      :     0.029757
      py      :     0.006832
 11 H s       :     0.765438  s :     0.765438
      pz      :     0.008546  p :     0.045344
      px      :     0.009216
      py      :     0.027582
 12 N s       :     2.991508  s :     2.991508
      pz      :     1.157580  p :     3.476772
      px      :     1.156226
      py      :     1.162966
      dz2     :     0.059532  d :     0.888981
      dxz     :     0.129151
      dyz     :     0.190800
      dx2y2   :     0.326071
      dxy     :     0.183427
 13 O s       :     3.473171  s :     3.473171
      pz      :     1.522929  p :     4.323540
      px      :     1.427769
      py      :     1.372842
      dz2     :     0.023648  d :     0.256133
      dxz     :     0.033007
      dyz     :     0.048979
      dx2y2   :     0.079701
      dxy     :     0.070798

---------------------------------
LOEWDIN BOND ORDERS (THRESH 0.050000)
---------------------------------
B(  0-C ,  1-C ) :   1.5266 B(  0-C ,  2-C ) :   1.4532 B(  0-C ,  3-C ) :   0.0875 
B(  0-C ,  4-C ) :   0.1189 B(  0-C ,  5-C ) :   0.0858 B(  0-C ,  6-H ) :   0.0528 
B(  0-C ,  8-H ) :   0.8632 B(  0-C ,  9-Br) :   0.1329 B(  1-C ,  2-C ) :   0.0930 
B(  1-C ,  3-C ) :   1.3746 B(  1-C ,  4-C ) :   0.0778 B(  1-C ,  5-C ) :   0.1188 
B(  1-C ,  6-H ) :   0.8608 B(  1-C ,  7-C ) :   0.0992 B(  1-C ,  8-H ) :   0.0541 
B(  2-C ,  3-C ) :   0.1063 B(  2-C ,  4-C ) :   0.0930 B(  2-C ,  5-C ) :   1.4531 
B(  2-C ,  8-H ) :   0.0508 B(  2-C ,  9-Br) :   1.3363 B(  2-C , 11-H ) :   0.0508 
B(  3-C ,  4-C ) :   1.3743 B(  3-C ,  5-C ) :   0.0875 B(  3-C ,  7-C ) :   1.0946 
B(  3-C , 12-N ) :   0.1883 B(  4-C ,  5-C ) :   1.5267 B(  4-C ,  7-C ) :   0.0990 
B(  4-C , 10-H ) :   0.8608 B(  4-C , 11-H ) :   0.0541 B(  5-C ,  9-Br) :   0.1328 
B(  5-C , 10-H ) :   0.0527 B(  5-C , 11-H ) :   0.8632 B(  7-C , 12-N ) :   2.5081 
B(  7-C , 13-O ) :   0.4821 B( 12-N , 13-O ) :   2.9143 


                      *****************************
                      * MAYER POPULATION ANALYSIS *
                      *****************************

  NA   - Mulliken gross atomic population
  ZA   - Total nuclear charge
  QA   - Mulliken gross atomic charge
  VA   - Mayer's total valence
  BVA  - Mayer's bonded valence
  FA   - Mayer's free valence

  ATOM       NA         ZA         QA         VA         BVA        FA
  0 C      6.2071     6.0000    -0.2071     3.7975     3.7975     0.0000
  1 C      6.1638     6.0000    -0.1638     3.7988     3.7988     0.0000
  2 C      5.8698     6.0000     0.1302     3.7625     3.7625    -0.0000
  3 C      6.0445     6.0000    -0.0445     3.9121     3.9121    -0.0000
  4 C      6.1660     6.0000    -0.1660     3.8023     3.8023    -0.0000
  5 C      6.2057     6.0000    -0.2057     3.7966     3.7966    -0.0000
  6 H      0.8240     1.0000     0.1760     0.9605     0.9605     0.0000
  7 C      5.8349     6.0000     0.1651     3.8619     3.8619     0.0000
  8 H      0.8180     1.0000     0.1820     0.9603     0.9603     0.0000
  9 Br    35.1258    35.0000    -0.1258     1.1148     1.1148     0.0000
 10 H      0.8239     1.0000     0.1761     0.9605     0.9605    -0.0000
 11 H      0.8180     1.0000     0.1820     0.9602     0.9602    -0.0000
 12 N      6.6796     7.0000     0.3204     3.9694     3.9694    -0.0000
 13 O      8.4190     8.0000    -0.4190     2.1067     2.1067     0.0000

  Mayer bond orders larger than 0.100000
B(  0-C ,  1-C ) :   1.4163 B(  0-C ,  2-C ) :   1.3687 B(  0-C ,  8-H ) :   0.9420 
B(  1-C ,  3-C ) :   1.3601 B(  1-C ,  6-H ) :   0.9556 B(  2-C ,  5-C ) :   1.3682 
B(  2-C ,  9-Br) :   1.0052 B(  3-C ,  4-C ) :   1.3624 B(  3-C ,  7-C ) :   1.2151 
B(  4-C ,  5-C ) :   1.4169 B(  4-C , 10-H ) :   0.9556 B(  5-C , 11-H ) :   0.9418 
B(  7-C , 12-N ) :   2.3511 B(  7-C , 13-O ) :   0.3822 B( 12-N , 13-O ) :   1.5853 



------------------
HIRSHFELD ANALYSIS
------------------

Total integrated alpha density =     47.999984065
Total integrated beta density  =     47.999984065

  ATOM     CHARGE      SPIN    
   0 C   -0.031158    0.000000
   1 C   -0.018378    0.000000
   2 C    0.026224    0.000000
   3 C    0.011315    0.000000
   4 C   -0.018285    0.000000
   5 C   -0.031140    0.000000
   6 H    0.060012    0.000000
   7 C    0.044360    0.000000
   8 H    0.059183    0.000000
   9 Br  -0.065235    0.000000
  10 H    0.060089    0.000000
  11 H    0.059185    0.000000
  12 N    0.069346    0.000000
  13 O   -0.225487    0.000000

  TOTAL   0.000032    0.000000

-------
TIMINGS
-------

Total SCF time: 0 days 0 hours 0 min 6 sec 

Total time                  ....       6.781 sec
Sum of individual times     ....       6.393 sec  ( 94.3%)

Fock matrix formation       ....       5.392 sec  ( 79.5%)
  Split-RI-J                ....       0.528 sec  (  9.8% of F)
  XC integration            ....       3.366 sec  ( 62.4% of F)
    Basis function eval.    ....       0.205 sec  (  6.1% of XC)
    Density eval.           ....       0.376 sec  ( 11.2% of XC)
    XC-Functional eval.     ....       0.201 sec  (  6.0% of XC)
    XC-Potential eval.      ....       0.430 sec  ( 12.8% of XC)
Diagonalization             ....       0.076 sec  (  1.1%)
Density matrix formation    ....       0.031 sec  (  0.5%)
Population analysis         ....       0.232 sec  (  3.4%)
Initial guess               ....       0.097 sec  (  1.4%)
Orbital Transformation      ....       0.000 sec  (  0.0%)
Orbital Orthonormalization  ....       0.000 sec  (  0.0%)
DIIS solution               ....       0.080 sec  (  1.2%)
SOSCF solution              ....       0.078 sec  (  1.1%)
Grid generation             ....       0.408 sec  (  6.0%)

Maximum memory used throughout the entire SCF-calculation: 28.3 MB


-------------------------------------------------------------------------------
                          DFT DISPERSION CORRECTION                            
                                                                               
                                 DFTD4 V2.5                                    
-------------------------------------------------------------------------------
The R2SCAN3C composite method is recognized
Using three-body term ABC
Active option DFTDOPT                   ...         5   

Starting D4
-------------------------   ----------------
Dispersion correction           -0.005384906
-------------------------   ----------------

------------------   -----------------
gCP correction             0.004919194
------------------   -----------------

-------------------------   --------------------
FINAL SINGLE POINT ENERGY     -2973.105299954524
-------------------------   --------------------


                            ***************************************
                            *     ORCA property calculations      *
                            ***************************************

                                    ---------------------
                                    Active property flags
                                    ---------------------
   (+) Dipole Moment


------------------------------------------------------------------------------
                       ORCA ELECTRIC PROPERTIES CALCULATION
------------------------------------------------------------------------------

Dipole Moment Calculation                       ... on
Quadrupole Moment Calculation                   ... off
Polarizability Calculation                      ... off
GBWName                                         ... mol.gbw
Electron density                                ... mol.scfp
The origin for moment calculation is the CENTER OF MASS  = ( 1.926228, -1.170000  0.848325)

-------------
DIPOLE MOMENT
-------------
                                X             Y             Z
Electronic contribution:    -18.34871     -22.63084      -1.34664
Nuclear contribution   :     17.65741      21.78593       1.30160
                        -----------------------------------------
Total Dipole Moment    :     -0.69130      -0.84492      -0.04504
                        -----------------------------------------
Magnitude (a.u.)       :      1.09262
Magnitude (Debye)      :      2.77721



--------------------
Rotational spectrum 
--------------------
 
Rotational constants in cm-1:     0.188298     0.010259     0.009729 
Rotational constants in MHz :  5645.024126   307.567823   291.676784 

 Dipole components along the rotational axes: 
x,y,z [a.u.] :     1.092599    -0.003669    -0.004858 
x,y,z [Debye]:     2.777167    -0.009325    -0.012348 

 

Timings for individual modules:

Sum of individual times         ...        8.026 sec (=   0.134 min)
GTO integral calculation        ...        0.720 sec (=   0.012 min)   9.0 %
SCF iterations                  ...        7.306 sec (=   0.122 min)  91.0 %
                             ****ORCA TERMINATED NORMALLY****
TOTAL RUN TIME: 0 days 0 hours 0 minutes 8 seconds 791 msec
