19
Coordinates from ORCA-job mol E -1152.672089407075
  C       0.086993      0.113241     -0.101669
  C       1.080149      1.065933     -0.236896
  C       0.410869     -1.118125      0.459142
  C       2.387635      0.779872      0.182815
  C       2.690054     -0.466396      0.742775
  C       1.695918     -1.423194      0.883749
  H       0.855053      2.035440     -0.667758
  C       3.430849      1.789628      0.040034
  H      -0.930084      0.308619     -0.419497
  N      -0.650753     -2.136590      0.607595
  H       3.702008     -0.686001      1.063541
  H       1.904602     -2.395458      1.313554
  N       3.262564      2.916203     -0.553593
  O       4.443266      3.654984     -0.497456
  O       4.660098      1.519136      0.577971
  S       5.804636      2.670805     -0.020665
  O       6.417194      2.103263     -1.222202
  O      -1.773788     -1.839392      0.222704
  O      -0.336923     -3.209576      1.105654
19
Coordinates from ORCA-job mol E -1152.672147985166
  C       0.085627      0.113455     -0.102449
  C       1.078137      1.066216     -0.238409
  C       0.411394     -1.117890      0.458570
  C       2.386279      0.779900      0.180405
  C       2.690532     -0.466266      0.740281
  C       1.697272     -1.423227      0.882407
  H       0.850300      2.035617     -0.668104
  C       3.429935      1.789711      0.038118
  H      -0.931415      0.310691     -0.419383
  N      -0.649102     -2.135296      0.609525
  H       3.702539     -0.686279      1.060923
  H       1.908845     -2.394595      1.312919
  N       3.264233      2.916642     -0.556108
  O       4.446886      3.654828     -0.496828
  O       4.658248      1.518673      0.576473
  S       5.806089      2.670145     -0.014478
  O       6.416917      2.102057     -1.217894
  O      -1.774528     -1.842148      0.226313
  O      -0.337849     -3.209842      1.107519
19
Coordinates from ORCA-job mol E -1152.672151443674
  C       0.084986      0.113004     -0.103896
  C       1.077149      1.066135     -0.239746
  C       0.412189     -1.118417      0.456587
  C       2.385449      0.779622      0.178476
  C       2.691072     -0.466618      0.737740
  C       1.698372     -1.424028      0.880124
  H       0.846749      2.035282     -0.668633
  C       3.429245      1.789520      0.036787
  H      -0.931598      0.312190     -0.420933
  N      -0.646382     -2.134621      0.607826
  H       3.702902     -0.687487      1.058167
  H       1.912869     -2.394755      1.310533
  N       3.264814      2.916891     -0.557753
  O       4.448448      3.655127     -0.496113
  O       4.656137      1.518127      0.576574
  S       5.805196      2.669350     -0.009064
  O       6.416359      2.101145     -1.213452
  O      -1.775260     -1.840734      0.233060
  O      -0.338355     -3.207344      1.113517
19
Coordinates from ORCA-job mol E -1152.672089927818
  C       0.082722      0.114497     -0.100596
  C       1.074965      1.067426     -0.238665
  C       0.411948     -1.116330      0.460660
  C       2.383631      0.780268      0.177527
  C       2.691273     -0.465486      0.737174
  C       1.698912     -1.422838      0.882430
  H       0.839961      2.035477     -0.667489
  C       3.428266      1.789273      0.034082
  H      -0.933020      0.317872     -0.417265
  N      -0.643616     -2.128792      0.615547
  H       3.702855     -0.688470      1.056443
  H       1.918782     -2.391785      1.313851
  N       3.266077      2.916468     -0.562865
  O       4.451960      3.654089     -0.499516
  O       4.652804      1.517323      0.575950
  S       5.803788      2.665655     -0.004294
  O       6.413678      2.094561     -1.210199
  O      -1.771023     -1.846060      0.223572
  O      -0.333626     -3.210760      1.103453
19
Coordinates from ORCA-job mol E -1152.672164485703
  C       0.084848      0.113448     -0.102428
  C       1.077308      1.066501     -0.238719
  C       0.411689     -1.117875      0.458349
  C       2.385487      0.780051      0.179282
  C       2.690900     -0.466080      0.738734
  C       1.697952     -1.423414      0.881569
  H       0.846420      2.035341     -0.668002
  C       3.429378      1.789782      0.036987
  H      -0.931462      0.313409     -0.419656
  N      -0.646684     -2.133552      0.610001
  H       3.702622     -0.687481      1.059039
  H       1.913146     -2.393827      1.312198
  N       3.264818      2.916578     -0.558508
  O       4.448469      3.654776     -0.497122
  O       4.656176      1.518808      0.577285
  S       5.804907      2.668422     -0.010538
  O       6.414993      2.099003     -1.215034
  O      -1.773813     -1.842406      0.227578
  O      -0.336814     -3.209095      1.108785
19
Coordinates from ORCA-job mol E -1152.672164819102
  C       0.084804      0.113395     -0.102358
  C       1.077266      1.066514     -0.238639
  C       0.411622     -1.117996      0.458275
  C       2.385463      0.780090      0.179169
  C       2.690909     -0.466084      0.738473
  C       1.697970     -1.423461      0.881331
  H       0.845963      2.035295     -0.667830
  C       3.429343      1.789848      0.036876
  H      -0.931412      0.313783     -0.419606
  N      -0.646583     -2.133589      0.609903
  H       3.702593     -0.687737      1.058724
  H       1.913655     -2.393784      1.311910
  N       3.264873      2.916488     -0.558920
  O       4.448569      3.654738     -0.497519
  O       4.656045      1.519099      0.577559
  S       5.804731      2.668420     -0.010158
  O       6.415197      2.098725     -1.214399
  O      -1.773851     -1.842372      0.227861
  O      -0.336819     -3.208982      1.109146
