14
Coordinates from ORCA-job orca
  C   -2.43061132746792     -0.88803123964283     -0.51620901593962
  C   -1.67053382164438      0.26224151946498     -0.65572698840375
  C   -1.90505258459866     -2.00843271902989      0.12482959960202
  C   -0.35779881649690      0.29866779053119     -0.14590460972967
  C   0.16960133306535     -0.83590229088035      0.50136397061219
  C   -0.60675181484396     -1.97655383963399      0.63063941209854
  H   -2.07323660212706      1.13808226780306     -1.15362317250884
  C   0.42130339187532      1.46132862878347     -0.28277408582577
  H   -3.44190202227322     -0.91121959110708     -0.91083912326063
  H   -2.50683043952349     -2.90586092567820      0.23011888386794
  H   1.18098549972016     -0.80447370107844      0.89285213901538
  H   -0.19588535634624     -2.84860860543437      1.13031976507051
  N   1.06642519510697      2.43113654692129     -0.39885515405698
  S   1.95367436555404      3.75964215898116     -0.55625162054131
