!DLPNO-CCSD(T) Extrapolate(3/4,cc) cc-pVQZ/C TightPNO TightSCF 
%geom maxiter 300 end
%maxcore 4000 
%pal nprocs 36
end

*xyz 0 1
6        0.065767000      0.087486000     -0.085369000
6        1.054386000      1.049065000     -0.222283000
6        0.366940000     -1.161749000      0.456629000
6        2.365406000      0.761820000      0.181587000
6        2.667653000     -0.490412000      0.725600000
6        1.666906000     -1.445808000      0.860547000
1        0.826209000      2.024018000     -0.639841000
6        3.412642000      1.773424000      0.037859000
1       -0.948526000      0.313243000     -0.400668000
1       -0.412494000     -1.910412000      0.563207000
1        3.682806000     -0.713358000      1.034942000
1        1.907029000     -2.417326000      1.281837000
7        3.235455000      2.883711000     -0.584505000
8        4.366230000      3.685734000     -0.567152000
8        4.624504000      1.495187000      0.607510000
34       5.879458000      2.746601000      0.052889000
8        6.614028000      2.115776000     -1.232088000

*
