!DLPNO-CCSD(T) Extrapolate(3/4,cc) cc-pVQZ/C TightPNO TightSCF 
%geom maxiter 300 end
%maxcore 4000 
%pal nprocs 36
end

*xyz 0 1
6       -0.066963000      0.057546000     -0.215227000
6        0.693954000      1.209133000     -0.350662000
6        0.481377000     -1.082779000      0.367699000
6        2.022055000      1.215768000      0.104045000
6        2.578137000      0.067838000      0.692905000
6        1.799562000     -1.073103000      0.818577000
1        0.275493000      2.101755000     -0.803944000
6        2.822678000      2.376208000     -0.022532000
1       -1.094073000      0.050143000     -0.566890000
1       -0.120242000     -1.980842000      0.470275000
1        3.606161000      0.097052000      1.038694000
1        2.226636000     -1.962035000      1.272621000
7        3.509732000      3.304938000     -0.123427000
8        4.296340000      4.234651000     -0.181932000
8        5.392782000      1.883764000      1.492266000
34       6.394017000      3.038090000      0.920398000
8        7.190954000      2.578374000     -0.415466000

*
