-------------------------------------------------------------
----------------------- !PROPERTIES! ------------------------
-------------------------------------------------------------
# -----------------------------------------------------------
$ PAL_Flags
   description: The PAL Flags
   geom. index: 1
   prop. index: 1
        Diskflag:     2
# -----------------------------------------------------------
$ SCF_Energy
   description: The SCF energy
   geom. index: 1
   prop. index: 1
        SCF Energy:    -1154.3709135489
# -----------------------------------------------------------
$ Solvation_Details
   description: Details concerning solvation
   geom. index: 1
   prop. index: 1
     Epsilon:                7.2500000000
     Refrac:                 1.4070000000
     RSolv:                  1.3000000000
     Surface Type:                      2
     Number of Points:               1560
     Surface Area:        1033.5334148610
     Dielectric Energy:     -0.0178055834
# -----------------------------------------------------------
$ Mayer_Pop
   description: The Mayer population analysis
   geom. index: 1
   prop. index: 1
     Number of atoms                     : 28
     Threshold for printing              : 0.1000000
     Number of bond orders printed       : 30
  NA   - Mulliken gross atomic population
  ZA   - Total nuclear charge
  QA   - Mulliken gross atomic charge
  VA   - Mayer's total valence
  BVA  - Mayer's bonded valence
  FA   - Mayer's free valence
  ATOM       NA         ZA         QA         VA         BVA        FA
  0   0     6.1585     6.0000    -0.1585     3.7603     3.7603    -0.0000
  1   0     6.1597     6.0000    -0.1597     3.8445     3.8445    -0.0000
  2   0     6.1481     6.0000    -0.1481     3.7896     3.7896     0.0000
  3   0     5.9786     6.0000     0.0214     3.7014     3.7014    -0.0000
  4   0     6.1557     6.0000    -0.1557     3.8270     3.8270    -0.0000
  5   0     6.1616     6.0000    -0.1616     3.7578     3.7578    -0.0000
  6   0     0.8127     1.0000     0.1873     0.9717     0.9717    -0.0000
  7   0     5.6639     6.0000     0.3361     4.3019     4.3019     0.0000
  8   0     0.8149     1.0000     0.1851     0.9653     0.9653    -0.0000
  9   0     0.8146     1.0000     0.1854     0.9667     0.9667     0.0000
 10   0     0.8081     1.0000     0.1919     0.9700     0.9700    -0.0000
 11   0     0.8151     1.0000     0.1849     0.9660     0.9660    -0.0000
 12   0     7.0609     7.0000    -0.0609     2.0618     2.0618     0.0000
 13   0     8.5757     8.0000    -0.5757     1.8736     1.8736     0.0000
 14   0     8.5374     8.0000    -0.5374     1.9558     1.9558     0.0000
 15   0    15.2327    16.0000     0.7673     3.6837     3.6837     0.0000
 16   0     7.3401     7.0000    -0.3401     3.0154     3.0154     0.0000
 17   0     5.8152     6.0000     0.1848     3.7856     3.7856     0.0000
 18   0     6.2263     6.0000    -0.2263     3.7702     3.7702     0.0000
 19   0     6.1709     6.0000    -0.1709     3.7753     3.7753    -0.0000
 20   0     6.1605     6.0000    -0.1605     3.7908     3.7908    -0.0000
 21   0     6.1672     6.0000    -0.1672     3.7701     3.7701    -0.0000
 22   0     6.1641     6.0000    -0.1641     3.8085     3.8085    -0.0000
 23   0     0.7901     1.0000     0.2099     0.9704     0.9704     0.0000
 24   0     0.8156     1.0000     0.1844     0.9670     0.9670    -0.0000
 25   0     0.8164     1.0000     0.1836     0.9665     0.9665    -0.0000
 26   0     0.8167     1.0000     0.1833     0.9656     0.9656    -0.0000
 27   0     0.8186     1.0000     0.1814     0.9823     0.9823     0.0000
      Bond orders larger than 0.1000000
           Atom A     A.N. of A          Atom B    A.N. of B              Bond order
                0             6               1            6                1.380073
                0             6               2            6                1.357290
                0             6               8            1                0.967303
                1             6               3            6                1.329739
                1             6               6            1                0.962299
                2             6               5            6                1.355346
                2             6               9            1                0.968389
                3             6               4            6                1.322219
                3             6               7            6                0.883536
                3             6              12            7                0.149041
                4             6               5            6                1.377102
                4             6              10            1                0.957413
                5             6              11            1                0.967663
                7             6              12            7                1.555887
                7             6              14            8                1.816002
               12             7              13            8                0.210346
               13             8              15           16                1.523983
               15            16              16            7                1.915396
               16             7              17            6                1.014843
               17             6              18            6                1.326010
               17             6              22            6                1.327071
               18             6              19            6                1.369278
               18             6              23            1                0.949650
               19             6              20            6                1.363925
               19             6              24            1                0.968227
               20             6              21            6                1.359345
               20             6              25            1                0.969076
               21             6              22            6                1.387578
               21             6              26            1                0.967196
               22             6              27            1                0.962023
# -----------------------------------------------------------
$ MDCI_Energies
   description: The MDCI energies
   geom. index: 1
   prop. index: 1
        Total number of Electrons                                                    134
        Number of correlated Electrons                                                90
        Number of alpha correlated Electrons                                          45
        Number of beta correlated Electrons                                           45
        Reference Energy:                                               -1154.3709136019
        Total Correlation Energy:                                          -3.2675955882
        Alpha-Alpha Pairs Correlation Energy (No (T))                       0.0000000000
        Beta-Beta Pairs Correlation Energy (No (T))                         0.0000000000
        Alpha-Beta Pairs Correlation Energy (No (T))                        0.0000000000
        Singlet pairs energy of double amplitudes (No (T))                  0.0000000000
        Triplet pairs energy of double amplitudes (No (T))                  0.0000000000
        Singlet pairs energy of quadratic single amplitudes (No (T))        0.0000000000
        Triplet pairs energy of quadratic single amplitudes (No (T))        0.0000000000
        Triples Correction Energy:                                         -0.1653666749
        Total MDCI Energy:                                              -1157.6385091902
# -----------------------------------------------------------
$ PAL_Flags
   description: The PAL Flags
   geom. index: 2
   prop. index: 1
        Diskflag:     2
# -----------------------------------------------------------
$ SCF_Energy
   description: The SCF energy
   geom. index: 2
   prop. index: 1
        SCF Energy:    -1154.4299840460
# -----------------------------------------------------------
$ Solvation_Details
   description: Details concerning solvation
   geom. index: 2
   prop. index: 1
     Epsilon:                7.2500000000
     Refrac:                 1.4070000000
     RSolv:                  1.3000000000
     Surface Type:                      2
     Number of Points:               1560
     Surface Area:        1033.5334148610
     Dielectric Energy:     -0.0177306505
# -----------------------------------------------------------
$ Mayer_Pop
   description: The Mayer population analysis
   geom. index: 2
   prop. index: 1
     Number of atoms                     : 28
     Threshold for printing              : 0.1000000
     Number of bond orders printed       : 30
  NA   - Mulliken gross atomic population
  ZA   - Total nuclear charge
  QA   - Mulliken gross atomic charge
  VA   - Mayer's total valence
  BVA  - Mayer's bonded valence
  FA   - Mayer's free valence
  ATOM       NA         ZA         QA         VA         BVA        FA
  0   0     6.1281     6.0000    -0.1281     3.7630     3.7630     0.0000
  1   0     6.1500     6.0000    -0.1500     3.8594     3.8594     0.0000
  2   0     6.1670     6.0000    -0.1670     3.8291     3.8291    -0.0000
  3   0     5.9887     6.0000     0.0113     3.6147     3.6147     0.0000
  4   0     6.1608     6.0000    -0.1608     3.8537     3.8537     0.0000
  5   0     6.1320     6.0000    -0.1320     3.7535     3.7535    -0.0000
  6   0     0.8180     1.0000     0.1820     0.9814     0.9814     0.0000
  7   0     5.5485     6.0000     0.4515     4.2592     4.2592     0.0000
  8   0     0.8101     1.0000     0.1899     0.9674     0.9674    -0.0000
  9   0     0.8040     1.0000     0.1960     0.9683     0.9683     0.0000
 10   0     0.8148     1.0000     0.1852     0.9769     0.9769     0.0000
 11   0     0.8105     1.0000     0.1895     0.9680     0.9680     0.0000
 12   0     7.1448     7.0000    -0.1448     2.1189     2.1189     0.0000
 13   0     8.6250     8.0000    -0.6250     1.8206     1.8206    -0.0000
 14   0     8.6001     8.0000    -0.6001     1.8832     1.8832    -0.0000
 15   0    15.0822    16.0000     0.9178     3.6652     3.6652    -0.0000
 16   0     7.5289     7.0000    -0.5289     2.8920     2.8920     0.0000
 17   0     5.8270     6.0000     0.1730     3.7822     3.7822     0.0000
 18   0     6.1830     6.0000    -0.1830     3.7460     3.7460     0.0000
 19   0     6.1818     6.0000    -0.1818     3.7829     3.7829    -0.0000
 20   0     6.1501     6.0000    -0.1501     3.8035     3.8035    -0.0000
 21   0     6.1647     6.0000    -0.1647     3.8102     3.8102     0.0000
 22   0     6.1484     6.0000    -0.1484     3.8297     3.8297     0.0000
 23   0     0.8054     1.0000     0.1946     0.9843     0.9843     0.0000
 24   0     0.8069     1.0000     0.1931     0.9686     0.9686    -0.0000
 25   0     0.8086     1.0000     0.1914     0.9696     0.9696    -0.0000
 26   0     0.8042     1.0000     0.1958     0.9631     0.9631     0.0000
 27   0     0.8064     1.0000     0.1936     0.9867     0.9867     0.0000
      Bond orders larger than 0.1000000
           Atom A     A.N. of A          Atom B    A.N. of B              Bond order
                0             6               1            6                1.399467
                0             6               2            6                1.386386
                0             6               8            1                0.970041
                1             6               3            6                1.292877
                1             6               6            1                0.981404
                2             6               5            6                1.381986
                2             6               9            1                0.972770
                3             6               4            6                1.307726
                3             6               7            6                0.919297
                3             6              12            7                0.126478
                4             6               5            6                1.385579
                4             6              10            1                0.978004
                5             6              11            1                0.970730
                7             6              12            7                1.623742
                7             6              14            8                1.728028
               12             7              13            8                0.209358
               13             8              15           16                1.532796
               15            16              16            7                1.886266
               16             7              17            6                0.989074
               17             6              18            6                1.330103
               17             6              22            6                1.348517
               18             6              19            6                1.373084
               18             6              23            1                0.973581
               19             6              20            6                1.388499
               19             6              24            1                0.967118
               20             6              21            6                1.389586
               20             6              25            1                0.974120
               21             6              22            6                1.413961
               21             6              26            1                0.963837
               22             6              27            1                0.964957
# -----------------------------------------------------------
$ MDCI_Energies
   description: The MDCI energies
   geom. index: 2
   prop. index: 1
        Total number of Electrons                                                    134
        Number of correlated Electrons                                                90
        Number of alpha correlated Electrons                                          45
        Number of beta correlated Electrons                                           45
        Reference Energy:                                               -1154.4299842439
        Total Correlation Energy:                                          -3.4553440966
        Alpha-Alpha Pairs Correlation Energy (No (T))                       0.0000000000
        Beta-Beta Pairs Correlation Energy (No (T))                         0.0000000000
        Alpha-Beta Pairs Correlation Energy (No (T))                        0.0000000000
        Singlet pairs energy of double amplitudes (No (T))                  0.0000000000
        Triplet pairs energy of double amplitudes (No (T))                  0.0000000000
        Singlet pairs energy of quadratic single amplitudes (No (T))        0.0000000000
        Triplet pairs energy of quadratic single amplitudes (No (T))        0.0000000000
        Triples Correction Energy:                                         -0.1796030819
        Total MDCI Energy:                                              -1157.8853283405
# -----------------------------------------------------------
$ Energy_Extrapolation
   description: The Extrapolation of the energies
   geom. index: 2
   prop. index: 1
       Do EP1                            : 1 
       Do EP2                            : 0 
       Do EP3                            : 0 
       Number of energies                : 2 
       SCF energy with basis  cc-pVTZ :  -1154.3709136019 
       SCF energy with basis  cc-pVQZ :  -1154.4299842439 
       CBS SCF Energy                    :  -1154.4477824601 
       Correlation energy with basis  cc-pVTZ :  -1154.3709136019 
       Correlation energy with basis  cc-pVQZ :  -1154.4299842439 
       CBS Correlation Energy            :     -3.5890002853 
       CBS Total Energy                  :  -1158.0367827454 
# -----------------------------------------------------------
$ Calculation_Info
   description: Details of the calculation
   geom. index: 2
   prop. index: 1
     Multiplicity:                          1
     Charge:                                0
     number of atoms:                       28
     number of electrons:                   134
     number of frozen core electrons:       1
     number of correlated electrons:        0
     number of basis functions:             684
     number of aux C basis functions:       2952
     number of aux J basis functions:       0
     number of aux JK basis functions:      0
     number of aux CABS basis functions:    0
     Total Energy                           0.000000
# -----------------------------------------------------------
$ SCF_Electric_Properties
   description: The SCF Calculated Electric Properties
   geom. index: 2
   prop. index: 1
       Filename                          : /scratch/obeletsan/orcajob__14503-CuRr/ts2_thf.scfp 
       Do Dipole Moment Calculation      : true 
       Do Quadrupole Moment Calculation  : false 
       Do Polarizability Calculation     : false 
** Dipole moment part of electric properties **
        Magnitude of dipole moment (Debye) :        4.6717464898
        Electronic Contribution:
                  0    
      0       1.024913
      1      11.812190
      2      -3.755885
        Nuclear Contribution:
                  0    
      0      -0.924527
      1     -13.550969
      2       4.343000
        Total Dipole moment:
                  0    
      0       0.100386
      1      -1.738778
      2       0.587115
# -------------------------------------------------------------
----------------------- !GEOMETRIES! ------------------------
# -------------------------------------------------------------
------------------------ !GEOMETRY! -------------------------
    Number of atoms:    28 
    Geometry Index:     1 
    Coordinates:
               0 C     -4.512036000000   -0.807218000000   -0.685605000000
               1 C     -3.591471000000    0.194845000000   -0.958346000000
               2 C     -4.128081000000   -1.918847000000    0.059582000000
               3 C     -2.299173000000    0.075694000000   -0.456287000000
               4 C     -1.896798000000   -1.043618000000    0.267010000000
               5 C     -2.824671000000   -2.040046000000    0.534178000000
               6 H     -3.868305000000    1.063408000000   -1.545245000000
               7 C     -1.326771000000    1.279844000000   -0.569902000000
               8 H     -5.525921000000   -0.725992000000   -1.060469000000
               9 H     -4.848840000000   -2.703192000000    0.263847000000
              10 H     -0.873392000000   -1.122712000000    0.616676000000
              11 H     -2.529821000000   -2.914289000000    1.103358000000
              12 N     -0.809236000000    0.874619000000   -1.662302000000
              13 O      0.464325000000    2.300921000000   -1.958247000000
              14 O     -1.215319000000    2.210707000000    0.230112000000
              15 S      0.900514000000    3.123260000000   -0.791426000000
              16 N      1.930890000000    2.578321000000    0.138005000000
              17 C      2.568890000000    1.338987000000    0.307558000000
              18 C      2.285814000000    0.206821000000   -0.462111000000
              19 C      2.970119000000   -0.973727000000   -0.209475000000
              20 C      3.932943000000   -1.032857000000    0.792797000000
              21 C      4.214877000000    0.096983000000    1.555222000000
              22 C      3.532776000000    1.279397000000    1.317001000000
              23 H      1.539155000000    0.246811000000   -1.241860000000
              24 H      2.748581000000   -1.853514000000   -0.803477000000
              25 H      4.463738000000   -1.959821000000    0.980155000000
              26 H      4.964266000000    0.055218000000    2.337646000000
              27 H      3.732946000000    2.169996000000    1.901605000000
------------------------ !GEOMETRY! -------------------------
    Number of atoms:    28 
    Geometry Index:     2 
    Coordinates:
               0 C     -4.512036000000   -0.807218000000   -0.685605000000
               1 C     -3.591471000000    0.194845000000   -0.958346000000
               2 C     -4.128081000000   -1.918847000000    0.059582000000
               3 C     -2.299173000000    0.075694000000   -0.456287000000
               4 C     -1.896798000000   -1.043618000000    0.267010000000
               5 C     -2.824671000000   -2.040046000000    0.534178000000
               6 H     -3.868305000000    1.063408000000   -1.545245000000
               7 C     -1.326771000000    1.279844000000   -0.569902000000
               8 H     -5.525921000000   -0.725992000000   -1.060469000000
               9 H     -4.848840000000   -2.703192000000    0.263847000000
              10 H     -0.873392000000   -1.122712000000    0.616676000000
              11 H     -2.529821000000   -2.914289000000    1.103358000000
              12 N     -0.809236000000    0.874619000000   -1.662302000000
              13 O      0.464325000000    2.300921000000   -1.958247000000
              14 O     -1.215319000000    2.210707000000    0.230112000000
              15 S      0.900514000000    3.123260000000   -0.791426000000
              16 N      1.930890000000    2.578321000000    0.138005000000
              17 C      2.568890000000    1.338987000000    0.307558000000
              18 C      2.285814000000    0.206821000000   -0.462111000000
              19 C      2.970119000000   -0.973727000000   -0.209475000000
              20 C      3.932943000000   -1.032857000000    0.792797000000
              21 C      4.214877000000    0.096983000000    1.555222000000
              22 C      3.532776000000    1.279397000000    1.317001000000
              23 H      1.539155000000    0.246811000000   -1.241860000000
              24 H      2.748581000000   -1.853514000000   -0.803477000000
              25 H      4.463738000000   -1.959821000000    0.980155000000
              26 H      4.964266000000    0.055218000000    2.337646000000
              27 H      3.732946000000    2.169996000000    1.901605000000
