-------------------------------------------------------------
----------------------- !PROPERTIES! ------------------------
-------------------------------------------------------------
# -----------------------------------------------------------
$ SCF_Energy
   description: The SCF energy
   geom. index: 1
   prop. index: 1
        SCF Energy:     -399.9032955024
# -----------------------------------------------------------
$ DFT_Energy
   description: The DFT energy
   geom. index: 1
   prop. index: 1
   Number of Alpha Electrons                 31.0000020733 
   Number of Beta  Electrons                 31.0000020733 
   Total number of  Electrons                62.0000041467 
   Exchange energy                          -35.8984143941 
   Correlation energy                        -2.5976708330 
   Correlation energy NL                      0.0000000000 
   Exchange-Correlation energy              -38.4960852271 
   Embedding correction                       0.0000000000 
   Total DFT Energy (No VdW correction)    -399.9032955024 
# -----------------------------------------------------------
$ Solvation_Details
   description: Details concerning solvation
   geom. index: 1
   prop. index: 1
     Epsilon:                2.4000000000
     Refrac:                 1.4970000000
     RSolv:                  1.3000000000
     Surface Type:                      2
     Number of Points:                847
     Surface Area:         583.4808110251
     Dielectric Energy:     -0.0070818640
# -----------------------------------------------------------
$ Mayer_Pop
   description: The Mayer population analysis
   geom. index: 1
   prop. index: 1
     Number of atoms                     : 14
     Threshold for printing              : 0.1000000
     Number of bond orders printed       : 15
  NA   - Mulliken gross atomic population
  ZA   - Total nuclear charge
  QA   - Mulliken gross atomic charge
  VA   - Mayer's total valence
  BVA  - Mayer's bonded valence
  FA   - Mayer's free valence
  ATOM       NA         ZA         QA         VA         BVA        FA
  0   0     6.1468     6.0000    -0.1468     3.9336     3.9336    -0.0000
  1   0     6.2106     6.0000    -0.2106     3.9465     3.9465    -0.0000
  2   0     6.1053     6.0000    -0.1053     3.9149     3.9149    -0.0000
  3   0     5.7796     6.0000     0.2204     3.7016     3.7016    -0.0000
  4   0     6.2122     6.0000    -0.2122     3.9475     3.9475    -0.0000
  5   0     6.1457     6.0000    -0.1457     3.9317     3.9317    -0.0000
  6   0     0.8397     1.0000     0.1603     0.9703     0.9703    -0.0000
  7   0     6.0867     6.0000    -0.0867     3.7355     3.7355     0.0000
  8   0     0.8504     1.0000     0.1496     0.9681     0.9681     0.0000
  9   0     0.8488     1.0000     0.1512     0.9654     0.9654    -0.0000
 10   0     0.8396     1.0000     0.1604     0.9703     0.9703     0.0000
 11   0     0.8502     1.0000     0.1498     0.9681     0.9681    -0.0000
 12   0     6.6660     7.0000     0.3340     4.0628     4.0628     0.0000
 13   0     8.4185     8.0000    -0.4185     1.8687     1.8687    -0.0000
      Bond orders larger than 0.1000000
           Atom A     A.N. of A          Atom B    A.N. of B              Bond order
                0             6               1            6                1.457296
                0             6               2            6                1.402499
                0             6               8            1                0.972235
                1             6               3            6                1.354314
                1             6               6            1                0.970204
                2             6               5            6                1.401387
                2             6               9            1                0.968619
                3             6               4            6                1.355425
                3             6               7            6                0.958235
                4             6               5            6                1.457407
                4             6              10            1                0.970163
                5             6              11            1                0.972017
                7             6              12            7                2.504694
                7             6              13            8                0.330974
               12             7              13            8                1.473921
# -----------------------------------------------------------
$ VdW_Correction
   description: The Van der Waals Correction
   geom. index: 1
   prop. index: 1
        Van der Waals Correction:       -0.0288542476
# -----------------------------------------------------------
$ SCF_Energy
   description: The SCF energy
   geom. index: 2
   prop. index: 1
        SCF Energy:     -399.9065848348
# -----------------------------------------------------------
$ DFT_Energy
   description: The DFT energy
   geom. index: 2
   prop. index: 1
   Number of Alpha Electrons                 31.0000020367 
   Number of Beta  Electrons                 31.0000020367 
   Total number of  Electrons                62.0000040733 
   Exchange energy                          -35.9543616231 
   Correlation energy                        -2.6022630958 
   Correlation energy NL                      0.0000000000 
   Exchange-Correlation energy              -38.5566247189 
   Embedding correction                       0.0000000000 
   Total DFT Energy (No VdW correction)    -399.9065848348 
# -----------------------------------------------------------
$ Solvation_Details
   description: Details concerning solvation
   geom. index: 2
   prop. index: 1
     Epsilon:                2.4000000000
     Refrac:                 1.4970000000
     RSolv:                  1.3000000000
     Surface Type:                      2
     Number of Points:                847
     Surface Area:         579.5239921335
     Dielectric Energy:     -0.0066986224
# -----------------------------------------------------------
$ VdW_Correction
   description: The Van der Waals Correction
   geom. index: 2
   prop. index: 1
        Van der Waals Correction:       -0.0290475259
# -----------------------------------------------------------
$ SCF_Energy
   description: The SCF energy
   geom. index: 3
   prop. index: 1
        SCF Energy:     -399.9067452218
# -----------------------------------------------------------
$ DFT_Energy
   description: The DFT energy
   geom. index: 3
   prop. index: 1
   Number of Alpha Electrons                 31.0000020167 
   Number of Beta  Electrons                 31.0000020167 
   Total number of  Electrons                62.0000040335 
   Exchange energy                          -35.9632118473 
   Correlation energy                        -2.6030830036 
   Correlation energy NL                      0.0000000000 
   Exchange-Correlation energy              -38.5662948508 
   Embedding correction                       0.0000000000 
   Total DFT Energy (No VdW correction)    -399.9067452218 
# -----------------------------------------------------------
$ Solvation_Details
   description: Details concerning solvation
   geom. index: 3
   prop. index: 1
     Epsilon:                2.4000000000
     Refrac:                 1.4970000000
     RSolv:                  1.3000000000
     Surface Type:                      2
     Number of Points:                845
     Surface Area:         578.8644167548
     Dielectric Energy:     -0.0064853684
# -----------------------------------------------------------
$ VdW_Correction
   description: The Van der Waals Correction
   geom. index: 3
   prop. index: 1
        Van der Waals Correction:       -0.0290710059
# -----------------------------------------------------------
$ SCF_Energy
   description: The SCF energy
   geom. index: 4
   prop. index: 1
        SCF Energy:     -399.9067627112
# -----------------------------------------------------------
$ DFT_Energy
   description: The DFT energy
   geom. index: 4
   prop. index: 1
   Number of Alpha Electrons                 31.0000019861 
   Number of Beta  Electrons                 31.0000019861 
   Total number of  Electrons                62.0000039721 
   Exchange energy                          -35.9617877495 
   Correlation energy                        -2.6029809367 
   Correlation energy NL                      0.0000000000 
   Exchange-Correlation energy              -38.5647686862 
   Embedding correction                       0.0000000000 
   Total DFT Energy (No VdW correction)    -399.9067627112 
# -----------------------------------------------------------
$ Solvation_Details
   description: Details concerning solvation
   geom. index: 4
   prop. index: 1
     Epsilon:                2.4000000000
     Refrac:                 1.4970000000
     RSolv:                  1.3000000000
     Surface Type:                      2
     Number of Points:                845
     Surface Area:         578.9471800439
     Dielectric Energy:     -0.0064641994
# -----------------------------------------------------------
$ VdW_Correction
   description: The Van der Waals Correction
   geom. index: 4
   prop. index: 1
        Van der Waals Correction:       -0.0290634653
# -----------------------------------------------------------
$ SCF_Energy
   description: The SCF energy
   geom. index: 5
   prop. index: 1
        SCF Energy:     -399.9067679199
# -----------------------------------------------------------
$ DFT_Energy
   description: The DFT energy
   geom. index: 5
   prop. index: 1
   Number of Alpha Electrons                 31.0000019535 
   Number of Beta  Electrons                 31.0000019535 
   Total number of  Electrons                62.0000039070 
   Exchange energy                          -35.9610592118 
   Correlation energy                        -2.6029192001 
   Correlation energy NL                      0.0000000000 
   Exchange-Correlation energy              -38.5639784119 
   Embedding correction                       0.0000000000 
   Total DFT Energy (No VdW correction)    -399.9067679199 
# -----------------------------------------------------------
$ Solvation_Details
   description: Details concerning solvation
   geom. index: 5
   prop. index: 1
     Epsilon:                2.4000000000
     Refrac:                 1.4970000000
     RSolv:                  1.3000000000
     Surface Type:                      2
     Number of Points:                844
     Surface Area:         578.9716357739
     Dielectric Energy:     -0.0064691128
# -----------------------------------------------------------
$ VdW_Correction
   description: The Van der Waals Correction
   geom. index: 5
   prop. index: 1
        Van der Waals Correction:       -0.0290602209
# -----------------------------------------------------------
$ SCF_Energy
   description: The SCF energy
   geom. index: 6
   prop. index: 1
        SCF Energy:     -399.9067690276
# -----------------------------------------------------------
$ DFT_Energy
   description: The DFT energy
   geom. index: 6
   prop. index: 1
   Number of Alpha Electrons                 31.0000019208 
   Number of Beta  Electrons                 31.0000019208 
   Total number of  Electrons                62.0000038416 
   Exchange energy                          -35.9608895420 
   Correlation energy                        -2.6029020786 
   Correlation energy NL                      0.0000000000 
   Exchange-Correlation energy              -38.5637916205 
   Embedding correction                       0.0000000000 
   Total DFT Energy (No VdW correction)    -399.9067690276 
# -----------------------------------------------------------
$ Solvation_Details
   description: Details concerning solvation
   geom. index: 6
   prop. index: 1
     Epsilon:                2.4000000000
     Refrac:                 1.4970000000
     RSolv:                  1.3000000000
     Surface Type:                      2
     Number of Points:                844
     Surface Area:         578.9446473976
     Dielectric Energy:     -0.0064763923
# -----------------------------------------------------------
$ VdW_Correction
   description: The Van der Waals Correction
   geom. index: 6
   prop. index: 1
        Van der Waals Correction:       -0.0290598676
# -----------------------------------------------------------
$ SCF_Energy
   description: The SCF energy
   geom. index: 7
   prop. index: 1
        SCF Energy:     -399.9067687554
# -----------------------------------------------------------
$ DFT_Energy
   description: The DFT energy
   geom. index: 7
   prop. index: 1
   Number of Alpha Electrons                 31.0000018862 
   Number of Beta  Electrons                 31.0000018862 
   Total number of  Electrons                62.0000037724 
   Exchange energy                          -35.9609506218 
   Correlation energy                        -2.6029049729 
   Correlation energy NL                      0.0000000000 
   Exchange-Correlation energy              -38.5638555947 
   Embedding correction                       0.0000000000 
   Total DFT Energy (No VdW correction)    -399.9067687554 
# -----------------------------------------------------------
$ Solvation_Details
   description: Details concerning solvation
   geom. index: 7
   prop. index: 1
     Epsilon:                2.4000000000
     Refrac:                 1.4970000000
     RSolv:                  1.3000000000
     Surface Type:                      2
     Number of Points:                844
     Surface Area:         578.8908565728
     Dielectric Energy:     -0.0064815618
# -----------------------------------------------------------
$ VdW_Correction
   description: The Van der Waals Correction
   geom. index: 7
   prop. index: 1
        Van der Waals Correction:       -0.0290605416
# -----------------------------------------------------------
$ SCF_Energy
   description: The SCF energy
   geom. index: 8
   prop. index: 1
        SCF Energy:     -399.9067681933
# -----------------------------------------------------------
$ DFT_Energy
   description: The DFT energy
   geom. index: 8
   prop. index: 1
   Number of Alpha Electrons                 31.0000018531 
   Number of Beta  Electrons                 31.0000018531 
   Total number of  Electrons                62.0000037062 
   Exchange energy                          -35.9610853082 
   Correlation energy                        -2.6029158042 
   Correlation energy NL                      0.0000000000 
   Exchange-Correlation energy              -38.5640011125 
   Embedding correction                       0.0000000000 
   Total DFT Energy (No VdW correction)    -399.9067681933 
# -----------------------------------------------------------
$ Solvation_Details
   description: Details concerning solvation
   geom. index: 8
   prop. index: 1
     Epsilon:                2.4000000000
     Refrac:                 1.4970000000
     RSolv:                  1.3000000000
     Surface Type:                      2
     Number of Points:                843
     Surface Area:         578.8287718165
     Dielectric Energy:     -0.0064829050
# -----------------------------------------------------------
$ Mayer_Pop
   description: The Mayer population analysis
   geom. index: 8
   prop. index: 1
     Number of atoms                     : 14
     Threshold for printing              : 0.1000000
     Number of bond orders printed       : 15
  NA   - Mulliken gross atomic population
  ZA   - Total nuclear charge
  QA   - Mulliken gross atomic charge
  VA   - Mayer's total valence
  BVA  - Mayer's bonded valence
  FA   - Mayer's free valence
  ATOM       NA         ZA         QA         VA         BVA        FA
  0   0     6.1486     6.0000    -0.1486     3.9381     3.9381    -0.0000
  1   0     6.2121     6.0000    -0.2121     3.9482     3.9482    -0.0000
  2   0     6.1048     6.0000    -0.1048     3.9164     3.9164     0.0000
  3   0     5.7697     6.0000     0.2303     3.7045     3.7045     0.0000
  4   0     6.2126     6.0000    -0.2126     3.9482     3.9482    -0.0000
  5   0     6.1479     6.0000    -0.1479     3.9370     3.9370     0.0000
  6   0     0.8419     1.0000     0.1581     0.9710     0.9710    -0.0000
  7   0     6.1297     6.0000    -0.1297     3.7272     3.7272     0.0000
  8   0     0.8528     1.0000     0.1472     0.9689     0.9689    -0.0000
  9   0     0.8519     1.0000     0.1481     0.9661     0.9661    -0.0000
 10   0     0.8418     1.0000     0.1582     0.9710     0.9710     0.0000
 11   0     0.8527     1.0000     0.1473     0.9689     0.9689     0.0000
 12   0     6.6143     7.0000     0.3857     4.1042     4.1042     0.0000
 13   0     8.4192     8.0000    -0.4192     1.9211     1.9211    -0.0000
      Bond orders larger than 0.1000000
           Atom A     A.N. of A          Atom B    A.N. of B              Bond order
                0             6               1            6                1.456195
                0             6               2            6                1.405172
                0             6               8            1                0.973624
                1             6               3            6                1.361904
                1             6               6            1                0.972130
                2             6               5            6                1.405037
                2             6               9            1                0.970116
                3             6               4            6                1.362280
                3             6               7            6                0.949043
                4             6               5            6                1.455842
                4             6              10            1                0.972118
                5             6              11            1                0.973537
                7             6              12            7                2.504569
                7             6              13            8                0.336870
               12             7              13            8                1.522717
# -----------------------------------------------------------
$ VdW_Correction
   description: The Van der Waals Correction
   geom. index: 8
   prop. index: 1
        Van der Waals Correction:       -0.0290613536
# -----------------------------------------------------------
$ SCF_Electric_Properties
   description: The SCF Calculated Electric Properties
   geom. index: 8
   prop. index: 1
       Filename                          : orca.scfp 
       Do Dipole Moment Calculation      : true 
       Do Quadrupole Moment Calculation  : false 
       Do Polarizability Calculation     : false 
** Dipole moment part of electric properties **
        Magnitude of dipole moment (Debye) :        5.8386943575
        Electronic Contribution:
                  0    
      0       4.163120
      1       5.161872
      2       0.300278
        Nuclear Contribution:
                  0    
      0      -5.603806
      1      -6.948278
      2      -0.398851
        Total Dipole moment:
                  0    
      0      -1.440686
      1      -1.786407
      2      -0.098573
# -----------------------------------------------------------
$ Hessian
   description: Details about the Hessian
   geom. index: 8
   prop. index: 1
Normal modes:
Number of Rows: 42 Number of Columns: 42
                  0          1          2          3          4          5    
      0       0.000000   0.000000   0.000000   0.000000   0.000000   0.000000
      1       0.000000   0.000000   0.000000   0.000000   0.000000   0.000000
      2       0.000000   0.000000   0.000000   0.000000   0.000000   0.000000
      3       0.000000   0.000000   0.000000   0.000000   0.000000   0.000000
      4       0.000000   0.000000   0.000000   0.000000   0.000000   0.000000
      5       0.000000   0.000000   0.000000   0.000000   0.000000   0.000000
      6       0.000000   0.000000   0.000000   0.000000   0.000000   0.000000
      7       0.000000   0.000000   0.000000   0.000000   0.000000   0.000000
      8       0.000000   0.000000   0.000000   0.000000   0.000000   0.000000
      9       0.000000   0.000000   0.000000   0.000000   0.000000   0.000000
     10       0.000000   0.000000   0.000000   0.000000   0.000000   0.000000
     11       0.000000   0.000000   0.000000   0.000000   0.000000   0.000000
     12       0.000000   0.000000   0.000000   0.000000   0.000000   0.000000
     13       0.000000   0.000000   0.000000   0.000000   0.000000   0.000000
     14       0.000000   0.000000   0.000000   0.000000   0.000000   0.000000
     15       0.000000   0.000000   0.000000   0.000000   0.000000   0.000000
     16       0.000000   0.000000   0.000000   0.000000   0.000000   0.000000
     17       0.000000   0.000000   0.000000   0.000000   0.000000   0.000000
     18       0.000000   0.000000   0.000000   0.000000   0.000000   0.000000
     19       0.000000   0.000000   0.000000   0.000000   0.000000   0.000000
     20       0.000000   0.000000   0.000000   0.000000   0.000000   0.000000
     21       0.000000   0.000000   0.000000   0.000000   0.000000   0.000000
     22       0.000000   0.000000   0.000000   0.000000   0.000000   0.000000
     23       0.000000   0.000000   0.000000   0.000000   0.000000   0.000000
     24       0.000000   0.000000   0.000000   0.000000   0.000000   0.000000
     25       0.000000   0.000000   0.000000   0.000000   0.000000   0.000000
     26       0.000000   0.000000   0.000000   0.000000   0.000000   0.000000
     27       0.000000   0.000000   0.000000   0.000000   0.000000   0.000000
     28       0.000000   0.000000   0.000000   0.000000   0.000000   0.000000
     29       0.000000   0.000000   0.000000   0.000000   0.000000   0.000000
     30       0.000000   0.000000   0.000000   0.000000   0.000000   0.000000
     31       0.000000   0.000000   0.000000   0.000000   0.000000   0.000000
     32       0.000000   0.000000   0.000000   0.000000   0.000000   0.000000
     33       0.000000   0.000000   0.000000   0.000000   0.000000   0.000000
     34       0.000000   0.000000   0.000000   0.000000   0.000000   0.000000
     35       0.000000   0.000000   0.000000   0.000000   0.000000   0.000000
     36       0.000000   0.000000   0.000000   0.000000   0.000000   0.000000
     37       0.000000   0.000000   0.000000   0.000000   0.000000   0.000000
     38       0.000000   0.000000   0.000000   0.000000   0.000000   0.000000
     39       0.000000   0.000000   0.000000   0.000000   0.000000   0.000000
     40       0.000000   0.000000   0.000000   0.000000   0.000000   0.000000
     41       0.000000   0.000000   0.000000   0.000000   0.000000   0.000000
                  6          7          8          9         10         11    
      0       0.057295  -0.009137   0.004680  -0.070038  -0.018681   0.061139
      1       0.159006   0.001981   0.000277  -0.223233  -0.000244   0.089627
      2       0.000931   0.108576  -0.049312  -0.006956   0.207370   0.010599
      3       0.202665   0.016784   0.020519  -0.028518   0.014684   0.219294
      4       0.038584  -0.001788  -0.001238  -0.193803  -0.001728  -0.074685
      5       0.017229  -0.178428  -0.238857   0.001657  -0.204961   0.012977
      6      -0.113756  -0.025060  -0.020491  -0.221252  -0.000159  -0.066517
      7       0.092455   0.002725   0.003004  -0.273674  -0.001827   0.056037
      8      -0.013294   0.274385   0.250843  -0.015746  -0.000004  -0.005909
      9       0.175519   0.025686   0.006534   0.052347  -0.001828   0.173615
     10      -0.142929  -0.004648  -0.000253   0.063277   0.001927  -0.140991
     11       0.019214  -0.286102  -0.076251   0.004520  -0.000101   0.016034
     12       0.004563   0.014725   0.020859  -0.181361  -0.019608   0.119668
     13      -0.207188  -0.004393  -0.001336  -0.070253   0.003819  -0.198163
     14       0.005503  -0.178854  -0.238667  -0.017788   0.204647   0.018030
     15      -0.143046  -0.011235   0.004980  -0.203829   0.017655  -0.072016
     16      -0.089496  -0.000683   0.000231  -0.116275  -0.001362  -0.078014
     17      -0.011239   0.107983  -0.049276  -0.013848  -0.207502  -0.011858
     18       0.340943   0.026556   0.028383  -0.202236   0.033852   0.372624
     19       0.090854  -0.002120  -0.001927  -0.257210  -0.004905  -0.018204
     20       0.028242  -0.276443  -0.327544  -0.009283  -0.459185   0.017727
     21       0.251989   0.030283  -0.034375   0.172686   0.004525  -0.320737
     22      -0.205181  -0.005831   0.003944   0.217524  -0.002121   0.258778
     23       0.027040  -0.332052   0.409322   0.015061   0.000443  -0.029402
     24       0.080550  -0.018501   0.002865  -0.051173  -0.039438   0.087123
     25       0.303968   0.004454   0.000044  -0.094906   0.000475   0.248294
     26      -0.000633   0.221331  -0.028787  -0.009857   0.448120   0.018664
     27      -0.224616  -0.047575  -0.050257  -0.222196   0.000779  -0.140824
     28       0.182563   0.005920   0.006081  -0.274136  -0.002582   0.116321
     29      -0.026037   0.525001   0.601453  -0.014967  -0.000070  -0.012449
     30      -0.017444   0.022871   0.028466  -0.206638  -0.041093   0.095866
     31      -0.353202  -0.006760  -0.001584  -0.255181   0.007080  -0.359779
     32       0.007113  -0.276975  -0.327000  -0.021654   0.458286   0.025124
     33      -0.279625  -0.022237   0.003228  -0.084453   0.040431  -0.221305
     34      -0.142521  -0.000219   0.000420  -0.071773  -0.002639  -0.137721
     35      -0.022549   0.220274  -0.028804  -0.001112  -0.448224  -0.031417
     36      -0.032302   0.000043  -0.016325   0.201473   0.004219  -0.296309
     37       0.026583   0.001403   0.000730   0.254784  -0.001596   0.238579
     38      -0.002988   0.005741   0.184898   0.018796   0.000266  -0.027172
     39      -0.292150  -0.029153   0.011462   0.232243  -0.000788   0.161309
     40       0.237904   0.008178  -0.004307   0.284760   0.002713  -0.133733
     41      -0.030582   0.332666  -0.160761   0.011977  -0.000083   0.014815
                 12         13         14         15         16         17    
      0       0.011662  -0.008292   0.066230  -0.355470  -0.012595  -0.271565
      1      -0.001898  -0.000101  -0.027602  -0.055709   0.001131   0.085757
      2      -0.138006   0.103031   0.005455  -0.029800   0.153582  -0.022767
      3       0.001284   0.002172  -0.093558  -0.011957   0.008490  -0.245197
      4      -0.000691  -0.000678   0.126803  -0.301182  -0.001000   0.070826
      5      -0.014499  -0.020049  -0.008859   0.001696  -0.093824  -0.022171
      6      -0.017791   0.011070   0.067203  -0.103185   0.007456   0.176685
      7       0.000830  -0.002761  -0.053164   0.084189  -0.001299   0.219106
      8       0.200903  -0.142474   0.006426  -0.009452  -0.092914   0.012369
      9      -0.026692   0.023664  -0.088359   0.095265  -0.009696  -0.147290
     10       0.003416  -0.001228   0.070055  -0.077753   0.001483  -0.182680
     11       0.319003  -0.269994  -0.007310   0.008575   0.118829  -0.010034
     12       0.000668   0.000557  -0.142199   0.291363   0.007825   0.120385
     13      -0.000075   0.000282   0.064442   0.074394  -0.000380  -0.226048
     14      -0.014691  -0.019903  -0.012650   0.024106  -0.094153   0.011462
     15       0.011059  -0.009685   0.041944  -0.019694  -0.013382   0.140272
     16      -0.001368   0.000831  -0.059802   0.360199   0.001842  -0.248832
     17      -0.137779   0.103173   0.004132  -0.004842   0.153516   0.015197
     18       0.023725  -0.027162  -0.203014   0.120354   0.044953  -0.032259
     19      -0.003368   0.001687   0.086363  -0.250869  -0.004986   0.157638
     20      -0.286339   0.307140  -0.018759   0.012594  -0.525921  -0.006920
     21      -0.003829  -0.029380   0.443028   0.127845  -0.001150   0.018808
     22       0.001330   0.005045  -0.361039  -0.104130   0.000169   0.025828
     23       0.055171   0.374965   0.039504   0.011891   0.013254   0.004146
     24       0.037739  -0.035848   0.045955  -0.333747   0.008473  -0.334530
     25      -0.004000   0.003715  -0.148882   0.089761  -0.000187  -0.290877
     26      -0.443175   0.428217   0.003536  -0.029203  -0.092239  -0.025862
     27      -0.030111   0.011630   0.023323   0.239657   0.048919   0.175275
     28       0.002087  -0.002732  -0.017538  -0.194022  -0.005659   0.217535
     29       0.346241  -0.150705   0.002038   0.022293  -0.579933   0.009452
     30       0.023690  -0.027453  -0.124999   0.270132   0.044437   0.160403
     31      -0.003268   0.002023   0.184315  -0.065352  -0.004651   0.000135
     32      -0.285965   0.306649  -0.013595   0.023644  -0.524441   0.010999
     33       0.037667  -0.036125   0.154165  -0.157490   0.008242  -0.213728
     34      -0.003858   0.004233  -0.015104   0.308243  -0.000079  -0.389666
     35      -0.442645   0.428680   0.012485  -0.015895  -0.091895  -0.014514
     36       0.027268   0.029697  -0.474780  -0.055647   0.000646   0.060642
     37      -0.003760  -0.003848   0.385897   0.045255  -0.000297   0.073773
     38      -0.329924  -0.371229  -0.042515  -0.005133  -0.009462   0.003124
     39      -0.011967  -0.011329   0.201321   0.021825  -0.000533   0.118413
     40       0.002914   0.001762  -0.163061  -0.017540  -0.000220   0.146864
     41       0.156125   0.145189   0.018079   0.002016   0.003767   0.007814
                 18         19         20         21         22         23    
      0       0.000531   0.005674  -0.001337   0.008119  -0.075393  -0.007265
      1      -0.000089  -0.000580   0.000137  -0.000836   0.022423   0.000791
      2      -0.005669  -0.066691   0.016175  -0.095113  -0.007380   0.084028
      3       0.007353   0.006810   0.008744  -0.007344   0.160909   0.002879
      4      -0.000757  -0.000710  -0.000916   0.001044  -0.366593  -0.000763
      5      -0.086204  -0.080057  -0.102618   0.084879   0.017310  -0.031450
      6       0.009567  -0.000032  -0.007819  -0.000186   0.231267   0.009328
      7      -0.001006   0.000020   0.000850  -0.000250   0.287293  -0.000594
      8      -0.113051   0.000152   0.092071   0.000350   0.017725  -0.106861
      9      -0.014487  -0.000012  -0.005373  -0.000040   0.032152   0.000027
     10       0.001567  -0.000022   0.000583  -0.000064   0.039999   0.000054
     11       0.170859   0.000281   0.063285   0.000220   0.002460  -0.000025
     12       0.007363  -0.006728   0.008727   0.007546  -0.390574   0.002256
     13      -0.000758   0.000686  -0.000915  -0.000797   0.081249  -0.000165
     14      -0.086068   0.079286  -0.102469  -0.085587  -0.034061  -0.031748
     15       0.000479  -0.005719  -0.001292  -0.008116   0.037627  -0.007047
     16       0.000019   0.000592   0.000184   0.000914  -0.069609   0.000621
     17      -0.005788   0.067106   0.014981   0.095044   0.003668   0.083985
     18      -0.011265  -0.044373  -0.048873   0.038941   0.219222  -0.018448
     19       0.001156   0.004591   0.004984  -0.003622  -0.365052   0.001404
     20       0.131739   0.519907   0.571297  -0.455096   0.018935   0.218203
     21       0.003022   0.000005   0.001485  -0.000003   0.007573   0.000325
     22      -0.000515  -0.000007  -0.000278  -0.000007   0.009250  -0.000050
     23      -0.037144  -0.000072  -0.018362  -0.000068   0.000449  -0.003830
     24      -0.048481  -0.039596   0.007990  -0.044375  -0.054397   0.042158
     25       0.004918   0.003978  -0.000807   0.004362   0.072298  -0.003949
     26       0.569777   0.464649  -0.093287   0.520643  -0.000388  -0.495400
     27      -0.042617   0.000058   0.045858   0.000006   0.240554  -0.052337
     28       0.004460   0.000035  -0.004818  -0.000277   0.299131   0.006026
     29       0.500263  -0.001316  -0.538039  -0.001986   0.014308   0.615462
     30      -0.011184   0.044141  -0.048768  -0.038997  -0.400708  -0.019197
     31       0.001027  -0.004421   0.004800   0.003783   0.141229   0.002187
     32       0.131194  -0.516911   0.571249   0.459807  -0.035238   0.219777
     33      -0.048622   0.039723   0.007361   0.044501   0.080210   0.042546
     34       0.005168  -0.004200  -0.000714  -0.004519  -0.038667  -0.004442
     35       0.570071  -0.466538  -0.086360  -0.520080   0.008337  -0.494982
     36      -0.000058  -0.000002  -0.000049   0.000001   0.002952  -0.000049
     37      -0.000020  -0.000001  -0.000019   0.000001   0.003675   0.000011
     38       0.000358   0.000006   0.000311  -0.000004   0.000216   0.000599
     39      -0.000112   0.000007  -0.000014   0.000013  -0.010606  -0.000001
     40       0.000118   0.000018   0.000066   0.000013  -0.013093  -0.000006
     41       0.002206   0.000005   0.000690   0.000002  -0.000691  -0.000068
                 24         25         26         27         28         29    
      0      -0.187770  -0.078678  -0.112016  -0.004670  -0.007054  -0.013867
      1       0.097176  -0.014015  -0.035661  -0.059820  -0.048471  -0.211748
      2      -0.016854  -0.006520  -0.009254   0.000117  -0.000154   0.000606
      3       0.071992   0.029085  -0.039870   0.023262   0.048115   0.201434
      4       0.014649   0.106033   0.046450  -0.003013   0.017924   0.047661
      5       0.005944   0.001506  -0.003745   0.002011   0.003922   0.016737
      6      -0.097332   0.059790   0.033551  -0.065351  -0.005345  -0.145542
      7      -0.120715  -0.048256   0.041783   0.053209  -0.006033   0.117804
      8      -0.007152   0.005462   0.002488  -0.005981  -0.000407  -0.013383
      9       0.041149   0.037878   0.219560  -0.017450   0.001024  -0.258978
     10       0.050935  -0.030136   0.272681   0.014337   0.001388   0.210130
     11       0.003078   0.003485   0.016203  -0.001619   0.000104  -0.023893
     12      -0.000637  -0.097587   0.053943   0.007711   0.007523  -0.004328
     13       0.073804  -0.050766  -0.028976  -0.022737   0.050807  -0.207317
     14      -0.000690  -0.007829   0.004858   0.000870   0.000173   0.001459
     15       0.133954  -0.002778  -0.011327   0.057615  -0.045175   0.203915
     16      -0.163980   0.079746  -0.117728   0.017201  -0.016883   0.057823
     17       0.012740  -0.000921   0.000083   0.004720  -0.003687   0.016893
     18       0.382898   0.420117  -0.459920   0.143320   0.470370   0.127542
     19       0.138033   0.263262  -0.096027   0.041843   0.178523   0.014972
     20       0.031684   0.033820  -0.038292   0.011845   0.038660   0.010532
     21       0.011725  -0.012897   0.079102   0.002851   0.004977   0.013004
     22       0.014501   0.010682   0.096864  -0.002272   0.006281  -0.010744
     23       0.000510  -0.001209   0.004273   0.000261   0.000279   0.001199
     24      -0.141734  -0.128064  -0.172896  -0.067272  -0.076944   0.100759
     25       0.481790  -0.278498  -0.369711  -0.462008  -0.486920   0.490963
     26      -0.016001  -0.008817  -0.011461  -0.001769  -0.002495   0.004325
     27      -0.109423   0.404035   0.031812  -0.546306  -0.007538   0.289760
     28      -0.134778  -0.327610   0.040097   0.443490  -0.004322  -0.235438
     29      -0.008387   0.037505   0.002489  -0.050550  -0.000520   0.026800
     30       0.054347  -0.168706   0.003692  -0.011451   0.075053   0.011869
     31       0.404916  -0.467899  -0.468564  -0.154297   0.496789  -0.129141
     32       0.001216  -0.010490   0.004584   0.000287   0.002235   0.002102
     33       0.499380   0.244599  -0.326560   0.440043  -0.455113  -0.457516
     34      -0.038152   0.183610  -0.248400   0.164260  -0.176254  -0.202077
     35       0.043169   0.019226  -0.025854   0.036162  -0.037304  -0.037408
     36       0.000963  -0.000091   0.021976  -0.000204   0.002909   0.000201
     37       0.001240   0.000156   0.027602   0.000169   0.003587  -0.000362
     38       0.000106  -0.000007   0.001564  -0.000018   0.000200   0.000025
     39      -0.023821   0.000380  -0.128403  -0.000174  -0.005966  -0.001464
     40      -0.029505  -0.000630  -0.158939   0.000079  -0.007396   0.001434
     41      -0.001528   0.000041  -0.008241  -0.000014  -0.000383  -0.000136
                 30         31         32         33         34         35    
      0       0.017989   0.080668  -0.098171  -0.008478   0.125462   0.122431
      1       0.001593  -0.031628  -0.118235   0.165857  -0.188674   0.271618
      2       0.001519   0.007124  -0.007322  -0.002167   0.012309   0.008051
      3      -0.077434  -0.116999   0.009606   0.120797  -0.220800  -0.257552
      4      -0.056330  -0.036931   0.113503  -0.013199   0.036105  -0.180786
      5      -0.006115  -0.009697  -0.000168   0.010367  -0.019065  -0.020312
      6       0.065848   0.022575   0.097504  -0.070008  -0.301014  -0.090142
      7      -0.053359   0.028533  -0.079286  -0.086916   0.243768  -0.113265
      8       0.006073   0.001688   0.009015  -0.005189  -0.027736  -0.006670
      9      -0.057900  -0.136529   0.124328  -0.112291   0.231928   0.134985
     10       0.046958  -0.169164  -0.101021  -0.139246  -0.187506   0.168738
     11      -0.005348  -0.009626   0.011478  -0.008170   0.021376   0.009883
     12       0.038517  -0.011544  -0.108670  -0.038039  -0.082118  -0.121685
     13       0.087571  -0.123065  -0.033166   0.116018   0.207626  -0.291580
     14       0.002529   0.000060  -0.008979  -0.004274  -0.008829  -0.007795
     15       0.002170  -0.047421   0.095011   0.163107   0.211404   0.237876
     16      -0.017854   0.072612   0.121216   0.026215  -0.082667   0.177232
     17       0.000347  -0.004688   0.007016   0.013643   0.018708   0.018697
     18       0.546708   0.371628  -0.226094  -0.378759   0.203923   0.388198
     19       0.176807   0.141795   0.046999  -0.221104   0.215786   0.054480
     20       0.045150   0.030737  -0.019656  -0.030343   0.015547   0.032601
     21       0.009075   0.206042  -0.013757   0.037569  -0.010199  -0.019133
     22      -0.007228   0.255176   0.011180   0.046500   0.008062  -0.023747
     23       0.000830   0.013826  -0.001272   0.002657  -0.000944  -0.001350
     24       0.069324   0.152530  -0.029668  -0.117517   0.204909   0.041361
     25       0.308175   0.351553   0.429106  -0.462215   0.144910  -0.325092
     26       0.003220   0.009926  -0.006238  -0.005988   0.016091   0.006303
     27      -0.250634   0.031198  -0.494104  -0.085184   0.389328  -0.106184
     28       0.203479   0.037206   0.400768  -0.105959  -0.316481  -0.130047
     29      -0.023172   0.002294  -0.045652  -0.006291   0.035996  -0.007923
     30      -0.057597   0.060552  -0.093474  -0.135834  -0.167611  -0.027513
     31      -0.573533   0.396366   0.211332  -0.419125  -0.244030   0.393940
     32       0.000042   0.001848  -0.009794  -0.007928  -0.012123  -0.005778
     33      -0.284769   0.310361  -0.424878  -0.424504  -0.099440  -0.324264
     34      -0.131996   0.223160  -0.060969  -0.211711  -0.231335  -0.026227
     35      -0.023067   0.024495  -0.035647  -0.034313  -0.006458  -0.027407
     36       0.000553   0.171297  -0.000653   0.041655  -0.000829  -0.021621
     37      -0.000364   0.212228   0.000630   0.051576   0.000611  -0.026772
     38       0.000050   0.011204  -0.000063   0.002714  -0.000077  -0.001413
     39      -0.000632  -0.205920   0.001009  -0.034093   0.001299   0.015629
     40       0.000379  -0.254909  -0.000851  -0.042188  -0.000933   0.019350
     41      -0.000057  -0.013189   0.000093  -0.002184   0.000116   0.000998
                 36         37         38         39         40         41    
      0       0.002077  -0.040628   0.050561  -0.017716  -0.036660   0.039827
      1       0.004846   0.005141  -0.009074   0.006648   0.003649  -0.006370
      2       0.000136  -0.003505   0.004386  -0.001566  -0.003154   0.003448
      3      -0.007904   0.006854  -0.013237   0.017074  -0.017485   0.012234
      4      -0.007085  -0.014500   0.030462  -0.041721   0.050897  -0.036212
      5      -0.000602   0.000712  -0.001395   0.001823  -0.001939   0.001362
      6      -0.001715   0.036131  -0.001979  -0.034260   0.000291   0.023379
      7      -0.002119   0.044817   0.002969  -0.042266  -0.004437   0.028809
      8      -0.000136   0.002675  -0.000194  -0.002539   0.000064   0.001733
      9      -0.056051  -0.000499   0.001366  -0.001523   0.003288  -0.001432
     10      -0.069934  -0.000582  -0.001028  -0.001750  -0.002585  -0.002135
     11      -0.004278  -0.000037   0.000125  -0.000112   0.000302  -0.000101
     12      -0.005346  -0.014854  -0.030389  -0.042336  -0.051799  -0.043623
     13      -0.009246   0.003567   0.006261   0.007857   0.006478   0.005148
     14      -0.000369  -0.001298  -0.002647  -0.003680  -0.004476  -0.003766
     15       0.004362   0.013391   0.019373   0.011509  -0.008992  -0.015297
     16       0.003053  -0.038532  -0.047998  -0.019717   0.029925   0.040351
     17       0.000345   0.001486   0.002078   0.001156  -0.001033  -0.001663
     18       0.009448  -0.068617   0.138709  -0.183096   0.210123  -0.146820
     19      -0.006774   0.178519  -0.362923   0.481621  -0.563464   0.394551
     20       0.000868  -0.007435   0.015045  -0.019876   0.022903  -0.016014
     21       0.458835  -0.000097  -0.000109   0.000198  -0.000255   0.000339
     22       0.567353  -0.000119   0.000074   0.000241   0.000181   0.000451
     23       0.029938  -0.000005  -0.000011   0.000016  -0.000024   0.000024
     24       0.007018   0.477390  -0.583918   0.205330   0.400905  -0.434122
     25      -0.004486  -0.074411   0.093643  -0.036982  -0.061301   0.069324
     26       0.000643   0.041315  -0.050552   0.017813   0.034686  -0.037583
     27      -0.002462  -0.423138  -0.004741   0.382924   0.019563  -0.251582
     28      -0.003143  -0.524998  -0.011798   0.474865   0.030094  -0.311894
     29      -0.000204  -0.031329  -0.000299   0.028344   0.001396  -0.018623
     30      -0.008923   0.180193   0.359383   0.487403   0.578590   0.480014
     31       0.007943  -0.028607  -0.056343  -0.075636  -0.085946  -0.070867
     32      -0.000799   0.015618   0.031142   0.042235   0.050104   0.041563
     33      -0.005897  -0.171243  -0.214357  -0.094895   0.120763   0.168730
     34       0.005892   0.449665   0.556015   0.235398  -0.321572  -0.438924
     35      -0.000544  -0.018620  -0.023245  -0.010195   0.013164   0.018305
     36      -0.419249   0.000234  -0.000005   0.000113  -0.000015  -0.000143
     37      -0.518222   0.000289  -0.000008   0.000136   0.000017  -0.000179
     38      -0.026848   0.000015  -0.000000   0.000007  -0.000001  -0.000009
     39       0.071118  -0.000087   0.000007  -0.000014   0.000012   0.000123
     40       0.088226  -0.000108  -0.000001  -0.000020  -0.000015   0.000146
     41       0.004714  -0.000006   0.000001  -0.000001   0.000001   0.000008
# -----------------------------------------------------------
$ THERMOCHEMISTRY_Energies
   description: The Thermochemistry energies
   geom. index: 8
   prop. index: 1
        Temperature (Kelvin)           :        298.1500000000
        Pressure (atm)                 :          1.0000000000
        Total Mass (AMU)               :        119.1230000000
        Spin Degeneracy                :          1.0000000000
        Electronic Energy (Hartree)    :       -399.9358295469
        Translational Energy (Hartree) :          0.0014162714
        Rotational Energy (Hartree)    :          0.0014162714
        Vibrational Energy (Hartree)   :          0.0042491864
        Number of frequencies          :     42      
        Scaling Factor for frequencies :          1.0000000000
        Vibrational frequencies        :     
                  0    
      0       0.000000
      1       0.000000
      2       0.000000
      3       0.000000
      4       0.000000
      5       0.000000
      6      77.988498
      7      90.461834
      8     287.200553
      9     408.892729
     10     413.307721
     11     418.725387
     12     496.673842
     13     534.048250
     14     553.995858
     15     638.149041
     16     713.745172
     17     737.059075
     18     784.761764
     19     877.580071
     20     965.985826
     21     1015.204446
     22     1029.913410
     23     1034.631229
     24     1061.862852
     25     1114.918690
     26     1133.930154
     27     1179.557145
     28     1206.489990
     29     1300.522009
     30     1360.841769
     31     1411.681137
     32     1496.721043
     33     1551.882224
     34     1659.344966
     35     1684.509109
     36     2480.932687
     37     3203.177780
     38     3212.389628
     39     3219.904879
     40     3227.897172
     41     3232.083824
        Zero Point Energy (Hartree)    :          0.1043787420
        Inner Energy (Hartree)         :       -399.8243690757
        Enthalpy (Hartree)             :       -399.8234248666
        Electronic entropy             :          0.0000000000
        Rotational entropy             :          0.0137131008
        Vibrational entropy            :          0.0069534635
        Translational entropy          :          0.0137131008
        Entropy                        :          0.0397856346
        Gibbs Energy (Hartree)         :       -399.8632105012
        Is Linear                      :                 false
# -------------------------------------------------------------
----------------------- !GEOMETRIES! ------------------------
# -------------------------------------------------------------
------------------------ !GEOMETRY! -------------------------
    Number of atoms:    14 
    Geometry Index:     1 
    Coordinates:
               0 C     -0.082734707830   -0.070642114497    0.352379607359
               1 C      0.782472665880    1.021935175151    0.417553955336
               2 C      0.421197370634   -1.376236661908    0.406102943575
               3 C      2.173885212976    0.813079366508    0.538037743888
               4 C      2.676679977816   -0.505698071948    0.592332944305
               5 C      1.800257643518   -1.588890042038    0.526009965561
               6 H      0.397049615050    2.034356339001    0.376355653643
               7 C      3.065622949442    1.920910256736    0.603642865506
               8 H     -1.150541570181    0.096505268850    0.259820604825
               9 H     -0.255927549755   -2.222202920585    0.354837381560
              10 H      3.745041251875   -0.664438463612    0.685138465338
              11 H      2.193632181397   -2.598933470329    0.567751237599
              12 N      3.814845936970    2.824036500318    0.649438592450
              13 O      4.614819022207    3.784518838353    0.696598039055
------------------------ !GEOMETRY! -------------------------
    Number of atoms:    14 
    Geometry Index:     2 
    Coordinates:
               0 C     -0.070357331587   -0.066223372498    0.353486705338
               1 C      0.791216955618    1.018847952387    0.418238837111
               2 C      0.430631112921   -1.364059551147    0.406844206469
               3 C      2.169941115687    0.805922859834    0.537529169814
               4 C      2.672726480146   -0.500078381769    0.591620649287
               5 C      1.801350730247   -1.577123977378    0.525871912081
               6 H      0.408611341719    2.031885394044    0.377041826844
               7 C      3.065153283035    1.918729810877    0.603324507714
               8 H     -1.137078988364    0.102080863200    0.260916312244
               9 H     -0.246637290622   -2.208956758016    0.355863161055
              10 H      3.740865846457   -0.657340644311    0.684433130073
              11 H      2.194121670104   -2.586463710493    0.567946784720
              12 N      3.797479837499    2.804514095229    0.648181445145
              13 O      4.578275237140    3.746565420042    0.694701352108
------------------------ !GEOMETRY! -------------------------
    Number of atoms:    14 
    Geometry Index:     3 
    Coordinates:
               0 C     -0.068255586911   -0.065744381464    0.353702339392
               1 C      0.793515645356    1.017869416994    0.418348537412
               2 C      0.432029717513   -1.361922985117    0.407044220698
               3 C      2.168372271619    0.802062097657    0.537284557806
               4 C      2.671927500489   -0.499939177730    0.591391159531
               5 C      1.800813308204   -1.575959904820    0.525799898741
               6 H      0.412138950071    2.031483871229    0.377133074772
               7 C      3.066669971192    1.918997983770    0.603228088613
               8 H     -1.135108174558    0.103111507964    0.261092674748
               9 H     -0.245870566385   -2.206642630850    0.356180498790
              10 H      3.740183532303   -0.657137301331    0.684149073711
              11 H      2.192928829420   -2.585781999836    0.567971287210
              12 N      3.797372803774    2.805825232740    0.648071825299
              13 O      4.569581797914    3.742078270794    0.694602763274
------------------------ !GEOMETRY! -------------------------
    Number of atoms:    14 
    Geometry Index:     4 
    Coordinates:
               0 C     -0.068475845509   -0.065605381766    0.353699791669
               1 C      0.793912090750    1.018142370270    0.418256364446
               2 C      0.431782196176   -1.361952341929    0.407121370738
               3 C      2.168382711491    0.800745019583    0.537108816554
               4 C      2.672499910722   -0.500816130894    0.591330334529
               5 C      1.800578843715   -1.576825994409    0.525815773755
               6 H      0.412977508410    2.031877827551    0.377034730318
               7 C      3.067732821985    1.919023034527    0.603123848249
               8 H     -1.135345857885    0.103399843796    0.261140719366
               9 H     -0.246470512229   -2.206478442000    0.356352195626
              10 H      3.740656191857   -0.658434887380    0.684028019953
              11 H      2.192034324063   -2.586942778165    0.567995625381
              12 N      3.798008045113    2.807581525933    0.648056667140
              13 O      4.568027571342    3.744586334883    0.694935742275
------------------------ !GEOMETRY! -------------------------
    Number of atoms:    14 
    Geometry Index:     5 
    Coordinates:
               0 C     -0.068434692061   -0.065259101253    0.353719985094
               1 C      0.794440596794    1.018479464571    0.418176895545
               2 C      0.431676613838   -1.361781899039    0.407216391172
               3 C      2.168702646668    0.799740841609    0.536978644474
               4 C      2.673108942025   -0.501636855375    0.591278406251
               5 C      1.800451462484   -1.577447180452    0.525839879364
               6 H      0.413911767937    2.032308645056    0.376930935524
               7 C      3.068566946570    1.918555023744    0.602983028978
               8 H     -1.135276832745    0.103900454722    0.261212861958
               9 H     -0.246911439365   -2.206064014493    0.356534140956
              10 H      3.741142189077   -0.659758319819    0.683907930104
              11 H      2.191216642784   -2.587824006371    0.568011573573
              12 N      3.797733052850    2.808265897510    0.647955630632
              13 O      4.565972103142    3.746821049592    0.695253696374
------------------------ !GEOMETRY! -------------------------
    Number of atoms:    14 
    Geometry Index:     6 
    Coordinates:
               0 C     -0.068159166467   -0.064835781417    0.353765586039
               1 C      0.795139790045    1.018704871738    0.418100601565
               2 C      0.431639008211   -1.361495703135    0.407324040463
               3 C      2.169211979154    0.798870462079    0.536833117523
               4 C      2.673584570524   -0.502429657224    0.591200356830
               5 C      1.800301793705   -1.577893653814    0.525863718618
               6 H      0.415033876848    2.032651003265    0.376823558711
               7 C      3.069366009159    1.917789347934    0.602793239980
               8 H     -1.134965358024    0.104534231931    0.261320252512
               9 H     -0.247301550774   -2.205505995455    0.356743044820
              10 H      3.741506051358   -0.661083484844    0.683763207608
              11 H      2.190387239646   -2.588525287500    0.568039971999
              12 N      3.797109756116    2.808601844780    0.647813792925
              13 O      4.563446000498    3.748917801662    0.695615510406
------------------------ !GEOMETRY! -------------------------
    Number of atoms:    14 
    Geometry Index:     7 
    Coordinates:
               0 C     -0.067737805774   -0.064368361716    0.353830815800
               1 C      0.796021533959    1.018817804480    0.418003829280
               2 C      0.431563812073   -1.361197607982    0.407458893104
               3 C      2.169950142642    0.798076365500    0.536655375691
               4 C      2.673953158260   -0.503296874648    0.591077319473
               5 C      1.800080662329   -1.578320232129    0.525887985397
               6 H      0.416396670225    2.032922787217    0.376683505322
               7 C      3.070324552020    1.916832219238    0.602547253996
               8 H     -1.134498358216    0.105313704678    0.261464116871
               9 H     -0.247779776824   -2.204893955458    0.357008749655
              10 H      3.741776332233   -0.662530708976    0.683561420420
              11 H      2.189480913696   -2.589212232126    0.568087257811
              12 N      3.796333866715    2.808939879834    0.647649164932
              13 O      4.560434296661    3.751217212088    0.696084312249
------------------------ !GEOMETRY! -------------------------
    Number of atoms:    14 
    Geometry Index:     8 
    Coordinates:
               0 C     -0.067270527599   -0.063930667274    0.353906974026
               1 C      0.796973800998    1.018810800701    0.417912105557
               2 C      0.431411952236   -1.360976658613    0.407596939197
               3 C      2.170830270555    0.797431728060    0.536477205861
               4 C      2.674176068139   -0.504167133108    0.590939275053
               5 C      1.799798145630   -1.578743347539    0.525914133103
               6 H      0.417846637698    2.033102492435    0.376537721116
               7 C      3.071419540457    1.915837905954    0.602258417825
               8 H     -1.133974826080    0.106156340127    0.261618602955
               9 H     -0.248342548752   -2.204349661424    0.357278731958
              10 H      3.741926408069   -0.663951275425    0.683334753420
              11 H      2.188608440642   -2.589862103771    0.568145612362
              12 N      3.795566678134    2.809377321093    0.647468751750
              13 O      4.557329959871    3.753564258784    0.696610775816
