21
Coordinates from ORCA-job mol
  C   -0.09242313092590     -0.08626491284922     -0.13023418529268
  C   0.66745211747656      1.06952714810102     -0.30349069118046
  C   0.48843449636590     -1.21473126665890      0.44387698101814
  C   2.02172208929539      1.07608481292312      0.10686234711670
  C   2.58691443167448     -0.07008541769997      0.68302238509495
  C   1.82016666252667     -1.21355339263951      0.85072656548040
  O   0.21991179657975      2.22335646352011     -0.84551125130494
  C   2.79429957602138      2.24354835159365     -0.06648014013084
  H   -1.13096074223905     -0.11592821490685     -0.43783787667714
  H   -0.11634921987646     -2.10762707859216      0.57248714679488
  H   3.62658284962525     -0.03870760410993      0.99214637550361
  H   2.26013861961180     -2.09900273471091      1.29716599179577
  N   3.42168573516517      3.20510762015572     -0.23237390047480
  O   4.13762699637382      4.18471928938852     -0.36064432683891
  O   5.51887543584593      2.17339201621889      1.48454379558100
  S   6.29803566419602      3.26729768221955      0.86378285096285
  O   7.09787531789184      2.90165764742858     -0.32007583692714
  C   -1.14517023626124      2.27692391472550     -1.28042735450451
  H   -1.28574639024925      3.28331736815500     -1.67530355212487
  H   -1.83000792377509      2.11001281585337     -0.44058776752457
  H   -1.33314414532297      1.54005549188438     -2.07026755636743
