!DLPNO-CCSD(T) Extrapolate(3/4,cc) cc-pVQZ/C TightPNO TightSCF 
%geom maxiter 300 end
%maxcore 4000 
%pal nprocs 36
end

*xyz 0 1
6       -0.069210000     -0.065296000      0.353512000
6        0.791195000      1.020773000      0.417689000
6        0.429899000     -1.364572000      0.407188000
6        2.175757000      0.811022000      0.537192000
6        2.675335000     -0.501768000      0.591475000
6        1.801408000     -1.576849000      0.526092000
1        0.407658000      2.034876000      0.376569000
6        3.061915000      1.913794000      0.602642000
1       -1.137826000      0.103841000      0.261021000
1       -0.248893000     -2.210375000      0.356466000
1        3.744529000     -0.661291000      0.684203000
1        2.194048000     -2.588361000      0.568126000
7        3.802599000      2.811967000      0.648429000
8        4.567886000      3.740538000      0.695396000

*
