17
Coordinates from ORCA-job mol E -948.139944241712
  C       0.053471      0.075389     -0.108728
  C       1.052831      1.036600     -0.247192
  C       0.346957     -1.171179      0.461536
  C       2.361738      0.752768      0.186618
  C       2.656765     -0.497089      0.755988
  C       1.647946     -1.453388      0.892116
  H       0.837164      2.002447     -0.688820
  C       3.407823      1.761713      0.044035
  H      -0.953535      0.296333     -0.445710
  H      -0.434422     -1.916402      0.567900
  H       3.666884     -0.707868      1.084480
  H       1.878398     -2.417198      1.333073
  N       3.217077      2.933592     -0.479589
  O       4.370590      3.743610     -0.492799
  O       4.677438      1.419534      0.517898
  S       5.930804      2.712320      0.014739
  O       6.656471      2.225820     -1.324845
17
Coordinates from ORCA-job mol E -948.161358040674
  C       0.074583      0.084640     -0.109089
  C       1.069224      1.041695     -0.247946
  C       0.365898     -1.157283      0.458301
  C       2.373626      0.757548      0.183615
  C       2.666630     -0.488327      0.751436
  C       1.660690     -1.439387      0.886506
  H       0.852419      2.008573     -0.689336
  C       3.419257      1.765384      0.041764
  H      -0.933261      0.306380     -0.445653
  H      -0.416452     -1.902509      0.564579
  H       3.677076     -0.703072      1.080235
  H       1.890554     -2.404378      1.327026
  N       3.230336      2.923069     -0.481196
  O       4.367798      3.697245     -0.487723
  O       4.667601      1.427950      0.513297
  S       5.861053      2.676933     -0.000394
  O       6.547367      2.202538     -1.274724
17
Coordinates from ORCA-job mol E -948.167584931387
  C       0.086878      0.087776     -0.109275
  C       1.078077      1.043823     -0.250105
  C       0.377954     -1.151340      0.456967
  C       2.381840      0.762619      0.178204
  C       2.673895     -0.481111      0.745608
  C       1.670191     -1.430953      0.882183
  H       0.858084      2.010384     -0.691203
  C       3.429188      1.773208      0.034803
  H      -0.922255      0.308972     -0.444350
  H      -0.404135     -1.897298      0.564691
  H       3.684016     -0.699917      1.074259
  H       1.901731     -2.396095      1.322953
  N       3.254040      2.924522     -0.488946
  O       4.403244      3.655358     -0.473383
  O       4.673097      1.461727      0.504662
  S       5.802885      2.646296     -0.016782
  O       6.425671      2.179028     -1.219586
17
Coordinates from ORCA-job mol E -948.169232292659
  C       0.086748      0.084550     -0.115622
  C       1.076443      1.044315     -0.250734
  C       0.379306     -1.155196      0.451165
  C       2.379349      0.766042      0.183884
  C       2.673229     -0.477431      0.752023
  C       1.671466     -1.431382      0.882878
  H       0.855845      2.010933     -0.691430
  C       3.423218      1.778594      0.046725
  H      -0.921278      0.303081     -0.455165
  H      -0.400814     -1.903665      0.554156
  H       3.682623     -0.693237      1.084965
  H       1.904200     -2.396088      1.323545
  N       3.252254      2.931076     -0.484728
  O       4.412610      3.666870     -0.452156
  O       4.669750      1.475106      0.532345
  S       5.814657      2.643670     -0.025041
  O       6.414794      2.149760     -1.266109
17
Coordinates from ORCA-job mol E -948.169603083574
  C       0.087278      0.084038     -0.116040
  C       1.074811      1.046629     -0.248535
  C       0.382607     -1.156510      0.448444
  C       2.378283      0.769764      0.185612
  C       2.675363     -0.474062      0.751254
  C       1.675586     -1.430675      0.880226
  H       0.852099      2.013808     -0.687005
  C       3.419069      1.783274      0.049854
  H      -0.921068      0.300967     -0.455465
  H      -0.395763     -1.906988      0.549395
  H       3.685204     -0.689139      1.083384
  H       1.910716     -2.395703      1.318750
  N       3.253983      2.933384     -0.493071
  O       4.428691      3.663275     -0.450466
  O       4.666300      1.490005      0.548312
  S       5.806287      2.640154     -0.027058
  O       6.394955      2.124778     -1.266892
17
Coordinates from ORCA-job mol E -948.169766026884
  C       0.085529      0.084976     -0.111272
  C       1.071222      1.049451     -0.244564
  C       0.384913     -1.156869      0.448835
  C       2.376851      0.772100      0.183509
  C       2.678394     -0.472776      0.744698
  C       1.680101     -1.430926      0.875050
  H       0.845502      2.017872     -0.678647
  C       3.414482      1.785604      0.045620
  H      -0.924467      0.301583     -0.445785
  H      -0.392222     -1.908411      0.550905
  H       3.689671     -0.688158      1.071891
  H       1.918184     -2.396705      1.310147
  N       3.254455      2.929022     -0.516484
  O       4.444146      3.656377     -0.460439
  O       4.659552      1.502601      0.562619
  S       5.795259      2.644811     -0.019644
  O       6.392829      2.106448     -1.245737
17
Coordinates from ORCA-job mol E -948.169801526103
  C       0.085224      0.085603     -0.109450
  C       1.070605      1.050335     -0.243112
  C       0.385708     -1.156678      0.448959
  C       2.377028      0.772455      0.182494
  C       2.679619     -0.472978      0.742046
  C       1.681481     -1.431181      0.873006
  H       0.844052      2.019386     -0.675299
  C       3.414372      1.786261      0.043553
  H      -0.925409      0.302475     -0.441855
  H      -0.391304     -1.908283      0.551671
  H       3.691382     -0.688591      1.067391
  H       1.920165     -2.397355      1.306889
  N       3.254851      2.925245     -0.527712
  O       4.446168      3.655677     -0.462512
  O       4.655297      1.507362      0.571125
  S       5.793843      2.647960     -0.017837
  O       6.391316      2.099308     -1.238657
17
Coordinates from ORCA-job mol E -948.169843872421
  C       0.082205      0.087907     -0.100936
  C       1.067712      1.052138     -0.237548
  C       0.385265     -1.156087      0.451849
  C       2.376789      0.771400      0.178196
  C       2.681764     -0.476059      0.732061
  C       1.683258     -1.433291      0.866914
  H       0.839124      2.023340     -0.663751
  C       3.414823      1.785610      0.035049
  H      -0.930588      0.306856     -0.425327
  H      -0.392014     -1.907027      0.557826
  H       3.695452     -0.693388      1.049963
  H       1.923426     -2.400952      1.296675
  N       3.254970      2.912392     -0.559906
  O       4.446991      3.652419     -0.483620
  O       4.645073      1.515180      0.583798
  S       5.788964      2.663423     -0.006608
  O       6.411186      2.093138     -1.203937
17
Coordinates from ORCA-job mol E -948.169849632186
  C       0.082067      0.088383     -0.099650
  C       1.067519      1.052756     -0.235900
  C       0.385545     -1.156189      0.451534
  C       2.376798      0.771677      0.178439
  C       2.682100     -0.476182      0.730923
  C       1.683839     -1.433701      0.865359
  H       0.838590      2.024509     -0.660703
  C       3.415583      1.786170      0.035021
  H      -0.930991      0.307690     -0.422974
  H      -0.391601     -1.907301      0.557302
  H       3.696161     -0.693663      1.047732
  H       1.924378     -2.401835      1.293870
  N       3.255820      2.909386     -0.566372
  O       4.446078      3.651383     -0.487491
  O       4.642547      1.519733      0.589030
  S       5.788601      2.665899     -0.005959
  O       6.411366      2.088285     -1.199462
17
Coordinates from ORCA-job mol E -948.169851742460
  C       0.081416      0.088895     -0.097748
  C       1.066805      1.053361     -0.234128
  C       0.385430     -1.156309      0.451767
  C       2.376435      0.771701      0.178159
  C       2.682292     -0.476589      0.729120
  C       1.684229     -1.434273      0.863787
  H       0.837420      2.025655     -0.657478
  C       3.415820      1.786035      0.034152
  H      -0.932033      0.308688     -0.419503
  H      -0.391614     -1.907490      0.557733
  H       3.696818     -0.694313      1.044436
  H       1.925244     -2.402852      1.291027
  N       3.256405      2.906527     -0.572755
  O       4.445422      3.649835     -0.494055
  O       4.640786      1.523029      0.591802
  S       5.787515      2.668902     -0.003666
  O       6.416008      2.086199     -1.191949
17
Coordinates from ORCA-job mol E -948.169852402799
  C       0.080939      0.089224     -0.096399
  C       1.066144      1.053886     -0.232948
  C       0.385478     -1.156396      0.451921
  C       2.376079      0.771880      0.177857
  C       2.682517     -0.476726      0.727737
  C       1.684674     -1.434602      0.862630
  H       0.836295      2.026532     -0.655234
  C       3.415652      1.785966      0.033438
  H      -0.932833      0.309274     -0.416954
  H      -0.391430     -1.907685      0.558059
  H       3.697373     -0.694535      1.041986
  H       1.926110     -2.403472      1.288970
  N       3.256906      2.904650     -0.577358
  O       4.445167      3.648731     -0.498639
  O       4.639541      1.525509      0.594044
  S       5.786763      2.670401     -0.001824
  O       6.419025      2.084363     -1.186585
