19
Coordinates from ORCA-job mol E -1152.671289671606
  C       0.167418      0.053893     -0.054980
  C       1.124777      1.038798     -0.210947
  C       0.450426     -1.192338      0.494175
  C       2.432260      0.759957      0.199611
  C       2.742711     -0.485746      0.755692
  C       1.752424     -1.451373      0.899722
  H       0.861069      1.997701     -0.640938
  C       3.467927      1.778333      0.048033
  N      -1.220561      0.342390     -0.489303
  H      -0.338923     -1.926860      0.594566
  H       3.759288     -0.695733      1.069555
  H       2.000479     -2.415875      1.330576
  N       3.297100      2.890082     -0.569977
  O       4.474544      3.640852     -0.509464
  O       4.692004      1.525773      0.605234
  S       5.833805      2.678059     -0.004017
  O       6.464416      2.088285     -1.185795
  O      -1.444892      1.444417     -0.968114
  O      -2.050192     -0.544206     -0.338827
19
Coordinates from ORCA-job mol E -1152.671338068674
  C       0.166952      0.053698     -0.054247
  C       1.123692      1.039645     -0.210331
  C       0.450763     -1.192920      0.495018
  C       2.431259      0.760737      0.199035
  C       2.742685     -0.485168      0.755070
  C       1.752891     -1.451278      0.900043
  H       0.859690      1.998941     -0.638971
  C       3.467187      1.779176      0.046737
  N      -1.219571      0.342064     -0.488467
  H      -0.336992     -1.929652      0.596860
  H       3.759307     -0.695772      1.068767
  H       2.001434     -2.415545      1.331025
  N       3.298772      2.891235     -0.572030
  O       4.478441      3.641585     -0.508815
  O       4.690786      1.526111      0.603126
  S       5.835608      2.677239     -0.000848
  O       6.461451      2.086261     -1.185837
  O      -1.446806      1.443917     -0.967975
  O      -2.051470     -0.543864     -0.343360
19
Coordinates from ORCA-job mol E -1152.671262914608
  C       0.167458      0.051755     -0.058884
  C       1.123398      1.039080     -0.214576
  C       0.451544     -1.194180      0.492642
  C       2.430380      0.761102      0.196233
  C       2.742539     -0.484033      0.754244
  C       1.753302     -1.450790      0.899703
  H       0.859506      1.998235     -0.643441
  C       3.466281      1.779780      0.043785
  N      -1.215901      0.338099     -0.495676
  H      -0.333714     -1.933746      0.595827
  H       3.758585     -0.694837      1.069787
  H       2.001905     -2.414156      1.332544
  N       3.300428      2.891345     -0.577538
  O       4.481782      3.642080     -0.510638
  O       4.687622      1.527360      0.603220
  S       5.835047      2.677159      0.005742
  O       6.461300      2.083843     -1.179454
  O      -1.451214      1.448205     -0.954168
  O      -2.054168     -0.539892     -0.334554
19
Coordinates from ORCA-job mol E -1152.671349880626
  C       0.166433      0.053856     -0.054222
  C       1.122746      1.040744     -0.210861
  C       0.450821     -1.192757      0.495264
  C       2.430239      0.761570      0.197393
  C       2.742820     -0.484221      0.753503
  C       1.753219     -1.450503      0.899760
  H       0.858691      2.000588     -0.638152
  C       3.466378      1.779776      0.044178
  N      -1.217019      0.341277     -0.487338
  H      -0.334127     -1.932288      0.599418
  H       3.759193     -0.696248      1.066989
  H       2.001972     -2.414442      1.331241
  N       3.299789      2.892033     -0.575893
  O       4.481657      3.642151     -0.510339
  O       4.687976      1.526070      0.602129
  S       5.834399      2.675676      0.003996
  O       6.459805      2.083103     -1.182237
  O      -1.448379      1.444923     -0.963621
  O      -2.050531     -0.544897     -0.346406
19
Coordinates from ORCA-job mol E -1152.671352109077
  C       0.166536      0.053878     -0.054671
  C       1.123238      1.040371     -0.210860
  C       0.450864     -1.192607      0.494771
  C       2.430702      0.761427      0.198108
  C       2.742917     -0.484284      0.754229
  C       1.753185     -1.450474      0.899743
  H       0.859368      1.999974     -0.638779
  C       3.466705      1.779849      0.045373
  N      -1.217736      0.341363     -0.488287
  H      -0.334535     -1.931569      0.598159
  H       3.759237     -0.696060      1.067991
  H       2.001758     -2.414549      1.331083
  N       3.299360      2.891447     -0.575019
  O       4.480328      3.641789     -0.509632
  O       4.688805      1.526964      0.603765
  S       5.834417      2.675771      0.001860
  O       6.459323      2.082857     -1.183874
  O      -1.448034      1.445351     -0.963369
  O      -2.050358     -0.545087     -0.345791
19
Coordinates from ORCA-job mol E -1152.671352635812
  C       0.166380      0.053901     -0.054644
  C       1.123092      1.040463     -0.210876
  C       0.450859     -1.192584      0.494781
  C       2.430577      0.761483      0.197832
  C       2.742963     -0.484211      0.753942
  C       1.753232     -1.450391      0.899638
  H       0.859218      2.000152     -0.638605
  C       3.466584      1.779907      0.044908
  N      -1.217577      0.341321     -0.488062
  H      -0.334108     -1.931987      0.598526
  H       3.759256     -0.696223      1.067641
  H       2.001810     -2.414443      1.331010
  N       3.299508      2.891342     -0.575952
  O       4.480737      3.641743     -0.510437
  O       4.688418      1.527214      0.603786
  S       5.834148      2.675822      0.002629
  O       6.459708      2.082467     -1.182730
  O      -1.448437      1.445707     -0.962221
  O      -2.050289     -0.545274     -0.346365
