 28
  Energy -1160.026874649066  Dipole 7.48203  G(298) 102.23
 C   -3.96683500   0.52078300   0.40221100
 C   -2.98345500   1.45545900   0.11594400
 C   -3.68007500  -0.83876100   0.33530000
 C   -1.70651000   1.01979300  -0.24428900
 C   -1.41659600  -0.34388500  -0.31925500
 C   -2.40762300  -1.26804600  -0.02494300
 H   -3.19529700   2.51686600   0.16875000
 C   -0.67210600   1.97485400  -0.53120900
 H   -4.96000800   0.85468800   0.68032300
 H   -4.45170700  -1.56570500   0.56383700
 H   -0.42285800  -0.66794200  -0.60037100
 H   -2.18308300  -2.32745500  -0.07661100
 N    0.18429400   2.70722200  -0.75808100
 O    1.10546500   3.47181800  -0.98462700
 N    2.19359500   1.41580300   1.27676600
 S    3.10100400   2.58235000   0.99446600
 O    4.10216500   2.47936800  -0.05140800
 C    2.10782600   0.17338600   0.61293600
 C    2.36896000   0.02596700  -0.75104400
 C    1.69460500  -0.92414900   1.36786800
 C    2.22173700  -1.22092800  -1.34396000
 C    1.57255000  -2.17012000   0.77051900
 C    1.83450300  -2.32192100  -0.58723300
 H    2.67351700   0.88169200  -1.33885400
 H    1.47501700  -0.78319500   2.41989100
 H    2.41824600  -1.33158200  -2.40469400
 H    1.26052500  -3.02224100   1.36407500
 H    1.73214300  -3.29411900  -1.05630400
