 28
  Energy -1160.027921330503  Dipole 6.56453  G(298) 102.13
 C   -2.34932500  -1.00003300  -1.09499000
 C   -1.89823300   0.26614000  -0.75421400
 C   -2.39294600  -2.00677400  -0.13809100
 C   -1.48966600   0.51924500   0.55461900
 C   -1.53161600  -0.48925500   1.51990500
 C   -1.98490300  -1.75021100   1.16714000
 H   -1.84894000   1.05560000  -1.49448700
 C   -0.99455400   1.81782400   0.91517800
 H   -2.66181400  -1.20205600  -2.11322200
 H   -2.74468600  -2.99592600  -0.41016800
 H   -1.19496800  -0.27806000   2.52771600
 H   -2.01640900  -2.53676900   1.91265100
 N   -0.56108300   2.83434900   1.23187900
 O   -0.07865500   3.89645100   1.58180700
 O    1.39326800   1.11774600   3.03388600
 S    2.31471800   2.01076100   2.34771200
 N    2.62203400   1.77919700   0.89628500
 C    2.12529200   0.79623100   0.01283100
 C    1.97513600   1.16465500  -1.32381400
 C    1.49397000   0.24501200  -2.24351200
 C    1.18835600  -1.05078400  -1.84076600
 C    1.35857400  -1.42109000  -0.51283600
 C    1.81667800  -0.50208600   0.42064900
 H    2.23133100   2.17525700  -1.62031700
 H    1.36407000   0.53904000  -3.27923600
 H    0.81378400  -1.76975900  -2.56079600
 H    1.11627900  -2.42841000  -0.19356500
 H    1.93430700  -0.78629400   1.45775600
