28
Coordinates from ORCA-job ./TS1_b E -1159.980391383014
  C      -4.105487     -1.061205      0.174481
  C      -3.322492      0.083672      0.280192
  C      -3.722871     -2.245326      0.814417
  C      -2.134209      0.055606      1.043095
  C      -1.752918     -1.136750      1.688018
  C      -2.546520     -2.275750      1.567724
  H      -3.615053      1.009297     -0.220110
  C      -1.331654      1.233631      1.157237
  H      -5.024104     -1.029380     -0.416880
  H      -4.342043     -3.141306      0.725199
  H      -0.835258     -1.146063      2.277533
  H      -2.242624     -3.196450      2.072090
  N      -1.284399      2.420460      0.883971
  O      -0.512790      3.392027      0.997947
  O       0.352286      0.930726      2.076392
  S       1.403131      2.078727      1.891165
  N       2.451689      1.992926      0.750962
  C       2.638904      1.136296     -0.323186
  C       3.682176      1.464463     -1.216912
  C       3.952069      0.655058     -2.315485
  C       3.191639     -0.496560     -2.545810
  C       2.158105     -0.831405     -1.663783
  C       1.876400     -0.030110     -0.560924
  H       4.264475      2.367619     -1.020353
  H       4.761412      0.923500     -2.999430
  H       3.403469     -1.131569     -3.409643
  H       1.561797     -1.730935     -1.838442
  H       1.074871     -0.291200      0.130535
28
Coordinates from ORCA-job ./TS1_b E -1159.992693081576
  C      -3.853346     -1.117287      0.016681
  C      -3.087949      0.032844      0.123247
  C      -3.528072     -2.248913      0.759067
  C      -1.988366      0.049596      0.987959
  C      -1.659521     -1.080606      1.734727
  C      -2.432696     -2.227166      1.613705
  H      -3.331413      0.917965     -0.453697
  C      -1.208832      1.258728      1.090213
  H      -4.706960     -1.130210     -0.652920
  H      -4.129797     -3.147464      0.669656
  H      -0.806749     -1.052337      2.400778
  H      -2.176236     -3.106727      2.194662
  N      -1.091254      2.410441      0.783236
  O      -0.204295      3.286326      1.018377
  O       0.352948      1.008372      2.148697
  S       1.368730      2.106454      1.958969
  N       2.364274      1.945328      0.867261
  C       2.491561      1.103476     -0.253277
  C       3.549094      1.385361     -1.119058
  C       3.759539      0.605929     -2.246546
  C       2.916359     -0.465591     -2.521832
  C       1.865068     -0.750495     -1.659186
  C       1.646338      0.025497     -0.527612
  H       4.196309      2.225489     -0.890831
  H       4.584252      0.836899     -2.913304
  H       3.078850     -1.076283     -3.404091
  H       1.202921     -1.585796     -1.864927
  H       0.829240     -0.209829      0.140047
28
Coordinates from ORCA-job ./TS1_b E -1159.992947346795
  C      -3.751189     -1.134164     -0.099215
  C      -3.000736      0.022271      0.037211
  C      -3.480630     -2.243231      0.696453
  C      -1.976448      0.066330      0.988314
  C      -1.702279     -1.040676      1.789346
  C      -2.457814     -2.194257      1.635469
  H      -3.199365      0.889412     -0.581367
  C      -1.211339      1.280619      1.121456
  H      -4.547666     -1.170710     -0.833690
  H      -4.068545     -3.147142      0.582282
  H      -0.902892     -0.991488      2.516166
  H      -2.245253     -3.057522      2.255706
  N      -1.058732      2.430197      0.844675
  O      -0.179913      3.314876      1.071255
  O       0.397397      1.005145      2.224985
  S       1.418955      2.089457      2.006851
  N       2.426981      1.909487      0.908247
  C       2.502693      1.077466     -0.221532
  C       3.486225      1.398554     -1.160560
  C       3.637548      0.635915     -2.307946
  C       2.812481     -0.461509     -2.531871
  C       1.840609     -0.790813     -1.594551
  C       1.681247     -0.032322     -0.442441
  H       4.119698      2.257837     -0.972594
  H       4.402207      0.899715     -3.030575
  H       2.929157     -1.058394     -3.429651
  H       1.196477     -1.648516     -1.757252
  H       0.931126     -0.306537      0.284828
28
Coordinates from ORCA-job ./TS1_b E -1159.993331410420
  C      -3.444422     -1.165321     -0.316090
  C      -2.721235     -0.000016     -0.121652
  C      -3.297642     -2.235014      0.561394
  C      -1.856689      0.094086      0.973132
  C      -1.709677     -0.971282      1.859310
  C      -2.431425     -2.136309      1.643497
  H      -2.817955      0.835145     -0.804783
  C      -1.117381      1.317696      1.155181
  H      -4.118342     -1.241646     -1.161353
  H      -3.859774     -3.147788      0.399638
  H      -1.031209     -0.885026      2.696872
  H      -2.316562     -2.969207      2.327363
  N      -0.939507      2.463679      0.882224
  O      -0.050641      3.332216      1.140850
  O       0.413730      1.041626      2.344844
  S       1.484063      2.076734      2.114434
  N       2.450085      1.849585      0.993056
  C       2.425652      1.039142     -0.155873
  C       3.306998      1.385355     -1.182371
  C       3.350652      0.640176     -2.350689
  C       2.523450     -0.467475     -2.506590
  C       1.657849     -0.824856     -1.479839
  C       1.603724     -0.081784     -0.307858
  H       3.946773      2.249456     -1.046763
  H       4.035862      0.924646     -3.141648
  H       2.558565     -1.051454     -3.419331
  H       1.015846     -1.692591     -1.586902
  H       0.939212     -0.379773      0.489949
28
Coordinates from ORCA-job ./TS1_b E -1159.993825294624
  C      -3.269902     -1.104358     -0.453584
  C      -2.576458      0.062251     -0.176626
  C      -3.191540     -2.186700      0.416526
  C      -1.816471      0.145745      0.992751
  C      -1.739870     -0.932441      1.872588
  C      -2.426620     -2.099788      1.573855
  H      -2.613725      0.907151     -0.853542
  C      -1.104155      1.370410      1.254247
  H      -3.863743     -1.172539     -1.357676
  H      -3.727384     -3.101669      0.190055
  H      -1.138996     -0.854712      2.768881
  H      -2.365520     -2.944151      2.250693
  N      -0.952015      2.534144      1.036683
  O      -0.051745      3.385743      1.319805
  O       0.445912      1.048993      2.381620
  S       1.510503      2.082368      2.129136
  N       2.437961      1.851992      0.978999
  C       2.380782      1.011718     -0.150126
  C       3.098659      1.420052     -1.274712
  C       3.104827      0.639592     -2.421673
  C       2.407325     -0.563518     -2.454948
  C       1.708007     -0.981424     -1.329067
  C       1.690536     -0.203056     -0.178815
  H       3.643055      2.356169     -1.232568
  H       3.662062      0.970712     -3.291202
  H       2.415853     -1.175019     -3.350340
  H       1.171374     -1.924143     -1.340291
  H       1.161286     -0.543522      0.699332
28
Coordinates from ORCA-job ./TS1_b E -1159.994350492550
  C      -3.060170     -1.159885     -0.571172
  C      -2.345837     -0.005529     -0.292201
  C      -3.153618     -2.169088      0.381117
  C      -1.742739      0.139785      0.959485
  C      -1.833794     -0.868589      1.918797
  C      -2.538591     -2.024525      1.620385
  H      -2.249851      0.783053     -1.028930
  C      -1.012911      1.348795      1.235688
  H      -3.535958     -1.275820     -1.538211
  H      -3.705909     -3.074615      0.155138
  H      -1.345502     -0.744079      2.876862
  H      -2.610647     -2.814642      2.359108
  N      -0.818434      2.506351      1.018262
  O       0.105258      3.327042      1.319998
  O       0.498287      0.992498      2.427985
  S       1.582147      2.013665      2.211654
  N       2.490688      1.806245      1.037796
  C       2.360753      0.996231     -0.107923
  C       2.937248      1.471660     -1.286994
  C       2.870098      0.719158     -2.450590
  C       2.240835     -0.521525     -2.447392
  C       1.680710     -1.003322     -1.269505
  C       1.736322     -0.254524     -0.101247
  H       3.432099      2.435962     -1.271793
  H       3.317223      1.101314     -3.361988
  H       2.193604     -1.112107     -3.355717
  H       1.196641     -1.974271     -1.254668
  H       1.312047     -0.639240      0.816055
28
Coordinates from ORCA-job ./TS1_b E -1159.994903382369
  C      -2.769851     -1.173753     -0.702707
  C      -2.095933     -0.007241     -0.376558
  C      -2.971680     -2.154228      0.262532
  C      -1.643843      0.177363      0.931677
  C      -1.837944     -0.805469      1.902489
  C      -2.501872     -1.972645      1.559684
  H      -1.916563      0.760487     -1.119624
  C      -0.961120      1.398439      1.261096
  H      -3.129485     -1.321264     -1.714370
  H      -3.493767     -3.068085      0.001204
  H      -1.460451     -0.650758      2.905391
  H      -2.656058     -2.742470      2.307016
  N      -0.779535      2.566091      1.099681
  O       0.110422      3.396169      1.470936
  O       0.532550      1.026660      2.484658
  S       1.639303      2.014170      2.247921
  N       2.533277      1.758557      1.067398
  C       2.311136      0.952019     -0.068910
  C       2.769670      1.437829     -1.294326
  C       2.598916      0.690138     -2.450890
  C       1.983445     -0.555980     -2.395384
  C       1.542521     -1.048365     -1.172216
  C       1.702460     -0.304702     -0.010303
  H       3.253900      2.407208     -1.321862
  H       2.953110      1.081384     -3.398503
  H       1.855048     -1.142512     -3.298388
  H       1.068833     -2.022888     -1.116882
  H       1.363511     -0.696154      0.939239
28
Coordinates from ORCA-job ./TS1_b E -1159.995284319511
  C      -2.422814     -1.225229     -0.822895
  C      -1.766139     -0.058018     -0.465778
  C      -2.809382     -2.133312      0.156788
  C      -1.518469      0.199701      0.883522
  C      -1.897991     -0.710255      1.870028
  C      -2.541733     -1.879903      1.499218
  H      -1.437405      0.651105     -1.215879
  C      -0.834928      1.410924      1.243149
  H      -2.621591     -1.431599     -1.868049
  H      -3.316726     -3.048574     -0.127841
  H      -1.673396     -0.500601      2.908595
  H      -2.837099     -2.595770      2.257551
  N      -0.613023      2.572994      1.080870
  O       0.307312      3.360385      1.482813
  O       0.570263      1.016508      2.558139
  S       1.702863      1.973528      2.322532
  N       2.554730      1.711286      1.113295
  C       2.239424      0.920358     -0.016448
  C       2.520307      1.451949     -1.274906
  C       2.228916      0.723433     -2.419871
  C       1.677310     -0.549670     -2.320683
  C       1.426519     -1.091170     -1.065341
  C       1.703446     -0.365117      0.085474
  H       2.955108      2.442793     -1.338574
  H       2.438915      1.151555     -3.394060
  H       1.453488     -1.119264     -3.215882
  H       1.006322     -2.087389     -0.975798
  H       1.505771     -0.790646      1.060028
28
Coordinates from ORCA-job ./TS1_b E -1159.995822730253
  C      -2.415760     -1.088837     -0.879619
  C      -1.772754      0.064406     -0.459984
  C      -2.815754     -2.039463      0.052980
  C      -1.554882      0.265722      0.903463
  C      -1.952176     -0.685079      1.843186
  C      -2.579439     -1.842134      1.410983
  H      -1.424511      0.802006     -1.172463
  C      -0.870244      1.454600      1.324828
  H      -2.589129     -1.253286     -1.936709
  H      -3.310160     -2.945285     -0.280519
  H      -1.750938     -0.517335      2.894354
  H      -2.886199     -2.591668      2.131099
  N      -0.688217      2.635544      1.249955
  O       0.258827      3.389721      1.664397
  O       0.604115      0.996625      2.513007
  S       1.718353      1.979015      2.277118
  N       2.558484      1.740757      1.054947
  C       2.255145      0.899492     -0.041984
  C       2.313090      1.438408     -1.325837
  C       2.026886      0.640317     -2.425695
  C       1.712857     -0.704127     -2.256886
  C       1.694577     -1.247739     -0.978020
  C       1.957929     -0.453399      0.129280
  H       2.569276      2.484728     -1.445561
  H       2.058585      1.070775     -3.420785
  H       1.493790     -1.325867     -3.118005
  H       1.458665     -2.296827     -0.835958
  H       1.929586     -0.871070      1.128428
28
Coordinates from ORCA-job ./TS1_b E -1159.995996165522
  C      -2.092170     -1.168874     -0.960778
  C      -1.470495     -0.007718     -0.529956
  C      -2.649953     -2.042226     -0.033458
  C      -1.434248      0.280319      0.835738
  C      -1.991769     -0.594134      1.770267
  C      -2.596004     -1.759522      1.329286
  H      -0.996858      0.668140     -1.232259
  C      -0.758102      1.466401      1.271814
  H      -2.125371     -1.400709     -2.019151
  H      -3.126442     -2.955354     -0.373961
  H      -1.930319     -0.359606      2.826519
  H      -3.026710     -2.449906      2.045436
  N      -0.541319      2.637997      1.205451
  O       0.388253      3.395521      1.648013
  O       0.689083      0.976381      2.544259
  S       1.810534      1.944173      2.331609
  N       2.625551      1.697105      1.086793
  C       2.199203      0.876745      0.012412
  C       2.079963      1.447681     -1.254200
  C       1.672256      0.671627     -2.331812
  C       1.407053     -0.682875     -2.161697
  C       1.557607     -1.257428     -0.904506
  C       1.945246     -0.485473      0.182465
  H       2.299400      2.502447     -1.376372
  H       1.571169      1.127651     -3.311123
  H       1.092631     -1.288131     -3.005167
  H       1.357487     -2.314323     -0.762714
  H       2.044323     -0.925911      1.167092
28
Coordinates from ORCA-job ./TS1_b E -1159.996436743058
  C      -2.270990     -1.255795     -0.828095
  C      -1.589403     -0.111528     -0.444935
  C      -2.907710     -2.036811      0.129036
  C      -1.574458      0.251716      0.900820
  C      -2.211638     -0.529479      1.867216
  C      -2.875672     -1.678641      1.474910
  H      -1.055055      0.491160     -1.168023
  C      -0.836481      1.416167      1.293108
  H      -2.289497     -1.546935     -1.871667
  H      -3.430704     -2.937376     -0.173607
  H      -2.165951     -0.236403      2.909061
  H      -3.369652     -2.297316      2.214741
  N      -0.582350      2.583357      1.210969
  O       0.417591      3.266099      1.640610
  O       0.615237      0.901182      2.502487
  S       1.745501      1.872587      2.310217
  N       2.612225      1.660526      1.097569
  C       2.279947      0.891317     -0.045481
  C       2.117600      1.523468     -1.275202
  C       1.847941      0.768391     -2.411113
  C       1.756553     -0.616035     -2.330181
  C       1.930129     -1.244526     -1.101745
  C       2.184541     -0.497017      0.040155
  H       2.208683      2.602135     -1.329846
  H       1.721379      1.267429     -3.365849
  H       1.552246     -1.202413     -3.219028
  H       1.858710     -2.324299     -1.028943
  H       2.311277     -0.980958      1.002813
28
Coordinates from ORCA-job ./TS1_b E -1159.996743322273
  C      -2.120293     -1.311810     -0.838274
  C      -1.443401     -0.165633     -0.451912
  C      -2.851270     -2.034084      0.098170
  C      -1.526912      0.259691      0.875170
  C      -2.256072     -0.465525      1.820536
  C      -2.917133     -1.616058      1.425650
  H      -0.839714      0.393968     -1.156248
  C      -0.796530      1.426850      1.269953
  H      -2.064768     -1.649136     -1.866923
  H      -3.372268     -2.935515     -0.206359
  H      -2.286717     -0.126393      2.849477
  H      -3.484816     -2.189516      2.149253
  N      -0.549192      2.591615      1.208276
  O       0.400219      3.334911      1.633734
  O       0.692984      0.879414      2.483838
  S       1.816621      1.854388      2.317571
  N       2.688844      1.619367      1.109628
  C       2.285712      0.862709     -0.018612
  C       2.007498      1.518448     -1.216879
  C       1.678520      0.783923     -2.349748
  C       1.627600     -0.604397     -2.296955
  C       1.896446     -1.256310     -1.097947
  C       2.221267     -0.529884      0.039828
  H       2.063032      2.600823     -1.248971
  H       1.469579      1.301693     -3.280102
  H       1.377041     -1.175132     -3.184619
  H       1.852231     -2.339115     -1.046452
  H       2.431494     -1.029291      0.978915
28
Coordinates from ORCA-job ./TS1_b E -1159.996820751721
  C      -2.078707     -1.495906     -0.718369
  C      -1.363523     -0.358801     -0.376451
  C      -2.952197     -2.068034      0.199814
  C      -1.550330      0.207613      0.885406
  C      -2.417628     -0.369705      1.815282
  C      -3.119707     -1.510462      1.465187
  H      -0.657158      0.086940     -1.065499
  C      -0.792388      1.369407      1.241131
  H      -1.946569     -1.941049     -1.697708
  H      -3.505515     -2.961015     -0.069828
  H      -2.525614      0.075778      2.797172
  H      -3.797331     -1.967807      2.176456
  N      -0.496856      2.521423      1.165365
  O       0.482608      3.208314      1.619541
  O       0.688237      0.831796      2.474954
  S       1.819652      1.799234      2.324534
  N       2.714065      1.584399      1.131178
  C       2.326316      0.880435     -0.039786
  C       2.015466      1.590680     -1.196525
  C       1.701305      0.905587     -2.364552
  C       1.692133     -0.484721     -2.385067
  C       1.989306     -1.189371     -1.223873
  C       2.303257     -0.511676     -0.052329
  H       2.032684      2.674318     -1.171143
  H       1.467912      1.464802     -3.264432
  H       1.454186     -1.015190     -3.300464
  H       1.977471     -2.274026     -1.227621
  H       2.538924     -1.052963      0.857629
28
Coordinates from ORCA-job ./TS1_b E -1159.996738401065
  C      -2.068294     -1.569499     -0.630790
  C      -1.331023     -0.445071     -0.293342
  C      -3.026558     -2.061563      0.249621
  C      -1.574245      0.186366      0.928376
  C      -2.524219     -0.314307      1.821990
  C      -3.253437     -1.439135      1.474321
  H      -0.571185     -0.052764     -0.957912
  C      -0.798624      1.339481      1.278599
  H      -1.893669     -2.064133     -1.579345
  H      -3.599937     -2.942373     -0.018388
  H      -2.679208      0.178623      2.774286
  H      -3.996914     -1.833885      2.156840
  N      -0.526238      2.498689      1.204239
  O       0.439670      3.225933      1.620806
  O       0.710936      0.746087      2.434607
  S       1.823681      1.741320      2.314843
  N       2.724868      1.563534      1.119148
  C       2.360251      0.880058     -0.066030
  C       2.002982      1.608819     -1.199977
  C       1.708292      0.945291     -2.384376
  C       1.768367     -0.443168     -2.447540
  C       2.113662     -1.168219     -1.311906
  C       2.404749     -0.512793     -0.122208
  H       1.967223      2.690706     -1.141522
  H       1.437391      1.518630     -3.264493
  H       1.548123     -0.956208     -3.377169
  H       2.156477     -2.251459     -1.350597
  H       2.676877     -1.068959      0.767922
28
Coordinates from ORCA-job ./TS1_b E -1159.996751270290
  C      -1.999981     -1.609447     -0.587682
  C      -1.249093     -0.499470     -0.233169
  C      -3.047853     -2.029028      0.226033
  C      -1.565174      0.185145      0.942199
  C      -2.605941     -0.240928      1.769644
  C      -3.351984     -1.348415      1.401493
  H      -0.428280     -0.156936     -0.852224
  C      -0.779745      1.322491      1.318284
  H      -1.768941     -2.147859     -1.499681
  H      -3.633198     -2.897135     -0.057202
  H      -2.819499      0.298486      2.685247
  H      -4.167936     -1.684053      2.030847
  N      -0.498970      2.482023      1.289798
  O       0.491276      3.142087      1.760936
  O       0.766535      0.719548      2.415359
  S       1.875848      1.723408      2.305139
  N       2.749452      1.586064      1.086553
  C       2.373793      0.884237     -0.088614
  C       1.888624      1.591716     -1.186791
  C       1.569803      0.917246     -2.359283
  C       1.739944     -0.460310     -2.448289
  C       2.217843     -1.163830     -1.348249
  C       2.528452     -0.497834     -0.168952
  H       1.767980      2.666355     -1.109894
  H       1.194514      1.474850     -3.210801
  H       1.502205     -0.981173     -3.369209
  H       2.349502     -2.239198     -1.405509
  H       2.900826     -1.038040      0.694018
28
Coordinates from ORCA-job ./TS1_b E -1159.996715577227
  C      -2.004302     -1.735513     -0.452277
  C      -1.227667     -0.636544     -0.122568
  C      -3.131153     -2.043959      0.304095
  C      -1.593548      0.149192      0.972763
  C      -2.716266     -0.163647      1.741727
  C      -3.489867     -1.259866      1.396088
  H      -0.347667     -0.380784     -0.699728
  C      -0.779292      1.274756      1.329110
  H      -1.731713     -2.352613     -1.300720
  H      -3.736808     -2.904091      0.039875
  H      -2.973364      0.454695      2.593532
  H      -4.369501     -1.505947      1.979272
  N      -0.504445      2.436966      1.287598
  O       0.470393      3.138668      1.731346
  O       0.765617      0.636257      2.393041
  S       1.874150      1.641320      2.311473
  N       2.762308      1.542002      1.096074
  C       2.410788      0.888596     -0.110691
  C       1.894829      1.624067     -1.176756
  C       1.599289      0.989286     -2.377064
  C       1.820339     -0.376358     -2.524851
  C       2.330912     -1.107728     -1.457781
  C       2.623996     -0.480869     -0.253192
  H       1.731386      2.688791     -1.053543
  H       1.197081      1.567093     -3.202331
  H       1.596478     -0.866885     -3.465633
  H       2.504269     -2.173436     -1.562027
  H       3.023760     -1.043451      0.583168
28
Coordinates from ORCA-job ./TS1_b E -1159.996732962714
  C      -1.938031     -1.761500     -0.412793
  C      -1.149888     -0.680147     -0.054755
  C      -3.133601     -2.004582      0.257780
  C      -1.572466      0.153379      0.983445
  C      -2.763811     -0.093601      1.667576
  C      -3.549004     -1.172344      1.292063
  H      -0.216472     -0.474156     -0.565921
  C      -0.749834      1.265025      1.362654
  H      -1.621974     -2.415997     -1.216898
  H      -3.747518     -2.851955     -0.027862
  H      -3.065795      0.563069      2.475212
  H      -4.481396     -1.367239      1.809141
  N      -0.472002      2.425100      1.368687
  O       0.519648      3.082249      1.840205
  O       0.833460      0.608351      2.367194
  S       1.927489      1.632473      2.301405
  N       2.793592      1.558708      1.072469
  C       2.420627      0.887916     -0.121954
  C       1.772484      1.586677     -1.139137
  C       1.440998      0.938473     -2.322742
  C       1.756104     -0.404229     -2.503234
  C       2.403626     -1.097776     -1.486868
  C       2.735166     -0.457537     -0.298907
  H       1.531577      2.633231     -0.989986
  H       0.933226      1.487789     -3.108367
  H       1.499993     -0.905545     -3.430043
  H       2.653336     -2.145540     -1.616501
  H       3.240467     -0.990292      0.498138
28
Coordinates from ORCA-job ./TS1_b E -1159.996720536054
  C      -1.891170     -1.859570     -0.277941
  C      -1.094171     -0.786327      0.083414
  C      -3.154703     -2.010513      0.285957
  C      -1.575954      0.133525      1.017042
  C      -2.836195     -0.021445      1.597192
  C      -3.628865     -1.093287      1.217798
  H      -0.108078     -0.653729     -0.344080
  C      -0.747197      1.241121      1.396480
  H      -1.527635     -2.579975     -1.001579
  H      -3.774886     -2.852475     -0.001900
  H      -3.183788      0.698881      2.328137
  H      -4.612783     -1.217606      1.654848
  N      -0.475772      2.403541      1.409627
  O       0.507434      3.081840      1.866867
  O       0.847209      0.563116      2.364457
  S       1.954529      1.571376      2.302085
  N       2.816148      1.518434      1.063559
  C       2.435721      0.885996     -0.147388
  C       1.750813      1.598333     -1.131031
  C       1.414268      0.976938     -2.327562
  C       1.757662     -0.352133     -2.552771
  C       2.444417     -1.058077     -1.570527
  C       2.783574     -0.443888     -0.371447
  H       1.488163      2.634375     -0.948764
  H       0.879602      1.536308     -3.087701
  H       1.494401     -0.833220     -3.488182
  H       2.717476     -2.094764     -1.735624
  H       3.319780     -0.986774      0.399035
28
Coordinates from ORCA-job ./TS1_b E -1159.996550586733
  C      -1.798068     -1.868725     -0.250632
  C      -0.992559     -0.818897      0.157694
  C      -3.113496     -1.954361      0.196501
  C      -1.517277      0.141837      1.024732
  C      -2.829808      0.051975      1.490412
  C      -3.629925     -0.996298      1.062407
  H       0.032091     -0.733691     -0.184057
  C      -0.683294      1.235023      1.436249
  H      -1.400906     -2.620392     -0.923095
  H      -3.740428     -2.776721     -0.130843
  H      -3.212278      0.803649      2.170933
  H      -4.653665     -1.069580      1.410910
  N      -0.420677      2.396042      1.499564
  O       0.565998      3.059117      1.968962
  O       0.928683      0.532332      2.353109
  S       2.015669      1.562199      2.302285
  N       2.830163      1.548441      1.035393
  C       2.415028      0.884868     -0.150550
  C       1.589074      1.535254     -1.065617
  C       1.201661      0.886763     -2.231946
  C       1.636426     -0.407376     -2.496595
  C       2.467475     -1.049560     -1.585429
  C       2.856832     -0.409347     -0.414959
  H       1.254344      2.544368     -0.852659
  H       0.554121      1.397691     -2.936500
  H       1.331648     -0.910567     -3.407490
  H       2.813287     -2.058938     -1.781390
  H       3.499881     -0.905102      0.302606
28
Coordinates from ORCA-job ./TS1_b E -1159.996331535092
  C      -1.793274     -1.999243     -0.073343
  C      -0.979207     -0.952892      0.327714
  C      -3.145327     -1.999194      0.256212
  C      -1.534100      0.092141      1.068262
  C      -2.884715      0.088092      1.421748
  C      -3.690044     -0.959277      1.002141
  H       0.073822     -0.936239      0.077942
  C      -0.700454      1.191550      1.466773
  H      -1.372299     -2.815505     -0.648965
  H      -3.777672     -2.819416     -0.065695
  H      -3.289765      0.902706      2.010252
  H      -4.741727     -0.967211      1.264214
  N      -0.448515      2.355366      1.529562
  O       0.540578      3.023425      1.983899
  O       0.935842      0.507910      2.347150
  S       2.033597      1.528115      2.287403
  N       2.857497      1.517743      1.024087
  C       2.444153      0.908662     -0.189549
  C       1.663654      1.608599     -1.107557
  C       1.271767      0.995511     -2.291100
  C       1.657036     -0.311473     -2.569314
  C       2.447208     -1.001719     -1.656545
  C       2.842953     -0.395466     -0.470629
  H       1.368880      2.628111     -0.887025
  H       0.657708      1.543463     -2.997576
  H       1.347033     -0.787457     -3.492847
  H       2.758023     -2.019832     -1.864986
  H       3.457348     -0.926471      0.247774
28
Coordinates from ORCA-job ./TS1_b E -1159.996185690377
  C      -1.723776     -2.011680     -0.037748
  C      -0.900762     -0.989549      0.405999
  C      -3.097807     -1.943386      0.171472
  C      -1.468735      0.099284      1.068712
  C      -2.844114      0.166812      1.298458
  C      -3.656725     -0.856909      0.835990
  H       0.170023     -1.021625      0.246894
  C      -0.624498      1.180451      1.496020
  H      -1.291656     -2.862146     -0.552421
  H      -3.737120     -2.744591     -0.182891
  H      -3.262234      1.016181      1.825518
  H      -4.726809     -0.810673      1.002365
  N      -0.388909      2.343692      1.605455
  O       0.587507      3.022927      2.069276
  O       1.010294      0.462029      2.343654
  S       2.086345      1.503351      2.295388
  N       2.855527      1.548647      0.999769
  C       2.407862      0.905437     -0.185520
  C       1.494698      1.537767     -1.026402
  C       1.062485      0.898980     -2.182047
  C       1.541834     -0.364064     -2.510769
  C       2.465652     -0.984394     -1.677238
  C       2.898763     -0.355354     -0.516420
  H       1.129284      2.525027     -0.766708
  H       0.344903      1.393478     -2.827978
  H       1.201563     -0.859346     -3.413340
  H       2.851090     -1.967140     -1.927113
  H       3.615317     -0.833206      0.141625
28
Coordinates from ORCA-job ./TS1_b E -1159.996448431187
  C      -1.771528     -1.962747     -0.131878
  C      -0.950073     -0.928650      0.285805
  C      -3.122439     -1.960246      0.202666
  C      -1.495618      0.106042      1.047311
  C      -2.845173      0.104740      1.404025
  C      -3.658426     -0.929879      0.967799
  H       0.103027     -0.912141      0.033173
  C      -0.653187      1.196566      1.452061
  H      -1.357366     -2.771286     -0.723212
  H      -3.761358     -2.770200     -0.132127
  H      -3.244342      0.911623      2.007074
  H      -4.709551     -0.936287      1.232306
  N      -0.405506      2.360562      1.523506
  O       0.570241      3.044645      1.983499
  O       0.964961      0.491919      2.350091
  S       2.042367      1.531293      2.300547
  N       2.842333      1.549071      1.023365
  C       2.416986      0.900787     -0.166627
  C       1.568448      1.558013     -1.055323
  C       1.163926      0.922827     -2.223031
  C       1.606006     -0.362585     -2.515771
  C       2.462644     -1.009887     -1.632429
  C       2.867723     -0.384320     -0.459623
  H       1.230807      2.561645     -0.821595
  H       0.497407      1.437569     -2.906784
  H       1.288220     -0.854795     -3.428203
  H       2.816987     -2.011243     -1.852708
  H       3.532484     -0.883038      0.236083
28
Coordinates from ORCA-job ./TS1_b E -1159.996655264751
  C      -1.778424     -1.910021     -0.206936
  C      -0.972887     -0.859503      0.200699
  C      -3.103586     -1.976721      0.213063
  C      -1.508114      0.120394      1.038899
  C      -2.832349      0.052290      1.475280
  C      -3.630703     -0.997592      1.048791
  H       0.059252     -0.787955     -0.119868
  C      -0.681235      1.220478      1.445964
  H      -1.372866     -2.676780     -0.856884
  H      -3.730251     -2.799900     -0.112457
  H      -3.222831      0.819632      2.133117
  H      -4.662560     -1.056354      1.375250
  N      -0.445457      2.386577      1.528441
  O       0.534355      3.060880      1.994383
  O       0.931995      0.537988      2.369871
  S       2.027916      1.559414      2.299409
  N       2.833116      1.543953      1.024155
  C       2.412368      0.896628     -0.167256
  C       1.637580      1.577923     -1.104047
  C       1.245589      0.938332     -2.273619
  C       1.626441     -0.376386     -2.519905
  C       2.407629     -1.049550     -1.586926
  C       2.800218     -0.418289     -0.413011
  H       1.347303      2.603699     -0.907158
  H       0.638374      1.472981     -2.996108
  H       1.319506     -0.871496     -3.434420
  H       2.712856     -2.074297     -1.769855
  H       3.406764     -0.936326      0.321125
28
Coordinates from ORCA-job ./TS1_b E -1159.996612087480
  C      -1.867179     -1.897188     -0.262348
  C      -1.050124     -0.840803      0.105002
  C      -3.151217     -2.002365      0.264103
  C      -1.530861      0.105889      1.010618
  C      -2.811323     -0.003517      1.555242
  C      -3.623830     -1.058303      1.169579
  H      -0.050037     -0.743827     -0.297722
  C      -0.689672      1.207743      1.384207
  H      -1.503886     -2.638311     -0.965012
  H      -3.787196     -2.829940     -0.031051
  H      -3.159254      0.738007      2.264661
  H      -4.622902     -1.146959      1.580380
  N      -0.430469      2.372913      1.413451
  O       0.547310      3.048069      1.890267
  O       0.885754      0.543501      2.380169
  S       1.964042      1.581565      2.308932
  N       2.796265      1.561398      1.055269
  C       2.412575      0.911579     -0.146349
  C       1.714490      1.613437     -1.127024
  C       1.363883      0.980039     -2.313353
  C       1.712322     -0.348419     -2.533310
  C       2.415451     -1.042939     -1.555133
  C       2.764274     -0.419090     -0.363342
  H       1.446397      2.648681     -0.946619
  H       0.814617      1.530278     -3.069696
  H       1.439677     -0.837997     -3.461557
  H       2.692344     -2.079400     -1.715649
  H       3.308550     -0.954043      0.406286
28
Coordinates from ORCA-job ./TS1_b E -1159.996813637536
  C      -1.898830     -1.794491     -0.380401
  C      -1.106141     -0.720796     -0.010904
  C      -3.120512     -2.008720      0.251109
  C      -1.547453      0.132794      1.002210
  C      -2.764079     -0.087305      1.650431
  C      -3.553592     -1.158663      1.263622
  H      -0.153038     -0.538170     -0.492085
  C      -0.728213      1.248486      1.376580
  H      -1.566695     -2.463603     -1.165851
  H      -3.739568     -2.848096     -0.046662
  H      -3.081402      0.583328      2.440219
  H      -4.503645     -1.333365      1.755125
  N      -0.480076      2.416623      1.390242
  O       0.487878      3.103872      1.868394
  O       0.853625      0.604774      2.387008
  S       1.948205      1.627675      2.304634
  N       2.791848      1.566249      1.055492
  C       2.410162      0.899785     -0.136143
  C       1.788572      1.608724     -1.163530
  C       1.446568      0.960627     -2.344234
  C       1.728395     -0.391105     -2.513017
  C       2.352953     -1.094295     -1.488407
  C       2.691266     -0.455253     -0.301950
  H       1.571261      2.661603     -1.021631
  H       0.957864      1.516980     -3.136915
  H       1.464120     -0.892417     -3.437532
  H       2.575705     -2.149069     -1.609243
  H       3.174822     -0.996171      0.503436
28
Coordinates from ORCA-job ./TS1_b E -1159.996793124155
  C      -1.992275     -1.733093     -0.459343
  C      -1.204321     -0.648354     -0.110675
  C      -3.136232     -2.026988      0.276808
  C      -1.574772      0.137726      0.982304
  C      -2.715727     -0.159500      1.729804
  C      -3.500201     -1.242510      1.366674
  H      -0.309938     -0.405125     -0.670469
  C      -0.754889      1.256536      1.346396
  H      -1.716030     -2.349676     -1.306951
  H      -3.751081     -2.876033     -0.001889
  H      -2.977671      0.460316      2.579164
  H      -4.392219     -1.478047      1.935368
  N      -0.492388      2.422053      1.342061
  O       0.498436      3.096003      1.797810
  O       0.804878      0.629447      2.394993
  S       1.889076      1.661348      2.302483
  N       2.753609      1.587374      1.072483
  C       2.402952      0.909308     -0.122874
  C       1.866136      1.622390     -1.193241
  C       1.563922      0.966656     -2.380620
  C       1.798419     -0.398242     -2.511983
  C       2.334792     -1.106355     -1.442104
  C       2.634601     -0.458694     -0.249762
  H       1.687595      2.686145     -1.081824
  H       1.144397      1.528037     -3.208603
  H       1.566305     -0.905172     -3.442047
  H       2.520098     -2.171404     -1.532564
  H       3.052530     -1.004146      0.588601
28
Coordinates from ORCA-job ./TS1_b E -1159.996878882948
  C      -2.050961     -1.660423     -0.543517
  C      -1.280981     -0.557853     -0.210588
  C      -3.109019     -2.043150      0.275696
  C      -1.584153      0.156992      0.950628
  C      -2.639055     -0.228749      1.780145
  C      -3.405664     -1.329228      1.432700
  H      -0.450610     -0.247307     -0.833748
  C      -0.779014      1.290690      1.298374
  H      -1.826880     -2.222975     -1.442493
  H      -3.708759     -2.907136      0.010622
  H      -2.849427      0.337187      2.679887
  H      -4.231833     -1.633156      2.064837
  N      -0.520266      2.455851      1.262997
  O       0.441218      3.162038      1.725183
  O       0.760961      0.692494      2.409502
  S       1.870772      1.697068      2.311378
  N       2.756778      1.574685      1.095653
  C       2.402590      0.893103     -0.094497
  C       1.930655      1.615418     -1.190259
  C       1.630364      0.957897     -2.376966
  C       1.804790     -0.418209     -2.483155
  C       2.274621     -1.136265     -1.388593
  C       2.570290     -0.487037     -0.196776
  H       1.802933      2.688152     -1.098187
  H       1.262603      1.525940     -3.224806
  H       1.577781     -0.926941     -3.413542
  H       2.411584     -2.209979     -1.460748
  H       2.938680     -1.039109      0.660271
28
Coordinates from ORCA-job ./TS1_b E -1159.996958898133
  C      -2.091212     -1.569927     -0.635167
  C      -1.339936     -0.455651     -0.296354
  C      -3.054335     -2.051473      0.245914
  C      -1.573004      0.174611      0.928396
  C      -2.533562     -0.309594      1.818337
  C      -3.276654     -1.425167      1.469059
  H      -0.575015     -0.072232     -0.961936
  C      -0.785218      1.319043      1.279075
  H      -1.922862     -2.066918     -1.583608
  H      -3.638028     -2.925677     -0.021679
  H      -2.686309      0.189868      2.767753
  H      -4.028668     -1.808124      2.148996
  N      -0.523585      2.482585      1.243482
  O       0.450387      3.181964      1.691964
  O       0.736103      0.741542      2.428037
  S       1.831207      1.754960      2.307324
  N       2.716916      1.607624      1.099818
  C       2.366363      0.897946     -0.077181
  C       1.984361      1.608282     -1.213811
  C       1.693080      0.928906     -2.390475
  C       1.784367     -0.457989     -2.443958
  C       2.158327     -1.163955     -1.306163
  C       2.447359     -0.492185     -0.124827
  H       1.923035      2.689540     -1.162970
  H       1.398268      1.488788     -3.271710
  H       1.565591     -0.984476     -3.366438
  H       2.228036     -2.246169     -1.335946
  H       2.744985     -1.036121      0.764066
28
Coordinates from ORCA-job ./TS1_b E -1159.996989344833
  C      -2.135336     -1.509230     -0.694856
  C      -1.405302     -0.378914     -0.361765
  C      -3.002751     -2.074081      0.234349
  C      -1.565378      0.184535      0.905835
  C      -2.429756     -0.383404      1.844231
  C      -3.149998     -1.515242      1.501095
  H      -0.711540      0.067133     -1.064348
  C      -0.798994      1.344587      1.250458
  H      -2.023127     -1.953755     -1.677021
  H      -3.569791     -2.960137     -0.029684
  H      -2.524514      0.063501      2.826730
  H      -3.826627     -1.963533      2.219131
  N      -0.545572      2.508993      1.190702
  O       0.411512      3.231882      1.633780
  O       0.695876      0.801327      2.456294
  S       1.813007      1.791460      2.316940
  N       2.702202      1.612612      1.111810
  C       2.346129      0.897572     -0.057836
  C       2.070839      1.604072     -1.228086
  C       1.778328      0.917488     -2.399954
  C       1.763944     -0.473336     -2.415808
  C       2.031637     -1.175355     -1.245620
  C       2.318239     -0.496294     -0.068356
  H       2.093452      2.687735     -1.205663
  H       1.568686      1.474001     -3.307255
  H       1.546239     -1.006199     -3.334840
  H       2.017584     -2.260056     -1.246762
  H       2.531012     -1.037362      0.846498
28
Coordinates from ORCA-job ./TS1_b E -1159.997016332986
  C      -2.146506     -1.403735     -0.777895
  C      -1.432652     -0.272262     -0.413878
  C      -2.932206     -2.060667      0.163106
  C      -1.529825      0.200666      0.896324
  C      -2.307221     -0.463303      1.847676
  C      -3.009783     -1.596702      1.474071
  H      -0.797963      0.243876     -1.124209
  C      -0.792466      1.372321      1.265650
  H      -2.084293     -1.777450     -1.793407
  H      -3.486358     -2.947296     -0.125307
  H      -2.348429     -0.088612      2.863637
  H      -3.619077     -2.119835      2.201771
  N      -0.544587      2.536952      1.194287
  O       0.403836      3.271256      1.637859
  O       0.696104      0.856159      2.486265
  S       1.798976      1.853590      2.312749
  N       2.667263      1.656852      1.098952
  C       2.306418      0.904008     -0.046363
  C       2.085559      1.570599     -1.250020
  C       1.775634      0.847973     -2.395446
  C       1.693253     -0.539651     -2.351681
  C       1.915068     -1.202048     -1.149569
  C       2.216117     -0.486500      0.002262
  H       2.163398      2.651559     -1.274915
  H       1.606826      1.373977     -3.329118
  H       1.460692     -1.100631     -3.250190
  H       1.851256     -2.284079     -1.104705
  H       2.390964     -0.997016      0.942092
28
Coordinates from ORCA-job ./TS1_b E -1159.996931431174
  C      -2.189619     -1.329163     -0.829793
  C      -1.501751     -0.184184     -0.459130
  C      -2.867695     -2.072448      0.129907
  C      -1.518634      0.216778      0.878036
  C      -2.189618     -0.531792      1.846990
  C      -2.864046     -1.679667      1.466173
  H      -0.946431      0.396586     -1.185383
  C      -0.804026      1.401680      1.250717
  H      -2.189209     -1.646031     -1.866301
  H      -3.401334     -2.969734     -0.164006
  H      -2.168283     -0.212373      2.882170
  H      -3.388852     -2.269638      2.208442
  N      -0.562187      2.566006      1.154172
  O       0.383852      3.312297      1.580026
  O       0.663361      0.923199      2.511895
  S       1.785051      1.898483      2.318580
  N       2.654744      1.662854      1.109722
  C       2.285958      0.897357     -0.023224
  C       2.147035      1.541510     -1.251717
  C       1.826417      0.808519     -2.387504
  C       1.651184     -0.568873     -2.309182
  C       1.793002     -1.209578     -1.083302
  C       2.104630     -0.483275      0.058601
  H       2.295011      2.614271     -1.301707
  H       1.720851      1.317791     -3.339538
  H       1.408637     -1.139101     -3.199184
  H       1.656589     -2.283372     -1.011538
  H       2.215361     -0.978103      1.016076
28
Coordinates from ORCA-job ./TS1_b E -1159.996694190802
  C      -2.221032     -1.237367     -0.882439
  C      -1.569408     -0.077392     -0.494461
  C      -2.777331     -2.074552      0.078160
  C      -1.502082      0.244977      0.862034
  C      -2.054585     -0.594530      1.830809
  C      -2.689760     -1.758523      1.431718
  H      -1.102512      0.574043     -1.223139
  C      -0.812800      1.440746      1.248674
  H      -2.283279     -1.493860     -1.933646
  H      -3.280372     -2.985087     -0.228847
  H      -1.966817     -0.334830      2.878959
  H      -3.119659     -2.420923      2.173970
  N      -0.575412      2.604662      1.142101
  O       0.361533      3.363636      1.565291
  O       0.632588      0.984403      2.536520
  S       1.757560      1.947876      2.317095
  N       2.620090      1.675727      1.113377
  C       2.247506      0.886206     -0.002599
  C       2.187607      1.492955     -1.255949
  C       1.858201      0.741437     -2.376899
  C       1.595361     -0.618862     -2.258732
  C       1.661577     -1.223250     -1.008363
  C       1.982732     -0.478052      0.118643
  H       2.403297      2.552216     -1.336664
  H       1.814446      1.222769     -3.348134
  H       1.343620     -1.204198     -3.136341
  H       1.456462     -2.283532     -0.905178
  H       2.032470     -0.946698      1.094039
28
Coordinates from ORCA-job ./TS1_b E -1159.996730515087
  C      -2.213712     -1.204290     -0.902403
  C      -1.567173     -0.044960     -0.504596
  C      -2.764988     -2.053627      0.050622
  C      -1.499519      0.264742      0.854896
  C      -2.044764     -0.587902      1.816201
  C      -2.675734     -1.750868      1.406942
  H      -1.102971      0.614159     -1.227873
  C      -0.812598      1.458756      1.252328
  H      -2.274524     -1.451772     -1.955812
  H      -3.263823     -2.963637     -0.264581
  H      -1.957444     -0.338127      2.866684
  H      -3.100205     -2.422865      2.143663
  N      -0.563772      2.619622      1.130559
  O       0.377024      3.373441      1.554522
  O       0.619031      1.000587      2.549851
  S       1.759311      1.947948      2.325129
  N       2.617684      1.664619      1.119532
  C       2.242666      0.870886      0.008075
  C       2.127727      1.478871     -1.241132
  C       1.791364      0.719689     -2.354800
  C       1.578308     -0.649250     -2.234285
  C       1.703378     -1.255195     -0.989076
  C       2.031714     -0.502779      0.130757
  H       2.305043      2.544966     -1.324686
  H       1.702820      1.201681     -3.322571
  H       1.320373     -1.240234     -3.106220
  H       1.538469     -2.322263     -0.884354
  H       2.126313     -0.972196      1.102628
28
Coordinates from ORCA-job ./TS1_b E -1159.996523250047
  C      -2.199550     -1.135290     -0.955670
  C      -1.581087      0.033844     -0.542305
  C      -2.687418     -2.034208     -0.013637
  C      -1.477725      0.303597      0.823551
  C      -1.962659     -0.596428      1.773762
  C      -2.564929     -1.768774      1.347852
  H      -1.162876      0.729995     -1.258978
  C      -0.807930      1.503599      1.233802
  H      -2.284727     -1.352533     -2.014171
  H      -3.161750     -2.952877     -0.341525
  H      -1.848475     -0.376353      2.828324
  H      -2.939786     -2.478198      2.076555
  N      -0.535356      2.655296      1.088920
  O       0.411695      3.403338      1.505995
  O       0.605355      1.059024      2.563097
  S       1.757563      1.982295      2.327290
  N       2.621665      1.638477      1.145155
  C       2.217096      0.833563      0.049510
  C       2.049398      1.437493     -1.195617
  C       1.691536      0.670433     -2.297394
  C       1.501490     -0.700495     -2.167339
  C       1.667166     -1.300032     -0.924095
  C       2.021790     -0.540115      0.183587
  H       2.204822      2.506648     -1.285601
  H       1.564302      1.148866     -3.262865
  H       1.226705     -1.297987     -3.029759
  H       1.517563     -2.368667     -0.811497
  H       2.156126     -1.004509      1.153054
28
Coordinates from ORCA-job ./TS1_b E -1159.996793530892
  C      -2.188363     -1.220600     -0.898396
  C      -1.540713     -0.061474     -0.501569
  C      -2.766945     -2.053241      0.053216
  C      -1.498722      0.264699      0.855178
  C      -2.072261     -0.570774      1.815179
  C      -2.704820     -1.733334      1.407115
  H      -1.056438      0.585054     -1.223186
  C      -0.808545      1.456876      1.252420
  H      -2.229015     -1.480943     -1.949740
  H      -3.266423     -2.963266     -0.261054
  H      -2.005115     -0.308213      2.864116
  H      -3.151066     -2.392015      2.143063
  N      -0.555144      2.616458      1.133693
  O       0.387902      3.366803      1.558012
  O       0.632415      0.992822      2.542309
  S       1.767581      1.944007      2.321949
  N       2.628503      1.657793      1.120422
  C       2.245798      0.867195      0.008320
  C       2.103562      1.484084     -1.233602
  C       1.764238      0.729216     -2.349435
  C       1.572442     -0.643427     -2.237760
  C       1.719465     -1.257177     -0.998896
  C       2.052343     -0.509203      0.123028
  H       2.263397      2.553567     -1.309943
  H       1.655651      1.217961     -3.311870
  H       1.312700     -1.231110     -3.111442
  H       1.570212     -2.327239     -0.900895
  H       2.167362     -0.984518      1.089768
28
Coordinates from ORCA-job ./TS1_b E -1159.996791172440
  C      -2.203331     -1.218743     -0.899657
  C      -1.552867     -0.060044     -0.506329
  C      -2.773231     -2.053390      0.055328
  C      -1.499873      0.264017      0.850455
  C      -2.065006     -0.573283      1.813785
  C      -2.699725     -1.735801      1.409168
  H      -1.075197      0.587927     -1.230923
  C      -0.807256      1.456352      1.243528
  H      -2.252800     -1.477175     -1.951066
  H      -3.274569     -2.963307     -0.256223
  H      -1.989170     -0.312521      2.862522
  H      -3.139246     -2.395994      2.147764
  N      -0.555001      2.616316      1.123803
  O       0.389133      3.366150      1.546732
  O       0.624857      0.994559      2.541314
  S       1.765211      1.942268      2.324956
  N       2.630646      1.656102      1.125693
  C       2.250183      0.866387      0.012090
  C       2.107404      1.484794     -1.229053
  C       1.769544      0.730926     -2.345896
  C       1.578657     -0.642005     -2.235758
  C       1.724674     -1.256957     -0.997444
  C       2.056144     -0.509950      0.125535
  H       2.265269      2.554665     -1.303817
  H       1.660948      1.220599     -3.307842
  H       1.319980     -1.228925     -3.110251
  H       1.574986     -2.327038     -0.900583
  H       2.169635     -0.985930      1.092170
28
Coordinates from ORCA-job ./TS1_b E -1159.996487242704
  C      -2.294850     -1.101063     -0.976129
  C      -1.645442      0.055222     -0.573475
  C      -2.732964     -2.018111     -0.027048
  C      -1.463084      0.295045      0.789703
  C      -1.896172     -0.624129      1.746608
  C      -2.528631     -1.784103      1.330502
  H      -1.267650      0.766970     -1.297213
  C      -0.775157      1.487790      1.190536
  H      -2.445414     -1.293168     -2.032213
  H      -3.231891     -2.926587     -0.346759
  H      -1.718187     -0.428460      2.796986
  H      -2.865083     -2.507714      2.064028
  N      -0.534192      2.650817      1.084126
  O       0.385320      3.411897      1.541573
  O       0.599394      1.050624      2.552320
  S       1.740863      1.990880      2.333167
  N       2.613440      1.671344      1.151425
  C       2.231032      0.848255      0.059751
  C       2.053385      1.434008     -1.192163
  C       1.702672      0.647542     -2.282495
  C       1.528850     -0.723906     -2.133994
  C       1.707927     -1.305899     -0.884267
  C       2.055555     -0.526684      0.211922
  H       2.190699      2.504322     -1.296091
  H       1.567907      1.111316     -3.254046
  H       1.257699     -1.335452     -2.987721
  H       1.570733     -2.374627     -0.757188
  H       2.193240     -0.976131      1.188155
28
Coordinates from ORCA-job ./TS1_b E -1159.996407077942
  C      -2.293978     -1.056031     -1.009105
  C      -1.662260      0.105315     -0.594321
  C      -2.688655     -2.005358     -0.073400
  C      -1.449739      0.315506      0.768908
  C      -1.843552     -0.633008      1.713062
  C      -2.459774     -1.796696      1.283837
  H      -1.319720      0.842318     -1.309672
  C      -0.781103      1.516475      1.181565
  H      -2.463656     -1.227091     -2.065757
  H      -3.173923     -2.917411     -0.403275
  H      -1.646482     -0.458102      2.763214
  H      -2.763241     -2.543954      2.007850
  N      -0.513741      2.669045      1.030884
  O       0.420323      3.427568      1.459120
  O       0.579238      1.087090      2.563105
  S       1.750628      1.999973      2.345623
  N       2.631445      1.653218      1.170576
  C       2.224576      0.827803      0.090448
  C       2.002941      1.410776     -1.156126
  C       1.623980      0.619715     -2.233450
  C       1.471797     -0.753257     -2.078173
  C       1.699246     -1.332406     -0.834935
  C       2.071904     -0.548582      0.249333
  H       2.127696      2.482141     -1.265655
  H       1.449534      1.080740     -3.199913
  H       1.177040     -1.368514     -2.921105
  H       1.581910     -2.402818     -0.704110
  H       2.247565     -0.994455      1.221470
28
Coordinates from ORCA-job ./TS1_b E -1159.996642899368
  C      -2.238756     -1.146499     -0.955299
  C      -1.592429      0.011173     -0.552713
  C      -2.738763     -2.029470     -0.004874
  C      -1.473160      0.285658      0.810492
  C      -1.969439     -0.598554      1.769213
  C      -2.599917     -1.759654      1.354007
  H      -1.166863      0.695546     -1.275995
  C      -0.787697      1.480095      1.211747
  H      -2.338140     -1.366995     -2.011762
  H      -3.236095     -2.938851     -0.324138
  H      -1.841895     -0.375940      2.821403
  H      -2.984739     -2.456769      2.089224
  N      -0.532441      2.638185      1.082696
  O       0.404534      3.393264      1.511586
  O       0.608588      1.031105      2.553051
  S       1.762832      1.965388      2.338037
  N       2.632880      1.658182      1.145063
  C       2.238411      0.851201      0.048031
  C       2.048328      1.453835     -1.194532
  C       1.689962      0.681694     -2.292396
  C       1.526374     -0.692715     -2.161656
  C       1.721101     -1.291641     -0.922170
  C       2.072918     -0.526672      0.182277
  H       2.184221      2.525539     -1.285373
  H       1.542677      1.158397     -3.255721
  H       1.249812     -1.293583     -3.021011
  H       1.594050     -2.363082     -0.809984
  H       2.223645     -0.988835      1.150796
28
Coordinates from ORCA-job ./TS1_b E -1159.996769138080
  C      -2.217046     -1.198230     -0.909768
  C      -1.565065     -0.041918     -0.512024
  C      -2.774981     -2.043673      0.042927
  C      -1.498045      0.268844      0.847289
  C      -2.051219     -0.579155      1.808330
  C      -2.687879     -1.739034      1.399012
  H      -1.097041      0.614740     -1.234975
  C      -0.808290      1.461498      1.243907
  H      -2.277327     -1.446397     -1.963102
  H      -3.277800     -2.951559     -0.272195
  H      -1.964399     -0.328512      2.858717
  H      -3.118408     -2.407258      2.135727
  N      -0.556562      2.621630      1.124887
  O       0.387015      3.371213      1.550472
  O       0.624119      1.001215      2.539879
  S       1.761667      1.950419      2.322061
  N       2.628541      1.659210      1.125788
  C       2.248477      0.863459      0.015865
  C       2.087301      1.477595     -1.224998
  C       1.754163      0.716330     -2.338348
  C       1.583431     -0.658863     -2.224179
  C       1.744950     -1.269031     -0.985401
  C       2.073872     -0.515020      0.133745
  H       2.227423      2.549776     -1.302292
  H       1.632433      1.202251     -3.300666
  H       1.328275     -1.251490     -3.095871
  H       1.611061     -2.340959     -0.885461
  H       2.201333     -0.987078      1.100674
28
Coordinates from ORCA-job ./TS1_b E -1159.996907463891
  C      -2.144241     -1.305449     -0.847062
  C      -1.479669     -0.151417     -0.463613
  C      -2.811770     -2.069778      0.103533
  C      -1.512078      0.239540      0.875905
  C      -2.172768     -0.529295      1.835822
  C      -2.821547     -1.687946      1.442820
  H      -0.923963      0.440030     -1.181066
  C      -0.803439      1.424360      1.261020
  H      -2.128498     -1.615655     -1.885436
  H      -3.324563     -2.976230     -0.199457
  H      -2.160599     -0.218727      2.873849
  H      -3.336279     -2.295168      2.178200
  N      -0.555666      2.586891      1.160109
  O       0.392038      3.331900      1.583405
  O       0.654795      0.941068      2.530160
  S       1.783945      1.905800      2.323008
  N       2.639254      1.658153      1.107431
  C       2.260837      0.885502     -0.017689
  C       2.117048      1.522933     -1.249224
  C       1.786610      0.785363     -2.379095
  C       1.604835     -0.590521     -2.291770
  C       1.752671     -1.224632     -1.063277
  C       2.076085     -0.493920      0.072588
  H       2.272027      2.594259     -1.307324
  H       1.679130      1.289811     -3.333450
  H       1.353359     -1.164917     -3.176633
  H       1.610875     -2.297228     -0.984313
  H       2.191573     -0.984725      1.031558
28
Coordinates from ORCA-job ./TS1_b E -1159.996844302219
  C      -2.195561     -1.241237     -0.888219
  C      -1.537715     -0.085126     -0.499327
  C      -2.792489     -2.055373      0.067963
  C      -1.503721      0.256627      0.853764
  C      -2.095958     -0.560301      1.818410
  C      -2.738825     -1.719922      1.418462
  H      -1.040957      0.547880     -1.224355
  C      -0.805093      1.446449      1.243253
  H      -2.230816     -1.513233     -1.936789
  H      -3.300131     -2.963033     -0.239958
  H      -2.035125     -0.286001      2.864694
  H      -3.199947     -2.364103      2.158027
  N      -0.553621      2.607084      1.129755
  O       0.389968      3.355405      1.557189
  O       0.633438      0.979373      2.533581
  S       1.768550      1.934042      2.323163
  N       2.636455      1.656835      1.123777
  C       2.258391      0.871009      0.006452
  C       2.102113      1.495985     -1.229709
  C       1.766610      0.745690     -2.349699
  C       1.591902     -0.630045     -2.247764
  C       1.751638     -1.251517     -1.014388
  C       2.080608     -0.508104      0.111774
  H       2.247525      2.568058     -1.298170
  H       1.647302      1.240452     -3.307771
  H       1.335268     -1.214028     -3.124823
  H       1.615174     -2.323936     -0.923994
  H       2.205018     -0.988929      1.074700
28
Coordinates from ORCA-job ./TS1_b E -1159.996659298855
  C      -2.249903     -1.140712     -0.948369
  C      -1.608213      0.018680     -0.543218
  C      -2.734630     -2.034224      0.000402
  C      -1.480325      0.284936      0.820865
  C      -1.960155     -0.610621      1.777774
  C      -2.584271     -1.774466      1.360134
  H      -1.191235      0.709950     -1.265177
  C      -0.799745      1.480826      1.225079
  H      -2.356194     -1.354687     -2.005559
  H      -3.227949     -2.945094     -0.321110
  H      -1.824655     -0.394001      2.830505
  H      -2.956272     -2.480467      2.093510
  N      -0.549941      2.640596      1.100979
  O       0.388407      3.396229      1.525744
  O       0.609539      1.031104      2.551006
  S       1.755961      1.971268      2.330988
  N       2.621230      1.667554      1.135877
  C       2.232258      0.856834      0.039476
  C       2.078368      1.451731     -1.211726
  C       1.732337      0.676308     -2.311193
  C       1.540355     -0.693681     -2.172434
  C       1.695357     -1.284723     -0.923663
  C       2.038512     -0.516762      0.181536
  H       2.235340      2.520067     -1.308134
  H       1.617060      1.146936     -3.281892
  H       1.273414     -1.297400     -3.032957
  H       1.544851     -2.352522     -0.804950
  H       2.160499     -0.973659      1.156508
28
Coordinates from ORCA-job ./TS1_b E -1159.996782741380
  C      -2.211022     -1.206733     -0.910729
  C      -1.559882     -0.048686     -0.516531
  C      -2.770153     -2.048423      0.044446
  C      -1.495002      0.267391      0.841625
  C      -2.049609     -0.576696      1.805094
  C      -2.685300     -1.738308      1.399346
  H      -1.091122      0.605194     -1.241607
  C      -0.803037      1.459715      1.235841
  H      -2.269760     -1.458981     -1.963171
  H      -3.272123     -2.957729     -0.267869
  H      -1.964621     -0.321909      2.854562
  H      -3.116690     -2.403757      2.138040
  N      -0.550593      2.619584      1.117698
  O       0.390233      3.370771      1.545783
  O       0.623816      0.999585      2.540953
  S       1.763593      1.947411      2.326031
  N       2.631639      1.657785      1.129618
  C       2.249308      0.864399      0.018743
  C       2.092152      1.480191     -1.221835
  C       1.751424      0.722088     -2.335011
  C       1.571794     -0.652044     -2.221593
  C       1.732103     -1.264290     -0.983685
  C       2.066857     -0.513147      0.135599
  H       2.240672      2.551240     -1.299068
  H       1.631423      1.209557     -3.296739
  H       1.310550     -1.242071     -3.093229
  H       1.591547     -2.335393     -0.884388
  H       2.191805     -0.986744      1.102076
28
Coordinates from ORCA-job ./TS1_b E -1159.996816914736
  C      -2.207974     -1.224838     -0.896812
  C      -1.552265     -0.068345     -0.505554
  C      -2.785325     -2.053000      0.059388
  C      -1.501421      0.260074      0.850241
  C      -2.073910     -0.570829      1.814849
  C      -2.714004     -1.731176      1.412374
  H      -1.069127      0.574648     -1.230993
  C      -0.805888      1.451046      1.242103
  H      -2.255904     -1.486603     -1.947488
  H      -3.290980     -2.961105     -0.250526
  H      -1.999554     -0.306820      2.862919
  H      -3.159410     -2.386354      2.151927
  N      -0.556409      2.612076      1.127719
  O       0.386805      3.361482      1.553895
  O       0.629725      0.986274      2.534819
  S       1.765705      1.940241      2.323618
  N       2.632531      1.660845      1.124089
  C       2.254267      0.870386      0.010090
  C       2.104501      1.489617     -1.229830
  C       1.769924      0.734949     -2.347108
  C       1.588297     -0.639349     -2.238399
  C       1.740607     -1.254974     -1.001188
  C       2.069611     -0.507343      0.122158
  H       2.254839      2.560692     -1.303275
  H       1.656481      1.225105     -3.308271
  H       1.331964     -1.226862     -3.113210
  H       1.598438     -2.326214     -0.905576
  H       2.188475     -0.983624      1.088040
28
Coordinates from ORCA-job ./TS1_b E -1159.996782430065
  C      -2.214768     -1.205381     -0.910206
  C      -1.563145     -0.047668     -0.515842
  C      -2.771937     -2.048386      0.044977
  C      -1.495998      0.266927      0.842530
  C      -2.048504     -0.578553      1.806020
  C      -2.684547     -1.739941      1.400107
  H      -1.095440      0.606879     -1.241006
  C      -0.804050      1.459246      1.236889
  H      -2.275100     -1.456501     -1.962831
  H      -3.274215     -2.957472     -0.267504
  H      -1.961660     -0.324984      2.855651
  H      -3.114241     -2.406462      2.138828
  N      -0.552658      2.619411      1.118821
  O       0.388773      3.370397      1.545911
  O       0.623876      0.998995      2.539987
  S       1.763156      1.947924      2.325624
  N       2.630730      1.659556      1.128680
  C       2.249464      0.865352      0.018102
  C       2.094974      1.480227     -1.223325
  C       1.755933      0.721503     -2.336560
  C       1.574817     -0.652368     -2.222279
  C       1.732222     -1.263676     -0.983551
  C       2.065623     -0.511972      0.135764
  H       2.244566      2.551089     -1.301157
  H       1.638366      1.208234     -3.298967
  H       1.314790     -1.242956     -3.093912
  H       1.590549     -2.334580     -0.883613
  H       2.188426     -0.984838      1.102859
28
Coordinates from ORCA-job ./TS1_b E -1159.996784923952
  C      -2.212357     -1.206892     -0.909426
  C      -1.560713     -0.049231     -0.514946
  C      -2.771932     -2.048546      0.045542
  C      -1.495985      0.266654      0.843245
  C      -2.050852     -0.577516      1.806527
  C      -2.686929     -1.738858      1.400544
  H      -1.091168      0.604305     -1.239832
  C      -0.803890      1.458840      1.237674
  H      -2.270906     -1.459001     -1.961913
  H      -3.274248     -2.957588     -0.267003
  H      -1.965820     -0.322973      2.856073
  H      -3.118496     -2.404370      2.139077
  N      -0.552541      2.619067      1.120156
  O       0.388772      3.370117      1.547453
  O       0.624531      0.998231      2.540345
  S       1.763529      1.947224      2.325430
  N       2.630793      1.659461      1.128053
  C       2.249381      0.865578      0.017291
  C       2.094530      1.480735     -1.223920
  C       1.755374      0.722207     -2.337270
  C       1.574610     -0.651737     -2.223324
  C       1.732416     -1.263328     -0.984777
  C       2.065862     -0.511798      0.134635
  H       2.243937      2.551635     -1.301546
  H       1.637521      1.209166     -3.299523
  H       1.314582     -1.242157     -3.095064
  H       1.591018     -2.334286     -0.885065
  H       2.188981     -0.984939      1.101564
