!DLPNO-CCSD(T) Extrapolate(3/4,cc) cc-pVQZ/C TightPNO TightSCF 
!CPCM(Benzene)
%geom maxiter 300 end
%maxcore 4000 
%pal nprocs 36
end

*xyz 0 1
6        0.606803000     -0.017604000     -0.474722000
6        1.322213000      1.080881000     -0.001295000
6        1.050397000     -1.302634000     -0.217731000
6        2.511562000      0.907513000      0.739699000
6        2.953463000     -0.403465000      0.958875000
6        2.232135000     -1.491617000      0.497401000
7        0.788433000      2.399092000     -0.326818000
6        3.288060000      3.100362000      1.431370000
1       -0.300468000      0.159699000     -1.039863000
1        0.481008000     -2.152202000     -0.579456000
1        3.883406000     -0.538870000      1.500811000
1        2.598716000     -2.494561000      0.693108000
7        3.353419000      1.904242000      1.202099000
8        3.589950000      1.786494000     -2.076474000
8        3.465095000      4.209637000      1.739168000
16       4.900594000      1.883146000     -1.408340000
8        5.572411000      0.613292000     -1.084412000
8       -0.015656000      2.487191000     -1.242792000
8        1.162143000      3.362308000      0.348522000

*
