17
Coordinates from ORCA-job orca E -948.644932593611
  C       0.053471      0.075389     -0.108728
  C       1.052831      1.036600     -0.247192
  C       0.346957     -1.171179      0.461536
  C       2.361738      0.752768      0.186618
  C       2.656765     -0.497089      0.755988
  C       1.647946     -1.453388      0.892116
  H       0.837164      2.002447     -0.688820
  C       3.407823      1.761713      0.044035
  H      -0.953535      0.296333     -0.445710
  H      -0.434422     -1.916402      0.567900
  H       3.666884     -0.707868      1.084480
  H       1.878398     -2.417198      1.333073
  N       3.217077      2.933592     -0.479589
  O       4.370590      3.743610     -0.492799
  O       4.677438      1.419534      0.517898
  S       5.930804      2.712320      0.014739
  O       6.656471      2.225820     -1.324845
17
Coordinates from ORCA-job orca E -948.686389726943
  C       0.075198      0.084298     -0.109251
  C       1.071455      1.039571     -0.248492
  C       0.366123     -1.156214      0.459244
  C       2.373160      0.755022      0.182571
  C       2.665790     -0.487961      0.750278
  C       1.660155     -1.438896      0.887346
  H       0.856214      2.004806     -0.690592
  C       3.423174      1.765712      0.037182
  H      -0.931296      0.306222     -0.445573
  H      -0.415811     -1.899870      0.566598
  H       3.675091     -0.701542      1.078785
  H       1.889332     -2.402248      1.328749
  N       3.237133      2.918681     -0.480014
  O       4.383874      3.692728     -0.483641
  O       4.671233      1.430181      0.501957
  S       5.850186      2.677438      0.001871
  O       6.523385      2.209073     -1.266318
17
Coordinates from ORCA-job orca E -948.706183168282
  C       0.085310      0.087531     -0.108266
  C       1.079775      1.040671     -0.250433
  C       0.376859     -1.149587      0.459754
  C       2.378877      0.757243      0.176753
  C       2.672008     -0.481463      0.743890
  C       1.668494     -1.431191      0.884336
  H       0.862625      2.005175     -0.693121
  C       3.433021      1.772227      0.026437
  H      -0.922039      0.309087     -0.442528
  H      -0.404859     -1.893193      0.569676
  H       3.681487     -0.697194      1.071189
  H       1.898786     -2.394076      1.326354
  N       3.257905      2.917195     -0.486292
  O       4.425653      3.648703     -0.472075
  O       4.676893      1.454973      0.480383
  S       5.791127      2.651013     -0.010992
  O       6.412478      2.199887     -1.204366
17
Coordinates from ORCA-job orca E -948.710767812731
  C       0.094991      0.084553     -0.122572
  C       1.085698      1.042348     -0.254825
  C       0.387420     -1.150487      0.448402
  C       2.380689      0.764735      0.184883
  C       2.674847     -0.470392      0.756144
  C       1.675363     -1.425327      0.886552
  H       0.867305      2.005923     -0.699115
  C       3.432833      1.784260      0.041821
  H      -0.910130      0.300902     -0.466575
  H      -0.391357     -1.898264      0.550131
  H       3.681805     -0.682532      1.094071
  H       1.906330     -2.386904      1.330860
  N       3.273180      2.930675     -0.473393
  O       4.470513      3.627631     -0.409971
  O       4.677916      1.491952      0.506188
  S       5.757790      2.627085     -0.040470
  O       6.309205      2.150843     -1.261432
17
Coordinates from ORCA-job orca E -948.711645222982
  C       0.098783      0.082662     -0.129736
  C       1.085654      1.045452     -0.256448
  C       0.395336     -1.152219      0.440669
  C       2.379471      0.771508      0.189604
  C       2.678436     -0.462578      0.760554
  C       1.682881     -1.422544      0.884485
  H       0.864050      2.009282     -0.698940
  C       3.426398      1.793336      0.053890
  H      -0.906052      0.294843     -0.476882
  H      -0.380230     -1.903950      0.537330
  H       3.684991     -0.671441      1.101913
  H       1.916555     -2.383985      1.327400
  N       3.276879      2.940359     -0.476898
  O       4.495254      3.626345     -0.377709
  O       4.670216      1.518950      0.544786
  S       5.751932      2.616725     -0.055967
  O       6.253847      2.094255     -1.297351
17
Coordinates from ORCA-job orca E -948.711788919104
  C       0.094075      0.084074     -0.121493
  C       1.079635      1.048166     -0.251556
  C       0.395370     -1.152430      0.443639
  C       2.376521      0.772592      0.185850
  C       2.680611     -0.463231      0.751135
  C       1.686069     -1.424020      0.878532
  H       0.854301      2.013385     -0.689142
  C       3.421412      1.793629      0.047687
  H      -0.913280      0.296546     -0.461063
  H      -0.379296     -1.904759      0.543296
  H       3.689455     -0.672790      1.084872
  H       1.922904     -2.386743      1.316918
  N       3.273591      2.934340     -0.503363
  O       4.497334      3.626949     -0.402105
  O       4.662884      1.521535      0.550510
  S       5.749444      2.626427     -0.041597
  O       6.283371      2.083330     -1.261420
17
Coordinates from ORCA-job orca E -948.711853380981
  C       0.092984      0.085890     -0.116602
  C       1.077039      1.051766     -0.246627
  C       0.397931     -1.152177      0.443380
  C       2.376159      0.774978      0.184407
  C       2.684039     -0.462565      0.744883
  C       1.690453     -1.424476      0.872954
  H       0.848805      2.018262     -0.679738
  C       3.419696      1.795530      0.043235
  H      -0.915956      0.298173     -0.451528
  H      -0.375817     -1.905425      0.543660
  H       3.694258     -0.672441      1.073705
  H       1.929408     -2.388429      1.307461
  N       3.273419      2.925994     -0.530795
  O       4.498251      3.627434     -0.411896
  O       4.652888      1.533489      0.570350
  S       5.748783      2.630360     -0.035274
  O       6.282060      2.060638     -1.240875
17
Coordinates from ORCA-job orca E -948.711878277530
  C       0.091101      0.087573     -0.110794
  C       1.075184      1.053225     -0.242334
  C       0.397673     -1.151914      0.444848
  C       2.376045      0.774614      0.182182
  C       2.685465     -0.464570      0.738390
  C       1.691670     -1.426030      0.868566
  H       0.845370      2.021216     -0.671173
  C       3.419921      1.795218      0.037925
  H      -0.919220      0.301235     -0.440645
  H      -0.376206     -1.904827      0.546760
  H       3.696857     -0.675745      1.062639
  H       1.931559     -2.391056      1.300184
  N       3.274645      2.916927     -0.552462
  O       4.497480      3.624610     -0.428412
  O       4.646694      1.541314      0.578972
  S       5.744445      2.638821     -0.026572
  O       6.295715      2.056390     -1.217377
17
Coordinates from ORCA-job orca E -948.711895018891
  C       0.088435      0.089895     -0.102219
  C       1.072472      1.055270     -0.235935
  C       0.397488     -1.151832      0.446595
  C       2.375665      0.774516      0.179334
  C       2.687290     -0.466935      0.729001
  C       1.693751     -1.428270      0.861435
  H       0.840360      2.025582     -0.658218
  C       3.420305      1.795666      0.031336
  H      -0.923899      0.305651     -0.424448
  H      -0.376326     -1.904534      0.550561
  H       3.700588     -0.679790      1.046357
  H       1.935445     -2.395058      1.288094
  N       3.277632      2.903587     -0.584253
  O       4.495319      3.620099     -0.453885
  O       4.636738      1.556412      0.595146
  S       5.739792      2.650009     -0.014155
  O       6.313346      2.046732     -1.184046
17
Coordinates from ORCA-job orca E -948.711896015095
  C       0.083895      0.092974     -0.088955
  C       1.067084      1.058737     -0.226585
  C       0.397773     -1.152025      0.449429
  C       2.373918      0.775471      0.174467
  C       2.690071     -0.468997      0.714207
  C       1.697902     -1.431088      0.850093
  H       0.830942      2.032163     -0.639415
  C       3.419059      1.796986      0.021353
  H      -0.931683      0.311225     -0.399071
  H      -0.375299     -1.905002      0.556896
  H       3.706541     -0.683661      1.020391
  H       1.943433     -2.400499      1.268559
  N       3.283875      2.884565     -0.631249
  O       4.494706      3.611990     -0.492516
  O       4.620677      1.580861      0.619606
  S       5.733068      2.664487      0.004865
  O       6.338438      2.028813     -1.131373
17
Coordinates from ORCA-job orca E -948.711842153425
  C       0.074262      0.098909     -0.060778
  C       1.054822      1.066339     -0.207612
  C       0.398979     -1.152463      0.455838
  C       2.369146      0.778591      0.163284
  C       2.695749     -0.471779      0.682270
  C       1.707210     -1.436088      0.826032
  H       0.809909      2.045617     -0.601176
  C       3.414540      1.799933     -0.000272
  H      -0.948008      0.321402     -0.344838
  H      -0.371918     -1.906481      0.571364
  H       3.718692     -0.689213      0.964614
  H       1.961418     -2.410598      1.227145
  N       3.301564      2.842838     -0.726636
  O       4.498223      3.591582     -0.571816
  O       4.584425      1.633241      0.666632
  S       5.718059      2.692468      0.043468
  O       6.387329      1.992703     -1.016820
17
Coordinates from ORCA-job orca E -948.711897051579
  C       0.080278      0.094705     -0.079398
  C       1.061877      1.061943     -0.219453
  C       0.398685     -1.152555      0.451087
  C       2.371401      0.777612      0.171294
  C       2.692083     -0.468863      0.703564
  C       1.701853     -1.432462      0.841619
  H       0.822320      2.037245     -0.625961
  C       3.416127      1.798831      0.014693
  H      -0.937684      0.313820     -0.381001
  H      -0.373104     -1.906531      0.560695
  H       3.710933     -0.683752      1.001841
  H       1.951094     -2.403645      1.253734
  N       3.290335      2.871711     -0.664167
  O       4.496014      3.605059     -0.520277
  O       4.608553      1.599623      0.637509
  S       5.728813      2.671446      0.018424
  O       6.354822      2.012811     -1.093503
17
Coordinates from ORCA-job orca E -948.711897807870
  C       0.079090      0.095137     -0.076441
  C       1.059983      1.063070     -0.217386
  C       0.399177     -1.152732      0.451585
  C       2.370399      0.778560      0.170161
  C       2.692821     -0.468496      0.700222
  C       1.703344     -1.432721      0.838972
  H       0.819174      2.038895     -0.621911
  C       3.414640      1.799474      0.012202
  H      -0.939668      0.314302     -0.375324
  H      -0.372074     -1.907158      0.561881
  H       3.712412     -0.683229      0.996018
  H       1.953894     -2.404389      1.249137
  N       3.292545      2.868242     -0.673882
  O       4.496945      3.602867     -0.528597
  O       4.604677      1.605272      0.642822
  S       5.727478      2.672683      0.022833
  O       6.359563      2.007223     -1.081593
17
Coordinates from ORCA-job orca E -948.711895838104
  C       0.077383      0.095516     -0.072539
  C       1.057055      1.064679     -0.214842
  C       0.400085     -1.152971      0.452320
  C       2.368788      0.780199      0.168372
  C       2.693985     -0.467632      0.695446
  C       1.705672     -1.432806      0.835435
  H       0.814274      2.041134     -0.616662
  C       3.411856      1.800779      0.008592
  H      -0.942530      0.314433     -0.367661
  H      -0.370274     -1.908156      0.563726
  H       3.714605     -0.681843      0.987865
  H       1.958161     -2.404993      1.243159
  N       3.296053      2.864129     -0.686841
  O       4.498893      3.600015     -0.539089
  O       4.599215      1.612397      0.649722
  S       5.725734      2.673043      0.029266
  O       6.365445      1.999077     -1.065569
17
Coordinates from ORCA-job orca E -948.711896096388
  C       0.077417      0.095496     -0.072615
  C       1.057129      1.064615     -0.214933
  C       0.400076     -1.152926      0.452367
  C       2.368855      0.780134      0.168342
  C       2.694003     -0.467664      0.695580
  C       1.705630     -1.432774      0.835585
  H       0.814407      2.041020     -0.616913
  C       3.411803      1.800768      0.008339
  H      -0.942462      0.314367     -0.367889
  H      -0.370300     -1.908097      0.563765
  H       3.714607     -0.681899      0.988005
  H       1.958047     -2.404942      1.243398
  N       3.295980      2.864479     -0.686390
  O       4.498955      3.600211     -0.538659
  O       4.599303      1.612053      0.649451
  S       5.725733      2.672814      0.029268
  O       6.365218      1.999345     -1.066002
