17
Coordinates from ORCA-job orca
  C   0.27776239943746      0.02331298652044     -0.51958965035861
  C   1.37847412996703      0.86530947573432     -0.57866955444227
  C   0.26289182629203     -1.04447613198682      0.37930570405786
  C   2.47073747608651      0.59274761520299      0.24949161611161
  C   2.45571957767700     -0.44777135920575      1.18134177050932
  C   1.34602338962295     -1.27991637325097      1.22654310193569
  H   1.40994679940124      1.71120053669234     -1.25818178418690
  C   3.77708679605911      1.37486394247781      0.02372111789268
  H   -0.57590798052414      0.20641330089116     -1.16465452595583
  H   -0.60905768113770     -1.69000100679422      0.43088448590574
  H   3.30418785661405     -0.59882186023367      1.84100121459550
  H   1.31860321107205     -2.10418390011071      1.93235339454344
  N   3.48999395514050      2.24088084714758      0.89217850701243
  O   5.25793676144129      3.22437177061306      0.69463654978741
  O   4.68292911071741      1.10221624940522     -0.80870291217873
  S   5.85997835349383      2.92946629841634     -0.66970398912512
  O   5.26709601863936      3.69138860848087     -1.78125404610423
