19
C7N2H4SO5
C       -0.026122000      0.138923000      0.075611000
C        0.928482000      1.092758000     -0.222571000
C        0.400309000     -1.125048000      0.482178000
C        2.280919000      0.765672000     -0.061514000
C        2.695126000     -0.514090000      0.315706000
C        1.738305000     -1.476295000      0.604333000
H        0.643406000      2.085331000     -0.554855000
C        3.322211000      1.955153000     -0.033429000
H       -1.085730000      0.346516000     -0.013111000
N       -0.631140000     -2.153187000      0.777733000
H        3.754565000     -0.736415000      0.375672000
H        2.007463000     -2.482892000      0.900471000
N        3.435314000      1.552426000     -1.220972000
O        4.817906000      3.105221000     -1.687614000
O        3.660998000      2.734004000      0.839476000
S        5.507971000      3.638003000     -0.441298000
O        6.554430000      2.773694000      0.118030000
O       -1.801313000     -1.831893000      0.624535000
O       -0.237281000     -3.265488000      1.096569000
