19
Coordinates from ORCA-job mol E -1152.622494879159
  C      -0.026122      0.138923      0.075611
  C       0.928482      1.092758     -0.222571
  C       0.400309     -1.125048      0.482178
  C       2.280919      0.765672     -0.061514
  C       2.695126     -0.514090      0.315706
  C       1.738305     -1.476295      0.604333
  H       0.643406      2.085331     -0.554855
  C       3.322211      1.955153     -0.033429
  H      -1.085730      0.346516     -0.013111
  N      -0.631140     -2.153187      0.777733
  H       3.754565     -0.736415      0.375672
  H       2.007463     -2.482892      0.900471
  N       3.435314      1.552426     -1.220972
  O       4.817906      3.105221     -1.687614
  O       3.660998      2.734004      0.839476
  S       5.507971      3.638003     -0.441298
  O       6.554430      2.773694      0.118030
  O      -1.801313     -1.831893      0.624535
  O      -0.237281     -3.265488      1.096569
19
Coordinates from ORCA-job mol E -1152.622507220172
  C      -0.019667      0.139184      0.072919
  C       0.940035      1.089138     -0.222065
  C       0.400160     -1.127739      0.476602
  C       2.290784      0.755135     -0.060421
  C       2.698376     -0.527673      0.314511
  C       1.736544     -1.485575      0.599663
  H       0.660405      2.083536     -0.553494
  C       3.326629      1.956409     -0.030019
  H      -1.078159      0.351716     -0.017435
  N      -0.636311     -2.151957      0.767700
  H       3.756720     -0.755183      0.376085
  H       2.000540     -2.494104      0.893923
  N       3.462570      1.535595     -1.210947
  O       4.792211      3.123352     -1.671168
  O       3.633759      2.761527      0.834237
  S       5.507223      3.653269     -0.443601
  O       6.548312      2.773532      0.101906
  O      -1.805679     -1.817814      0.638259
  O      -0.248634     -3.259956      1.108296
19
Coordinates from ORCA-job mol E -1152.626463570629
  C      -0.027484      0.131263      0.073950
  C       0.936452      1.075162     -0.229678
  C       0.387678     -1.134198      0.483282
  C       2.287738      0.735988     -0.077390
  C       2.689533     -0.545613      0.310815
  C       1.723969     -1.495685      0.605079
  H       0.660831      2.069234     -0.565405
  C       3.331520      1.945591     -0.029281
  H      -1.085371      0.347411     -0.015211
  N      -0.650743     -2.152187      0.785870
  H       3.747165     -0.777519      0.374895
  H       1.985013     -2.502597      0.907629
  N       3.467193      1.526688     -1.205894
  O       4.831100      3.207581     -1.676431
  O       3.623542      2.746323      0.846857
  S       5.545266      3.697570     -0.443925
  O       6.595150      2.812864      0.078318
  O      -1.818436     -1.820689      0.639345
  O      -0.264298     -3.264794      1.112123
19
Coordinates from ORCA-job mol E -1152.624747792252
  C      -0.018767      0.138158      0.086969
  C       0.951063      1.074492     -0.221798
  C       0.388569     -1.128926      0.498161
  C       2.300280      0.727729     -0.068990
  C       2.694400     -0.556209      0.318947
  C       1.723074     -1.499013      0.616042
  H       0.681898      2.069667     -0.559690
  C       3.342409      1.950101     -0.027321
  H      -1.075357      0.361612      0.000376
  N      -0.655368     -2.139164      0.806617
  H       3.750552     -0.795182      0.381272
  H       1.978439     -2.507153      0.919386
  N       3.490926      1.498267     -1.187900
  O       4.791579      3.211209     -1.669299
  O       3.600458      2.778425      0.832323
  S       5.532532      3.701961     -0.461622
  O       6.576242      2.806319      0.055406
  O      -1.815687     -1.819330      0.592337
  O      -0.271423     -3.270571      1.063735
19
Coordinates from ORCA-job mol E -1152.627518676373
  C      -0.030879      0.130836      0.081606
  C       0.933513      1.070343     -0.234800
  C       0.383901     -1.131532      0.499007
  C       2.284911      0.729960     -0.088472
  C       2.686486     -0.549863      0.307551
  C       1.720809     -1.494232      0.615912
  H       0.658805      2.062634     -0.576640
  C       3.333989      1.946275     -0.031063
  H      -1.088805      0.348320     -0.003847
  N      -0.653750     -2.144751      0.816763
  H       3.744030     -0.783369      0.368997
  H       1.982045     -2.498744      0.926305
  N       3.455534      1.520739     -1.202924
  O       4.845665      3.235080     -1.676990
  O       3.622654      2.737887      0.852272
  S       5.557406      3.705383     -0.445012
  O       6.609156      2.817719      0.069669
  O      -1.816538     -1.829403      0.611222
  O      -0.263114     -3.270889      1.085394
19
Coordinates from ORCA-job mol E -1152.627110447928
  C      -0.038568      0.129003      0.079973
  C       0.918523      1.077564     -0.231899
  C       0.386096     -1.130210      0.497232
  C       2.272261      0.747238     -0.085719
  C       2.684088     -0.530121      0.309222
  C       1.725858     -1.482494      0.615945
  H       0.636358      2.067922     -0.573073
  C       3.325284      1.958166     -0.034088
  H      -1.098105      0.337529     -0.007579
  N      -0.644074     -2.151884      0.813469
  H       3.743507     -0.755345      0.370530
  H       1.994591     -2.485227      0.925652
  N       3.421947      1.546904     -1.212374
  O       4.867969      3.193132     -1.685872
  O       3.652542      2.726216      0.856277
  S       5.558669      3.674314     -0.442781
  O       6.613017      2.799455      0.087882
  O      -1.809278     -1.845134      0.608722
  O      -0.244867     -3.274634      1.083432
19
Coordinates from ORCA-job mol E -1152.623409182265
  C      -0.030424      0.136321      0.089209
  C       0.928898      1.090965     -0.195713
  C       0.391086     -1.129420      0.490197
  C       2.281885      0.760828     -0.037610
  C       2.689789     -0.522617      0.339841
  C       1.729335     -1.482907      0.616115
  H       0.648356      2.085817     -0.524832
  C       3.333110      1.967664     -0.038468
  H      -1.089246      0.345523     -0.005316
  N      -0.641817     -2.156442      0.780016
  H       3.748677     -0.748988      0.405034
  H       1.995606     -2.491431      0.908626
  N       3.444769      1.524833     -1.206842
  O       4.829595      3.124332     -1.700975
  O       3.658008      2.778137      0.818771
  S       5.526559      3.654449     -0.474919
  O       6.574091      2.792468      0.088550
  O      -1.806459     -1.845835      0.576214
  O      -0.245999     -3.281305      1.047051
19
Coordinates from ORCA-job mol E -1152.620838014777
  C      -0.024653      0.142367      0.099520
  C       0.936615      1.104429     -0.151320
  C       0.393786     -1.130905      0.478266
  C       2.289087      0.776075      0.019117
  C       2.692347     -0.514140      0.377720
  C       1.730638     -1.483070      0.617234
  H       0.657179      2.105189     -0.463225
  C       3.341021      1.973548     -0.045560
  H      -1.082486      0.351431     -0.005749
  N      -0.640377     -2.167106      0.727549
  H       3.750560     -0.740786      0.452137
  H       1.995562     -2.497444      0.889976
  N       3.463221      1.500189     -1.201683
  O       4.804839      3.056588     -1.722215
  O       3.667744      2.823737      0.777084
  S       5.498134      3.637711     -0.514592
  O       6.547135      2.801301      0.083397
  O      -1.806117     -1.847896      0.544130
  O      -0.248415     -3.288825      1.013164
19
Coordinates from ORCA-job mol E -1152.618002112916
  C      -0.019697      0.150442      0.117250
  C       0.943442      1.118238     -0.101296
  C       0.395474     -1.129891      0.473662
  C       2.295291      0.791599      0.079789
  C       2.693397     -0.504929      0.420597
  C       1.730828     -1.480538      0.626190
  H       0.664709      2.125203     -0.393719
  C       3.348574      1.972366     -0.055951
  H      -1.076327      0.360535      0.002416
  N      -0.638945     -2.174195      0.681849
  H       3.750616     -0.732231      0.506812
  H       1.995060     -2.499603      0.881497
  N       3.481458      1.471820     -1.200405
  O       4.784892      2.986450     -1.749377
  O       3.678861      2.860394      0.730764
  S       5.465463      3.619769     -0.559439
  O       6.523264      2.820009      0.072146
  O      -1.802258     -1.853842      0.486710
  O      -0.248286     -3.299203      0.955457
19
Coordinates from ORCA-job mol E -1152.616410573537
  C      -0.014781      0.157866      0.131118
  C       0.950046      1.130028     -0.057518
  C       0.397249     -1.129405      0.464641
  C       2.301028      0.804037      0.131516
  C       2.694463     -0.498040      0.454572
  C       1.731139     -1.478754      0.629728
  H       0.671636      2.143104     -0.329008
  C       3.353639      1.961432     -0.070124
  H      -1.070093      0.370048      0.008521
  N      -0.637033     -2.181084      0.632063
  H       3.750381     -0.726542      0.553371
  H       1.995275     -2.501557      0.869551
  N       3.507709      1.447003     -1.208426
  O       4.772421      2.925784     -1.770379
  O       3.683673      2.883174      0.686030
  S       5.429910      3.605687     -0.591150
  O       6.500688      2.847674      0.069050
  O      -1.800836     -1.853896      0.451820
  O      -0.250695     -3.304167      0.919575
19
Coordinates from ORCA-job mol E -1152.616508551721
  C      -0.013060      0.165044      0.144562
  C       0.951904      1.139866     -0.030011
  C       0.398697     -1.126179      0.463580
  C       2.302216      0.813131      0.156761
  C       2.695780     -0.490575      0.468372
  C       1.732468     -1.473578      0.632805
  H       0.672169      2.157056     -0.284840
  C       3.354203      1.940281     -0.094451
  H      -1.068004      0.378854      0.021740
  N      -0.633889     -2.182282      0.611058
  H       3.750880     -0.719211      0.575640
  H       1.998348     -2.497183      0.867260
  N       3.542735      1.441142     -1.238398
  O       4.770562      2.880757     -1.780148
  O       3.684805      2.881670      0.648991
  S       5.394027      3.589372     -0.594414
  O       6.477389      2.866645      0.083797
  O      -1.797527     -1.855937      0.427299
  O      -0.247881     -3.306481      0.895348
19
Coordinates from ORCA-job mol E -1152.617022439769
  C      -0.019500      0.158270      0.134180
  C       0.943820      1.131963     -0.057182
  C       0.395315     -1.129740      0.462348
  C       2.294513      0.804180      0.119913
  C       2.692986     -0.495977      0.440302
  C       1.730690     -1.476276      0.624627
  H       0.663312      2.147200     -0.318469
  C       3.351185      1.943418     -0.093769
  H      -1.075485      0.370388      0.017510
  N      -0.636211     -2.184150      0.628837
  H       3.749037     -0.722232      0.543025
  H       1.997693     -2.497210      0.869279
  N       3.527557      1.461904     -1.244588
  O       4.800169      2.916315     -1.769113
  O       3.687951      2.858091      0.676057
  S       5.415479      3.602161     -0.567546
  O       6.499596      2.870179      0.099699
  O      -1.802623     -1.855516      0.468174
  O      -0.249665     -3.300575      0.941666
19
Coordinates from ORCA-job mol E -1152.617766719943
  C      -0.028934      0.155701      0.133331
  C       0.927705      1.132664     -0.077858
  C       0.395521     -1.126882      0.469566
  C       2.280104      0.810184      0.084389
  C       2.690553     -0.484617      0.409980
  C       1.734453     -1.466367      0.618567
  H       0.640204      2.144551     -0.343981
  C       3.339520      1.941181     -0.115846
  H      -1.087171      0.362077      0.027253
  N      -0.629419     -2.183499      0.661363
  H       3.748604     -0.704855      0.503997
  H       2.008724     -2.482955      0.873190
  N       3.516763      1.505414     -1.285206
  O       4.835792      2.908050     -1.753069
  O       3.704297      2.820531      0.686092
  S       5.417305      3.581972     -0.523557
  O       6.503530      2.853955      0.144228
  O      -1.797978     -1.867143      0.490842
  O      -0.233753     -3.297571      0.971669
19
Coordinates from ORCA-job mol E -1152.618600132123
  C      -0.039126      0.146751      0.120433
  C       0.911553      1.123402     -0.122270
  C       0.393842     -1.127496      0.474039
  C       2.265035      0.805238      0.023828
  C       2.686393     -0.482793      0.361621
  C       1.736150     -1.462162      0.604821
  H       0.618005      2.129381     -0.403278
  C       3.325687      1.940125     -0.135112
  H      -1.099500      0.348408      0.027170
  N      -0.625250     -2.181347      0.706104
  H       3.746430     -0.699208      0.439909
  H       2.016723     -2.473277      0.874139
  N       3.503352      1.564072     -1.324180
  O       4.875533      2.949181     -1.718491
  O       3.707594      2.768981      0.713018
  S       5.438071      3.577535     -0.454671
  O       6.525325      2.829504      0.189062
  O      -1.797346     -1.870067      0.551608
  O      -0.222650     -3.283833      1.047201
19
Coordinates from ORCA-job mol E -1152.619184548224
  C      -0.047791      0.138372      0.106188
  C       0.896480      1.113458     -0.170393
  C       0.393990     -1.125616      0.482116
  C       2.251186      0.801224     -0.037957
  C       2.683083     -0.479225      0.314724
  C       1.739651     -1.455310      0.593913
  H       0.596035      2.111228     -0.472220
  C       3.309301      1.940025     -0.156279
  H      -1.110013      0.335385      0.024795
  N      -0.618297     -2.174793      0.760755
  H       3.744921     -0.692837      0.374850
  H       2.027263     -2.460079      0.879178
  N       3.488627      1.632818     -1.364547
  O       4.901800      2.999684     -1.675462
  O       3.706462      2.712331      0.738655
  S       5.458586      3.564459     -0.378127
  O       6.544445      2.783554      0.227820
  O      -1.793303     -1.873903      0.607707
  O      -0.206607     -3.268382      1.119234
19
Coordinates from ORCA-job mol E -1152.619424180223
  C      -0.052442      0.130771      0.090504
  C       0.887984      1.103600     -0.208732
  C       0.394694     -1.125213      0.484888
  C       2.243460      0.795705     -0.081685
  C       2.681518     -0.479013      0.283998
  C       1.742343     -1.451797      0.586633
  H       0.583453      2.094442     -0.528586
  C       3.297734      1.941352     -0.167034
  H      -1.115619      0.324887      0.014464
  N      -0.612969     -2.169716      0.795331
  H       3.744252     -0.691277      0.333494
  H       2.034291     -2.451690      0.884417
  N       3.473504      1.684389     -1.387119
  O       4.910065      3.057477     -1.638956
  O       3.700646      2.669715      0.761053
  S       5.478384      3.555683     -0.320898
  O       6.560605      2.737538      0.240767
  O      -1.790127     -1.870975      0.655796
  O      -0.195957     -3.253487      1.176616
19
Coordinates from ORCA-job mol E -1152.619537809068
  C      -0.054089      0.127693      0.082440
  C       0.883927      1.100633     -0.224711
  C       0.396517     -1.123720      0.487212
  C       2.239796      0.796655     -0.095913
  C       2.682026     -0.474288      0.277087
  C       1.745407     -1.446642      0.588325
  H       0.577028      2.087456     -0.554525
  C       3.291312      1.944229     -0.172545
  H      -1.117714      0.318962      0.005666
  N      -0.608028     -2.167455      0.809815
  H       3.745345     -0.684280      0.325149
  H       2.040303     -2.443536      0.893184
  N       3.463336      1.714303     -1.398725
  O       4.903301      3.088520     -1.621237
  O       3.700150      2.650266      0.770316
  S       5.487838      3.541727     -0.294832
  O       6.563010      2.693842      0.235266
  O      -1.786180     -1.872744      0.670064
  O      -0.187465     -3.249230      1.192912
19
Coordinates from ORCA-job mol E -1152.619683469659
  C      -0.055242      0.121801      0.066777
  C       0.879539      1.095851     -0.247834
  C       0.399942     -1.122318      0.488066
  C       2.235781      0.799454     -0.109714
  C       2.683725     -0.465221      0.276828
  C       1.750324     -1.437998      0.595720
  H       0.569951      2.076366     -0.593332
  C       3.283375      1.952504     -0.173373
  H      -1.119398      0.307311     -0.016351
  N      -0.600359     -2.166517      0.821322
  H       3.747842     -0.670149      0.329584
  H       2.049056     -2.430099      0.912308
  N       3.441250      1.758351     -1.407484
  O       4.881378      3.150521     -1.594333
  O       3.702437      2.625140      0.788677
  S       5.507969      3.517311     -0.262783
  O       6.563655      2.609257      0.202935
  O      -1.779947     -1.874343      0.688503
  O      -0.175459     -3.244828      1.209436
19
Coordinates from ORCA-job mol E -1152.619779952386
  C      -0.055177      0.118311      0.056132
  C       0.877093      1.095615     -0.256655
  C       0.403322     -1.120890      0.487794
  C       2.233352      0.806797     -0.106100
  C       2.685635     -0.453286      0.289907
  C       1.754661     -1.428816      0.607211
  H       0.565752      2.072333     -0.611073
  C       3.279394      1.961449     -0.169199
  H      -1.119591      0.297807     -0.036201
  N      -0.593791     -2.168547      0.819499
  H       3.750374     -0.652219      0.353036
  H       2.056242     -2.417486      0.931772
  N       3.423123      1.786088     -1.407905
  O       4.856522      3.190987     -1.581745
  O       3.711585      2.615212      0.800187
  S       5.522231      3.491708     -0.253776
  O       6.555024      2.534747      0.162897
  O      -1.774297     -1.879892      0.686903
  O      -0.165637     -3.247525      1.202266
19
Coordinates from ORCA-job mol E -1152.619854414455
  C      -0.053650      0.115826      0.047474
  C       0.877658      1.096328     -0.258695
  C       0.405830     -1.120447      0.485844
  C       2.233375      0.813648     -0.093830
  C       2.687386     -0.443476      0.310160
  C       1.757322     -1.422045      0.620237
  H       0.566296      2.071058     -0.618372
  C       3.279640      1.968876     -0.159605
  H      -1.117868      0.290449     -0.055758
  N      -0.589935     -2.172128      0.808634
  H       3.752208     -0.637123      0.387104
  H       2.059793     -2.408590      0.950435
  N       3.407807      1.800074     -1.400782
  O       4.830133      3.226886     -1.577564
  O       3.724400      2.612821      0.810593
  S       5.533793      3.473006     -0.259130
  O       6.542952      2.474336      0.115604
  O      -1.770808     -1.884152      0.677789
  O      -0.160513     -3.252954      1.184810
19
Coordinates from ORCA-job mol E -1152.619896596254
  C      -0.051989      0.115379      0.044195
  C       0.879814      1.097216     -0.256424
  C       0.406640     -1.120352      0.484653
  C       2.234886      0.816629     -0.083351
  C       2.688277     -0.439912      0.323838
  C       1.757818     -1.419773      0.628021
  H       0.569440      2.071763     -0.617398
  C       3.282088      1.970404     -0.152814
  H      -1.115828      0.288386     -0.065443
  N      -0.589452     -2.174017      0.799991
  H       3.752835     -0.631520      0.409369
  H       2.059643     -2.405833      0.960258
  N       3.402820      1.801068     -1.394697
  O       4.814984      3.243360     -1.580004
  O       3.733657      2.613049      0.815290
  S       5.536188      3.467788     -0.267547
  O       6.534517      2.451390      0.088007
  O      -1.770160     -1.885632      0.668672
  O      -0.160358     -3.257000      1.170335
19
Coordinates from ORCA-job mol E -1152.619936699977
  C      -0.049244      0.115437      0.041143
  C       0.884419      1.097351     -0.253636
  C       0.406779     -1.120508      0.483389
  C       2.238479      0.817025     -0.072286
  C       2.689314     -0.439768      0.337892
  C       1.757168     -1.419704      0.635817
  H       0.576381      2.072147     -0.615897
  C       3.287073      1.968392     -0.144892
  H      -1.112394      0.288301     -0.075160
  N      -0.591062     -2.174922      0.790782
  H       3.753258     -0.630788      0.432128
  H       2.056880     -2.405806      0.969843
  N       3.401357      1.797903     -1.387342
  O       4.797030      3.262983     -1.583425
  O       3.744268      2.611263      0.820693
  S       5.534842      3.468861     -0.277492
  O       6.526225      2.438957      0.058078
  O      -1.771196     -1.884385      0.659279
  O      -0.163758     -3.260347      1.156036
19
Coordinates from ORCA-job mol E -1152.619967048006
  C      -0.046611      0.115951      0.039625
  C       0.889576      1.096223     -0.252577
  C       0.406105     -1.120757      0.483034
  C       2.242750      0.813829     -0.067243
  C       2.690172     -0.443821      0.344512
  C       1.755599     -1.422183      0.639622
  H       0.584274      2.071467     -0.615944
  C       3.292522      1.963022     -0.140406
  H      -1.109114      0.290535     -0.079972
  N      -0.594358     -2.173694      0.787139
  H       3.753485     -0.636326      0.442796
  H       2.052590     -2.408751      0.974688
  N       3.404996      1.793085     -1.383258
  O       4.783491      3.277193     -1.584760
  O       3.750912      2.606842      0.824234
  S       5.529449      3.476193     -0.282424
  O       6.523412      2.444875      0.040953
  O      -1.773690     -1.880375      0.654769
  O      -0.169741     -3.260917      1.150163
19
Coordinates from ORCA-job mol E -1152.620008361631
  C      -0.041847      0.117312      0.038394
  C       0.899746      1.092744     -0.252270
  C       0.403931     -1.121528      0.482938
  C       2.251374      0.804029     -0.063934
  C       2.691500     -0.455799      0.349323
  C       1.751580     -1.429626      0.642339
  H       0.600038      2.069206     -0.617030
  C       3.303530      1.950192     -0.135083
  H      -1.103208      0.297046     -0.083682
  N      -0.602344     -2.169518      0.785210
  H       3.753629     -0.653238      0.450464
  H       2.042856     -2.417588      0.978305
  N       3.416567      1.780906     -1.378044
  O       4.762915      3.297202     -1.585493
  O       3.758487      2.597708      0.828862
  S       5.516244      3.496954     -0.287504
  O       6.524521      2.475517      0.022517
  O      -1.779964     -1.869969      0.651702
  O      -0.183736     -3.259157      1.147936
19
Coordinates from ORCA-job mol E -1152.620036251396
  C      -0.038155      0.118834      0.038915
  C       0.908260      1.089161     -0.252674
  C       0.401505     -1.122311      0.483375
  C       2.258662      0.793509     -0.065232
  C       2.692352     -0.468497      0.347836
  C       1.747564     -1.437567      0.641393
  H       0.613412      2.066995     -0.617769
  C       3.313114      1.937745     -0.133213
  H      -1.098644      0.304112     -0.082419
  N      -0.610068     -2.164822      0.787049
  H       3.753521     -0.671532      0.447799
  H       2.033863     -2.427065      0.977135
  N       3.429630      1.767989     -1.375749
  O       4.750356      3.307049     -1.585638
  O       3.760730      2.590308      0.830667
  S       5.503120      3.518882     -0.289150
  O       6.529716      2.515181      0.018358
  O      -1.786129     -1.859687      0.652489
  O      -0.196990     -3.255891      1.151777
19
Coordinates from ORCA-job mol E -1152.620058272621
  C      -0.034833      0.120768      0.041053
  C       0.916315      1.085670     -0.252563
  C       0.398826     -1.123134      0.484097
  C       2.265540      0.782267     -0.068271
  C       2.692950     -0.482184      0.343170
  C       1.743315     -1.446251      0.638275
  H       0.626198      2.065224     -0.616884
  C       3.322544      1.924785     -0.133284
  H      -1.094546      0.312136     -0.077631
  N      -0.618010     -2.159772      0.790308
  H       3.753185     -0.691559      0.439659
  H       2.024791     -2.437590      0.972653
  N       3.444773      1.752364     -1.374839
  O       4.742723      3.309853     -1.587001
  O       3.759559      2.584707      0.830203
  S       5.488988      3.542915     -0.290287
  O       6.536494      2.563109      0.023291
  O      -1.792509     -1.848972      0.655057
  O      -0.210485     -3.251941      1.157944
19
Coordinates from ORCA-job mol E -1152.620072371873
  C      -0.032805      0.122552      0.044101
  C       0.921448      1.083697     -0.251347
  C       0.396904     -1.123668      0.484831
  C       2.269893      0.774500     -0.070686
  C       2.693208     -0.491893      0.338334
  C       1.740346     -1.452564      0.634774
  H       0.634407      2.064785     -0.614017
  C       3.328762      1.915785     -0.134836
  H      -1.092048      0.318396     -0.071458
  N      -0.623432     -2.156272      0.792975
  H       3.752807     -0.706021      0.431014
  H       2.018691     -2.445478      0.967102
  N       3.456881      1.738853     -1.375142
  O       4.741704      3.305761     -1.589954
  O       3.755988      2.583340      0.827562
  S       5.478542      3.560472     -0.291835
  O       6.541030      2.601032      0.033783
  O      -1.796887     -1.841603      0.657561
  O      -0.219621     -3.249282      1.162188
19
Coordinates from ORCA-job mol E -1152.620083694176
  C      -0.031159      0.124547      0.048247
  C       0.925702      1.082430     -0.248970
  C       0.395203     -1.124125      0.485633
  C       2.273495      0.767754     -0.072705
  C       2.693349     -0.500658      0.332934
  C       1.737734     -1.458420      0.630605
  H       0.641214      2.065224     -0.609072
  C       3.333909      1.907984     -0.137440
  H      -1.090034      0.324569     -0.063524
  N      -0.628129     -2.153279      0.795327
  H       3.752389     -0.719230      0.421215
  H       2.013429     -2.453015      0.960088
  N       3.469160      1.724055     -1.375943
  O       4.744815      3.297194     -1.594740
  O       3.750166      2.584992      0.822947
  S       5.468746      3.576651     -0.294430
  O       6.544023      2.638011      0.049114
  O      -1.800694     -1.835098      0.660354
  O      -0.227498     -3.247194      1.165311
19
Coordinates from ORCA-job mol E -1152.620090774061
  C      -0.030479      0.125851      0.051476
  C       0.927544      1.082171     -0.246819
  C       0.394391     -1.124334      0.486199
  C       2.275077      0.764495     -0.073834
  C       2.693384     -0.505167      0.329057
  C       1.736510     -1.461530      0.627587
  H       0.644139      2.066085     -0.604742
  C       3.335962      1.904356     -0.139969
  H      -1.089221      0.328117     -0.057521
  N      -0.630324     -2.151848      0.796754
  H       3.752170     -0.726096      0.414245
  H       2.011016     -2.457166      0.954903
  N       3.476617      1.714415     -1.376933
  O       4.749969      3.289399     -1.598726
  O       3.744686      2.588334      0.818622
  S       5.463561      3.585050     -0.296356
  O       6.544454      2.658491      0.061939
  O      -1.802486     -1.831943      0.662309
  O      -0.231151     -3.246289      1.166758
19
Coordinates from ORCA-job mol E -1152.620097259879
  C      -0.030070      0.127209      0.055197
  C       0.928698      1.082350     -0.244226
  C       0.393846     -1.124458      0.486804
  C       2.276134      0.762070     -0.074990
  C       2.693415     -0.508812      0.324644
  C       1.735682     -1.464134      0.624158
  H       0.645914      2.067402     -0.599530
  C       3.336978      1.901806     -0.143373
  H      -1.088763      0.331396     -0.050679
  N      -0.631813     -2.150761      0.798210
  H       3.752039     -0.731718      0.406385
  H       2.009398     -2.460791      0.949003
  N       3.484165      1.704601     -1.378416
  O       4.757620      3.279779     -1.603189
  O       3.737561      2.593696      0.812974
  S       5.459000      3.591737     -0.298095
  O       6.543357      2.676123      0.077349
  O      -1.803703     -1.829564      0.664448
  O      -0.233639     -3.245539      1.168275
19
Coordinates from ORCA-job mol E -1152.620101791138
  C      -0.030161      0.128062      0.057927
  C       0.928576      1.082894     -0.242371
  C       0.393808     -1.124428      0.487271
  C       2.276155      0.761526     -0.075948
  C       2.693413     -0.510006      0.321330
  C       1.735630     -1.465115      0.621641
  H       0.645621      2.068616     -0.595703
  C       3.336418      1.901570     -0.146269
  H      -1.088934      0.333044     -0.045616
  N      -0.631933     -2.150446      0.799378
  H       3.752060     -0.733672      0.400511
  H       2.009348     -2.462348      0.944706
  N       3.488655      1.698659     -1.379745
  O       4.764800      3.271963     -1.606217
  O       3.731537      2.599141      0.808286
  S       5.457101      3.593870     -0.298749
  O       6.541365      2.683423      0.089292
  O      -1.803807     -1.829124      0.665752
  O      -0.233834     -3.245237      1.169474
19
Coordinates from ORCA-job mol E -1152.620106438129
  C      -0.030792      0.128726      0.060712
  C       0.927217      1.083882     -0.240630
  C       0.394139     -1.124317      0.487691
  C       2.275207      0.762324     -0.077360
  C       2.693316     -0.509602      0.317499
  C       1.736186     -1.465126      0.618811
  H       0.643337      2.070104     -0.591846
  C       3.334273      1.903265     -0.149684
  H      -1.089794      0.333821     -0.040245
  N      -0.630944     -2.150730      0.800696
  H       3.752159     -0.733295      0.393809
  H       2.010613     -2.462762      0.940011
  N       3.492022      1.693868     -1.381320
  O       4.774390      3.262710     -1.609009
  O       3.724198      2.606594      0.802867
  S       5.457057      3.593086     -0.298625
  O       6.538402      2.685001      0.102920
  O      -1.803031     -1.830131      0.667181
  O      -0.232138     -3.245024      1.171473
19
Coordinates from ORCA-job mol E -1152.620109951672
  C      -0.031762      0.128877      0.062301
  C       0.925058      1.084907     -0.239903
  C       0.394731     -1.124119      0.487981
  C       2.273562      0.764250     -0.078756
  C       2.693160     -0.507564      0.314783
  C       1.737185     -1.463992      0.616978
  H       0.639825      2.071177     -0.589901
  C       3.331305      1.906276     -0.152222
  H      -1.091065      0.333264     -0.036931
  N      -0.629154     -2.151470      0.801863
  H       3.752308     -0.730468      0.389126
  H       2.012824     -2.461628      0.937134
  N       3.492593      1.692741     -1.382631
  O       4.782220      3.256175     -1.610237
  O       3.718761      2.612643      0.799163
  S       5.459148      3.589348     -0.297573
  O       6.535796      2.679374      0.112372
  O      -1.801611     -1.832357      0.668028
  O      -0.229067     -3.245040      1.173375
19
Coordinates from ORCA-job mol E -1152.620113072126
  C      -0.033121      0.128563      0.062958
  C       0.922061      1.085931     -0.240167
  C       0.395530     -1.123878      0.488144
  C       2.271183      0.767088     -0.080509
  C       2.692915     -0.504184      0.312528
  C       1.738576     -1.461926      0.615700
  H       0.635042      2.071872     -0.589641
  C       3.327428      1.910474     -0.154311
  H      -1.092806      0.331543     -0.035072
  N      -0.626628     -2.152628      0.803073
  H       3.752471     -0.725623      0.385447
  H       2.015925     -2.459223      0.935435
  N       3.490871      1.694579     -1.383958
  O       4.789536      3.251731     -1.610210
  O       3.714321      2.617662      0.796742
  S       5.463303      3.583201     -0.295507
  O       6.533534      2.667887      0.119480
  O      -1.799620     -1.835548      0.669095
  O      -0.224702     -3.245129      1.175724
19
Coordinates from ORCA-job mol E -1152.620115222538
  C      -0.034279      0.128055      0.062758
  C       0.919495      1.086631     -0.241060
  C       0.396228     -1.123633      0.488250
  C       2.269087      0.769633     -0.081900
  C       2.692717     -0.500958      0.311381
  C       1.739799     -1.459836      0.615338
  H       0.630992      2.072068     -0.590735
  C       3.324238      1.913952     -0.155568
  H      -1.094276      0.329601     -0.034865
  N      -0.624407     -2.153622      0.804048
  H       3.752616     -0.720954      0.383761
  H       2.018642     -2.456649      0.935279
  N       3.488260      1.698046     -1.385127
  O       4.793916      3.250393     -1.609272
  O       3.712105      2.619989      0.795993
  S       5.467363      3.577331     -0.293302
  O       6.532050      2.655962      0.122619
  O      -1.797869     -1.838310      0.670013
  O      -0.220859     -3.245303      1.177338
