14
C7H5NO optimized with ADF in AMS.
 C        1.80796609833989      -0.42945033476472       0.36636871291447
 C        2.88802754530618       0.37265422015911       0.02606107333015
 C        1.99495085051146      -1.77582333534348       0.65961882576094
 C        4.16681525368203      -0.17803445763516      -0.02118680713116
 C        4.36308344090087      -1.52981983047650       0.27122153721238
 C        3.27489477070907      -2.32028756209180       0.60988154414572
 H        2.75899744283032       1.42257679517323      -0.20472920234867
 C        6.41878935853671       0.56069917959287      -0.49428635869762
 H        0.81527735565834       0.00319946147447       0.40229399213033
 H        1.14934614031294      -2.39823835802248       0.92525161679249
 H        5.36212469942763      -1.94891004657777       0.23116482244264
 H        3.42947408940952      -3.36872516515519       0.83670981865604
 N        5.22708260658287       0.65609243291414      -0.36492019721288
 O        7.57677034769216       0.60466700075330      -0.65244937819484
