17
Coordinates from ORCA-job mol E -948.107679337883
  C      -0.083522      0.068703     -0.140480
  C       0.675208      1.225864     -0.315973
  C       0.500636     -1.081616      0.405449
  C       2.034406      1.228211      0.060630
  C       2.625463      0.070936      0.613934
  C       1.850263     -1.076393      0.780503
  H       0.230057      2.120195     -0.737311
  C       2.837489      2.390159     -0.106465
  H      -1.129118      0.064097     -0.428267
  H      -0.094856     -1.978540      0.538945
  H       3.668155      0.105474      0.906628
  H       2.300554     -1.966974      1.205049
  N       3.521914      3.326509     -0.256243
  O       4.392121      4.247197     -0.311625
  O       5.152471      1.858660      1.391347
  S       6.246697      2.999476      1.015233
  O       7.280662      2.514544     -0.123953
17
Coordinates from ORCA-job mol E -948.132575690848
  C      -0.068967      0.079085     -0.136880
  C       0.688455      1.229390     -0.312127
  C       0.510584     -1.068027      0.405489
  C       2.042603      1.225811      0.061038
  C       2.630629      0.072464      0.610229
  C       1.855174     -1.066921      0.776837
  H       0.245806      2.125966     -0.732927
  C       2.845344      2.380311     -0.105923
  H      -1.115565      0.077541     -0.423743
  H      -0.087543     -1.963932      0.539564
  H       3.675762      0.104239      0.899580
  H       2.304115     -1.959654      1.200304
  N       3.518817      3.312069     -0.259561
  O       4.360013      4.214022     -0.320718
  O       5.180547      1.870487      1.380015
  S       6.217378      2.965562      1.002880
  O       7.205449      2.518087     -0.086658
17
Coordinates from ORCA-job mol E -948.139702365237
  C      -0.062482      0.082486     -0.133443
  C       0.692418      1.231124     -0.311082
  C       0.516659     -1.061892      0.407247
  C       2.045407      1.228317      0.057242
  C       2.632847      0.077239      0.605066
  C       1.859160     -1.059876      0.774485
  H       0.249364      2.127808     -0.731897
  C       2.848105      2.380184     -0.112066
  H      -1.110274      0.080633     -0.418329
  H      -0.081366     -1.958025      0.543720
  H       3.678999      0.110773      0.892311
  H       2.309265     -1.952599      1.198454
  N       3.522045      3.311404     -0.264651
  O       4.339618      4.196604     -0.329294
  O       5.230422      1.884194      1.362011
  S       6.203322      2.910780      0.994837
  O       7.135092      2.527348     -0.037212
17
Coordinates from ORCA-job mol E -948.141854523320
  C      -0.071366      0.081873     -0.140070
  C       0.693168      1.226054     -0.312307
  C       0.496742     -1.067636      0.403683
  C       2.044890      1.215160      0.064347
  C       2.620966      0.057788      0.614558
  C       1.838026     -1.074935      0.778737
  H       0.258633      2.125672     -0.735546
  C       2.853762      2.365064     -0.101598
  H      -1.117147      0.087458     -0.431632
  H      -0.108082     -1.959701      0.535706
  H       3.665463      0.081079      0.905790
  H       2.279681     -1.971123      1.203849
  N       3.516858      3.304563     -0.258662
  O       4.327019      4.209640     -0.331651
  O       5.269656      1.897224      1.382905
  S       6.244005      2.953113      0.993064
  O       7.196326      2.585208     -0.073774
17
Coordinates from ORCA-job mol E -948.142260107843
  C      -0.077487      0.082407     -0.144674
  C       0.694500      1.222102     -0.313969
  C       0.481444     -1.070501      0.401424
  C       2.044922      1.204490      0.067980
  C       2.611395      0.042876      0.619842
  C       1.821372     -1.085385      0.781231
  H       0.266901      2.124184     -0.739050
  C       2.858361      2.351774     -0.095878
  H      -1.121994      0.094277     -0.440604
  H      -0.129023     -1.959009      0.531153
  H       3.655285      0.057219      0.913164
  H       2.256410     -1.984206      1.207586
  N       3.511233      3.298528     -0.255381
  O       4.305397      4.216524     -0.336482
  O       5.327024      1.914128      1.396573
  S       6.279456      2.976272      0.990793
  O       7.223401      2.630819     -0.086308
17
Coordinates from ORCA-job mol E -948.142516765122
  C      -0.084260      0.081709     -0.154413
  C       0.696048      1.216641     -0.318570
  C       0.463129     -1.074554      0.396765
  C       2.044054      1.192198      0.073125
  C       2.597805      0.026849      0.629913
  C       1.800290     -1.096878      0.786542
  H       0.277213      2.121177     -0.747163
  C       2.861867      2.336806     -0.085029
  H      -1.126350      0.100149     -0.458433
  H      -0.153630     -1.959157      0.522827
  H       3.639947      0.030882      0.930864
  H       2.226857     -1.997720      1.217100
  N       3.505272      3.291010     -0.242853
  O       4.277322      4.225219     -0.333104
  O       5.402430      1.933713      1.411407
  S       6.328373      3.004805      0.983716
  O       7.252231      2.683650     -0.115293
17
Coordinates from ORCA-job mol E -948.142612269820
  C      -0.087525      0.080123     -0.163046
  C       0.696741      1.213002     -0.322329
  C       0.452914     -1.077502      0.392303
  C       2.042276      1.186233      0.078784
  C       2.588307      0.019303      0.639432
  C       1.787444     -1.102801      0.791054
  H       0.283179      2.118423     -0.754166
  C       2.861765      2.330025     -0.074940
  H      -1.127395      0.101310     -0.474425
  H      -0.166795     -1.960592      0.514312
  H       3.628440      0.017610      0.947409
  H       2.209133     -2.004482      1.224586
  N       3.503301      3.286322     -0.229355
  O       4.261481      4.230225     -0.325816
  O       5.450015      1.947784      1.421458
  S       6.361471      3.022985      0.975308
  O       7.263849      2.708533     -0.143170
17
Coordinates from ORCA-job mol E -948.142683599597
  C      -0.088836      0.077028     -0.173784
  C       0.696740      1.209740     -0.326859
  C       0.446580     -1.080527      0.386574
  C       2.039071      1.183795      0.085797
  C       2.579467      0.016858      0.651230
  C       1.777679     -1.105512      0.796586
  H       0.286970      2.114933     -0.762786
  C       2.858200      2.328410     -0.063221
  H      -1.125963      0.098325     -0.494222
  H      -0.174124     -1.963612      0.503496
  H       3.616872      0.012309      0.968173
  H       2.195986     -2.006972      1.233785
  N       3.503703      3.283187     -0.210593
  O       4.251211      4.234438     -0.311253
  O       5.489786      1.960527      1.430680
  S       6.391432      3.035040      0.962804
  O       7.263827      2.718534     -0.179006
17
Coordinates from ORCA-job mol E -948.142749082878
  C      -0.087813      0.072196     -0.185467
  C       0.695316      1.207271     -0.332489
  C       0.446283     -1.083217      0.380486
  C       2.034067      1.186508      0.092357
  C       2.572805      0.021854      0.663480
  C       1.773651     -1.103302      0.802461
  H       0.286512      2.110691     -0.772973
  C       2.849766      2.334234     -0.052198
  H      -1.122065      0.089907     -0.515308
  H      -0.172486     -1.968331      0.492322
  H       3.607202      0.019035      0.990036
  H       2.191341     -2.002972      1.243892
  N       3.506551      3.282878     -0.187978
  O       4.249614      4.237348     -0.288663
  O       5.514823      1.968828      1.439371
  S       6.413939      3.035162      0.947492
  O       7.249094      2.708409     -0.219421
17
Coordinates from ORCA-job mol E -948.142817940833
  C      -0.084118      0.065167     -0.197980
  C       0.691803      1.205746     -0.339910
  C       0.453605     -1.085305      0.374452
  C       2.026707      1.195747      0.097106
  C       2.569147      0.036304      0.675051
  C       1.777158     -1.094667      0.808386
  H       0.280153      2.105399     -0.785401
  C       2.834689      2.349727     -0.042814
  H      -1.115519      0.074600     -0.536955
  H      -0.159481     -1.974911      0.481993
  H       3.600410      0.041127      1.011194
  H       2.197892     -1.990440      1.254834
  N       3.512050      3.285854     -0.160971
  O       4.259080      4.237961     -0.256037
  O       5.521946      1.971085      1.449398
  S       6.427243      3.019160      0.929581
  O       7.215834      2.673945     -0.264527
17
Coordinates from ORCA-job mol E -948.142858287803
  C      -0.080216      0.060139     -0.202772
  C       0.687462      1.206386     -0.344412
  C       0.465062     -1.085250      0.372624
  C       2.021059      1.206683      0.095870
  C       2.571605      0.052532      0.677063
  C       1.787604     -1.084017      0.809776
  H       0.269961      2.102418     -0.791721
  C       2.821209      2.366624     -0.041114
  H      -1.110932      0.061131     -0.543904
  H      -0.141569     -1.979278      0.480155
  H       3.601962      0.067285      1.015782
  H       2.213997     -1.975903      1.258679
  N       3.516305      3.290642     -0.147567
  O       4.275060      4.234366     -0.235243
  O       5.503628      1.964184      1.455803
  S       6.421173      2.994381      0.921966
  O       7.185230      2.634177     -0.283585
17
Coordinates from ORCA-job mol E -948.142870716434
  C      -0.078823      0.058282     -0.201143
  C       0.683734      1.207856     -0.344639
  C       0.472732     -1.084442      0.373564
  C       2.017993      1.213459      0.092712
  C       2.575343      0.062010      0.673309
  C       1.796296     -1.077604      0.807829
  H       0.261512      2.102027     -0.791225
  C       2.814611      2.375909     -0.043949
  H      -1.110258      0.054564     -0.540026
  H      -0.129865     -1.980974      0.482887
  H       3.606626      0.083237      1.009184
  H       2.227276     -1.967616      1.256111
  N       3.517318      3.294115     -0.148487
  O       4.285843      4.230235     -0.232546
  O       5.483983      1.956757      1.459177
  S       6.410453      2.978017      0.924081
  O       7.173827      2.610668     -0.279437
17
Coordinates from ORCA-job mol E -948.142873638486
  C      -0.079437      0.058113     -0.199259
  C       0.682074      1.208306     -0.343999
  C       0.473956     -1.084189      0.374502
  C       2.016970      1.214695      0.090973
  C       2.576338      0.063570      0.670655
  C       1.798328     -1.076521      0.806468
  H       0.258502      2.102180     -0.789901
  C       2.813735      2.376957     -0.046592
  H      -1.111423      0.053575     -0.536425
  H      -0.127797     -1.981150      0.484921
  H       3.608363      0.086294      1.004268
  H       2.230587     -1.966323      1.253946
  N       3.516765      3.294837     -0.151932
  O       4.287699      4.229047     -0.235142
  O       5.480372      1.954474      1.460946
  S       6.408019      2.975277      0.927272
  O       7.175549      2.607359     -0.273300
17
Coordinates from ORCA-job mol E -948.142876241073
  C      -0.080587      0.057633     -0.197449
  C       0.679786      1.208457     -0.343890
  C       0.474754     -1.084052      0.375567
  C       2.015315      1.215886      0.088558
  C       2.576836      0.065173      0.667556
  C       1.799985     -1.075385      0.805121
  H       0.254730      2.101888     -0.789270
  C       2.812448      2.377774     -0.050309
  H      -1.113170      0.052136     -0.532744
  H      -0.126069     -1.981463      0.487380
  H       3.609583      0.089646      0.998876
  H       2.233539     -1.964843      1.252038
  N       3.516098      3.295285     -0.155116
  O       4.289153      4.227922     -0.236508
  O       5.480469      1.952365      1.464594
  S       6.407844      2.973296      0.930859
  O       7.177884      2.604781     -0.267863
17
Coordinates from ORCA-job mol E -948.142877743298
  C      -0.081430      0.057157     -0.196748
  C       0.678362      1.208250     -0.344462
  C       0.474874     -1.084028      0.376217
  C       2.014185      1.216418      0.086754
  C       2.576781      0.066027      0.665719
  C       1.800542     -1.074726      0.804549
  H       0.252502      2.101310     -0.789825
  C       2.811375      2.378195     -0.053023
  H      -1.114334      0.051098     -0.531047
  H      -0.125464     -1.981643      0.488994
  H       3.609824      0.091415      0.996030
  H       2.234722     -1.963880      1.251464
  N       3.516020      3.295200     -0.155960
  O       4.290007      4.227246     -0.235370
  O       5.483164      1.951773      1.468145
  S       6.409225      2.972923      0.932582
  O       7.178246      2.603765     -0.266617
17
Coordinates from ORCA-job mol E -948.142879026399
  C      -0.082248      0.056965     -0.196236
  C       0.677626      1.207845     -0.345269
  C       0.474280     -1.083964      0.376897
  C       2.013727      1.216137      0.084967
  C       2.576582      0.065867      0.664089
  C       1.800303     -1.074663      0.804195
  H       0.251496      2.100692     -0.790799
  C       2.810978      2.377770     -0.055893
  H      -1.115434      0.050935     -0.529663
  H      -0.126095     -1.981432      0.490642
  H       3.609812      0.091257      0.993769
  H       2.234606     -1.963673      1.251269
  N       3.516443      3.294477     -0.156203
  O       4.290601      4.226577     -0.233287
  O       5.487202      1.952347      1.471834
  S       6.410849      2.974401      0.933770
  O       7.177873      2.604961     -0.266680
17
Coordinates from ORCA-job mol E -948.142879801899
  C      -0.082684      0.057206     -0.195868
  C       0.677836      1.207516     -0.345853
  C       0.473415     -1.083805      0.377488
  C       2.014182      1.215262      0.083769
  C       2.576575      0.064898      0.663020
  C       1.799662     -1.075097      0.804070
  H       0.251985      2.100395     -0.791588
  C       2.811537      2.376715     -0.057986
  H      -1.116063      0.051727     -0.528721
  H      -0.127453     -1.980852      0.491959
  H       3.609906      0.089488      0.992423
  H       2.233666     -1.964154      1.251333
  N       3.517202      3.293495     -0.156185
  O       4.291042      4.226021     -0.231419
  O       5.489712      1.953343      1.473827
  S       6.411144      2.976648      0.934279
  O       7.176934      2.607692     -0.267149
17
Coordinates from ORCA-job mol E -948.142880183870
  C      -0.082790      0.057730     -0.195502
  C       0.678570      1.207390     -0.345961
  C       0.472634     -1.083611      0.377913
  C       2.015117      1.214245      0.083294
  C       2.576774      0.063626      0.662484
  C       1.799008     -1.075775      0.804020
  H       0.253258      2.100485     -0.791775
  C       2.812715      2.375438     -0.059108
  H      -1.116281      0.053012     -0.528023
  H      -0.128886     -1.980172      0.492762
  H       3.610180      0.087111      0.991716
  H       2.232569     -1.965027      1.251320
  N       3.517904      3.292665     -0.156453
  O       4.291295      4.225670     -0.230758
  O       5.490096      1.954220      1.474053
  S       6.410169      2.978747      0.934474
  O       7.176269      2.610744     -0.267056
