17
Coordinates from ORCA-job inp
  C   1.85436142987207      0.04462795358354      1.67450845250374
  C   2.63717904379721      0.59048946435096      0.65690391175931
  C   0.75435971695896     -0.76681543582029      1.37246412433475
  C   2.31177364421646      0.31958536277255     -0.68365258218346
  C   1.20980689920597     -0.49045635517289     -0.99383852261195
  C   0.43650262751214     -1.02977442542142      0.03616211593410
  C   4.07300324335943      1.50468385224566     -1.85845860362731
  N   3.06372775195740      0.83720054248263     -1.74693798789195
  O   5.35991777993145      3.03748088977630      0.96953436651979
  O   5.03249657491630      2.13717036692151     -2.12753261102153
  S   4.68152413807909      4.13500564126361      0.23359513845436
  O   3.28600790162999      3.88936497439044     -0.20846796451062
  H   3.48687067396656      1.23794642732547      0.88835041366980
  H   2.10921085701929      0.25834955253555      2.71669727984243
  H   0.14656173507874     -1.19064662413087      2.17660915055483
  H   0.97385649533460     -0.68777981352710     -2.04252971764704
  H   -0.42166051283583     -1.66153337357569     -0.21050496407926
