
                                 *****************
                                 * O   R   C   A *
                                 *****************

                                            #,                                       
                                            ###                                      
                                            ####                                     
                                            #####                                    
                                            ######                                   
                                           ########,                                 
                                     ,,################,,,,,                         
                               ,,#################################,,                 
                          ,,##########################################,,             
                       ,#########################################, ''#####,          
                    ,#############################################,,   '####,        
                  ,##################################################,,,,####,       
                ,###########''''           ''''###############################       
              ,#####''   ,,,,##########,,,,          '''####'''          '####       
            ,##' ,,,,###########################,,,                        '##       
           ' ,,###''''                  '''############,,,                           
         ,,##''                                '''############,,,,        ,,,,,,###''
      ,#''                                            '''#######################'''  
     '                                                          ''''####''''         
             ,#######,   #######,   ,#######,      ##                                
            ,#'     '#,  ##    ##  ,#'     '#,    #''#        ######   ,####,        
            ##       ##  ##   ,#'  ##            #'  '#       #        #'  '#        
            ##       ##  #######   ##           ,######,      #####,   #    #        
            '#,     ,#'  ##    ##  '#,     ,#' ,#      #,         ##   #,  ,#        
             '#######'   ##     ##  '#######'  #'      '#     #####' # '####'        



                  #######################################################
                  #                        -***-                        #
                  #          Department of theory and spectroscopy      #
                  #    Directorship and core code : Frank Neese         #
                  #        Max Planck Institute fuer Kohlenforschung    #
                  #                Kaiser Wilhelm Platz 1               #
                  #                 D-45470 Muelheim/Ruhr               #
                  #                      Germany                        #
                  #                                                     #
                  #                  All rights reserved                #
                  #                        -***-                        #
                  #######################################################


                         Program Version 5.0.4 -  RELEASE  -


 With contributions from (in alphabetic order):
   Daniel Aravena         : Magnetic Suceptibility
   Michael Atanasov       : Ab Initio Ligand Field Theory (pilot matlab implementation)
   Alexander A. Auer      : GIAO ZORA, VPT2 properties, NMR spectrum
   Ute Becker             : Parallelization
   Giovanni Bistoni       : ED, misc. LED, open-shell LED, HFLD
   Martin Brehm           : Molecular dynamics
   Dmytro Bykov           : SCF Hessian
   Vijay G. Chilkuri      : MRCI spin determinant printing, contributions to CSF-ICE
   Dipayan Datta          : RHF DLPNO-CCSD density
   Achintya Kumar Dutta   : EOM-CC, STEOM-CC
   Dmitry Ganyushin       : Spin-Orbit,Spin-Spin,Magnetic field MRCI
   Miquel Garcia          : C-PCM and meta-GGA Hessian, CC/C-PCM, Gaussian charge scheme
   Yang Guo               : DLPNO-NEVPT2, F12-NEVPT2, CIM, IAO-localization
   Andreas Hansen         : Spin unrestricted coupled pair/coupled cluster methods
   Benjamin Helmich-Paris : MC-RPA, TRAH-SCF, COSX integrals
   Lee Huntington         : MR-EOM, pCC
   Robert Izsak           : Overlap fitted RIJCOSX, COSX-SCS-MP3, EOM
   Marcus Kettner         : VPT2
   Christian Kollmar      : KDIIS, OOCD, Brueckner-CCSD(T), CCSD density, CASPT2, CASPT2-K
   Simone Kossmann        : Meta GGA functionals, TD-DFT gradient, OOMP2, MP2 Hessian
   Martin Krupicka        : Initial AUTO-CI
   Lucas Lang             : DCDCAS
   Marvin Lechner         : AUTO-CI (C++ implementation), FIC-MRCC
   Dagmar Lenk            : GEPOL surface, SMD
   Dimitrios Liakos       : Extrapolation schemes; Compound Job, initial MDCI parallelization
   Dimitrios Manganas     : Further ROCIS development; embedding schemes
   Dimitrios Pantazis     : SARC Basis sets
   Anastasios Papadopoulos: AUTO-CI, single reference methods and gradients
   Taras Petrenko         : DFT Hessian,TD-DFT gradient, ASA, ECA, R-Raman, ABS, FL, XAS/XES, NRVS
   Peter Pinski           : DLPNO-MP2, DLPNO-MP2 Gradient
   Christoph Reimann      : Effective Core Potentials
   Marius Retegan         : Local ZFS, SOC
   Christoph Riplinger    : Optimizer, TS searches, QM/MM, DLPNO-CCSD(T), (RO)-DLPNO pert. Triples
   Tobias Risthaus        : Range-separated hybrids, TD-DFT gradient, RPA, STAB
   Michael Roemelt        : Original ROCIS implementation
   Masaaki Saitow         : Open-shell DLPNO-CCSD energy and density
   Barbara Sandhoefer     : DKH picture change effects
   Avijit Sen             : IP-ROCIS
   Kantharuban Sivalingam : CASSCF convergence, NEVPT2, FIC-MRCI
   Bernardo de Souza      : ESD, SOC TD-DFT
   Georgi Stoychev        : AutoAux, RI-MP2 NMR, DLPNO-MP2 response
   Willem Van den Heuvel  : Paramagnetic NMR
   Boris Wezisla          : Elementary symmetry handling
   Frank Wennmohs         : Technical directorship


 We gratefully acknowledge several colleagues who have allowed us to
 interface, adapt or use parts of their codes:
   Stefan Grimme, W. Hujo, H. Kruse, P. Pracht,  : VdW corrections, initial TS optimization,
                  C. Bannwarth, S. Ehlert          DFT functionals, gCP, sTDA/sTD-DF
   Ed Valeev, F. Pavosevic, A. Kumar             : LibInt (2-el integral package), F12 methods
   Garnet Chan, S. Sharma, J. Yang, R. Olivares  : DMRG
   Ulf Ekstrom                                   : XCFun DFT Library
   Mihaly Kallay                                 : mrcc  (arbitrary order and MRCC methods)
   Jiri Pittner, Ondrej Demel                    : Mk-CCSD
   Frank Weinhold                                : gennbo (NPA and NBO analysis)
   Christopher J. Cramer and Donald G. Truhlar   : smd solvation model
   Lars Goerigk                                  : TD-DFT with DH, B97 family of functionals
   V. Asgeirsson, H. Jonsson                     : NEB implementation
   FAccTs GmbH                                   : IRC, NEB, NEB-TS, DLPNO-Multilevel, CI-OPT
                                                   MM, QMMM, 2- and 3-layer-ONIOM, Crystal-QMMM,
                                                   LR-CPCM, SF, NACMEs, symmetry and pop. for TD-DFT,
                                                   nearIR, NL-DFT gradient (VV10), updates on ESD,
                                                   ML-optimized integration grids
   S Lehtola, MJT Oliveira, MAL Marques          : LibXC Library
   Liviu Ungur et al                             : ANISO software


 Your calculation uses the libint2 library for the computation of 2-el integrals
 For citations please refer to: http://libint.valeyev.net

 Your ORCA version has been built with support for libXC version: 5.1.0
 For citations please refer to: https://tddft.org/programs/libxc/

 This ORCA versions uses:
   CBLAS   interface :  Fast vector & matrix operations
   LAPACKE interface :  Fast linear algebra routines
   SCALAPACK package :  Parallel linear algebra routines
   Shared memory     :  Shared parallel matrices
   BLAS/LAPACK       :  OpenBLAS 0.3.15  USE64BITINT DYNAMIC_ARCH NO_AFFINITY Zen SINGLE_THREADED
        Core in use  :  Zen
   Copyright (c) 2011-2014, The OpenBLAS Project




***************************************
The coordinates will be read from file: ini.xyz
***************************************


Your calculation utilizes the geometrical counterpoise correction gCP
Please cite in your paper:
H.Kruse, S. Grimme J.Chem.Phys., 136, (2012), 154101 
   

Your calculation utilizes the atom-pairwise dispersion correction
based on tight binding partial charges (D4)
Cite in your paper:
E.Caldeweyher, C.Bannwarth, S.Grimme, J.Chem.Phys., (2017), 147, 034112.
E.Caldeweyher, S.Ehlert, A.Hansen, H.Neugebauer, S.Grimme, J.Chem.Phys., (2018), in progress.
   

================================================================================

----- Orbital basis set information -----
Your calculation utilizes the basis: def2-mTZVPP
   Stefan Grimme, Andreas Hansen, Sebastian Ehlert, and Jan-Michael Mewes 
   J. Chem. Phys. 154, 000000 (2021). DOI: 10.1063/5.0040021

----- AuxJ basis set information -----
Your calculation utilizes the basis: def2-mTZVPP/J
   Stefan Grimme, Andreas Hansen, Sebastian Ehlert, and Jan-Michael Mewes 
   J. Chem. Phys. 154, 000000 (2021). DOI: 10.1063/5.0040021

================================================================================
                                        WARNINGS
                       Please study these warnings very carefully!
================================================================================

Using LibXC functional ID 497 : Re-regularized SCAN exchange by Furness et al
[ 1]  J. W. Furness, A. D. Kaplan, J. Ning, J. P. Perdew, and J. Sun, J. Phys. Chem. Lett. 11, 8208 (2020)
[ 2]  J. W. Furness, A. D. Kaplan, J. Ning, J. P. Perdew, and J. Sun, J. Phys. Chem. Lett. 11, 9248 (2020)
Using LibXC functional ID 498 : Re-regularized SCAN correlation by Furness et al
[ 1]  J. W. Furness, A. D. Kaplan, J. Ning, J. P. Perdew, and J. Sun, J. Phys. Chem. Lett. 11, 8208 (2020)
[ 2]  J. W. Furness, A. D. Kaplan, J. Ning, J. P. Perdew, and J. Sun, J. Phys. Chem. Lett. 11, 9248 (2020)
Using LibXC functional ID 497 : Re-regularized SCAN exchange by Furness et al
[ 1]  J. W. Furness, A. D. Kaplan, J. Ning, J. P. Perdew, and J. Sun, J. Phys. Chem. Lett. 11, 8208 (2020)
[ 2]  J. W. Furness, A. D. Kaplan, J. Ning, J. P. Perdew, and J. Sun, J. Phys. Chem. Lett. 11, 9248 (2020)
Using LibXC functional ID 498 : Re-regularized SCAN correlation by Furness et al
[ 1]  J. W. Furness, A. D. Kaplan, J. Ning, J. P. Perdew, and J. Sun, J. Phys. Chem. Lett. 11, 8208 (2020)
[ 2]  J. W. Furness, A. D. Kaplan, J. Ning, J. P. Perdew, and J. Sun, J. Phys. Chem. Lett. 11, 9248 (2020)

INFO   : the flag for use of the SHARK integral package has been found!

================================================================================
                                       INPUT FILE
================================================================================
NAME = mol.inp
|  1> ! r2SCAN-3c CPCM(benzene) tightSCF
|  2> ! Hirshfeld
|  3> 
|  4> %maxcore 10000
|  5> 
|  6> %pal
|  7> nprocs 18    # parallel execution
|  8> end
|  9> 
| 10> %output
| 11>    Print[ P_BondOrder_M ] 1
| 12>    Print[ P_BondOrder_L ] 1
| 13> end
| 14> 
| 15> * xyzfile 0 1  ini.xyz
| 16> 
| 17>                          ****END OF INPUT****
================================================================================

                       ****************************
                       * Single Point Calculation *
                       ****************************

---------------------------------
CARTESIAN COORDINATES (ANGSTROEM)
---------------------------------
  C     -0.068647   -0.216217    0.355439
  C      0.757279    0.899587    0.415757
  C      0.488426   -1.484462    0.414608
  C      2.155657    0.778033    0.535046
  C      2.695006   -0.521409    0.592026
  C      1.870596   -1.632536    0.532823
  N      0.132765    2.224867    0.351441
  C      3.035088    1.878065    0.596838
  H     -1.138859   -0.075866    0.263536
  H     -0.155062   -2.356812    0.368554
  H      3.769999   -0.633496    0.683156
  H      2.310237   -2.624176    0.579065
  N      3.995319    2.536433    0.663406
  O      4.932486    3.288850    0.731273
  O     -1.085875    2.277324    0.227272
  O      0.863173    3.208344    0.425370

----------------------------
CARTESIAN COORDINATES (A.U.)
----------------------------
  NO LB      ZA    FRAG     MASS         X           Y           Z
   0 C     6.0000    0    12.011   -0.129724   -0.408591    0.671682
   1 C     6.0000    0    12.011    1.431050    1.699973    0.785667
   2 C     6.0000    0    12.011    0.922991   -2.805227    0.783496
   3 C     6.0000    0    12.011    4.073601    1.470269    1.011090
   4 C     6.0000    0    12.011    5.092823   -0.985320    1.118767
   5 C     6.0000    0    12.011    3.534914   -3.085046    1.006890
   6 N     7.0000    0    14.007    0.250889    4.204389    0.664127
   7 C     6.0000    0    12.011    5.735485    3.549029    1.127860
   8 H     1.0000    0     1.008   -2.152132   -0.143366    0.498011
   9 H     1.0000    0     1.008   -0.293025   -4.453729    0.696466
  10 H     1.0000    0     1.008    7.124266   -1.197134    1.290978
  11 H     1.0000    0     1.008    4.365715   -4.958974    1.094274
  12 N     7.0000    0    14.007    7.550059    4.793164    1.253656
  13 O     8.0000    0    15.999    9.321048    6.215026    1.381906
  14 O     8.0000    0    15.999   -2.052006    4.303519    0.429482
  15 O     8.0000    0    15.999    1.631161    6.062892    0.803833

--------------------------------
INTERNAL COORDINATES (ANGSTROEM)
--------------------------------
 C      0   0   0     0.000000000000     0.00000000     0.00000000
 C      1   0   0     1.389536104251     0.00000000     0.00000000
 C      1   2   0     1.386461928044   119.59468449     0.00000000
 C      2   1   3     1.408710854406   121.62897393     0.05847500
 C      4   2   1     1.408081523054   117.59930294     0.00000000
 C      5   4   2     1.384832139083   120.70992720   359.96337104
 N      2   1   3     1.466465602206   118.07726925   180.05000649
 C      4   2   1     1.409711862775   123.75489150   179.84485283
 H      1   2   3     1.083281260594   119.13462440   179.95385248
 H      3   1   2     1.084984930568   119.69320798   179.94471192
 H      5   4   2     1.084655762220   118.58040027   179.95589495
 H      6   5   4     1.085712863074   119.33735298   180.02438765
 N      8   4   2     1.166157491683   163.08157461   181.17828109
 O     13   8   4     1.203752157824   175.68297564   181.71330987
 O      7   2   1     1.226072235641   117.80015148   358.91986417
 O      7   2   1     1.227268655606   117.91160543   178.91771815

---------------------------
INTERNAL COORDINATES (A.U.)
---------------------------
 C      0   0   0     0.000000000000     0.00000000     0.00000000
 C      1   0   0     2.625842690230     0.00000000     0.00000000
 C      1   2   0     2.620033339111   119.59468449     0.00000000
 C      2   1   3     2.662077716709   121.62897393     0.05847500
 C      4   2   1     2.660888452806   117.59930294     0.00000000
 C      5   4   2     2.616953484320   120.70992720   359.96337104
 N      2   1   3     2.771218372984   118.07726925   180.05000649
 C      4   2   1     2.663969348385   123.75489150   179.84485283
 H      1   2   3     2.047104908532   119.13462440   179.95385248
 H      3   1   2     2.050324378205   119.69320798   179.94471192
 H      5   4   2     2.049702340176   118.58040027   179.95589495
 H      6   5   4     2.051699971286   119.33735298   180.02438765
 N      8   4   2     2.203718288302   163.08157461   181.17828109
 O     13   8   4     2.274761911405   175.68297564   181.71330987
 O      7   2   1     2.316940745766   117.80015148   358.91986417
 O      7   2   1     2.319201651842   117.91160543   178.91771815

---------------------
BASIS SET INFORMATION
---------------------
There are 4 groups of distinct atoms

 Group   1 Type C   : 11s6p1d contracted to 5s3p1d pattern {62111/411/1}
 Group   2 Type N   : 11s6p2d contracted to 5s3p2d pattern {62111/411/11}
 Group   3 Type H   : 4s1p contracted to 2s1p pattern {31/1}
 Group   4 Type O   : 11s6p2d contracted to 5s3p2d pattern {62111/411/11}

Atom   0C    basis set group =>   1
Atom   1C    basis set group =>   1
Atom   2C    basis set group =>   1
Atom   3C    basis set group =>   1
Atom   4C    basis set group =>   1
Atom   5C    basis set group =>   1
Atom   6N    basis set group =>   2
Atom   7C    basis set group =>   1
Atom   8H    basis set group =>   3
Atom   9H    basis set group =>   3
Atom  10H    basis set group =>   3
Atom  11H    basis set group =>   3
Atom  12N    basis set group =>   2
Atom  13O    basis set group =>   4
Atom  14O    basis set group =>   4
Atom  15O    basis set group =>   4
---------------------------------
AUXILIARY/J BASIS SET INFORMATION
---------------------------------
There are 4 groups of distinct atoms

 Group   1 Type C   : 8s3p3d contracted to 6s3p3d pattern {311111/111/111}
 Group   2 Type N   : 8s3p3d contracted to 6s3p3d pattern {311111/111/111}
 Group   3 Type H   : 5s2p1d contracted to 3s1p1d pattern {311/2/1}
 Group   4 Type O   : 8s3p3d contracted to 6s3p3d pattern {311111/111/111}

Atom   0C    basis set group =>   1
Atom   1C    basis set group =>   1
Atom   2C    basis set group =>   1
Atom   3C    basis set group =>   1
Atom   4C    basis set group =>   1
Atom   5C    basis set group =>   1
Atom   6N    basis set group =>   2
Atom   7C    basis set group =>   1
Atom   8H    basis set group =>   3
Atom   9H    basis set group =>   3
Atom  10H    basis set group =>   3
Atom  11H    basis set group =>   3
Atom  12N    basis set group =>   2
Atom  13O    basis set group =>   4
Atom  14O    basis set group =>   4
Atom  15O    basis set group =>   4


           ************************************************************
           *        Program running with 18 parallel MPI-processes    *
           *              working on a common directory               *
           ************************************************************
------------------------------------------------------------------------------
                           ORCA GTO INTEGRAL CALCULATION
                           -- RI-GTO INTEGRALS CHOSEN --
------------------------------------------------------------------------------
------------------------------------------------------------------------------
                   ___                                                        
                  /   \      - P O W E R E D   B Y -                         
                 /     \                                                     
                 |  |  |   _    _      __       _____    __    __             
                 |  |  |  | |  | |    /  \     |  _  \  |  |  /  |          
                  \  \/   | |  | |   /    \    | | | |  |  | /  /          
                 / \  \   | |__| |  /  /\  \   | |_| |  |  |/  /          
                |  |  |   |  __  | /  /__\  \  |    /   |      \           
                |  |  |   | |  | | |   __   |  |    \   |  |\   \          
                \     /   | |  | | |  |  |  |  | |\  \  |  | \   \       
                 \___/    |_|  |_| |__|  |__|  |_| \__\ |__|  \__/        
                                                                              
                      - O R C A' S   B I G   F R I E N D -                    
                                      &                                       
                       - I N T E G R A L  F E E D E R -                       
                                                                              
 v1 FN, 2020, v2 2021                                                         
------------------------------------------------------------------------------


Reading SHARK input file mol.SHARKINP.tmp ... ok
----------------------
SHARK INTEGRAL PACKAGE
----------------------

Number of atoms                             ...     16
Number of basis functions                   ...    273
Number of shells                            ...    125
Maximum angular momentum                    ...      2
Integral batch strategy                     ... SHARK/LIBINT Hybrid
RI-J (if used) integral strategy            ... SPLIT-RIJ (Revised 2003 algorithm where possible)
Printlevel                                  ...      1
Contraction scheme used                     ... SEGMENTED contraction
Coulomb Range Separation                    ... NOT USED
Exchange Range Separation                   ... NOT USED
Finite Nucleus Model                        ... NOT USED
Auxiliary Coulomb fitting basis             ... AVAILABLE
   # of basis functions in Aux-J            ...    404
   # of shells in Aux-J                     ...    164
   Maximum angular momentum in Aux-J        ...      2
Auxiliary J/K fitting basis                 ... NOT available
Auxiliary Correlation fitting basis         ... NOT available
Auxiliary 'external' fitting basis          ... NOT available
Integral threshold                          ...     2.500000e-11
Primitive cut-off                           ...     2.500000e-12
Primitive pair pre-selection threshold      ...     2.500000e-12

Calculating pre-screening integrals         ... done (  0.0 sec) Dimension = 125
Organizing shell pair data                  ... done (  0.0 sec)
Shell pair information
Total number of shell pairs                 ...      7875
Shell pairs after pre-screening             ...      6681
Total number of primitive shell pairs       ...     29437
Primitive shell pairs kept                  ...     17038
          la=0 lb=0:   1840 shell pairs
          la=1 lb=0:   2362 shell pairs
          la=1 lb=1:    754 shell pairs
          la=2 lb=0:    970 shell pairs
          la=2 lb=1:    618 shell pairs
          la=2 lb=2:    137 shell pairs

Calculating one electron integrals          ... done (  0.0 sec)
Calculating RI/J V-Matrix + Cholesky decomp.... done (  0.0 sec)
Calculating Nuclear repulsion               ... done (  0.0 sec) ENN=    636.364364813696 Eh

SHARK setup successfully completed in   0.2 seconds

Maximum memory used throughout the entire GTOINT-calculation: 14.1 MB


           ************************************************************
           *        Program running with 18 parallel MPI-processes    *
           *              working on a common directory               *
           ************************************************************
-------------------------------------------------------------------------------
                                 ORCA SCF
-------------------------------------------------------------------------------

------------
SCF SETTINGS
------------
Hamiltonian:
 Density Functional     Method          .... DFT(GTOs)
  Functional kind                       .... Exchange
  Functional name                       .... Re-regularized SCAN exchange by Furness et al
  Functional family                     .... MGGA
  Functional refs                              
    [ 0] J. W. Furness, A. D. Kaplan, J. Ning, J. P. Perdew, and J. Sun, J. Phys. Chem. Lett. 11, 8208 (2020)
    [ 1] J. W. Furness, A. D. Kaplan, J. Ning, J. P. Perdew, and J. Sun, J. Phys. Chem. Lett. 11, 9248 (2020)
  Functional external parameters         .... 8
 Parameter  0 :         c1 parameter
 Parameter  1 :         c2 parameter
 Parameter  2 :          d parameter
 Parameter  3 :         k1 parameter
 Parameter  4 :       taur parameter
 Parameter  5 :     alphar parameter
 Parameter  6 :        eta parameter
 Parameter  7 :        dp2 parameter
  Functional kind                       .... Correlation
  Functional name                       .... Re-regularized SCAN correlation by Furness et al
  Functional family                     .... MGGA
  Functional refs                              
    [ 0] J. W. Furness, A. D. Kaplan, J. Ning, J. P. Perdew, and J. Sun, J. Phys. Chem. Lett. 11, 8208 (2020)
    [ 1] J. W. Furness, A. D. Kaplan, J. Ning, J. P. Perdew, and J. Sun, J. Phys. Chem. Lett. 11, 9248 (2020)
  Functional external parameters         .... 0
 Gradients option       PostSCFGGA      .... off
   Density functional embedding theory  .... OFF
 RI-approximation to the Coulomb term is turned on
   Number of AuxJ basis functions       .... 404


General Settings:
 Integral files         IntName         .... mol
 Hartree-Fock type      HFTyp           .... RHF
 Total Charge           Charge          ....    0
 Multiplicity           Mult            ....    1
 Number of Electrons    NEL             ....   84
 Basis Dimension        Dim             ....  273
 Nuclear Repulsion      ENuc            ....    636.3643648137 Eh

Convergence Acceleration:
 DIIS                   CNVDIIS         .... on
   Start iteration      DIISMaxIt       ....    12
   Startup error        DIISStart       ....  0.200000
   # of expansion vecs  DIISMaxEq       ....     5
   Bias factor          DIISBfac        ....   1.050
   Max. coefficient     DIISMaxC        ....  10.000
 Trust-Rad. Augm. Hess. CNVTRAH         .... auto
   Auto Start mean grad. ratio tolernc. ....  1.125000
   Auto Start start iteration           ....    20
   Auto Start num. interpolation iter.  ....    10
   Max. Number of Micro iterations      ....    16
   Max. Number of Macro iterations      .... Maxiter - #DIIS iter
   Number of Davidson start vectors     ....     2
   Converg. threshold I  (grad. norm)   ....   1.000e-05
   Converg. threshold II (energy diff.) ....   1.000e-08
   Grad. Scal. Fac. for Micro threshold ....   0.100
   Minimum threshold for Micro iter.    ....   0.010
   NR start threshold (gradient norm)   ....   0.001
   Initial trust radius                 ....   0.400
   Minimum AH scaling param. (alpha)    ....   1.000
   Maximum AH scaling param. (alpha)    .... 1000.000
   Orbital update algorithm             .... Taylor
   White noise on init. David. guess    .... on
   Maximum white noise                  ....   0.010
   Quad. conv. algorithm                .... NR
   COSX micro iterations for RIJONX calc.... off
 SOSCF                  CNVSOSCF        .... on
   Start iteration      SOSCFMaxIt      ....   150
   Startup grad/error   SOSCFStart      ....  0.003300
 Level Shifting         CNVShift        .... on
   Level shift para.    LevelShift      ....    0.2500
   Turn off err/grad.   ShiftErr        ....    0.0010
 Zerner damping         CNVZerner       .... off
 Static damping         CNVDamp         .... on
   Fraction old density DampFac         ....    0.7000
   Max. Damping (<1)    DampMax         ....    0.9800
   Min. Damping (>=0)   DampMin         ....    0.0000
   Turn off err/grad.   DampErr         ....    0.1000
 Fernandez-Rico         CNVRico         .... off

SCF Procedure:
 Maximum # iterations   MaxIter         ....   125
 SCF integral mode      SCFMode         .... Direct
   Integral package                     .... SHARK and LIBINT hybrid scheme
 Reset frequency        DirectResetFreq ....    20
 Integral Threshold     Thresh          ....  2.500e-11 Eh
 Primitive CutOff       TCut            ....  2.500e-12 Eh

Convergence Tolerance:
 Convergence Check Mode ConvCheckMode   .... Total+1el-Energy
 Convergence forced     ConvForced      .... 0
 Energy Change          TolE            ....  1.000e-08 Eh
 1-El. energy change                    ....  1.000e-05 Eh
 Orbital Gradient       TolG            ....  1.000e-05
 Orbital Rotation angle TolX            ....  1.000e-05
 DIIS Error             TolErr          ....  5.000e-07


Diagonalization of the overlap matrix:
Smallest eigenvalue                        ... 2.401e-05
Time for diagonalization                   ...    0.007 sec
Threshold for overlap eigenvalues          ... 1.000e-08
Number of eigenvalues below threshold      ... 0
Time for construction of square roots      ...    0.010 sec
Total time needed                          ...    0.018 sec

Time for model grid setup =    0.073 sec

------------------------------
INITIAL GUESS: MODEL POTENTIAL
------------------------------
Loading Hartree-Fock densities                     ... done
Calculating cut-offs                               ... done
Initializing the effective Hamiltonian             ... done
Setting up the integral package (SHARK)            ... done
Starting the Coulomb interaction                   ... done (   0.0 sec)
Reading the grid                                   ... done
Mapping shells                                     ... done
Starting the XC term evaluation                    ... done (   0.0 sec)
  promolecular density results
     # of electrons  =     83.996787000
     EX              =    -74.498413520
     EC              =     -2.842578737
     EX+EC           =    -77.340992257
Transforming the Hamiltonian                       ... done (   0.0 sec)
Diagonalizing the Hamiltonian                      ... done (   0.0 sec)
Back transforming the eigenvectors                 ... done (   0.0 sec)
Now organizing SCF variables                       ... done
                      ------------------
                      INITIAL GUESS DONE (   0.2 sec)
                      ------------------
-------------------
DFT GRID GENERATION
-------------------

General Integration Accuracy     IntAcc      ... 4.388
Radial Grid Type                 RadialGrid  ... OptM3 with GC (2021)
Angular Grid (max. ang.)         AngularGrid ... 4 (Lebedev-302)
Angular grid pruning method      GridPruning ... 4 (adaptive)
Weight generation scheme         WeightScheme... Becke
Basis function cutoff            BFCut       ... 1.0000e-11
Integration weight cutoff        WCut        ... 1.0000e-14
Angular grids for H and He will be reduced by one unit
Partially contracted basis set               ... off
Rotationally invariant grid construction     ... off

Total number of grid points                  ...    86187
Total number of batches                      ...     1356
Average number of points per batch           ...       63
Average number of grid points per atom       ...     5387
Time for grid setup =    0.346 sec


--------------------
CPCM SOLVATION MODEL
--------------------
CPCM parameters:
  Epsilon                                         ...       2.2800
  Refrac                                          ...       1.5010
  Rsolv                                           ...       1.3000
  Surface type                                    ... GAUSSIAN VDW
  Epsilon function type                           ...         CPCM
Radii:
 Radius for C  used is    3.8550 Bohr (=   2.0400 Ang.)
 Radius for N  used is    3.5149 Bohr (=   1.8600 Ang.)
 Radius for H  used is    2.4944 Bohr (=   1.3200 Ang.)
 Radius for O  used is    3.4469 Bohr (=   1.8240 Ang.)
Calculating surface                               ...        done! (  0.0s)
GEPOL surface points                              ...          943
GEPOL Volume                                      ...    1222.2618
GEPOL Surface-area                                ...     677.0625
Calculating surface distance matrix               ...        done! (  0.0s)
Performing Cholesky decomposition & store         ...        done! (  0.0s)
Overall time for CPCM initialization              ...                 0.0s
--------------
SCF ITERATIONS
--------------
ITER       Energy         Delta-E        Max-DP      RMS-DP      [F,P]     Damp
               ***  Starting incremental Fock matrix formation  ***
  0   -603.8079628838   0.000000000000 0.11166468  0.00185056  0.2476864 0.7000
  1   -603.9335552587  -0.125592374814 0.08750676  0.00123865  0.0734594 0.7000
                               ***Turning on DIIS***
  2   -603.9717214270  -0.038166168346 0.11676549  0.00214233  0.0310359 0.0000
  3   -604.0519406885  -0.080219261500 0.05889137  0.00084249  0.0342040 0.0000
  4   -604.0602748995  -0.008334211001 0.01455866  0.00035683  0.0325479 0.0000
  5   -604.0625460911  -0.002271191624 0.00984727  0.00017948  0.0035967 0.0000
                      *** Initiating the SOSCF procedure ***
                           *** Shutting down DIIS ***
                      *** Re-Reading the Fockian *** 
                      *** Removing any level shift *** 
ITER      Energy       Delta-E        Grad      Rot      Max-DP    RMS-DP
  6   -604.06265385  -0.0001077610  0.000473  0.000473  0.002607  0.000052
               *** Restarting incremental Fock matrix formation ***
  7   -604.06267353  -0.0000196763  0.000425  0.001613  0.001190  0.000035
  8   -604.06265785   0.0000156779  0.001200  0.001366  0.000887  0.000026
  9   -604.06267516  -0.0000173065  0.000284  0.001116  0.001562  0.000030
 10   -604.06266716   0.0000079987  0.000838  0.000736  0.001209  0.000022
 11   -604.06267639  -0.0000092283  0.000037  0.000186  0.000127  0.000004
 12   -604.06267630   0.0000000902  0.000062  0.000137  0.000066  0.000002
 13   -604.06267642  -0.0000001247  0.000005  0.000021  0.000044  0.000001
 14   -604.06267642   0.0000000051  0.000010  0.000014  0.000019  0.000001
 15   -604.06267643  -0.0000000097  0.000003  0.000018  0.000044  0.000001
 16   -604.06267643  -0.0000000055  0.000010  0.000014  0.000014  0.000000
                  ***Gradient check signals convergence***
              ***Rediagonalizing the Fockian in SOSCF/NRSCF***

               *****************************************************
               *                     SUCCESS                       *
               *           SCF CONVERGED AFTER  17 CYCLES          *
               *****************************************************


----------------
TOTAL SCF ENERGY
----------------

Total Energy       :         -604.06267644 Eh          -16437.38109 eV

Components:
Nuclear Repulsion  :          636.36436481 Eh           17316.35471 eV
Electronic Energy  :        -1240.42704125 Eh          -33753.73580 eV
One Electron Energy:        -2083.31973069 Eh          -56690.01194 eV
Two Electron Energy:          842.89268944 Eh           22936.27614 eV
CPCM Dielectric    :           -0.00773777 Eh              -0.21056 eV

Virial components:
Potential Energy   :        -1205.79317032 Eh          -32811.30026 eV
Kinetic Energy     :          601.73049388 Eh           16373.91917 eV
Virial Ratio       :            2.00387579


DFT components:
N(Alpha)           :       42.000015643582 electrons
N(Beta)            :       42.000015643582 electrons
N(Total)           :       84.000031287164 electrons
E(X)               :      -75.886661369252 Eh       
E(C)               :       -2.812848679420 Eh       
E(XC)              :      -78.699510048672 Eh       
DFET-embed. en.    :        0.000000000000 Eh       
CPCM Solvation Model Properties:
Surface-charge          :           -0.01588351
Charge-correction       :            0.00002128 Eh               0.00058 eV
Free-energy (cav+disp)  :  This term is not implemented in the current solvation scheme

---------------
SCF CONVERGENCE
---------------

  Last Energy change         ...   -5.1339e-09  Tolerance :   1.0000e-08
  Last MAX-Density change    ...    5.0331e-05  Tolerance :   1.0000e-07
  Last RMS-Density change    ...    6.9066e-07  Tolerance :   5.0000e-09
  Last Orbital Gradient      ...    5.2809e-07  Tolerance :   1.0000e-05
  Last Orbital Rotation      ...    3.1074e-06  Tolerance :   1.0000e-05

             **** THE GBW FILE WAS UPDATED (mol.gbw) ****
             **** DENSITY mol.scfp WAS UPDATED ****
             **** ENERGY FILE WAS UPDATED (mol.en.tmp) ****
             **** THE GBW FILE WAS UPDATED (mol.gbw) ****
             **** DENSITY mol.scfp WAS UPDATED ****
----------------
ORBITAL ENERGIES
----------------

  NO   OCC          E(Eh)            E(eV) 
   0   2.0000     -19.004589      -517.1411 
   1   2.0000     -19.000262      -517.0234 
   2   2.0000     -18.997727      -516.9544 
   3   2.0000     -14.409341      -392.0981 
   4   2.0000     -14.311606      -389.4386 
   5   2.0000     -10.122780      -275.4549 
   6   2.0000     -10.119640      -275.3694 
   7   2.0000     -10.107893      -275.0498 
   8   2.0000     -10.080133      -274.2944 
   9   2.0000     -10.079079      -274.2657 
  10   2.0000     -10.076653      -274.1997 
  11   2.0000     -10.073559      -274.1155 
  12   2.0000      -1.210061       -32.9274 
  13   2.0000      -1.134830       -30.8803 
  14   2.0000      -1.036276       -28.1985 
  15   2.0000      -0.899962       -24.4892 
  16   2.0000      -0.874001       -23.7828 
  17   2.0000      -0.793541       -21.5934 
  18   2.0000      -0.772859       -21.0306 
  19   2.0000      -0.695637       -18.9292 
  20   2.0000      -0.637483       -17.3468 
  21   2.0000      -0.595052       -16.1922 
  22   2.0000      -0.561069       -15.2675 
  23   2.0000      -0.522333       -14.2134 
  24   2.0000      -0.519915       -14.1476 
  25   2.0000      -0.507671       -13.8144 
  26   2.0000      -0.500163       -13.6101 
  27   2.0000      -0.476054       -12.9541 
  28   2.0000      -0.467979       -12.7343 
  29   2.0000      -0.465231       -12.6596 
  30   2.0000      -0.449175       -12.2227 
  31   2.0000      -0.436079       -11.8663 
  32   2.0000      -0.390290       -10.6203 
  33   2.0000      -0.377145       -10.2626 
  34   2.0000      -0.360904        -9.8207 
  35   2.0000      -0.312719        -8.5095 
  36   2.0000      -0.301054        -8.1921 
  37   2.0000      -0.300347        -8.1729 
  38   2.0000      -0.281756        -7.6670 
  39   2.0000      -0.279223        -7.5980 
  40   2.0000      -0.241167        -6.5625 
  41   2.0000      -0.237304        -6.4574 
  42   0.0000      -0.138597        -3.7714 
  43   0.0000      -0.089016        -2.4222 
  44   0.0000      -0.047421        -1.2904 
  45   0.0000      -0.016314        -0.4439 
  46   0.0000       0.025349         0.6898 
  47   0.0000       0.049943         1.3590 
  48   0.0000       0.068161         1.8547 
  49   0.0000       0.090861         2.4725 
  50   0.0000       0.105594         2.8734 
  51   0.0000       0.108167         2.9434 
  52   0.0000       0.113249         3.0817 
  53   0.0000       0.123782         3.3683 
  54   0.0000       0.139927         3.8076 
  55   0.0000       0.147467         4.0128 
  56   0.0000       0.164195         4.4680 
  57   0.0000       0.186767         5.0822 
  58   0.0000       0.194270         5.2864 
  59   0.0000       0.202609         5.5133 
  60   0.0000       0.214122         5.8265 
  61   0.0000       0.224810         6.1174 
  62   0.0000       0.228784         6.2255 
  63   0.0000       0.230045         6.2598 
  64   0.0000       0.237269         6.4564 
  65   0.0000       0.245362         6.6767 
  66   0.0000       0.254397         6.9225 
  67   0.0000       0.269437         7.3318 
  68   0.0000       0.275481         7.4962 
  69   0.0000       0.290336         7.9004 
  70   0.0000       0.295499         8.0409 
  71   0.0000       0.303759         8.2657 
  72   0.0000       0.313724         8.5369 
  73   0.0000       0.331637         9.0243 
  74   0.0000       0.335627         9.1329 
  75   0.0000       0.337765         9.1911 
  76   0.0000       0.354352         9.6424 
  77   0.0000       0.362693         9.8694 
  78   0.0000       0.370877        10.0921 
  79   0.0000       0.374724        10.1968 
  80   0.0000       0.401047        10.9131 
  81   0.0000       0.402619        10.9558 
  82   0.0000       0.418645        11.3919 
  83   0.0000       0.428391        11.6571 
  84   0.0000       0.448479        12.2037 
  85   0.0000       0.450253        12.2520 
  86   0.0000       0.470507        12.8031 
  87   0.0000       0.475729        12.9453 
  88   0.0000       0.491849        13.3839 
  89   0.0000       0.498359        13.5610 
  90   0.0000       0.501516        13.6469 
  91   0.0000       0.502697        13.6791 
  92   0.0000       0.523472        14.2444 
  93   0.0000       0.534848        14.5540 
  94   0.0000       0.538730        14.6596 
  95   0.0000       0.545097        14.8328 
  96   0.0000       0.549737        14.9591 
  97   0.0000       0.560908        15.2631 
  98   0.0000       0.576981        15.7005 
  99   0.0000       0.584509        15.9053 
 100   0.0000       0.602452        16.3936 
 101   0.0000       0.606478        16.5031 
 102   0.0000       0.616252        16.7691 
 103   0.0000       0.629603        17.1324 
 104   0.0000       0.632472        17.2104 
 105   0.0000       0.646938        17.6041 
 106   0.0000       0.649581        17.6760 
 107   0.0000       0.661086        17.9891 
 108   0.0000       0.667061        18.1516 
 109   0.0000       0.676448        18.4071 
 110   0.0000       0.710594        19.3362 
 111   0.0000       0.726095        19.7580 
 112   0.0000       0.736400        20.0385 
 113   0.0000       0.753695        20.5091 
 114   0.0000       0.776717        21.1356 
 115   0.0000       0.780432        21.2366 
 116   0.0000       0.785670        21.3792 
 117   0.0000       0.792441        21.5634 
 118   0.0000       0.808714        22.0062 
 119   0.0000       0.830622        22.6024 
 120   0.0000       0.869744        23.6669 
 121   0.0000       0.890795        24.2398 
 122   0.0000       0.907922        24.7058 
 123   0.0000       0.938563        25.5396 
 124   0.0000       0.949207        25.8292 
 125   0.0000       0.953632        25.9497 
 126   0.0000       0.994200        27.0535 
 127   0.0000       1.011715        27.5302 
 128   0.0000       1.030578        28.0435 
 129   0.0000       1.047614        28.5070 
 130   0.0000       1.056715        28.7547 
 131   0.0000       1.060400        28.8549 
 132   0.0000       1.092473        29.7277 
 133   0.0000       1.116322        30.3767 
 134   0.0000       1.163463        31.6594 
 135   0.0000       1.184595        32.2345 
 136   0.0000       1.201685        32.6995 
 137   0.0000       1.242964        33.8228 
 138   0.0000       1.244622        33.8679 
 139   0.0000       1.249842        34.0099 
 140   0.0000       1.282164        34.8894 
 141   0.0000       1.293559        35.1995 
 142   0.0000       1.322287        35.9812 
 143   0.0000       1.325905        36.0797 
 144   0.0000       1.339710        36.4554 
 145   0.0000       1.368476        37.2381 
 146   0.0000       1.381586        37.5949 
 147   0.0000       1.386314        37.7235 
 148   0.0000       1.400124        38.0993 
 149   0.0000       1.423351        38.7314 
 150   0.0000       1.435906        39.0730 
 151   0.0000       1.442319        39.2475 
 152   0.0000       1.452750        39.5313 
 153   0.0000       1.464069        39.8393 
 154   0.0000       1.488632        40.5077 
 155   0.0000       1.506102        40.9831 
 156   0.0000       1.512060        41.1453 
 157   0.0000       1.517794        41.3013 
 158   0.0000       1.527271        41.5592 
 159   0.0000       1.560236        42.4562 
 160   0.0000       1.564291        42.5665 
 161   0.0000       1.590392        43.2768 
 162   0.0000       1.601286        43.5732 
 163   0.0000       1.644868        44.7591 
 164   0.0000       1.655891        45.0591 
 165   0.0000       1.698039        46.2060 
 166   0.0000       1.728612        47.0379 
 167   0.0000       1.784178        48.5499 
 168   0.0000       1.842388        50.1339 
 169   0.0000       1.876126        51.0520 
 170   0.0000       1.890801        51.4513 
 171   0.0000       1.953211        53.1496 
 172   0.0000       1.970594        53.6226 
 173   0.0000       1.980133        53.8822 
 174   0.0000       2.005377        54.5691 
 175   0.0000       2.041987        55.5653 
 176   0.0000       2.052722        55.8574 
 177   0.0000       2.059896        56.0526 
 178   0.0000       2.077818        56.5403 
 179   0.0000       2.111011        57.4435 
 180   0.0000       2.121453        57.7277 
 181   0.0000       2.130285        57.9680 
 182   0.0000       2.151453        58.5440 
 183   0.0000       2.162806        58.8529 
 184   0.0000       2.165878        58.9365 
 185   0.0000       2.174656        59.1754 
 186   0.0000       2.198996        59.8377 
 187   0.0000       2.216141        60.3043 
 188   0.0000       2.221938        60.4620 
 189   0.0000       2.224554        60.5332 
 190   0.0000       2.244860        61.0858 
 191   0.0000       2.251956        61.2788 
 192   0.0000       2.280265        62.0492 
 193   0.0000       2.302662        62.6586 
 194   0.0000       2.314217        62.9730 
 195   0.0000       2.321457        63.1701 
 196   0.0000       2.323170        63.2167 
 197   0.0000       2.334472        63.5242 
 198   0.0000       2.342267        63.7363 
 199   0.0000       2.365593        64.3711 
 200   0.0000       2.366301        64.3903 
 201   0.0000       2.442865        66.4737 
 202   0.0000       2.460050        66.9414 
 203   0.0000       2.463682        67.0402 
 204   0.0000       2.510773        68.3216 
 205   0.0000       2.511415        68.3391 
 206   0.0000       2.557939        69.6051 
 207   0.0000       2.576904        70.1211 
 208   0.0000       2.602180        70.8089 
 209   0.0000       2.616695        71.2039 
 210   0.0000       2.626347        71.4665 
 211   0.0000       2.644449        71.9591 
 212   0.0000       2.647283        72.0362 
 213   0.0000       2.663614        72.4806 
 214   0.0000       2.668944        72.6257 
 215   0.0000       2.685191        73.0678 
 216   0.0000       2.726880        74.2022 
 217   0.0000       2.729606        74.2764 
 218   0.0000       2.767518        75.3080 
 219   0.0000       2.789792        75.9141 
 220   0.0000       2.797118        76.1134 
 221   0.0000       2.818377        76.6919 
 222   0.0000       2.826056        76.9009 
 223   0.0000       2.867715        78.0345 
 224   0.0000       2.880802        78.3906 
 225   0.0000       2.882556        78.4383 
 226   0.0000       2.903577        79.0104 
 227   0.0000       2.904939        79.0474 
 228   0.0000       2.950334        80.2827 
 229   0.0000       2.964256        80.6615 
 230   0.0000       2.979246        81.0694 
 231   0.0000       3.035779        82.6077 
 232   0.0000       3.081089        83.8407 
 233   0.0000       3.104049        84.4655 
 234   0.0000       3.131152        85.2030 
 235   0.0000       3.146997        85.6341 
 236   0.0000       3.168117        86.2089 
 237   0.0000       3.205383        87.2229 
 238   0.0000       3.221254        87.6548 
 239   0.0000       3.264480        88.8310 
 240   0.0000       3.269881        88.9780 
 241   0.0000       3.276281        89.1521 
 242   0.0000       3.366179        91.5984 
 243   0.0000       3.397679        92.4555 
 244   0.0000       3.404672        92.6458 
 245   0.0000       3.448919        93.8499 
 246   0.0000       3.478453        94.6535 
 247   0.0000       3.485237        94.8381 
 248   0.0000       3.526243        95.9540 
 249   0.0000       3.588318        97.6431 
 250   0.0000       3.616969        98.4227 
 251   0.0000       3.644052        99.1597 
 252   0.0000       3.665085        99.7320 
 253   0.0000       3.667237        99.7906 
 254   0.0000       3.763519       102.4105 
 255   0.0000       3.807818       103.6160 
 256   0.0000       3.930735       106.9607 
 257   0.0000       4.073706       110.8512 
 258   0.0000       4.800915       130.6395 
 259   0.0000       4.862440       132.3137 
 260   0.0000       5.246661       142.7689 
 261   0.0000      21.445289       583.5560 
 262   0.0000      21.844210       594.4112 
 263   0.0000      21.995538       598.5290 
 264   0.0000      22.101926       601.4240 
 265   0.0000      22.173150       603.3621 
 266   0.0000      22.270877       606.0214 
 267   0.0000      22.454338       611.0136 
 268   0.0000      31.929422       868.8437 
 269   0.0000      31.959518       869.6627 
 270   0.0000      43.879921      1194.0334 
 271   0.0000      43.994646      1197.1552 
 272   0.0000      44.030879      1198.1411 

                    ********************************
                    * MULLIKEN POPULATION ANALYSIS *
                    ********************************

-----------------------
MULLIKEN ATOMIC CHARGES
-----------------------
   0 C :   -0.184239
   1 C :    0.042140
   2 C :   -0.129098
   3 C :   -0.056581
   4 C :   -0.249234
   5 C :   -0.108777
   6 N :    0.376371
   7 C :    0.078535
   8 H :    0.199564
   9 H :    0.175123
  10 H :    0.177863
  11 H :    0.173913
  12 N :    0.353022
  13 O :   -0.415658
  14 O :   -0.248217
  15 O :   -0.184726
Sum of atomic charges:   -0.0000000

--------------------------------
MULLIKEN REDUCED ORBITAL CHARGES
--------------------------------
  0 C s       :     3.235890  s :     3.235890
      pz      :     0.935138  p :     2.910236
      px      :     1.055609
      py      :     0.919489
      dz2     :     0.003313  d :     0.038114
      dxz     :     0.002743
      dyz     :     0.007073
      dx2y2   :     0.011525
      dxy     :     0.013459
  1 C s       :     3.163020  s :     3.163020
      pz      :     1.045046  p :     2.741879
      px      :     0.778982
      py      :     0.917850
      dz2     :     0.004371  d :     0.052961
      dxz     :     0.007047
      dyz     :     0.005314
      dx2y2   :     0.018259
      dxy     :     0.017969
  2 C s       :     3.214783  s :     3.214783
      pz      :     0.966422  p :     2.876185
      px      :     0.932830
      py      :     0.976933
      dz2     :     0.003217  d :     0.038130
      dxz     :     0.004694
      dyz     :     0.003789
      dx2y2   :     0.012862
      dxy     :     0.013568
  3 C s       :     3.306755  s :     3.306755
      pz      :     1.007751  p :     2.695753
      px      :     0.938854
      py      :     0.749148
      dz2     :     0.004037  d :     0.054073
      dxz     :     0.007837
      dyz     :     0.007296
      dx2y2   :     0.017846
      dxy     :     0.017057
  4 C s       :     3.288591  s :     3.288591
      pz      :     0.975492  p :     2.923149
      px      :     1.039644
      py      :     0.908013
      dz2     :     0.003275  d :     0.037495
      dxz     :     0.002486
      dyz     :     0.006177
      dx2y2   :     0.013552
      dxy     :     0.012006
  5 C s       :     3.198679  s :     3.198679
      pz      :     0.934650  p :     2.871533
      px      :     0.926759
      py      :     1.010124
      dz2     :     0.003233  d :     0.038565
      dxz     :     0.005920
      dyz     :     0.003218
      dx2y2   :     0.012869
      dxy     :     0.013325
  6 N s       :     3.109744  s :     3.109744
      pz      :     1.081215  p :     2.961718
      px      :     0.872484
      py      :     1.008020
      dz2     :     0.014742  d :     0.552167
      dxz     :     0.102658
      dyz     :     0.051452
      dx2y2   :     0.190298
      dxy     :     0.193017
  7 C s       :     3.174179  s :     3.174179
      pz      :     0.998911  p :     2.690674
      px      :     0.848990
      py      :     0.842773
      dz2     :     0.004906  d :     0.056612
      dxz     :     0.011050
      dyz     :     0.007008
      dx2y2   :     0.017870
      dxy     :     0.015778
  8 H s       :     0.780451  s :     0.780451
      pz      :     0.003673  p :     0.019985
      px      :     0.012844
      py      :     0.003468
  9 H s       :     0.805634  s :     0.805634
      pz      :     0.003837  p :     0.019243
      px      :     0.006297
      py      :     0.009109
 10 H s       :     0.802719  s :     0.802719
      pz      :     0.003898  p :     0.019418
      px      :     0.012516
      py      :     0.003004
 11 H s       :     0.806939  s :     0.806939
      pz      :     0.003676  p :     0.019148
      px      :     0.004543
      py      :     0.010928
 12 N s       :     3.041901  s :     3.041901
      pz      :     1.214002  p :     3.347773
      px      :     1.025148
      py      :     1.108624
      dz2     :     0.008656  d :     0.257305
      dxz     :     0.061322
      dyz     :     0.036600
      dx2y2   :     0.122600
      dxy     :     0.028127
 13 O s       :     3.941967  s :     3.941967
      pz      :     1.596071  p :     4.423721
      px      :     1.367178
      py      :     1.460471
      dz2     :     0.003233  d :     0.049970
      dxz     :     0.010728
      dyz     :     0.006463
      dx2y2   :     0.019446
      dxy     :     0.010100
 14 O s       :     3.883627  s :     3.883627
      pz      :     1.410564  p :     4.318171
      px      :     1.137653
      py      :     1.769953
      dz2     :     0.005200  d :     0.046419
      dxz     :     0.022690
      dyz     :     0.000396
      dx2y2   :     0.010901
      dxy     :     0.007231
 15 O s       :     3.869198  s :     3.869198
      pz      :     1.415116  p :     4.274456
      px      :     1.470316
      py      :     1.389023
      dz2     :     0.004500  d :     0.041073
      dxz     :     0.007594
      dyz     :     0.014288
      dx2y2   :     0.008418
      dxy     :     0.006273

------------------------
MULLIKEN OVERLAP CHARGES
------------------------
B(  0-C ,  1-C ) :   0.7424 B(  0-C ,  2-C ) :   0.6141 B(  0-C ,  3-C ) :  -0.3306 
B(  0-C ,  4-C ) :  -0.1512 B(  0-C ,  5-C ) :  -0.0507 B(  0-C ,  6-N ) :  -0.0685 
B(  0-C ,  7-C ) :   0.0508 B(  0-C ,  8-H ) :   0.7926 B(  0-C ,  9-H ) :  -0.0750 
B(  0-C , 14-O ) :   0.0846 B(  1-C ,  2-C ) :  -0.1807 B(  1-C ,  3-C ) :   0.4786 
B(  1-C ,  4-C ) :  -0.1309 B(  1-C ,  6-N ) :   0.5002 B(  1-C ,  7-C ) :  -0.3292 
B(  1-C , 14-O ) :  -0.2179 B(  2-C ,  3-C ) :  -0.1406 B(  2-C ,  5-C ) :   0.7325 
B(  2-C ,  8-H ) :  -0.0841 B(  2-C ,  9-H ) :   0.8286 B(  2-C , 11-H ) :  -0.0654 
B(  3-C ,  4-C ) :   0.7441 B(  3-C ,  7-C ) :   0.3252 B(  3-C , 10-H ) :  -0.0601 
B(  3-C , 12-N ) :  -0.0998 B(  3-C , 15-O ) :  -0.0901 B(  4-C ,  5-C ) :   0.6237 
B(  4-C ,  7-C ) :  -0.1635 B(  4-C , 10-H ) :   0.8217 B(  4-C , 11-H ) :  -0.0646 
B(  5-C ,  9-H ) :  -0.0716 B(  5-C , 10-H ) :  -0.0527 B(  5-C , 11-H ) :   0.8123 
B(  6-N , 14-O ) :   1.2076 B(  6-N , 15-O ) :   0.9690 B(  7-C , 12-N ) :   1.1440 
B(  7-C , 13-O ) :   0.0959 B( 12-N , 13-O ) :   0.6884 B( 14-O , 15-O ) :  -0.1343 



                     *******************************
                     * LOEWDIN POPULATION ANALYSIS *
                     *******************************

----------------------
LOEWDIN ATOMIC CHARGES
----------------------
   0 C :   -0.068778
   1 C :    0.208091
   2 C :   -0.139281
   3 C :    0.012418
   4 C :   -0.110181
   5 C :   -0.121920
   6 N :   -0.464356
   7 C :    0.321705
   8 H :    0.208301
   9 H :    0.183895
  10 H :    0.191490
  11 H :    0.184650
  12 N :   -0.334034
  13 O :   -0.031243
  14 O :   -0.025808
  15 O :   -0.014950

-------------------------------
LOEWDIN REDUCED ORBITAL CHARGES
-------------------------------
  0 C s       :     2.895078  s :     2.895078
      pz      :     0.925811  p :     3.094218
      px      :     1.108749
      py      :     1.059659
      dz2     :     0.005441  d :     0.079483
      dxz     :     0.004269
      dyz     :     0.012791
      dx2y2   :     0.027036
      dxy     :     0.029945
  1 C s       :     2.777996  s :     2.777996
      pz      :     0.965378  p :     2.905613
      px      :     1.021396
      py      :     0.918839
      dz2     :     0.008875  d :     0.108300
      dxz     :     0.012563
      dyz     :     0.009856
      dx2y2   :     0.038777
      dxy     :     0.038230
  2 C s       :     2.907936  s :     2.907936
      pz      :     0.954982  p :     3.150517
      px      :     1.095901
      py      :     1.099635
      dz2     :     0.005544  d :     0.080827
      dxz     :     0.008295
      dyz     :     0.006392
      dx2y2   :     0.028955
      dxy     :     0.031641
  3 C s       :     2.831093  s :     2.831093
      pz      :     0.981171  p :     3.049985
      px      :     1.027911
      py      :     1.040903
      dz2     :     0.006921  d :     0.106504
      dxz     :     0.013634
      dyz     :     0.012472
      dx2y2   :     0.038524
      dxy     :     0.034952
  4 C s       :     2.901760  s :     2.901760
      pz      :     0.962602  p :     3.128866
      px      :     1.109872
      py      :     1.056392
      dz2     :     0.005698  d :     0.079556
      dxz     :     0.003710
      dyz     :     0.011361
      dx2y2   :     0.031549
      dxy     :     0.027238
  5 C s       :     2.909942  s :     2.909942
      pz      :     0.928301  p :     3.130536
      px      :     1.095965
      py      :     1.106270
      dz2     :     0.005562  d :     0.081442
      dxz     :     0.010773
      dyz     :     0.005167
      dx2y2   :     0.029374
      dxy     :     0.030566
  6 N s       :     2.947790  s :     2.947790
      pz      :     1.023740  p :     3.276027
      px      :     1.120696
      py      :     1.131590
      dz2     :     0.095425  d :     1.240539
      dxz     :     0.225687
      dyz     :     0.141669
      dx2y2   :     0.383082
      dxy     :     0.394677
  7 C s       :     2.787291  s :     2.787291
      pz      :     0.901552  p :     2.784796
      px      :     0.944480
      py      :     0.938763
      dz2     :     0.009887  d :     0.106208
      dxz     :     0.019427
      dyz     :     0.013169
      dx2y2   :     0.033240
      dxy     :     0.030485
  8 H s       :     0.744632  s :     0.744632
      pz      :     0.008078  p :     0.047067
      px      :     0.031675
      py      :     0.007314
  9 H s       :     0.771074  s :     0.771074
      pz      :     0.008424  p :     0.045031
      px      :     0.014916
      py      :     0.021691
 10 H s       :     0.762980  s :     0.762980
      pz      :     0.008726  p :     0.045530
      px      :     0.030442
      py      :     0.006362
 11 H s       :     0.770653  s :     0.770653
      pz      :     0.007907  p :     0.044697
      px      :     0.010486
      py      :     0.026304
 12 N s       :     2.989481  s :     2.989481
      pz      :     1.135133  p :     3.467929
      px      :     1.168970
      py      :     1.163825
      dz2     :     0.060226  d :     0.876624
      dxz     :     0.198762
      dyz     :     0.114199
      dx2y2   :     0.317509
      dxy     :     0.185927
 13 O s       :     3.471347  s :     3.471347
      pz      :     1.491997  p :     4.304033
      px      :     1.376241
      py      :     1.435796
      dz2     :     0.023701  d :     0.255863
      dxz     :     0.048129
      dyz     :     0.030726
      dx2y2   :     0.081479
      dxy     :     0.071827
 14 O s       :     3.466568  s :     3.466568
      pz      :     1.331422  p :     4.301183
      px      :     1.273787
      py      :     1.695974
      dz2     :     0.029850  d :     0.258056
      dxz     :     0.064266
      dyz     :     0.004966
      dx2y2   :     0.081539
      dxy     :     0.077436
 15 O s       :     3.462615  s :     3.462615
      pz      :     1.334361  p :     4.287088
      px      :     1.525713
      py      :     1.427014
      dz2     :     0.030997  d :     0.265247
      dxz     :     0.028156
      dyz     :     0.042009
      dx2y2   :     0.083702
      dxy     :     0.080383

---------------------------------
LOEWDIN BOND ORDERS (THRESH 0.050000)
---------------------------------
B(  0-C ,  1-C ) :   1.3314 B(  0-C ,  2-C ) :   1.5148 B(  0-C ,  3-C ) :   0.0816 
B(  0-C ,  4-C ) :   0.1164 B(  0-C ,  5-C ) :   0.0923 B(  0-C ,  6-N ) :   0.1558 
B(  0-C ,  8-H ) :   0.8379 B(  0-C ,  9-H ) :   0.0547 B(  0-C , 14-O ) :   0.0788 
B(  1-C ,  2-C ) :   0.0935 B(  1-C ,  3-C ) :   1.2178 B(  1-C ,  4-C ) :   0.0836 
B(  1-C ,  5-C ) :   0.0968 B(  1-C ,  6-N ) :   1.0674 B(  1-C ,  7-C ) :   0.0830 
B(  1-C ,  8-H ) :   0.0517 B(  1-C , 14-O ) :   0.1810 B(  1-C , 15-O ) :   0.1760 
B(  2-C ,  3-C ) :   0.1042 B(  2-C ,  4-C ) :   0.0880 B(  2-C ,  5-C ) :   1.4679 
B(  2-C ,  8-H ) :   0.0511 B(  2-C ,  9-H ) :   0.8675 B(  2-C , 11-H ) :   0.0517 
B(  3-C ,  4-C ) :   1.3659 B(  3-C ,  5-C ) :   0.0880 B(  3-C ,  6-N ) :   0.1382 
B(  3-C ,  7-C ) :   1.0845 B(  3-C , 10-H ) :   0.0507 B(  3-C , 12-N ) :   0.1891 
B(  3-C , 15-O ) :   0.0587 B(  4-C ,  5-C ) :   1.5294 B(  4-C ,  7-C ) :   0.0989 
B(  4-C , 10-H ) :   0.8582 B(  4-C , 11-H ) :   0.0551 B(  4-C , 12-N ) :   0.0520 
B(  5-C ,  9-H ) :   0.0519 B(  5-C , 10-H ) :   0.0521 B(  5-C , 11-H ) :   0.8668 
B(  6-N , 14-O ) :   2.6146 B(  6-N , 15-O ) :   2.5924 B(  7-C , 12-N ) :   2.4578 
B(  7-C , 13-O ) :   0.4769 B(  7-C , 15-O ) :   0.0841 B( 12-N , 13-O ) :   2.9086 
B( 14-O , 15-O ) :   0.5601 


                      *****************************
                      * MAYER POPULATION ANALYSIS *
                      *****************************

  NA   - Mulliken gross atomic population
  ZA   - Total nuclear charge
  QA   - Mulliken gross atomic charge
  VA   - Mayer's total valence
  BVA  - Mayer's bonded valence
  FA   - Mayer's free valence

  ATOM       NA         ZA         QA         VA         BVA        FA
  0 C      6.1842     6.0000    -0.1842     3.7663     3.7663    -0.0000
  1 C      5.9579     6.0000     0.0421     3.7586     3.7586    -0.0000
  2 C      6.1291     6.0000    -0.1291     3.7136     3.7136    -0.0000
  3 C      6.0566     6.0000    -0.0566     3.8150     3.8150     0.0000
  4 C      6.2492     6.0000    -0.2492     3.7702     3.7702     0.0000
  5 C      6.1088     6.0000    -0.1088     3.7591     3.7591    -0.0000
  6 N      6.6236     7.0000     0.3764     4.6617     4.6617    -0.0000
  7 C      5.9215     6.0000     0.0785     3.9482     3.9482    -0.0000
  8 H      0.8004     1.0000     0.1996     0.9518     0.9518    -0.0000
  9 H      0.8249     1.0000     0.1751     0.9605     0.9605     0.0000
 10 H      0.8221     1.0000     0.1779     0.9614     0.9614     0.0000
 11 H      0.8261     1.0000     0.1739     0.9608     0.9608     0.0000
 12 N      6.6470     7.0000     0.3530     3.9771     3.9771    -0.0000
 13 O      8.4157     8.0000    -0.4157     2.1234     2.1234     0.0000
 14 O      8.2482     8.0000    -0.2482     2.2937     2.2937    -0.0000
 15 O      8.1847     8.0000    -0.1847     2.2054     2.2054     0.0000

  Mayer bond orders larger than 0.100000
B(  0-C ,  1-C ) :   1.3584 B(  0-C ,  2-C ) :   1.3378 B(  0-C ,  8-H ) :   0.9338 
B(  1-C ,  3-C ) :   1.2555 B(  1-C ,  6-N ) :   0.9746 B(  1-C , 15-O ) :   0.1086 
B(  2-C ,  5-C ) :   1.3432 B(  2-C ,  9-H ) :   0.9549 B(  3-C ,  4-C ) :   1.3283 
B(  3-C ,  7-C ) :   1.2321 B(  4-C ,  5-C ) :   1.4079 B(  4-C , 10-H ) :   0.9548 
B(  5-C , 11-H ) :   0.9487 B(  6-N , 14-O ) :   1.8710 B(  6-N , 15-O ) :   1.7545 
B(  7-C , 12-N ) :   2.3475 B(  7-C , 13-O ) :   0.4024 B( 12-N , 13-O ) :   1.5647 
B( 14-O , 15-O ) :   0.2552 


------------------
HIRSHFELD ANALYSIS
------------------

Total integrated alpha density =     42.000015644
Total integrated beta density  =     42.000015644

  ATOM     CHARGE      SPIN    
   0 C   -0.015590    0.000000
   1 C    0.040205    0.000000
   2 C   -0.015964    0.000000
   3 C    0.023627    0.000000
   4 C   -0.014028    0.000000
   5 C   -0.008560    0.000000
   6 N    0.223915    0.000000
   7 C    0.044369    0.000000
   8 H    0.060040    0.000000
   9 H    0.061058    0.000000
  10 H    0.062600    0.000000
  11 H    0.062804    0.000000
  12 N    0.081942    0.000000
  13 O   -0.202334    0.000000
  14 O   -0.206337    0.000000
  15 O   -0.197776    0.000000

  TOTAL  -0.000031    0.000000

-------
TIMINGS
-------

Total SCF time: 0 days 0 hours 0 min 9 sec 

Total time                  ....       9.262 sec
Sum of individual times     ....       8.861 sec  ( 95.7%)

Fock matrix formation       ....       7.668 sec  ( 82.8%)
  Split-RI-J                ....       0.696 sec  (  9.1% of F)
  XC integration            ....       4.923 sec  ( 64.2% of F)
    Basis function eval.    ....       0.288 sec  (  5.8% of XC)
    Density eval.           ....       0.593 sec  ( 12.0% of XC)
    XC-Functional eval.     ....       0.250 sec  (  5.1% of XC)
    XC-Potential eval.      ....       0.653 sec  ( 13.3% of XC)
Diagonalization             ....       0.092 sec  (  1.0%)
Density matrix formation    ....       0.039 sec  (  0.4%)
Population analysis         ....       0.298 sec  (  3.2%)
Initial guess               ....       0.126 sec  (  1.4%)
Orbital Transformation      ....       0.000 sec  (  0.0%)
Orbital Orthonormalization  ....       0.000 sec  (  0.0%)
DIIS solution               ....       0.099 sec  (  1.1%)
SOSCF solution              ....       0.119 sec  (  1.3%)
Grid generation             ....       0.419 sec  (  4.5%)

Maximum memory used throughout the entire SCF-calculation: 31.9 MB


-------------------------------------------------------------------------------
                          DFT DISPERSION CORRECTION                            
                                                                               
                                 DFTD4 V2.5                                    
-------------------------------------------------------------------------------
The R2SCAN3C composite method is recognized
Using three-body term ABC
Active option DFTDOPT                   ...         5   

Starting D4
-------------------------   ----------------
Dispersion correction           -0.006203295
-------------------------   ----------------

------------------   -----------------
gCP correction             0.010984829
------------------   -----------------

-------------------------   --------------------
FINAL SINGLE POINT ENERGY      -604.057894902083
-------------------------   --------------------


                            ***************************************
                            *     ORCA property calculations      *
                            ***************************************

                                    ---------------------
                                    Active property flags
                                    ---------------------
   (+) Dipole Moment


------------------------------------------------------------------------------
                       ORCA ELECTRIC PROPERTIES CALCULATION
------------------------------------------------------------------------------

Dipole Moment Calculation                       ... on
Quadrupole Moment Calculation                   ... off
Polarizability Calculation                      ... off
GBWName                                         ... mol.gbw
Electron density                                ... mol.scfp
The origin for moment calculation is the CENTER OF MASS  = ( 3.101026,  2.276936  0.916699)

-------------
DIPOLE MOMENT
-------------
                                X             Y             Z
Electronic contribution:      1.44396       6.88260       0.05624
Nuclear contribution   :     -1.66625      -9.77094      -0.04404
                        -----------------------------------------
Total Dipole Moment    :     -0.22229      -2.88834       0.01221
                        -----------------------------------------
Magnitude (a.u.)       :      2.89691
Magnitude (Debye)      :      7.36336



--------------------
Rotational spectrum 
--------------------
 
Rotational constants in cm-1:     0.043402     0.027183     0.016715 
Rotational constants in MHz :  1301.168625   814.912594   501.103588 

 Dipole components along the rotational axes: 
x,y,z [a.u.] :    -1.955117     2.137661     0.002987 
x,y,z [Debye]:    -4.969511     5.433502     0.007591 

 

Timings for individual modules:

Sum of individual times         ...       10.422 sec (=   0.174 min)
GTO integral calculation        ...        0.642 sec (=   0.011 min)   6.2 %
SCF iterations                  ...        9.780 sec (=   0.163 min)  93.8 %
                             ****ORCA TERMINATED NORMALLY****
TOTAL RUN TIME: 0 days 0 hours 0 minutes 11 seconds 124 msec
