14
Coordinates from ORCA-job orca
  C   1.80368878293535     -0.42998592759491      0.36565096334440
  C   2.88546584262089      0.37643107227058      0.02931861766120
  C   1.99170132781863     -1.77867941694898      0.65688356678732
  C   4.16695370193606     -0.17445207193261     -0.01550249571658
  C   4.36487071165494     -1.52812095703531      0.27587986649328
  C   3.27465627006300     -2.32162879123239      0.61034596228030
  H   2.75037199933697      1.42876651789473     -0.19953964372550
  C   6.42715422871159      0.55907461015977     -0.49760774263448
  H   0.80752187246507      0.00146276716285      0.39957696013997
  H   1.14417106439485     -2.40463232598622      0.91888206805382
  H   5.36632553105329     -1.94835025294858      0.23840571006700
  H   3.43062076472897     -3.37268258047057      0.83600221576459
  N   5.23323225099599      0.66575870341494     -0.35868284997624
  O   7.58686565128433      0.59763865324671     -0.66861319853907
