 $CONTRL SCFTYP=rhf RUNTYP=optimize d5=.t. 
!dfttyp=pbe0
 mplevl=2
 maxit=100 icut=20 inttyp=hondo itol=30 gencon=.f. wide=1                                
 mult=1 icharg=0 exetyp=run fstint=.t. nzvar=0 $END                            
 $SYSTEM TIMLIM=100000 mwords=360 nojac=1  $END                                  
 $PCM SOLVNT=BENZENE $END
 $system mxbcst=-1 $end                                                         
 $p2p p2p=.t. dlb=.t. $end                                                      
 $smp                                                                           
  mkl64=21 smppar=1 mklnp=18 np=36 httnp=1 dianp=1                              
  pts=0x101                                                                     
 $end                                                                           
 $mpi mxgsum=0x40000 mnpdot=1d9 $end                                            
 $MOORTH nostf=1 nozero=1 syms=1 symden=1 symvec=1 tole=0 tolz=0 $end           
 $BASIS GBASIS=apvtzs extfil=.t. $END                                          
 $GUESS GUESS=huckel                                                            
 $END                                                                           
! $RIMP2 AUXBAS=cc-pvdz/C VERBOSE=.T. $END
 $MP2 method=1 $END
 $MP2GRD dblbf=0 fused=0 asysnc=1 tol1=1d-12 tol2=1d-12 $END
 $FORCE NVIB=2 VIBSIZ=0.005 $END
 $trans mptran=2 dirtrf=.t. mode=112 cuttrf=1d-20 $end
 $DATA
 C7NH5SO3
C1
CARBON          6.0     -2.555405684        -0.892097958        -0.434508675
CARBON          6.0     -1.803161409         0.265705701        -0.600272710
CARBON          6.0     -1.981559316        -2.032449813         0.124680742
CARBON          6.0     -0.460705338         0.278113872        -0.199700164
CARBON          6.0      0.122443448        -0.865622470         0.365178074
CARBON          6.0     -0.645144247        -2.013929608         0.521730555
HYDROGEN        1.0     -2.241469448         1.153735320        -1.033413699
CARBON          6.0      0.330049380         1.452319957        -0.359234302
HYDROGEN        1.0     -3.591599495        -0.902549754        -0.742892837
HYDROGEN        1.0     -2.571801522        -2.929277843         0.250714940
HYDROGEN        1.0      1.158364892        -0.833869615         0.672026429
HYDROGEN        1.0     -0.196770769        -2.896547346         0.956380158
NITROGEN        7.0      1.068546742         2.362154065        -0.468178059
OXYGEN          8.0      1.848873598         3.283336471        -0.552907336
OXYGEN          8.0      2.912308310         0.994672835         1.206005253
SULFUR         16.0      3.898855235         1.972156192         0.728268995
OXYGEN          8.0      4.708175620         1.604149994        -0.433877366
 $END

