17
symmetry c1
C       -2.113592000     -0.371505000     -2.739553000
C       -1.328467000      0.756249000     -2.934807000
C       -1.550786000     -1.544360000     -2.239781000
C        0.041426000      0.712658000     -2.625969000
C        0.608003000     -0.471157000     -2.121634000
C       -0.191955000     -1.589197000     -1.932667000
H       -1.760210000      1.672709000     -3.323701000
C        0.856400000      1.855489000     -2.819930000
H       -3.172039000     -0.334328000     -2.979439000
H       -2.170736000     -2.423120000     -2.089668000
H        1.666833000     -0.498306000     -1.884862000
H        0.248952000     -2.501903000     -1.542963000
N        1.588502000      2.748902000     -2.953181000
O        2.346003000      3.682996000     -3.094037000
N        5.552319374      3.330325407     -2.168618495
N        4.934413000      2.389149000     -2.188505000
O        4.291666732      1.397026663     -2.207383626

