19

C         -0.07292        0.03207       -0.17272
C          0.67347        1.18595       -0.33580
C          0.52830       -1.07863        0.40735
C          2.01464        1.21714        0.08357
C          2.60232        0.08026        0.66817
C          1.85297       -1.07193        0.82898
H          0.22928        2.06719       -0.78552
C          2.78854        2.38925       -0.07415
N         -1.10863       -0.01935       -0.48647
H         -0.26976       -2.30955        0.58218
H          3.63746        0.12242        0.98876
H          2.27959       -1.96198        1.27602
N          3.49409        3.30767       -0.16820
O          4.25357        4.24415       -0.24457
O          5.46075        1.94511        1.46832
S          6.42040        2.93851        0.94121
O          7.16436        2.56351       -0.27026
O         -1.53793        0.76538       -0.89775
O         -1.62049       -0.85081       -0.36030
