19
Coordinates from ORCA-job mol
  C   0.01829776538302     -0.00735152290976     -0.12770557269320
  C   0.72237876002362      1.17022802878170     -0.31272895204121
  C   0.58485408911090     -1.13906639254514      0.44418778845897
  C   2.06091362582934      1.21126688277986      0.09748947500577
  C   2.65753887672459      0.07786680843198      0.68030045293433
  C   1.91511799007444     -1.08220252242108      0.84648604044808
  H   0.24105221484812      2.02935589985900     -0.76329677927215
  C   2.82636190419306      2.39038524406627     -0.06675614554451
  N   -1.39885431107797     -0.05618452427174     -0.55935685507826
  H   -0.01196903943974     -2.03487578751645      0.56558458449748
  H   3.69448363700111      0.13164264359157      0.99456821815701
  H   2.37865605725762     -1.95422204174870      1.29623089914212
  N   3.53829536253888      3.30293211705959     -0.16293656698277
  O   4.30379556944467      4.23564139796091     -0.24136254747044
  O   5.48807615408024      1.94807544935955      1.49169567952888
  S   6.44587022636080      2.94026150601100      0.95763492514707
  O   7.19710626577205      2.55278847490542     -0.24563799154268
  O   -1.87013280200505      0.95547452394195     -1.05932061697464
  O   -2.00183234611969     -1.10565618533594     -0.38625603571985
