19
Coordinates from ORCA-job mol E -1152.046584589518
  C      -0.072920      0.032070     -0.172720
  C       0.673470      1.185950     -0.335800
  C       0.528300     -1.078630      0.407350
  C       2.014640      1.217140      0.083570
  C       2.602320      0.080260      0.668170
  C       1.852970     -1.071930      0.828980
  H       0.229280      2.067190     -0.785520
  C       2.788540      2.389250     -0.074150
  N      -1.108630     -0.019350     -0.486470
  H      -0.269760     -2.309550      0.582180
  H       3.637460      0.122420      0.988760
  H       2.279590     -1.961980      1.276020
  N       3.494090      3.307670     -0.168200
  O       4.253570      4.244150     -0.244570
  O       5.460750      1.945110      1.468320
  S       6.420400      2.938510      0.941210
  O       7.164360      2.563510     -0.270260
  O      -1.537930      0.765380     -0.897750
  O      -1.620490     -0.850810     -0.360300
19
Coordinates from ORCA-job mol E -1152.252396019339
  C      -0.071197      0.028490     -0.170815
  C       0.682276      1.184820     -0.332516
  C       0.538404     -1.083415      0.412346
  C       2.022667      1.215969      0.086565
  C       2.611287      0.080227      0.671062
  C       1.862715     -1.072718      0.832423
  H       0.240144      2.066625     -0.781762
  C       2.795997      2.388800     -0.071620
  N      -1.145293     -0.023011     -0.496792
  H      -0.240683     -2.297252      0.587306
  H       3.646648      0.123599      0.991253
  H       2.291940     -1.961436      1.279824
  N       3.500702      3.307645     -0.166182
  O       4.259656      4.244954     -0.243113
  O       5.469060      1.947279      1.470115
  S       6.427746      2.941311      0.942350
  O       7.171645      2.566466     -0.269265
  O      -1.591521      0.802079     -0.927567
  O      -1.682183     -0.894075     -0.364794
19
Coordinates from ORCA-job mol E -1152.396242881880
  C      -0.067828      0.023229     -0.167804
  C       0.692191      1.182131     -0.328336
  C       0.549059     -1.089486      0.417965
  C       2.030973      1.213655      0.090054
  C       2.620784      0.079157      0.674512
  C       1.872268     -1.074556      0.836193
  H       0.251172      2.063985     -0.777241
  C       2.803197      2.387633     -0.068932
  N      -1.190050     -0.027834     -0.509317
  H      -0.203053     -2.269299      0.589683
  H       3.656422      0.123803      0.994309
  H       2.304264     -1.961840      1.283985
  N       3.506852      3.306984     -0.164106
  O       4.265061      4.245212     -0.241718
  O       5.477258      1.949302      1.471953
  S       6.434747      2.944135      0.943375
  O       7.178575      2.569476     -0.268385
  O      -1.645683      0.834612     -0.956131
  O      -1.746199     -0.933938     -0.371239
19
Coordinates from ORCA-job mol E -1152.495735440839
  C      -0.062400      0.016950     -0.163798
  C       0.701226      1.177765     -0.323880
  C       0.558227     -1.095954      0.423240
  C       2.038292      1.210297      0.093576
  C       2.629480      0.076974      0.678085
  C       1.880326     -1.077235      0.839775
  H       0.259578      2.058946     -0.772759
  C       2.809000      2.385715     -0.066444
  N      -1.232401     -0.033167     -0.520914
  H      -0.160973     -2.225631      0.587978
  H       3.665355      0.122771      0.997519
  H       2.314895     -1.963204      1.287940
  N       3.511598      3.305625     -0.162223
  O       4.268983      4.244735     -0.240513
  O       5.484079      1.950686      1.473612
  S       6.440315      2.946368      0.944208
  O       7.184090      2.571900     -0.267672
  O      -1.694369      0.865802     -0.982510
  O      -1.805289     -0.972984     -0.376400
19
Coordinates from ORCA-job mol E -1152.562954574548
  C      -0.054987      0.009744     -0.158855
  C       0.708867      1.172038     -0.319393
  C       0.565286     -1.103594      0.428218
  C       2.044351      1.205936      0.097060
  C       2.637014      0.073588      0.681718
  C       1.886809     -1.080863      0.843176
  H       0.265001      2.051855     -0.768510
  C       2.813238      2.382952     -0.064139
  N      -1.271832     -0.038912     -0.531471
  H      -0.112880     -2.164785      0.582132
  H       3.673063      0.120472      1.000799
  H       2.324018     -1.965506      1.291728
  N       3.514833      3.303446     -0.160511
  O       4.271349      4.243341     -0.239466
  O       5.489321      1.951184      1.475122
  S       6.444293      2.947716      0.944882
  O       7.188020      2.573402     -0.267087
  O      -1.737159      0.893955     -1.005971
  O      -1.858593     -1.009609     -0.380613
19
Coordinates from ORCA-job mol E -1152.605975686368
  C      -0.045057      0.002062     -0.152959
  C       0.714802      1.165745     -0.315272
  C       0.569768     -1.113084      0.432968
  C       2.049146      1.201203      0.100252
  C       2.643162      0.069468      0.685128
  C       1.891824     -1.085015      0.846234
  H       0.266942      2.043387     -0.764889
  C       2.816118      2.379807     -0.062114
  N      -1.307757     -0.044627     -0.540904
  H      -0.060854     -2.092305      0.573418
  H       3.679285      0.117399      1.003830
  H       2.332178     -1.968116      1.295244
  N       3.516928      3.300791     -0.158967
  O       4.272695      4.241268     -0.238491
  O       5.493054      1.950778      1.476547
  S       6.446913      2.948039      0.945552
  O       7.190623      2.573758     -0.266438
  O      -1.774147      0.918944     -1.026435
  O      -1.905613     -1.043142     -0.383883
19
Coordinates from ORCA-job mol E -1152.628521334982
  C      -0.029053     -0.005041     -0.145315
  C       0.720281      1.160949     -0.311789
  C       0.572525     -1.125176      0.437953
  C       2.054032      1.198083      0.102926
  C       2.648941      0.066343      0.688034
  C       1.896670     -1.088066      0.848737
  H       0.265456      2.034812     -0.762210
  C       2.819132      2.378170     -0.060453
  N      -1.342946     -0.049457     -0.550314
  H      -0.017284     -2.029949      0.565325
  H       3.685020      0.115355      1.006271
  H       2.341798     -1.968888      1.298403
  N       3.519761      3.299257     -0.157587
  O       4.275270      4.239830     -0.237575
  O       5.496531      1.950489      1.478121
  S       6.449707      2.948064      0.946406
  O       7.193446      2.573271     -0.265399
  O      -1.809363      0.944519     -1.046351
  O      -1.949914     -1.076207     -0.386361
19
Coordinates from ORCA-job mol E -1152.634310878546
  C      -0.003685     -0.006562     -0.136585
  C       0.728272      1.163896     -0.308831
  C       0.579524     -1.134117      0.442171
  C       2.061970      1.203372      0.105172
  C       2.657765      0.071162      0.690014
  C       1.906181     -1.084022      0.849867
  H       0.262827      2.031913     -0.759773
  C       2.824885      2.385112     -0.058263
  N      -1.376882     -0.049460     -0.561301
  H      -0.035843     -2.066644      0.569588
  H       3.693728      0.121827      1.007786
  H       2.358588     -1.961544      1.299978
  N       3.527816      3.304294     -0.157010
  O       4.285570      4.242728     -0.239290
  O       5.501093      1.955235      1.481046
  S       6.455610      2.949987      0.946431
  O       7.198557      2.570153     -0.264269
  O      -1.844448      0.975811     -1.067525
  O      -1.991520     -1.106779     -0.390387
19
Coordinates from ORCA-job mol E -1152.635461354972
  C       0.004655     -0.009191     -0.132854
  C       0.724585      1.164306     -0.309277
  C       0.580309     -1.138904      0.443055
  C       2.059911      1.204947      0.104499
  C       2.656095      0.072033      0.688791
  C       1.907849     -1.084753      0.849501
  H       0.252658      2.028607     -0.760145
  C       2.822686      2.386523     -0.058382
  N      -1.383761     -0.054196     -0.561255
  H      -0.001624     -2.017915      0.561679
  H       3.692065      0.123774      1.006043
  H       2.364217     -1.960508      1.299484
  N       3.529059      3.303095     -0.157403
  O       4.289687      4.239132     -0.239283
  O       5.494551      1.950513      1.483288
  S       6.451891      2.942463      0.948575
  O       7.195400      2.559162     -0.260667
  O      -1.853835      0.971820     -1.067506
  O      -1.996389     -1.114546     -0.389322
19
Coordinates from ORCA-job mol E -1152.636000751300
  C       0.006176     -0.007815     -0.132594
  C       0.724103      1.166449     -0.310712
  C       0.581813     -1.137298      0.443173
  C       2.060116      1.207266      0.102428
  C       2.656531      0.074503      0.686640
  C       1.909680     -1.083011      0.848804
  H       0.250919      2.029937     -0.761614
  C       2.823444      2.388226     -0.060956
  N      -1.382971     -0.053927     -0.559905
  H      -0.011261     -2.033840      0.564899
  H       3.692748      0.126836      1.003302
  H       2.367138     -1.958096      1.298871
  N       3.531219      3.303872     -0.158515
  O       4.292798      4.239365     -0.237870
  O       5.491062      1.948520      1.482853
  S       6.449784      2.940521      0.950697
  O       7.195019      2.558032     -0.257737
  O      -1.854192      0.968404     -1.065225
  O      -1.994114     -1.111582     -0.387719
19
Coordinates from ORCA-job mol E -1152.636292617954
  C       0.011074     -0.007106     -0.131116
  C       0.721486      1.170308     -0.310030
  C       0.585318     -1.137424      0.441753
  C       2.058437      1.212735      0.102799
  C       2.656461      0.079811      0.684991
  C       1.913767     -1.080482      0.846761
  H       0.243828      2.031877     -0.759597
  C       2.820837      2.394348     -0.058336
  N      -1.384293     -0.056190     -0.559277
  H      -0.009606     -2.038962      0.562418
  H       3.692748      0.134138      1.001310
  H       2.374933     -1.954251      1.295528
  N       3.533608      3.305697     -0.159795
  O       4.300560      4.236409     -0.244362
  O       5.483250      1.950041      1.488987
  S       6.446684      2.934595      0.951373
  O       7.190853      2.541176     -0.254232
  O      -1.858502      0.961640     -1.061517
  O      -1.991432     -1.112001     -0.388839
19
Coordinates from ORCA-job mol E -1152.636410103212
  C       0.016515     -0.006298     -0.126724
  C       0.730231      1.161664     -0.334160
  C       0.572030     -1.136276      0.459323
  C       2.071651      1.193604      0.069598
  C       2.658038      0.062033      0.665977
  C       1.905066     -1.087817      0.853935
  H       0.255086      2.018234     -0.795455
  C       2.851287      2.359673     -0.118187
  N      -1.397797     -0.046240     -0.548859
  H      -0.036565     -2.027677      0.597758
  H       3.697269      0.109161      0.973938
  H       2.362154     -1.957671      1.314264
  N       3.541739      3.292553     -0.162564
  O       4.279879      4.250108     -0.177114
  O       5.501258      1.906697      1.445832
  S       6.440578      2.950275      0.981123
  O       7.218086      2.648414     -0.229961
  O      -1.863357      0.961592     -1.062329
  O      -2.013136     -1.085669     -0.357576
19
Coordinates from ORCA-job mol E -1152.636325059409
  C       0.030787     -0.006241     -0.126134
  C       0.710585      1.185519     -0.296782
  C       0.601935     -1.140987      0.430321
  C       2.048548      1.237254      0.118874
  C       2.655593      0.102943      0.688778
  C       1.930872     -1.070667      0.838267
  H       0.214681      2.041108     -0.737550
  C       2.800989      2.427620     -0.022002
  N      -1.393186     -0.068435     -0.565490
  H       0.013282     -2.045998      0.536029
  H       3.690485      0.166569      1.008002
  H       2.407536     -1.940378      1.278579
  N       3.536941      3.315558     -0.159955
  O       4.332094      4.216473     -0.295687
  O       5.460625      1.977283      1.529607
  S       6.442873      2.911913      0.938578
  O       7.165551      2.442554     -0.253014
  O      -1.878253      0.937463     -1.051881
  O      -1.981927     -1.123191     -0.409721
19
Coordinates from ORCA-job mol E -1152.636585033581
  C       0.020010     -0.007250     -0.127729
  C       0.720012      1.173150     -0.310004
  C       0.587215     -1.139642      0.442072
  C       2.058218      1.216093      0.101993
  C       2.656218      0.082553      0.683027
  C       1.916998     -1.080034      0.846077
  H       0.236338      2.031459     -0.759340
  C       2.822023      2.396937     -0.058961
  N      -1.394553     -0.058385     -0.560557
  H      -0.008166     -2.037429      0.560458
  H       3.692710      0.138116      0.998547
  H       2.382787     -1.951557      1.294451
  N       3.538195      3.305574     -0.161925
  O       4.307777      4.234172     -0.247597
  O       5.482626      1.950750      1.494454
  S       6.445948      2.933885      0.953472
  O       7.191602      2.534707     -0.249416
  O      -1.869341      0.953099     -1.059361
  O      -1.996609     -1.109839     -0.390841
19
Coordinates from ORCA-job mol E -1152.636590031895
  C       0.019285     -0.007288     -0.127635
  C       0.721687      1.171213     -0.312846
  C       0.585163     -1.139321      0.444164
  C       2.060223      1.212616      0.097953
  C       2.656791      0.079261      0.680828
  C       1.915386     -1.081493      0.846897
  H       0.239399      2.029620     -0.763567
  C       2.825825      2.391765     -0.066007
  N      -1.396487     -0.056735     -0.559393
  H      -0.011687     -2.035544      0.565031
  H       3.693627      0.133574      0.995422
  H       2.379787     -1.952988      1.296759
  N       3.538400      3.303891     -0.161859
  O       4.304304      4.236224     -0.240101
  O       5.486084      1.946567      1.489983
  S       6.445803      2.937493      0.956885
  O       7.195678      2.549563     -0.247080
  O      -1.869338      0.954401     -1.059747
  O      -1.999919     -1.106458     -0.386868
19
Coordinates from ORCA-job mol E -1152.636592269423
  C       0.018716     -0.007331     -0.127656
  C       0.722247      1.170484     -0.313097
  C       0.584761     -1.139172      0.444419
  C       2.060802      1.211517      0.097296
  C       2.657231      0.078158      0.680353
  C       1.915055     -1.082038      0.846801
  H       0.240579      2.029252     -0.763905
  C       2.826526      2.390443     -0.067120
  N      -1.397940     -0.056256     -0.559271
  H      -0.012240     -2.034906      0.565795
  H       3.694164      0.132044      0.994670
  H       2.378886     -1.953780      1.296774
  N       3.538358      3.303138     -0.162471
  O       4.303519      4.236195     -0.239866
  O       5.487566      1.946871      1.490312
  S       6.445922      2.939312      0.957651
  O       7.196979      2.552978     -0.246104
  O      -1.869794      0.955076     -1.059610
  O      -2.001326     -1.105627     -0.386152
19
Coordinates from ORCA-job mol E -1152.636593094924
  C       0.018298     -0.007352     -0.127706
  C       0.722379      1.170228     -0.312729
  C       0.584854     -1.139066      0.444188
  C       2.060914      1.211267      0.097489
  C       2.657539      0.077867      0.680300
  C       1.915118     -1.082203      0.846486
  H       0.241052      2.029356     -0.763297
  C       2.826362      2.390385     -0.066756
  N      -1.398854     -0.056185     -0.559357
  H      -0.011969     -2.034876      0.565585
  H       3.694484      0.131643      0.994568
  H       2.378656     -1.954222      1.296231
  N       3.538295      3.302932     -0.162937
  O       4.303796      4.235641     -0.241363
  O       5.488076      1.948075      1.491696
  S       6.445870      2.940262      0.957635
  O       7.197106      2.552788     -0.245638
  O      -1.870133      0.955475     -1.059321
  O      -2.001832     -1.105656     -0.386256
