19
Coordinates from ORCA-job mol E -1152.645181235955
  C      -0.072916      0.032071     -0.172721
  C       0.673474      1.185954     -0.335797
  C       0.528300     -1.078631      0.407351
  C       2.014640      1.217145      0.083566
  C       2.602319      0.080257      0.668166
  C       1.852969     -1.071931      0.828979
  H       0.229278      2.067191     -0.785523
  C       2.788539      2.389247     -0.074152
  H      -1.108632     -0.019352     -0.486475
  N      -0.269759     -2.309554      0.582182
  H       3.637457      0.122416      0.988765
  H       2.279591     -1.961978      1.276015
  N       3.494087      3.307675     -0.168199
  O       4.253572      4.244155     -0.244566
  O       5.460754      1.945114      1.468315
  S       6.420404      2.938510      0.941211
  O       7.164356      2.563509     -0.270255
  O      -1.433913     -2.284521      0.204347
  O       0.285651     -3.272837      1.093373
19
Coordinates from ORCA-job mol E -1152.645262187453
  C      -0.072615      0.033121     -0.174112
  C       0.680441      1.182102     -0.338723
  C       0.522883     -1.080505      0.407795
  C       2.021619      1.204824      0.081227
  C       2.603595      0.065364      0.666864
  C       1.848049     -1.081964      0.829517
  H       0.241490      2.065366     -0.789694
  C       2.801290      2.372931     -0.078585
  H      -1.108502     -0.010306     -0.488595
  N      -0.281453     -2.305473      0.584907
  H       3.639173      0.100145      0.986403
  H       2.271592     -1.972950      1.277659
  N       3.492950      3.301543     -0.164683
  O       4.241906      4.249202     -0.235553
  O       5.481010      1.953210      1.461921
  S       6.425500      2.964887      0.942509
  O       7.173052      2.604262     -0.272278
  O      -1.447216     -2.277684      0.210155
  O       0.265408     -3.273634      1.097846
19
Coordinates from ORCA-job mol E -1152.645073931543
  C      -0.071819      0.037349     -0.168800
  C       0.676038      1.192578     -0.309145
  C       0.526101     -1.081613      0.402501
  C       2.012877      1.214117      0.124680
  C       2.597324      0.069934      0.698423
  C       1.847855     -1.083823      0.837206
  H       0.236238      2.080145     -0.750706
  C       2.783928      2.391438     -0.008001
  H      -1.104195     -0.002085     -0.495148
  N      -0.270577     -2.310542      0.554477
  H       3.629813      0.102307      1.027533
  H       2.276659     -1.976699      1.276388
  N       3.488683      3.296947     -0.176725
  O       4.261566      4.217223     -0.342424
  O       5.482736      2.040596      1.518760
  S       6.434354      2.988450      0.901596
  O       7.148008      2.503571     -0.292788
  O      -1.431969     -2.293590      0.161334
  O       0.276552     -3.291863      1.045420
19
Coordinates from ORCA-job mol E -1152.645289021241
  C      -0.071639      0.034320     -0.173625
  C       0.686438      1.181335     -0.328964
  C       0.518431     -1.084792      0.404123
  C       2.026052      1.194772      0.096513
  C       2.602342      0.050358      0.677287
  C       1.842329     -1.095169      0.830877
  H       0.252540      2.068794     -0.776397
  C       2.809051      2.361966     -0.054128
  H      -1.106229      0.000651     -0.493391
  N      -0.289283     -2.304669      0.571268
  H       3.637043      0.076512      1.000537
  H       2.264278     -1.988489      1.275595
  N       3.494166      3.291424     -0.171256
  O       4.239966      4.241589     -0.268637
  O       5.499754      1.997499      1.478749
  S       6.431325      3.004854      0.929073
  O       7.173565      2.612835     -0.281082
  O      -1.457735     -2.270599      0.201741
  O       0.247776     -3.278751      1.086295
19
Coordinates from ORCA-job mol E -1152.644638446306
  C      -0.073448      0.035782     -0.169109
  C       0.700426      1.168215     -0.353866
  C       0.504405     -1.080994      0.423941
  C       2.044701      1.169910      0.056842
  C       2.608682      0.027710      0.653118
  C       1.832376     -1.103186      0.835954
  H       0.275320      2.053632     -0.813543
  C       2.845653      2.320003     -0.126015
  H      -1.111864      0.010663     -0.476794
  N      -0.321519     -2.284938      0.623799
  H       3.646974      0.045002      0.965841
  H       2.243900     -1.994996      1.293150
  N       3.499459      3.279062     -0.166769
  O       4.207143      4.260602     -0.173204
  O       5.524440      1.938658      1.415639
  S       6.424576      3.019465      0.961331
  O       7.200921      2.755988     -0.261095
  O      -1.475979     -2.253604      0.214046
  O       0.224004     -3.272533      1.101314
19
Coordinates from ORCA-job mol E -1152.645309285856
  C      -0.071041      0.034165     -0.174037
  C       0.691411      1.177476     -0.336473
  C       0.515084     -1.084715      0.407806
  C       2.032111      1.187708      0.085682
  C       2.604289      0.043899      0.671228
  C       1.839681     -1.097931      0.831852
  H       0.260009      2.064664     -0.786846
  C       2.819365      2.351271     -0.069702
  H      -1.106464      0.003054     -0.491182
  N      -0.297851     -2.300777      0.582576
  H       3.639480      0.067830      0.993301
  H       2.258507     -1.990782      1.280366
  N       3.494593      3.290771     -0.164496
  O       4.233456      4.247169     -0.243145
  O       5.505384      1.983364      1.463238
  S       6.428680      3.009654      0.934982
  O       7.177916      2.649546     -0.280446
  O      -1.464038     -2.265232      0.206740
  O       0.239598     -3.276694      1.093137
19
Coordinates from ORCA-job mol E -1152.645315570355
  C      -0.071112      0.034666     -0.172736
  C       0.690088      1.179347     -0.331117
  C       0.515638     -1.085159      0.406767
  C       2.030162      1.190089      0.093114
  C       2.603142      0.045229      0.675755
  C       1.839797     -1.098018      0.832217
  H       0.258193      2.067114     -0.779874
  C       2.816463      2.354660     -0.059045
  H      -1.106075      0.003518     -0.491431
  N      -0.295936     -2.302591      0.577115
  H       3.638026      0.069067      0.998737
  H       2.259574     -1.991521      1.278560
  N       3.495994      3.289133     -0.170246
  O       4.238479      4.241958     -0.259528
  O       5.503490      1.995449      1.472092
  S       6.428753      3.012691      0.929852
  O       7.175482      2.635440     -0.282041
  O      -1.461964     -2.267295      0.200794
  O       0.241974     -3.279335      1.085594
19
Coordinates from ORCA-job mol E -1152.645318739207
  C      -0.070928      0.035012     -0.171977
  C       0.691052      1.179267     -0.329728
  C       0.514974     -1.085726      0.406586
  C       2.031298      1.188667      0.094088
  C       2.603421      0.042971      0.675796
  C       1.839224     -1.099862      0.831585
  H       0.259657      2.067652     -0.777730
  C       2.818638      2.352502     -0.057580
  H      -1.105988      0.005098     -0.490474
  N      -0.297628     -2.302588      0.576398
  H       3.638385      0.065595      0.998645
  H       2.258609     -1.993923      1.277171
  N       3.496700      3.287697     -0.171656
  O       4.239852      4.239691     -0.264067
  O       5.504157      2.001342      1.474965
  S       6.427561      3.018383      0.929086
  O       7.175220      2.638347     -0.281390
  O      -1.463851     -2.265639      0.200991
  O       0.239818     -3.280049      1.083867
19
Coordinates from ORCA-job mol E -1152.645323985263
  C      -0.070822      0.036210     -0.169324
  C       0.694635      1.178085     -0.327435
  C       0.512073     -1.087339      0.406768
  C       2.035856      1.182379      0.093588
  C       2.604911      0.034105      0.672912
  C       1.837053     -1.106377      0.828962
  H       0.265195      2.068395     -0.773464
  C       2.827245      2.343235     -0.057988
  H      -1.106616      0.010745     -0.485813
  N      -0.304714     -2.301579      0.577043
  H       3.640491      0.052438      0.994215
  H       2.254662     -2.002135      1.272791
  N       3.499639      3.281877     -0.177276
  O       4.241969      4.234367     -0.271749
  O       5.508272      2.015260      1.480436
  S       6.423584      3.037644      0.930546
  O       7.177641      2.657933     -0.276129
  O      -1.471771     -2.259242      0.205146
  O       0.230868     -3.281560      1.081352
19
Coordinates from ORCA-job mol E -1152.645325032402
  C      -0.071255      0.036646     -0.168052
  C       0.695165      1.177721     -0.327185
  C       0.511260     -1.087561      0.407106
  C       2.036988      1.180557      0.091897
  C       2.605573      0.031685      0.670523
  C       1.836737     -1.108001      0.827570
  H       0.266044      2.068499     -0.772606
  C       2.829522      2.340523     -0.060463
  H      -1.107528      0.012137     -0.483074
  N      -0.306652     -2.301123      0.578256
  H       3.641571      0.049063      0.990552
  H       2.253872     -2.004271      1.270833
  N       3.500633      3.280101     -0.179757
  O       4.242839      4.232793     -0.273346
  O       5.509272      2.017664      1.482283
  S       6.422137      3.042661      0.933040
  O       7.179332      2.664575     -0.272156
  O      -1.474153     -2.257352      0.208069
  O       0.228811     -3.281877      1.081091
