-------------------------------------------------------------
----------------------- !PROPERTIES! ------------------------
-------------------------------------------------------------
# -----------------------------------------------------------
$ PAL_Flags
   description: The PAL Flags
   geom. index: 1
   prop. index: 1
        Diskflag:     2
# -----------------------------------------------------------
$ SCF_Energy
   description: The SCF energy
   geom. index: 1
   prop. index: 1
        SCF Energy:    -1407.7210311191
# -----------------------------------------------------------
$ DFT_Energy
   description: The DFT energy
   geom. index: 1
   prop. index: 1
   Number of Alpha Electrons                 54.9999727290 
   Number of Beta  Electrons                 54.9999727290 
   Total number of  Electrons               109.9999454580 
   Exchange energy                         -121.7535994289 
   Correlation energy                        -3.8631189665 
   Correlation energy NL                      0.0000000000 
   Exchange-Correlation energy             -125.6167183954 
   Embedding correction                       0.0000000000 
   Total DFT Energy (No VdW correction)   -1407.7210311191 
# -----------------------------------------------------------
$ VdW_Correction
   description: The Van der Waals Correction
   geom. index: 1
   prop. index: 1
        Van der Waals Correction:       -0.0074494696
# -----------------------------------------------------------
$ PAL_Flags
   description: The PAL Flags
   geom. index: 2
   prop. index: 1
        Diskflag:     2
# -----------------------------------------------------------
$ SCF_Energy
   description: The SCF energy
   geom. index: 2
   prop. index: 1
        SCF Energy:    -1407.7484460954
# -----------------------------------------------------------
$ DFT_Energy
   description: The DFT energy
   geom. index: 2
   prop. index: 1
   Number of Alpha Electrons                 54.9999746471 
   Number of Beta  Electrons                 54.9999746471 
   Total number of  Electrons               109.9999492943 
   Exchange energy                         -121.8240408768 
   Correlation energy                        -3.8678380313 
   Correlation energy NL                      0.0000000000 
   Exchange-Correlation energy             -125.6918789081 
   Embedding correction                       0.0000000000 
   Total DFT Energy (No VdW correction)   -1407.7484460954 
# -----------------------------------------------------------
$ VdW_Correction
   description: The Van der Waals Correction
   geom. index: 2
   prop. index: 1
        Van der Waals Correction:       -0.0075032445
# -----------------------------------------------------------
$ PAL_Flags
   description: The PAL Flags
   geom. index: 3
   prop. index: 1
        Diskflag:     2
# -----------------------------------------------------------
$ SCF_Energy
   description: The SCF energy
   geom. index: 3
   prop. index: 1
        SCF Energy:    -1407.7620873368
# -----------------------------------------------------------
$ DFT_Energy
   description: The DFT energy
   geom. index: 3
   prop. index: 1
   Number of Alpha Electrons                 54.9999737101 
   Number of Beta  Electrons                 54.9999737101 
   Total number of  Electrons               109.9999474202 
   Exchange energy                         -121.8943210456 
   Correlation energy                        -3.8729459468 
   Correlation energy NL                      0.0000000000 
   Exchange-Correlation energy             -125.7672669924 
   Embedding correction                       0.0000000000 
   Total DFT Energy (No VdW correction)   -1407.7620873368 
# -----------------------------------------------------------
$ VdW_Correction
   description: The Van der Waals Correction
   geom. index: 3
   prop. index: 1
        Van der Waals Correction:       -0.0075559447
# -----------------------------------------------------------
$ PAL_Flags
   description: The PAL Flags
   geom. index: 4
   prop. index: 1
        Diskflag:     2
# -----------------------------------------------------------
$ SCF_Energy
   description: The SCF energy
   geom. index: 4
   prop. index: 1
        SCF Energy:    -1407.7629360265
# -----------------------------------------------------------
$ DFT_Energy
   description: The DFT energy
   geom. index: 4
   prop. index: 1
   Number of Alpha Electrons                 54.9999741530 
   Number of Beta  Electrons                 54.9999741530 
   Total number of  Electrons               109.9999483060 
   Exchange energy                         -121.9146212394 
   Correlation energy                        -3.8754519082 
   Correlation energy NL                      0.0000000000 
   Exchange-Correlation energy             -125.7900731476 
   Embedding correction                       0.0000000000 
   Total DFT Energy (No VdW correction)   -1407.7629360265 
# -----------------------------------------------------------
$ VdW_Correction
   description: The Van der Waals Correction
   geom. index: 4
   prop. index: 1
        Van der Waals Correction:       -0.0075781309
# -----------------------------------------------------------
$ PAL_Flags
   description: The PAL Flags
   geom. index: 5
   prop. index: 1
        Diskflag:     2
# -----------------------------------------------------------
$ SCF_Energy
   description: The SCF energy
   geom. index: 5
   prop. index: 1
        SCF Energy:    -1407.7633558030
# -----------------------------------------------------------
$ DFT_Energy
   description: The DFT energy
   geom. index: 5
   prop. index: 1
   Number of Alpha Electrons                 54.9999734912 
   Number of Beta  Electrons                 54.9999734912 
   Total number of  Electrons               109.9999469823 
   Exchange energy                         -121.9029589518 
   Correlation energy                        -3.8742124576 
   Correlation energy NL                      0.0000000000 
   Exchange-Correlation energy             -125.7771714093 
   Embedding correction                       0.0000000000 
   Total DFT Energy (No VdW correction)   -1407.7633558030 
# -----------------------------------------------------------
$ VdW_Correction
   description: The Van der Waals Correction
   geom. index: 5
   prop. index: 1
        Van der Waals Correction:       -0.0075660725
# -----------------------------------------------------------
$ PAL_Flags
   description: The PAL Flags
   geom. index: 6
   prop. index: 1
        Diskflag:     2
# -----------------------------------------------------------
$ SCF_Energy
   description: The SCF energy
   geom. index: 6
   prop. index: 1
        SCF Energy:    -1407.7633916271
# -----------------------------------------------------------
$ DFT_Energy
   description: The DFT energy
   geom. index: 6
   prop. index: 1
   Number of Alpha Electrons                 54.9999732500 
   Number of Beta  Electrons                 54.9999732500 
   Total number of  Electrons               109.9999464999 
   Exchange energy                         -121.9019364320 
   Correlation energy                        -3.8742051206 
   Correlation energy NL                      0.0000000000 
   Exchange-Correlation energy             -125.7761415526 
   Embedding correction                       0.0000000000 
   Total DFT Energy (No VdW correction)   -1407.7633916271 
# -----------------------------------------------------------
$ VdW_Correction
   description: The Van der Waals Correction
   geom. index: 6
   prop. index: 1
        Van der Waals Correction:       -0.0075657582
# -----------------------------------------------------------
$ PAL_Flags
   description: The PAL Flags
   geom. index: 7
   prop. index: 1
        Diskflag:     2
# -----------------------------------------------------------
$ SCF_Energy
   description: The SCF energy
   geom. index: 7
   prop. index: 1
        SCF Energy:    -1407.7634038083
# -----------------------------------------------------------
$ DFT_Energy
   description: The DFT energy
   geom. index: 7
   prop. index: 1
   Number of Alpha Electrons                 54.9999731502 
   Number of Beta  Electrons                 54.9999731502 
   Total number of  Electrons               109.9999463005 
   Exchange energy                         -121.9022909255 
   Correlation energy                        -3.8742603893 
   Correlation energy NL                      0.0000000000 
   Exchange-Correlation energy             -125.7765513148 
   Embedding correction                       0.0000000000 
   Total DFT Energy (No VdW correction)   -1407.7634038083 
# -----------------------------------------------------------
$ VdW_Correction
   description: The Van der Waals Correction
   geom. index: 7
   prop. index: 1
        Van der Waals Correction:       -0.0075660572
# -----------------------------------------------------------
$ PAL_Flags
   description: The PAL Flags
   geom. index: 8
   prop. index: 1
        Diskflag:     2
# -----------------------------------------------------------
$ SCF_Energy
   description: The SCF energy
   geom. index: 8
   prop. index: 1
        SCF Energy:    -1407.7634042226
# -----------------------------------------------------------
$ DFT_Energy
   description: The DFT energy
   geom. index: 8
   prop. index: 1
   Number of Alpha Electrons                 54.9999731669 
   Number of Beta  Electrons                 54.9999731669 
   Total number of  Electrons               109.9999463338 
   Exchange energy                         -121.9022514496 
   Correlation energy                        -3.8742608702 
   Correlation energy NL                      0.0000000000 
   Exchange-Correlation energy             -125.7765123198 
   Embedding correction                       0.0000000000 
   Total DFT Energy (No VdW correction)   -1407.7634042226 
# -----------------------------------------------------------
$ VdW_Correction
   description: The Van der Waals Correction
   geom. index: 8
   prop. index: 1
        Van der Waals Correction:       -0.0075661444
# -----------------------------------------------------------
$ SCF_Electric_Properties
   description: The SCF Calculated Electric Properties
   geom. index: 8
   prop. index: 1
       Filename                          : mol.scfp 
       Do Dipole Moment Calculation      : true 
       Do Quadrupole Moment Calculation  : false 
       Do Polarizability Calculation     : false 
** Dipole moment part of electric properties **
        Magnitude of dipole moment (Debye) :        3.2546089168
        Electronic Contribution:
                  0    
      0       0.289366
      1       5.754528
      2      -1.915096
        Nuclear Contribution:
                  0    
      0      -0.295745
      1      -6.575577
      2       2.897620
        Total Dipole moment:
                  0    
      0      -0.006379
      1      -0.821049
      2       0.982524
# -----------------------------------------------------------
$ PAL_Flags
   description: The PAL Flags
   geom. index: 9
   prop. index: 1
        Diskflag:     2
# -----------------------------------------------------------
$ SCF_Energy
   description: The SCF energy
   geom. index: 9
   prop. index: 1
        SCF Energy:    -1407.7634042175
# -----------------------------------------------------------
$ DFT_Energy
   description: The DFT energy
   geom. index: 9
   prop. index: 1
   Number of Alpha Electrons                 54.9999731670 
   Number of Beta  Electrons                 54.9999731670 
   Total number of  Electrons               109.9999463339 
   Exchange energy                         -121.9022507069 
   Correlation energy                        -3.8742609925 
   Correlation energy NL                      0.0000000000 
   Exchange-Correlation energy             -125.7765116993 
   Embedding correction                       0.0000000000 
   Total DFT Energy (No VdW correction)   -1407.7634042175 
# -----------------------------------------------------------
$ VdW_Correction
   description: The Van der Waals Correction
   geom. index: 9
   prop. index: 1
        Van der Waals Correction:       -0.0075661444
# -----------------------------------------------------------
$ THERMOCHEMISTRY_Energies
   description: The Thermochemistry energies
   geom. index: 9
   prop. index: 1
        Temperature (Kelvin)           :        298.1500000000
        Pressure (atm)                 :          1.0000000000
        Total Mass (AMU)               :        216.9600418485
        Spin Degeneracy                :          1.0000000000
        Electronic Energy (Hartree)    :      -1407.7507485145
        Translational Energy (Hartree) :          0.0014162714
        Rotational Energy (Hartree)    :          0.0014162714
        Vibrational Energy (Hartree)   :          0.0081862836
        Number of frequencies          :     51      
        Scaling Factor for frequencies :          1.0000000000
        Vibrational frequencies        :     
                  0    
      0       0.000000
      1       0.000000
      2       0.000000
      3       0.000000
      4       0.000000
      5       0.000000
      6      24.145867
      7      73.801987
      8     109.654501
      9     145.171672
     10     189.297863
     11     237.082738
     12     271.079330
     13     296.766787
     14     335.402725
     15     408.502385
     16     424.999718
     17     432.659053
     18     446.517558
     19     485.799892
     20     525.756212
     21     639.942082
     22     656.959065
     23     674.054230
     24     681.385524
     25     695.267172
     26     781.356566
     27     792.095434
     28     896.817504
     29     901.978675
     30     915.033803
     31     943.641250
     32     980.496046
     33     1021.219469
     34     1093.160294
     35     1103.509129
     36     1122.519548
     37     1199.579862
     38     1232.987026
     39     1305.566994
     40     1331.411843
     41     1357.911214
     42     1455.674295
     43     1502.538126
     44     1594.575134
     45     1627.547006
     46     1631.500474
     47     3182.634603
     48     3201.525633
     49     3209.016875
     50     3210.945846
        Zero Point Energy (Hartree)    :          0.1033137379
        Inner Energy (Hartree)         :      -1407.6364159502
        Enthalpy (Hartree)             :      -1407.6354717412
        Electronic entropy             :          0.0000000000
        Rotational entropy             :          0.0153100857
        Vibrational entropy            :          0.0141345884
        Translational entropy          :          0.0153100857
        Entropy                        :          0.0494128794
        Gibbs Energy (Hartree)         :      -1407.6848846206
        Is Linear                      :                 false
# -------------------------------------------------------------
----------------------- !GEOMETRIES! ------------------------
# -------------------------------------------------------------
------------------------ !GEOMETRY! -------------------------
    Number of atoms:    17 
    Geometry Index:     1 
    Coordinates:
               0 C      0.091690000000    0.110630000000   -0.099620000000
               1 C      1.083240000000    1.066760000000   -0.233990000000
               2 C      0.410550000000   -1.128250000000    0.453100000000
               3 C      2.393590000000    0.787340000000    0.176790000000
               4 C      2.694930000000   -0.461350000000    0.728520000000
               5 C      1.703260000000   -1.422640000000    0.868950000000
               6 H      0.849430000000    2.037070000000   -0.659210000000
               7 C      3.432840000000    1.799020000000    0.032270000000
               8 Cl    -1.787730000000    0.644570000000   -0.666540000000
               9 H     -0.471490000000   -2.053210000000    0.567330000000
              10 H      3.707660000000   -0.684770000000    1.045230000000
              11 H      1.931490000000   -2.393130000000    1.295330000000
              12 N      3.271980000000    2.919130000000   -0.575960000000
              13 O      4.459750000000    3.662230000000   -0.499480000000
              14 O      4.657050000000    1.535700000000    0.588860000000
              15 S      5.804320000000    2.682250000000   -0.009730000000
              16 O      6.430210000000    2.097880000000   -1.198030000000
------------------------ !GEOMETRY! -------------------------
    Number of atoms:    17 
    Geometry Index:     2 
    Coordinates:
               0 C      0.101910335195    0.105570872673   -0.094855726836
               1 C      1.076310493878    1.069881483244   -0.235814898212
               2 C      0.393576359383   -1.131253814806    0.449866196741
               3 C      2.384782421574    0.784859140588    0.176132814304
               4 C      2.683852325917   -0.465088449271    0.727514802114
               5 C      1.686234044311   -1.423727494787    0.864666194454
               6 H      0.838427381174    2.039417128692   -0.661229394797
               7 C      3.424250779247    1.796706887083    0.031771532463
               8 Cl    -1.684666230510    0.591560039123   -0.630567103923
               9 H     -0.425979357190   -1.961657147950    0.547177146464
              10 H      3.696272694241   -0.690178953283    1.044837126264
              11 H      1.910770015362   -2.395102247850    1.289851901975
              12 N      3.263356813811    2.916375787004   -0.576089768966
              13 O      4.450552934619    3.658469875585   -0.499854127929
              14 O      4.647234309079    1.531728553227    0.588594737501
              15 S      5.795404381437    2.678068203769   -0.009934521672
              16 O      6.420480298471    2.093600136960   -1.198246909944
------------------------ !GEOMETRY! -------------------------
    Number of atoms:    17 
    Geometry Index:     3 
    Coordinates:
               0 C      0.103133308406    0.105940787085   -0.092945813575
               1 C      1.068163861451    1.078478441254   -0.239143560061
               2 C      0.372350490182   -1.136450674473    0.446702226460
               3 C      2.374891235601    0.785114667575    0.174377770258
               4 C      2.672322301279   -0.465646385902    0.724921788846
               5 C      1.670195842132   -1.420861201583    0.858781869881
               6 H      0.829544229780    2.047021585591   -0.663593851140
               7 C      3.417219086369    1.795541056084    0.031201222878
               8 Cl    -1.576653676316    0.525769078095   -0.589737386263
               9 H     -0.397225567002   -1.890415985238    0.531310411076
              10 H      3.684473431483   -0.691245819134    1.042005831105
              11 H      1.895665646171   -2.392875475200    1.283362868307
              12 N      3.258655109732    2.915681944237   -0.575813588133
              13 O      4.446499496505    3.655538868586   -0.499351530289
              14 O      4.639102102401    1.527528647578    0.588312981189
              15 S      5.790114929960    2.672445709489   -0.009078773254
              16 O      6.414318171866    2.087664755957   -1.197492467283
------------------------ !GEOMETRY! -------------------------
    Number of atoms:    17 
    Geometry Index:     4 
    Coordinates:
               0 C      0.095748833331    0.114292395496   -0.088455616011
               1 C      1.064755804411    1.087681338879   -0.234912089217
               2 C      0.363879121585   -1.136392855238    0.445714625873
               3 C      2.371119506497    0.787886974047    0.175427141130
               4 C      2.668964595702   -0.463436964872    0.723169468402
               5 C      1.665216278280   -1.416229672458    0.852828491495
               6 H      0.828370098511    2.057079729329   -0.657430755769
               7 C      3.415985302251    1.796610249746    0.031661679692
               8 Cl    -1.514432813492    0.482769910542   -0.586976840311
               9 H     -0.421161020898   -1.886973602070    0.538056249611
              10 H      3.681382075312   -0.689529781267    1.038263848241
              11 H      1.893362775525   -2.389560082000    1.274580427511
              12 N      3.258495090408    2.917399121320   -0.574449443697
              13 O      4.447646966316    3.655176168202   -0.501091692515
              14 O      4.638394468956    1.526365761479    0.586771696145
              15 S      5.790515277130    2.670500039895   -0.010416504837
              16 O      6.414527640177    2.085591268971   -1.198920685745
------------------------ !GEOMETRY! -------------------------
    Number of atoms:    17 
    Geometry Index:     5 
    Coordinates:
               0 C      0.091325560998    0.115106326650   -0.089022826136
               1 C      1.065881146441    1.086508468880   -0.233164415864
               2 C      0.366722735501   -1.137098212095    0.447187036332
               3 C      2.372348835171    0.786571618363    0.176228040480
               4 C      2.671801407586   -0.464726577659    0.722421859996
               5 C      1.668074340153   -1.416666527674    0.852783303433
               6 H      0.830709206621    2.056880977064   -0.654143378709
               7 C      3.417130126549    1.795655294985    0.032452460416
               8 Cl    -1.545126526212    0.484320752816   -0.600542217995
               9 H     -0.413864088963   -1.880327144481    0.544423097036
              10 H      3.684566864938   -0.690569972038    1.036214667918
              11 H      1.897402878371   -2.390106851952    1.274211967361
              12 N      3.259358483867    2.916333428128   -0.573921918241
              13 O      4.448370897580    3.654569541525   -0.501154834689
              14 O      4.639930878086    1.526101038136    0.587361064538
              15 S      5.791584959894    2.670652232013   -0.009642294826
              16 O      6.416552293420    2.086025607339   -1.197871611050
------------------------ !GEOMETRY! -------------------------
    Number of atoms:    17 
    Geometry Index:     6 
    Coordinates:
               0 C      0.089411757125    0.116016373376   -0.091275839558
               1 C      1.066652375547    1.085873179081   -0.233474668948
               2 C      0.367451781549   -1.136623078064    0.447766432599
               3 C      2.372623334518    0.785744376866    0.175865385628
               4 C      2.673216452950   -0.465760549487    0.720583635265
               5 C      1.668341685962   -1.415975649392    0.852260700001
               6 H      0.831876785186    2.057270360651   -0.652802273440
               7 C      3.417122226397    1.795509192219    0.032546610629
               8 Cl    -1.546530443404    0.481062310392   -0.601108339232
               9 H     -0.417570635930   -1.877689092907    0.548802060485
              10 H      3.686272852396   -0.691731628435    1.033082519545
              11 H      1.897899347479   -2.389481560023    1.273742245645
              12 N      3.259468430753    2.915714530930   -0.574737799434
              13 O      4.448028889198    3.654539885615   -0.501459472211
              14 O      4.639714796208    1.526965693253    0.588524989759
              15 S      5.791425271421    2.671333498268   -0.008422375209
              16 O      6.417365092645    2.086462157655   -1.196073811524
------------------------ !GEOMETRY! -------------------------
    Number of atoms:    17 
    Geometry Index:     7 
    Coordinates:
               0 C      0.087599495067    0.117103210956   -0.091835912860
               1 C      1.067019283774    1.085148924866   -0.232910576167
               2 C      0.368275036083   -1.136181161445    0.448471633537
               3 C      2.372765650795    0.784855143604    0.175516142732
               4 C      2.674472005424   -0.466654897914    0.719419806608
               5 C      1.668467341661   -1.415718831259    0.851614926694
               6 H      0.832427151155    2.057261999759   -0.651155421907
               7 C      3.416839521534    1.795306219478    0.031896988004
               8 Cl    -1.547182194710    0.478778688605   -0.600221335510
               9 H     -0.419492666095   -1.874116906835    0.550472694221
              10 H      3.687900639116   -0.692743250251    1.030350560295
              11 H      1.898228165315   -2.389532114801    1.272525621653
              12 N      3.259531497927    2.914514329228   -0.577303803742
              13 O      4.447446572010    3.654179445194   -0.503451278774
              14 O      4.638832343417    1.528457033295    0.590123563177
              15 S      5.790787483684    2.672289389366   -0.006838745861
              16 O      6.418852673842    2.086282778152   -1.192854862098
------------------------ !GEOMETRY! -------------------------
    Number of atoms:    17 
    Geometry Index:     8 
    Coordinates:
               0 C      0.087610078172    0.117146770490   -0.091390415097
               1 C      1.066874500038    1.085030729488   -0.232522869665
               2 C      0.368619529243   -1.136183072180    0.448515646079
               3 C      2.372775757881    0.784851797618    0.175434586801
               4 C      2.674721232706   -0.466659489234    0.719238310001
               5 C      1.668625618350   -1.415914633968    0.851358088673
               6 H      0.832079590845    2.057177157819   -0.650661589992
               7 C      3.416623931149    1.795476053518    0.031519202672
               8 Cl    -1.547428584113    0.479525114694   -0.598960113921
               9 H     -0.419751516530   -1.874253969299    0.549691504100
              10 H      3.688241606178   -0.692672364425    1.029908206086
              11 H      1.898441118888   -2.389787357159    1.272062597832
              12 N      3.259663180128    2.914022967203   -0.578935271290
              13 O      4.447369879744    3.653929528624   -0.504861076501
              14 O      4.638267704269    1.529323555477    0.590923346113
              15 S      5.790507399347    2.672614444790   -0.006242160621
              16 O      6.419528973707    2.085602766545   -1.191257991268
------------------------ !GEOMETRY! -------------------------
    Number of atoms:    17 
    Geometry Index:     9 
    Coordinates:
               0 C      0.087610078172    0.117146770490   -0.091390415097
               1 C      1.066874500038    1.085030729488   -0.232522869665
               2 C      0.368619529243   -1.136183072180    0.448515646079
               3 C      2.372775757881    0.784851797618    0.175434586801
               4 C      2.674721232706   -0.466659489234    0.719238310001
               5 C      1.668625618350   -1.415914633968    0.851358088673
               6 H      0.832079590845    2.057177157819   -0.650661589992
               7 C      3.416623931149    1.795476053518    0.031519202672
               8 Cl    -1.547428584113    0.479525114694   -0.598960113921
               9 H     -0.419751516530   -1.874253969299    0.549691504100
              10 H      3.688241606178   -0.692672364425    1.029908206086
              11 H      1.898441118888   -2.389787357159    1.272062597832
              12 N      3.259663180128    2.914022967203   -0.578935271290
              13 O      4.447369879744    3.653929528624   -0.504861076501
              14 O      4.638267704269    1.529323555477    0.590923346113
              15 S      5.790507399347    2.672614444790   -0.006242160621
              16 O      6.419528973707    2.085602766545   -1.191257991268
